HTTrack3.49-2 launched on Sat, 26 Feb 2022 11:50:50 at http://localhost/HarvestLinks93.html +*.css +*.js -ad.doubleclick.net/* -mime:application/foobar +*.gif +*.jpg +*.jpeg +*.png +*.tif +*.tiff +*.bmp +*.pcx +*.ddf +*.zip +*.tar +*.tgz +*.gz +*.rar +*.z +*.exe +*.7z +*.ace +*.RAR +*.bz2 +*.lzh +*.sit +*.mov +*.mpg +*.mpeg +*.avi +*.asf +*.divx +*.mp4 +*.mp3 +*.mp2 +*.rm +*.wav +*.vob +*.qt +*.vid +*.ac3 +*.wma +*.wmv +*.ogg +*.flac +*.asm +*.bin +*.smd +.gen +.md +*.h +*.cpp +*.c +*.hpp +*.inc +*.iso +*.cue +*.pdf +*.imageshack.us/* +https://manualespurdy.cisdigital.com/*
(E:\ToyotaManuals\httrack.exe http://localhost/HarvestLinks93.html -%N0 -C0 -O E:\ToyotaManuals\Apache24\htdocs,E:\ToyotaManuals\Apache24\htdocs\Cache\Cache93 -c32 -#L0 -%! -A0 -%c0 -r2000000000 -s0 -%k -n -R8 -%v -q -F "Mozilla /5.0 (Windows NT 6.3; WOW64) AppleWebKit/537.36 (KHTML, like Gecko) Chrome/33.0.1750.117 Safari/537.36" +*.css +*.js -ad.doubleclick.net/* -mime:application/foobar +*.gif +*.jpg +*.jpeg +*.png +*.tif +*.tiff +*.bmp +*.pcx +*.ddf +*.zip +*.tar +*.tgz +*.gz +*.rar +*.z +*.exe +*.7z +*.ace +*.RAR +*.bz2 +*.lzh +*.sit +*.mov +*.mpg +*.mpeg +*.avi +*.asf +*.divx +*.mp4 +*.mp3 +*.mp2 +*.rm +*.wav +*.vob +*.qt +*.vid +*.ac3 +*.wma +*.wmv +*.ogg +*.flac +*.asm +*.bin +*.smd +.gen +.md +*.h +*.cpp +*.c +*.hpp +*.inc +*.iso +*.cue +*.pdf +*.imageshack.us/* +https://manualespurdy.cisdigital.com/* )

Information, Warnings and Errors reported for this mirror:
note:	the hts-log.txt file, and hts-cache folder, may contain sensitive information,
	such as username/password authentication for websites mirrored in this project
	do not share these files/folders if you want these information to remain private

11:50:50	Warning: 	* security warning: !!! BYPASSING SECURITY LIMITS - MONITOR THIS SESSION WITH EXTREME CARE !!!
11:50:50	Warning: 	HTML file (4476020 bytes) retransferred due to lack of cache: localhost/HarvestLinks93.html
11:50:50	Warning: 	HTML file (1661 bytes) retransferred due to lack of cache: https://manualespurdy.cisdigital.com/Toyota/4RunnerSep2014/rm2640u/MANUAL.HTM/rm2640u/index2.html
11:50:52	Warning: 	Warning: store text/css without scan: E:/ToyotaManuals/Apache24/htdocs/manualespurdy.cisdigital.com/Toyota/4RunnerSep2014/rm2640u/MANUAL.HTM/rm2640u/repair2/css/frame.css

HTTrack Website Copier/3.49-2 mirror complete in 2 seconds : 8 links scanned, 3 files written (2278 bytes overall) [2687 bytes received at 1343 bytes/sec]
(No errors, 4 warnings, 0 messages)
