﻿<?xml version="1.0" encoding="utf-8"?>
<!DOCTYPE svg PUBLIC "-//W3C//DTD SVG 1.0//EN" "http://www.w3.org/TR/2001/REC-SVG-20010904/DTD/svg10.dtd"[
	<!ENTITY ns_flows "http://ns.adobe.com/Flows/1.0/">
	<!ENTITY ns_svg "http://www.w3.org/2000/svg">
	<!ENTITY ns_xlink "http://www.w3.org/1999/xlink">
	<!ENTITY st0 "font-size:7px;font-family:'MS-PGothic';adobe-font-script:japanese;">
	<!ENTITY st1 "font-size:6px;font-family:'ArialMT';">
	<!-- White fill  -->
	<!ENTITY st2 "fill:#FFFFFF;stroke:#000000; stroke-width:1.41;stroke-linecap:round;stroke-linejoin:round;">
	<!-- Yellow fill  -->
	<!ENTITY st3 "fill:#FFFFCC;stroke:#FFFFCC; stroke-width:0.1;stroke-linecap:round;stroke-linejoin:round;">
	<!-- Gray fill  -->
	<!ENTITY st4 "fill:#CCCCCC;stroke:#CCCCCC; stroke-width:0.1;stroke-linecap:round;stroke-linejoin:round;">
	<!-- Light-blue fill -->
	<!ENTITY st5 "fill:#CCECF4;stroke:#000000; stroke-width:1.133;stroke-linecap:round;stroke-linejoin:round;">
	<!ENTITY st6 "fill:none;stroke-linecap:butt; stroke-linejoin:round;">
	<!ENTITY st7 "fill:none;stroke:#000000;stroke-linecap:round;stroke-linejoin:round;">
	<!ENTITY st8 "enable-background:new    ;">
	<!-- Black fill -->
	<!ENTITY st9 "fill:#000000;stroke:#000000; stroke-linecap:round;stroke-linejoin:round;">
	<!-- SRS note   -->
	<!ENTITY st10 "font-size:9px;font-family:'ArialMT';">
	<!ENTITY st11 "font-size:9px;font-family:'Svg Symbol';">
	<!ENTITY st12 "font-size:6px;font-family:'Svg Symbol';">
	<!ENTITY st13 "fill:none;stroke:#ff0000;stroke-linecap:round;stroke-linejoin:round;">
	<!-- Yellow fill  -->
	<!ENTITY st14 "fill:#FFFF00;stroke:#FFFF00; stroke-width:0.1;stroke-linecap:round;stroke-linejoin:round;">
	<!ENTITY st15 "font-size:6px;font-family:'MS-PGothic';adobe-font-script:japanese;">
	<!ENTITY st16 "1.00 0.00 0.00 1.00">
	<!ENTITY st17 "0.00 -1.00 1.00 0.00">
	<!ENTITY st18 "font-size:6px;font-family:'Arial';">
	<!ENTITY st19 "font-size:9px;font-family:'Arial';">
	<!ENTITY st20 "font-size:6px;font-family:'MS-PGothic','MS PGothic';adobe-font-script:japanese;">
	<!ENTITY st21 "font-size:7px;font-family:'MS-PGothic','MS PGothic';adobe-font-script:japanese;">
	<!ATTLIST svg
		xmlns:ewd CDATA #FIXED "http://shcl.co.jp/ewd"
		xmlns:a CDATA #FIXED "http://ns.adobe.com/AdobeSVGViewerExtensions/3.0/"
		ewd:ver CDATA #IMPLIED
	>
	<!ATTLIST a
		ewd:lineID CDATA #IMPLIED
		ewd:groupID CDATA #IMPLIED
		ewd:figtype CDATA #IMPLIED
		ewd:code CDATA #IMPLIED
		ewd:figID CDATA #IMPLIED
		ewd:pinNo CDATA #IMPLIED
		ewd:comment CDATA #IMPLIED >
	<!ATTLIST g
		ewd:lineID CDATA #IMPLIED
		ewd:groupID CDATA #IMPLIED
		ewd:figtype CDATA #IMPLIED
		ewd:code CDATA #IMPLIED
		ewd:figID CDATA #IMPLIED
		ewd:pinNo CDATA #IMPLIED
		ewd:comment CDATA #IMPLIED >
	<!ATTLIST text
		ewd:textID CDATA #IMPLIED >
	<!ATTLIST title
		ewd:textID CDATA #IMPLIED >
]>
<!-- Generator: Shintec Hozumi YS   -->
<svg onload="call_execInitLoadProc_svg('system')" style="overflow:visible;  enable-background:new 0 0 7216.003 710.000" viewBox="0 0 7216.003 710.000" height="710.000" width="7216.003" xml:space="preserve" ewd:ver="L2.1.2.7" xmlns="&ns_svg;" xmlns:a="http://ns.adobe.com/AdobeSVGViewerExtensions/3.0/" xmlns:ewd="http://shcl.co.jp/ewd" xmlns:xlink="&ns_xlink;">
<path d=" M 6675.63,  307.73  L 6667.14,  307.73 " style="stroke-width: 0.85 ;&st7; " /><path d=" M 6543.91,   69.77  L 6543.91,   95.27 " style="stroke-width: 0.85 ;&st7; " /><path d=" M 6546.03,   95.27  L 6541.78,   95.27 " style="stroke-width: 1.42 ;&st7; " /><path d=" M 6546.03,  103.77  L 6541.78,  103.77 " style="stroke-width: 1.42 ;&st7; " /><path d=" M 6837.11,  307.73  L 6828.61,  307.73 " style="stroke-width: 0.85 ;&st7; " /><path d=" M 6845.59,  298.07  L 6838.23,  302.32 " style="stroke-width: 0.85 ;&st7; " /><path d=" M 6840.24,  305.79  L 6847.59,  301.54 " style="stroke-width: 0.85 ;&st7; " /><path d=" M 6882.73,  305.79  L 6890.09,  301.54 " style="stroke-width: 0.85 ;&st7; " /><path d=" M 6888.08,  298.07  L 6880.72,  302.32 " style="stroke-width: 0.85 ;&st7; " /><path d=" M 6879.60,  307.73  L 6871.10,  307.73 " style="stroke-width: 0.85 ;&st7; " /><path d=" M 7007.08,  307.73  L 6998.58,  307.73 " style="stroke-width: 0.85 ;&st7; " /><path d=" M 6964.59,  307.73  L 6956.09,  307.73 " style="stroke-width: 0.85 ;&st7; " /><path d=" M 6973.07,  298.07  L 6965.71,  302.32 " style="stroke-width: 0.85 ;&st7; " /><path d=" M 6967.71,  305.79  L 6975.07,  301.54 " style="stroke-width: 0.85 ;&st7; " /><path d=" M 6925.22,  305.79  L 6932.58,  301.54 " style="stroke-width: 0.85 ;&st7; " /><path d=" M 6930.57,  298.07  L 6923.22,  302.32 " style="stroke-width: 0.85 ;&st7; " /><path d=" M 6922.09,  307.73  L 6913.59,  307.73 " style="stroke-width: 0.85 ;&st7; " /><path d=" M 6817.99,  511.70  L 6813.74,  511.70 " style="stroke-width: 1.42 ;&st7; " /><path d=" M 6817.99,  520.20  L 6813.74,  520.20 " style="stroke-width: 1.42 ;&st7; " /><path d=" M 6817.99,  554.19  L 6813.74,  554.19 " style="stroke-width: 1.42 ;&st7; " /><path d=" M 6817.99,  562.69  L 6813.74,  562.69 " style="stroke-width: 1.42 ;&st7; " /><path d=" M 6803.10,  298.07  L 6795.74,  302.32 " style="stroke-width: 0.85 ;&st7; " /><path d=" M 6548.16,  299.24  L 6539.66,  299.24 " style="stroke-width: 0.85 ;&st7; " /><path d=" M 6678.76,  305.79  L 6686.12,  301.54 " style="stroke-width: 0.85 ;&st7; " /><path d=" M 6684.12,  298.07  L 6676.76,  302.32 " style="stroke-width: 0.85 ;&st7; " /><path d=" M 6797.74,  305.79  L 6805.10,  301.54 " style="stroke-width: 0.85 ;&st7; " /><path d=" M 6794.61,  307.73  L 6786.12,  307.73 " style="stroke-width: 0.85 ;&st7; " /><path d=" M 6556.65,   78.27  L 6556.65,   35.78  L 6531.16,   35.78  L 6531.16,   78.27  L 6556.65,   78.27 " style="stroke-width: 1.42 ;&st7; " /><path d=" M 6543.90,   90.37  L 6541.07,   87.54  L 6541.07,   91.79  L 6543.90,   94.62  L 6546.74,   91.79  L 6546.74,   87.54  L 6543.90,   90.37 " style="stroke-width: 0.28 ;&st9;" /><path d=" M 6543.90,  248.24  L 6543.90,  316.23 " style="stroke-width: 0.85 ;&st7; " /><path d=" M 6501.41,  248.24  L 6501.41,  316.23 " style="stroke-width: 0.85 ;&st7; " /><path d=" M 6543.90,  299.24  L 6538.24,  290.74  L 6549.57,  290.74  L 6543.90,  299.24 " style="stroke-width: 0.28 ;&st9;" /><path d=" M 7087.81,  265.24  L 6586.40,  265.24  L 6586.40,  316.23 " style="stroke-width: 0.85 ;&st7; " /><path d=" M 6790.36,  307.73  L 6784.70,  299.24  L 6796.03,  299.24  L 6790.36,  307.73 " style="stroke-width: 0.28 ;&st9;" /><path d=" M 6803.10,  298.07  L 6800.76,  301.11  L 6799.29,  298.57  L 6803.10,  298.07  L 6801.81,  298.81  L 6800.83,  300.09  L 6800.21,  299.02  L 6801.81,  298.81  L 6801.17,  299.18  L 6800.86,  299.58  L 6800.67,  299.25  L 6801.17,  299.18 " style="stroke-width: 0.85 ;&st7; " /><path d=" M 6686.12,  301.54  L 6683.78,  304.58  L 6682.32,  302.04  L 6686.12,  301.54  L 6684.84,  302.28  L 6683.85,  303.56  L 6683.23,  302.49  L 6684.84,  302.28  L 6684.20,  302.65  L 6683.88,  303.05  L 6683.69,  302.72  L 6684.20,  302.65 " style="stroke-width: 0.85 ;&st7; " /><path d=" M 6671.38,  265.24  L 6671.38,  367.22 " style="stroke-width: 0.85 ;&st7; " /><path d=" M 6790.36,  265.24  L 6790.36,  367.22 " style="stroke-width: 0.85 ;&st7; " /><path d=" M 6805.10,  301.54  L 6802.76,  304.58  L 6801.30,  302.04  L 6805.10,  301.54  L 6803.82,  302.28  L 6802.83,  303.56  L 6802.21,  302.49  L 6803.82,  302.28  L 6803.18,  302.65  L 6802.86,  303.05  L 6802.67,  302.72  L 6803.18,  302.65 " style="stroke-width: 0.85 ;&st7; " /><path d=" M 6670.19,  264.24  L 6669.92,  264.71  L 6669.82,  265.24  L 6669.92,  265.77  L 6670.19,  266.24  L 6670.60,  266.59  L 6671.11,  266.78  L 6671.65,  266.78  L 6672.16,  266.59  L 6672.58,  266.24  L 6672.85,  265.77  L 6672.94,  265.24  L 6672.85,  264.71  L 6672.58,  264.24  L 6672.16,  263.89  L 6671.65,  263.71  L 6671.11,  263.71  L 6670.60,  263.89  L 6670.19,  264.24  L 6670.58,  264.95  L 6670.58,  265.53  L 6670.96,  265.98  L 6671.53,  266.08  L 6672.03,  265.79  L 6672.23,  265.24  L 6672.03,  264.69  L 6671.53,  264.41  L 6670.96,  264.50  L 6671.38,  265.24 " style="stroke-width: 0.85 ;&st7; " /><path d=" M 6671.38,  307.73  L 6665.72,  299.24  L 6677.05,  299.24  L 6671.38,  307.73 " style="stroke-width: 0.28 ;&st9;" /><path d=" M 6832.86,  307.73  L 6827.19,  299.24  L 6838.52,  299.24  L 6832.86,  307.73 " style="stroke-width: 0.28 ;&st9;" /><path d=" M 6845.59,  298.07  L 6843.25,  301.11  L 6841.79,  298.57  L 6845.59,  298.07  L 6844.31,  298.81  L 6843.32,  300.09  L 6842.70,  299.02  L 6844.31,  298.81  L 6843.67,  299.18  L 6843.35,  299.58  L 6843.16,  299.25  L 6843.67,  299.18 " style="stroke-width: 0.85 ;&st7; " /><path d=" M 6847.59,  301.54  L 6845.26,  304.58  L 6843.79,  302.04  L 6847.59,  301.54  L 6846.31,  302.28  L 6845.33,  303.56  L 6844.71,  302.49  L 6846.31,  302.28  L 6845.67,  302.65  L 6845.36,  303.05  L 6845.16,  302.72  L 6845.67,  302.65 " style="stroke-width: 0.85 ;&st7; " /><path d=" M 6684.12,  298.07  L 6681.78,  301.11  L 6680.31,  298.57  L 6684.12,  298.07  L 6682.83,  298.81  L 6681.85,  300.09  L 6681.23,  299.02  L 6682.83,  298.81  L 6682.19,  299.18  L 6681.88,  299.58  L 6681.69,  299.25  L 6682.19,  299.18 " style="stroke-width: 0.85 ;&st7; " /><path d=" M 6832.86,  367.22  L 6832.86,  265.24 " style="stroke-width: 0.85 ;&st7; " /><path d=" M 6831.66,  264.24  L 6831.39,  264.71  L 6831.30,  265.24  L 6831.39,  265.77  L 6831.66,  266.24  L 6832.08,  266.59  L 6832.59,  266.78  L 6833.12,  266.78  L 6833.63,  266.59  L 6834.05,  266.24  L 6834.32,  265.77  L 6834.41,  265.24  L 6834.32,  264.71  L 6834.05,  264.24  L 6833.63,  263.89  L 6833.12,  263.71  L 6832.59,  263.71  L 6832.08,  263.89  L 6831.66,  264.24  L 6832.06,  264.95  L 6832.06,  265.53  L 6832.43,  265.98  L 6833.00,  266.08  L 6833.51,  265.79  L 6833.71,  265.24  L 6833.51,  264.69  L 6833.00,  264.41  L 6832.43,  264.50  L 6832.86,  265.24 " style="stroke-width: 0.85 ;&st7; " /><path d=" M 6789.17,  264.24  L 6788.90,  264.71  L 6788.80,  265.24  L 6788.90,  265.77  L 6789.17,  266.24  L 6789.58,  266.59  L 6790.09,  266.78  L 6790.63,  266.78  L 6791.14,  266.59  L 6791.56,  266.24  L 6791.83,  265.77  L 6791.92,  265.24  L 6791.83,  264.71  L 6791.56,  264.24  L 6791.14,  263.89  L 6790.63,  263.71  L 6790.09,  263.71  L 6789.58,  263.89  L 6789.17,  264.24  L 6789.56,  264.95  L 6789.56,  265.53  L 6789.94,  265.98  L 6790.51,  266.08  L 6791.01,  265.79  L 6791.21,  265.24  L 6791.01,  264.69  L 6790.51,  264.41  L 6789.94,  264.50  L 6790.36,  265.24 " style="stroke-width: 0.85 ;&st7; " /><path d=" M 6501.41,  384.22  L 6501.41,  443.71 " style="stroke-width: 0.85 ;&st7; " /><path d=" M 6888.08,  298.07  L 6885.75,  301.11  L 6884.28,  298.57  L 6888.08,  298.07  L 6886.80,  298.81  L 6885.81,  300.09  L 6885.20,  299.02  L 6886.80,  298.81  L 6886.16,  299.18  L 6885.85,  299.58  L 6885.65,  299.25  L 6886.16,  299.18 " style="stroke-width: 0.85 ;&st7; " /><path d=" M 6501.41,  188.75  L 6501.41,  154.76 " style="stroke-width: 0.85 ;&st7; " /><path d=" M 6890.08,  301.54  L 6887.75,  304.58  L 6886.28,  302.04  L 6890.08,  301.54  L 6888.80,  302.28  L 6887.82,  303.56  L 6887.20,  302.49  L 6888.80,  302.28  L 6888.16,  302.65  L 6887.85,  303.05  L 6887.65,  302.72  L 6888.16,  302.65 " style="stroke-width: 0.85 ;&st7; " /><path d=" M 6875.35,  307.73  L 6869.68,  299.24  L 6881.01,  299.24  L 6875.35,  307.73 " style="stroke-width: 0.28 ;&st9;" /><path d=" M 6874.16,  264.24  L 6873.88,  264.71  L 6873.79,  265.24  L 6873.88,  265.77  L 6874.16,  266.24  L 6874.57,  266.59  L 6875.08,  266.78  L 6875.62,  266.78  L 6876.13,  266.59  L 6876.54,  266.24  L 6876.81,  265.77  L 6876.91,  265.24  L 6876.81,  264.71  L 6876.54,  264.24  L 6876.13,  263.89  L 6875.62,  263.71  L 6875.08,  263.71  L 6874.57,  263.89  L 6874.16,  264.24  L 6874.55,  264.95  L 6874.55,  265.53  L 6874.92,  265.98  L 6875.50,  266.08  L 6876.00,  265.79  L 6876.20,  265.24  L 6876.00,  264.69  L 6875.50,  264.41  L 6874.92,  264.50  L 6875.35,  265.24 " style="stroke-width: 0.85 ;&st7; " /><path d=" M 7002.83,  307.73  L 6997.16,  299.24  L 7008.49,  299.24  L 7002.83,  307.73 " style="stroke-width: 0.28 ;&st9;" /><path d=" M 6960.33,  307.73  L 6954.67,  299.24  L 6966.00,  299.24  L 6960.33,  307.73 " style="stroke-width: 0.28 ;&st9;" /><path d=" M 6973.07,  298.07  L 6970.73,  301.11  L 6969.27,  298.57  L 6973.07,  298.07  L 6971.78,  298.81  L 6970.80,  300.09  L 6970.18,  299.02  L 6971.78,  298.81  L 6971.14,  299.18  L 6970.83,  299.58  L 6970.64,  299.25  L 6971.14,  299.18 " style="stroke-width: 0.85 ;&st7; " /><path d=" M 6975.07,  301.54  L 6972.74,  304.58  L 6971.27,  302.04  L 6975.07,  301.54  L 6973.79,  302.28  L 6972.80,  303.56  L 6972.18,  302.49  L 6973.79,  302.28  L 6973.15,  302.65  L 6972.84,  303.05  L 6972.64,  302.72  L 6973.15,  302.65 " style="stroke-width: 0.85 ;&st7; " /><path d=" M 6960.33,  367.22  L 6960.33,  265.24 " style="stroke-width: 0.85 ;&st7; " /><path d=" M 6959.14,  264.24  L 6958.87,  264.71  L 6958.78,  265.24  L 6958.87,  265.77  L 6959.14,  266.24  L 6959.56,  266.59  L 6960.06,  266.78  L 6960.60,  266.78  L 6961.11,  266.59  L 6961.53,  266.24  L 6961.80,  265.77  L 6961.89,  265.24  L 6961.80,  264.71  L 6961.53,  264.24  L 6961.11,  263.89  L 6960.60,  263.71  L 6960.06,  263.71  L 6959.56,  263.89  L 6959.14,  264.24  L 6959.54,  264.95  L 6959.54,  265.53  L 6959.91,  265.98  L 6960.48,  266.08  L 6960.99,  265.79  L 6961.18,  265.24  L 6960.99,  264.69  L 6960.48,  264.41  L 6959.91,  264.50  L 6960.33,  265.24 " style="stroke-width: 0.85 ;&st7; " /><path d=" M 6875.35,  367.22  L 6875.35,  265.24 " style="stroke-width: 0.85 ;&st7; " /><path d=" M 6932.58,  301.54  L 6930.24,  304.58  L 6928.78,  302.04  L 6932.58,  301.54  L 6931.29,  302.28  L 6930.31,  303.56  L 6929.69,  302.49  L 6931.29,  302.28  L 6930.65,  302.65  L 6930.34,  303.05  L 6930.15,  302.72  L 6930.65,  302.65 " style="stroke-width: 0.85 ;&st7; " /><path d=" M 6930.57,  298.07  L 6928.24,  301.11  L 6926.77,  298.57  L 6930.57,  298.07  L 6929.29,  298.81  L 6928.31,  300.09  L 6927.69,  299.02  L 6929.29,  298.81  L 6928.65,  299.18  L 6928.34,  299.58  L 6928.14,  299.25  L 6928.65,  299.18 " style="stroke-width: 0.85 ;&st7; " /><path d=" M 6917.84,  307.73  L 6912.18,  299.24  L 6923.51,  299.24  L 6917.84,  307.73 " style="stroke-width: 0.28 ;&st9;" /><path d=" M 6916.65,  264.24  L 6916.38,  264.71  L 6916.28,  265.24  L 6916.38,  265.77  L 6916.65,  266.24  L 6917.06,  266.59  L 6917.57,  266.78  L 6918.11,  266.78  L 6918.62,  266.59  L 6919.03,  266.24  L 6919.31,  265.77  L 6919.40,  265.24  L 6919.31,  264.71  L 6919.03,  264.24  L 6918.62,  263.89  L 6918.11,  263.71  L 6917.57,  263.71  L 6917.06,  263.89  L 6916.65,  264.24  L 6917.04,  264.95  L 6917.04,  265.53  L 6917.42,  265.98  L 6917.99,  266.08  L 6918.49,  265.79  L 6918.69,  265.24  L 6918.49,  264.69  L 6917.99,  264.41  L 6917.42,  264.50  L 6917.84,  265.24 " style="stroke-width: 0.85 ;&st7; " /><path d=" M 6917.84,  367.22  L 6917.84,  265.24 " style="stroke-width: 0.85 ;&st7; " /><path d=" M 6627.70,  264.24  L 6627.43,  264.71  L 6627.33,  265.24  L 6627.43,  265.77  L 6627.70,  266.24  L 6628.11,  266.59  L 6628.62,  266.78  L 6629.16,  266.78  L 6629.67,  266.59  L 6630.08,  266.24  L 6630.35,  265.77  L 6630.45,  265.24  L 6630.35,  264.71  L 6630.08,  264.24  L 6629.67,  263.89  L 6629.16,  263.71  L 6628.62,  263.71  L 6628.11,  263.89  L 6627.70,  264.24  L 6628.09,  264.95  L 6628.09,  265.53  L 6628.46,  265.98  L 6629.04,  266.08  L 6629.54,  265.79  L 6629.74,  265.24  L 6629.54,  264.69  L 6629.04,  264.41  L 6628.46,  264.50  L 6628.89,  265.24 " style="stroke-width: 0.85 ;&st7; " /><path d=" M 6628.89,  367.22  L 6628.89,  265.24 " style="stroke-width: 0.85 ;&st7; " /><path d=" M 6943.34,  511.70  L 6943.34,  528.70  L 6977.33,  528.70  L 6977.33,  511.70 " style="stroke-width: 0.85 ;&st7; " /><path d=" M 6934.84,  511.70  L 6934.84,  545.69  L 7019.82,  545.69  L 7019.82,  511.70  L 6934.84,  511.70 " style="stroke-width: 1.42 ;&st7; " /><path d=" M 6934.84,  520.20  L 7019.82,  520.20 " style="stroke-width: 1.13 ;&st7;stroke-dasharray:3, 1.5;" /><path d=" M 6934.84,  537.20  L 7019.82,  537.20 " style="stroke-width: 1.13 ;&st7;stroke-dasharray:3, 1.5;" /><path d=" M 6943.34,  384.22  L 6943.34,  443.71 " style="stroke-width: 0.85 ;&st7; " /><path d=" M 6815.86,  656.18  L 6815.86,  681.67 " style="stroke-width: 0.85 ;&st7; " /><path d=" M 6815.86,  656.18  L 6815.86,  673.17 " style="stroke-width: 0.85 ;&st7; " /><path d=" M 6807.36,  656.18  L 6807.36,  673.17  L 6824.36,  673.17  L 6824.36,  656.18  L 6807.36,  656.18 " style="stroke-width: 1.42 ;&st7; " /><path d=" M 6814.44,  710.00  L 6817.27,  710.00 " style="stroke-width: 0.85 ;&st7; " /><path d=" M 6813.03,  707.17  L 6818.69,  707.17 " style="stroke-width: 0.85 ;&st7; " /><path d=" M 6811.61,  704.33  L 6820.11,  704.33 " style="stroke-width: 0.85 ;&st7; " /><path d=" M 6807.36,  701.50  L 6824.36,  701.50 " style="stroke-width: 0.85 ;&st7; " /><path d=" M 6815.86,  697.25  L 6815.86,  701.50 " style="stroke-width: 0.85 ;&st7; " /><path d=" M 6815.86,  525.09  L 6818.69,  527.93  L 6818.69,  523.68  L 6815.86,  520.84  L 6813.03,  523.68  L 6813.03,  527.93  L 6815.86,  525.09 " style="stroke-width: 0.28 ;&st9;" /><path d=" M 6815.86,  549.30  L 6813.03,  546.46  L 6813.03,  550.71  L 6815.86,  553.55  L 6818.69,  550.71  L 6818.69,  546.46  L 6815.86,  549.30 " style="stroke-width: 0.28 ;&st9;" /><path d=" M 6815.86,  554.19  L 6815.86,  520.20 " style="stroke-width: 0.85 ;&st7; " /><path d=" M 6815.86,  384.22  L 6815.86,  443.71 " style="stroke-width: 0.85 ;&st7; " /><path d=" M 6543.91,   47.11  C 6541.17    48.72  6540.26    52.25  6541.87    54.99 " style="stroke-width: 1.42 ;&st7; " /><path d=" M 6541.87,   54.99  C 6542.39    55.87  6543.02    56.51  6543.91    57.03 " style="stroke-width: 1.42 ;&st7; " /><path d=" M 6543.91,   66.94  C 6546.64    65.33  6547.56    61.80  6545.94    59.06 " style="stroke-width: 1.42 ;&st7; " /><path d=" M 6545.94,   59.06  C 6545.42    58.18  6544.79    57.55  6543.91    57.03 " style="stroke-width: 1.42 ;&st7; " /><path d=" M 6545.32,   45.69  C 6545.32    44.91  6544.69    44.28  6543.91    44.28 " style="stroke-width: 0.85 ;&st7; " /><path d=" M 6543.91,   44.28  C 6543.12    44.28  6542.49    44.91  6542.49    45.69 " style="stroke-width: 0.85 ;&st7; " /><path d=" M 6542.49,   45.69  C 6542.49    46.48  6543.12    47.11  6543.91    47.11 " style="stroke-width: 0.85 ;&st7; " /><path d=" M 6543.91,   47.11  C 6544.69    47.11  6545.32    46.48  6545.32    45.69 " style="stroke-width: 0.85 ;&st7; " /><path d=" M 6545.32,   68.36  C 6545.32    67.57  6544.69    66.94  6543.91    66.94 " style="stroke-width: 0.85 ;&st7; " /><path d=" M 6543.91,   66.94  C 6543.12    66.94  6542.49    67.57  6542.49    68.36 " style="stroke-width: 0.85 ;&st7; " /><path d=" M 6542.49,   68.36  C 6542.49    69.14  6543.12    69.77  6543.91    69.77 " style="stroke-width: 0.85 ;&st7; " /><path d=" M 6543.91,   69.77  C 6544.69    69.77  6545.32    69.14  6545.32    68.36 " style="stroke-width: 0.85 ;&st7; " /><path d=" M 6541.78,   95.27  C 6539.44    95.27  6537.53    97.17  6537.53    99.52 " style="stroke-width: 1.42 ;&st7; " /><path d=" M 6537.53,   99.52  C 6537.53   101.87  6539.44   103.77  6541.78   103.77 " style="stroke-width: 1.42 ;&st7; " /><path d=" M 6546.03,  103.77  C 6548.38   103.77  6550.28   101.87  6550.28    99.52 " style="stroke-width: 1.42 ;&st7; " /><path d=" M 6550.28,   99.52  C 6550.28    97.17  6548.38    95.27  6546.03    95.27 " style="stroke-width: 1.42 ;&st7; " /><path d=" M 6503.54,  154.76  C 6505.89   154.76  6507.79   152.86  6507.79   150.51 " style="stroke-width: 1.42 ;&st7; " /><path d=" M 6507.79,  150.51  C 6507.79   148.16  6505.89   146.26  6503.54   146.26 " style="stroke-width: 1.42 ;&st7; " /><path d=" M 6503.54,  197.25  C 6505.89   197.25  6507.79   195.35  6507.79   193.00 " style="stroke-width: 1.42 ;&st7; " /><path d=" M 6507.79,  193.00  C 6507.79   190.66  6505.89   188.75  6503.54   188.75 " style="stroke-width: 1.42 ;&st7; " /><path d=" M 6981.87,  507.17  C 6981.87   504.66  6979.84   502.63  6977.33   502.63 " style="stroke-width: 1.42 ;&st7; " /><path d=" M 6977.33,  502.63  C 6974.83   502.63  6972.80   504.66  6972.80   507.17 " style="stroke-width: 1.42 ;&st7; " /><path d=" M 6972.80,  507.17  C 6972.80   509.67  6974.83   511.70  6977.33   511.70 " style="stroke-width: 1.42 ;&st7; " /><path d=" M 6977.33,  511.70  C 6979.84   511.70  6981.87   509.67  6981.87   507.17 " style="stroke-width: 1.42 ;&st7; " /><path d=" M 6947.87,  507.17  C 6947.87   504.66  6945.84   502.63  6943.34   502.63 " style="stroke-width: 1.42 ;&st7; " /><path d=" M 6943.34,  502.63  C 6940.84   502.63  6938.81   504.66  6938.81   507.17 " style="stroke-width: 1.42 ;&st7; " /><path d=" M 6938.81,  507.17  C 6938.81   509.67  6940.84   511.70  6943.34   511.70 " style="stroke-width: 1.42 ;&st7; " /><path d=" M 6943.34,  511.70  C 6945.84   511.70  6947.87   509.67  6947.87   507.17 " style="stroke-width: 1.42 ;&st7; " /><path d=" M 6813.74,  511.70  C 6811.39   511.70  6809.49   513.60  6809.49   515.95 " style="stroke-width: 1.42 ;&st7; " /><path d=" M 6809.49,  515.95  C 6809.49   518.30  6811.39   520.20  6813.74   520.20 " style="stroke-width: 1.42 ;&st7; " /><path d=" M 6817.99,  520.20  C 6820.33   520.20  6822.24   518.30  6822.24   515.95 " style="stroke-width: 1.42 ;&st7; " /><path d=" M 6822.24,  515.95  C 6822.24   513.60  6820.33   511.70  6817.99   511.70 " style="stroke-width: 1.42 ;&st7; " /><path d=" M 6813.74,  554.19  C 6811.39   554.19  6809.49   556.10  6809.49   558.44 " style="stroke-width: 1.42 ;&st7; " /><path d=" M 6809.49,  558.44  C 6809.49   560.79  6811.39   562.69  6813.74   562.69 " style="stroke-width: 1.42 ;&st7; " /><path d=" M 6817.99,  562.69  C 6820.33   562.69  6822.24   560.79  6822.24   558.44 " style="stroke-width: 1.42 ;&st7; " /><path d=" M 6822.24,  558.44  C 6822.24   556.10  6820.33   554.19  6817.99   554.19 " style="stroke-width: 1.42 ;&st7; " /><text style="&st18;" transform="matrix(&st17;  6509.05  475.39 )">(*5)</text><text style="&st18;" transform="matrix(&st16;  6932.32  553.3 )">F55(A),F56(B)</text><text ewd:textID="22" style="&st18;" transform="matrix(&st16;  6932.32  560.41 )">Junction <tspan dy="6" x="0">Connector</tspan></text><text style="&st18;" transform="matrix(&st16;  6986.63  482.51 )">W-B</text><text style="&st18;" transform="matrix(&st16;  6975.0  509.14 )">B</text><text style="&st18;" transform="matrix(&st16;  6966.46  509.14 )">3</text><text style="&st18;" transform="matrix(&st17;  6939.64  476.91 )">W-B</text><text style="&st18;" transform="matrix(&st16;  6941.01  509.14 )">B</text><text style="&st18;" transform="matrix(&st16;  6932.46  509.14 )">2</text><text style="&st18;" transform="matrix(&st16;  6933.37  451.9 )">13</text><text style="&st18;" transform="matrix(&st16;  6946.17  440.02 )">MGND</text><text ewd:textID="7" style="&st18;" transform="matrix(&st17;  6775.08  343.15 )">Brake (Canada) <tspan dy="6" x="0">BRAKE (Except Canada)</tspan></text><text style="&st18;" transform="matrix(&st17;  6663.44  310.48 )">ABS</text><text style="&st18;" transform="matrix(&st16;  6546.74  256.44 )">IG+</text><text style="&st18;" transform="matrix(&st16;  6504.25  256.44 )">B</text><text style="&st18;" transform="matrix(&st16;  6537.83  32.08 )">(IG)</text><text style="&st18;" transform="matrix(&st16;  6533.94  244.55 )">17</text><text style="&st18;" transform="matrix(&st16;  6561.21  56.17 )">7.5A <tspan dy="6" x="0">GAUGE</tspan></text><text style="&st18;" transform="matrix(&st17;  6824.92  321.11 )">AUTO LSD</text><text ewd:textID="9" style="&st18;" transform="matrix(&st16;  6592.37  244.55 )">Combination Meter Assembly</text><text style="&st18;" transform="matrix(&st16;  6592.37  237.44 )">F14</text><text style="&st18;" transform="matrix(&st17;  6540.21  174.23 )">R</text><text style="&st18;" transform="matrix(&st16;  6527.26  101.49 )">55</text><text style="&st18;" transform="matrix(&st16;  6539.46  101.49 )">2C</text><text ewd:textID="13" style="&st18;" transform="matrix(&st17;  6861.48  327.12 )">Downhill Assist <tspan dy="6" x="-0.01">Control</tspan></text><text style="&st18;" transform="matrix(&st17;  6952.39  318.78 )">VSC OFF</text><text ewd:textID="34" style="&st18;" transform="matrix(&st17;  6994.89  309.24 )">Slip</text><text style="&st18;" transform="matrix(&st17;  6908.77  321.04 )">TRAC OFF</text><text style="&st18;" transform="matrix(&st16;  6504.25  440.02 )">LINT</text><text style="&st18;" transform="matrix(&st16;  6827.5  659.54 )">F64</text><text ewd:textID="22" style="&st18;" transform="matrix(&st16;  6827.5  666.64 )">Junction <tspan dy="6" x="0">Connector</tspan></text><text style="&st18;" transform="matrix(&st16;  6809.07  652.49 )">9</text><text style="&st18;" transform="matrix(&st16;  6811.55  517.92 )">4B</text><text style="&st18;" transform="matrix(&st16;  6799.99  517.92 )">14</text><text style="&st18;" transform="matrix(&st16;  6811.55  560.41 )">4B</text><text style="&st18;" transform="matrix(&st16;  6799.22  560.41 )">63</text><text style="&st18;" transform="matrix(&st16;  6818.69  440.02 )">E1</text><text style="&st18;" transform="matrix(&st16;  6805.12  451.9 )">20</text><text style="&st18;" transform="matrix(&st17;  6812.17  476.91 )">W-B</text><text style="&st18;" transform="matrix(&st17;  6812.17  604.39 )">W-B</text><text ewd:textID="9" style="&st18;" transform="matrix(&st16;  6932.32  244.55 )">Combination Meter Assembly</text><text style="&st18;" transform="matrix(&st16;  6932.32  237.44 )">F14</text></svg>