﻿<?xml version="1.0" encoding="utf-8"?>
<!DOCTYPE svg PUBLIC "-//W3C//DTD SVG 1.0//EN" "http://www.w3.org/TR/2001/REC-SVG-20010904/DTD/svg10.dtd"[
	<!ENTITY ns_flows "http://ns.adobe.com/Flows/1.0/">
	<!ENTITY ns_svg "http://www.w3.org/2000/svg">
	<!ENTITY ns_xlink "http://www.w3.org/1999/xlink">
	<!ENTITY st0 "font-size:7px;font-family:'MS-PGothic';adobe-font-script:japanese;">
	<!ENTITY st1 "font-size:6px;font-family:'ArialMT';">
	<!-- White fill  -->
	<!ENTITY st2 "fill:#FFFFFF;stroke:#000000; stroke-width:1.41;stroke-linecap:round;stroke-linejoin:round;">
	<!-- Yellow fill  -->
	<!ENTITY st3 "fill:#FFFFCC;stroke:#FFFFCC; stroke-width:0.1;stroke-linecap:round;stroke-linejoin:round;">
	<!-- Gray fill  -->
	<!ENTITY st4 "fill:#CCCCCC;stroke:#CCCCCC; stroke-width:0.1;stroke-linecap:round;stroke-linejoin:round;">
	<!-- Light-blue fill -->
	<!ENTITY st5 "fill:#CCECF4;stroke:#000000; stroke-width:1.133;stroke-linecap:round;stroke-linejoin:round;">
	<!ENTITY st6 "fill:none;stroke-linecap:butt; stroke-linejoin:round;">
	<!ENTITY st7 "fill:none;stroke:#000000;stroke-linecap:round;stroke-linejoin:round;">
	<!ENTITY st8 "enable-background:new    ;">
	<!-- Black fill -->
	<!ENTITY st9 "fill:#000000;stroke:#000000; stroke-linecap:round;stroke-linejoin:round;">
	<!-- SRS note   -->
	<!ENTITY st10 "font-size:9px;font-family:'ArialMT';">
	<!ENTITY st11 "font-size:9px;font-family:'Svg Symbol';">
	<!ENTITY st12 "font-size:6px;font-family:'Svg Symbol';">
	<!ENTITY st13 "fill:none;stroke:#ff0000;stroke-linecap:round;stroke-linejoin:round;">
	<!-- Yellow fill  -->
	<!ENTITY st14 "fill:#FFFF00;stroke:#FFFF00; stroke-width:0.1;stroke-linecap:round;stroke-linejoin:round;">
	<!ENTITY st15 "font-size:6px;font-family:'MS-PGothic';adobe-font-script:japanese;">
	<!ENTITY st16 "1.00 0.00 0.00 1.00">
	<!ENTITY st17 "0.00 -1.00 1.00 0.00">
	<!ENTITY st18 "font-size:6px;font-family:'Arial';">
	<!ENTITY st19 "font-size:9px;font-family:'Arial';">
	<!ENTITY st20 "font-size:6px;font-family:'MS-PGothic','MS PGothic';adobe-font-script:japanese;">
	<!ENTITY st21 "font-size:7px;font-family:'MS-PGothic','MS PGothic';adobe-font-script:japanese;">
	<!ATTLIST svg
		xmlns:ewd CDATA #FIXED "http://shcl.co.jp/ewd"
		xmlns:a CDATA #FIXED "http://ns.adobe.com/AdobeSVGViewerExtensions/3.0/"
		ewd:ver CDATA #IMPLIED
	>
	<!ATTLIST a
		ewd:lineID CDATA #IMPLIED
		ewd:groupID CDATA #IMPLIED
		ewd:figtype CDATA #IMPLIED
		ewd:code CDATA #IMPLIED
		ewd:figID CDATA #IMPLIED
		ewd:pinNo CDATA #IMPLIED
		ewd:comment CDATA #IMPLIED >
	<!ATTLIST g
		ewd:lineID CDATA #IMPLIED
		ewd:groupID CDATA #IMPLIED
		ewd:figtype CDATA #IMPLIED
		ewd:code CDATA #IMPLIED
		ewd:figID CDATA #IMPLIED
		ewd:pinNo CDATA #IMPLIED
		ewd:comment CDATA #IMPLIED >
	<!ATTLIST text
		ewd:textID CDATA #IMPLIED >
	<!ATTLIST title
		ewd:textID CDATA #IMPLIED >
]>
<!-- Generator: Shintec Hozumi YS   -->
<svg onload="call_execInitLoadProc_svg('system')" style="overflow:visible;  enable-background:new 0 0 3043.017 710.000" viewBox="0 0 3043.017 710.000" height="710.000" width="3043.017" xml:space="preserve" ewd:ver="L2.1.2.7" xmlns="&ns_svg;" xmlns:a="http://ns.adobe.com/AdobeSVGViewerExtensions/3.0/" xmlns:ewd="http://shcl.co.jp/ewd" xmlns:xlink="&ns_xlink;">
<path d=" M 2396.60,  222.75  L 2391.54,  234.11 " style="stroke-width: 1.42 ;&st7; " /><path d=" M 2396.60,  222.75  L 2401.66,  234.11 " style="stroke-width: 1.42 ;&st7; " /><path d=" M 2345.61,  222.75  L 2340.55,  234.11 " style="stroke-width: 1.42 ;&st7; " /><path d=" M 2345.61,  222.75  L 2350.67,  234.11 " style="stroke-width: 1.42 ;&st7; " /><path d=" M 2294.62,  222.75  L 2289.56,  234.11 " style="stroke-width: 1.42 ;&st7; " /><path d=" M 2294.62,  222.75  L 2299.68,  234.11 " style="stroke-width: 1.42 ;&st7; " /><path d=" M 2243.63,  222.75  L 2248.68,  234.11 " style="stroke-width: 1.42 ;&st7; " /><path d=" M 2243.63,  222.75  L 2238.57,  234.11 " style="stroke-width: 1.42 ;&st7; " /><path d=" M 2371.10,  239.75  L 2376.16,  228.38 " style="stroke-width: 1.42 ;&st7; " /><path d=" M 2371.10,  239.75  L 2366.04,  228.38 " style="stroke-width: 1.42 ;&st7; " /><path d=" M 2320.11,  239.75  L 2325.17,  228.38 " style="stroke-width: 1.42 ;&st7; " /><path d=" M 2320.11,  239.75  L 2315.05,  228.38 " style="stroke-width: 1.42 ;&st7; " /><path d=" M 2269.12,  239.75  L 2274.18,  228.38 " style="stroke-width: 1.42 ;&st7; " /><path d=" M 2269.12,  239.75  L 2264.06,  228.38 " style="stroke-width: 1.42 ;&st7; " /><path d=" M 2218.13,  239.75  L 2223.19,  228.38 " style="stroke-width: 1.42 ;&st7; " /><path d=" M 2218.13,  239.75  L 2213.07,  228.38 " style="stroke-width: 1.42 ;&st7; " /><path d=" M 2133.14,  435.21  L 2141.64,  435.21 " style="stroke-width: 1.42 ;&st7; " /><path d=" M 2175.64,  435.21  L 2184.14,  435.21 " style="stroke-width: 1.42 ;&st7; " /><path d=" M 2031.16,  236.22  L 2026.19,  231.25 " style="stroke-width: 1.42 ;&st7; " /><path d=" M 2014.16,  243.27  L 2019.13,  248.24 " style="stroke-width: 1.42 ;&st7; " /><path d=" M 2026.19,  248.24  L 2031.16,  243.27 " style="stroke-width: 1.42 ;&st7; " /><path d=" M 2019.14,  231.25  L 2014.16,  236.22 " style="stroke-width: 1.42 ;&st7; " /><path d=" M 2022.66,  428.13  L 2028.33,  405.47 " style="stroke-width: 1.42 ;&st7; " /><path d=" M 2022.66,  435.21  L 2022.66,  430.96 " style="stroke-width: 0.85 ;&st7; " /><path d=" M 2022.66,  405.47  L 2022.66,  401.22 " style="stroke-width: 0.85 ;&st7; " /><path d=" M 2024.79,  112.27  L 2020.54,  112.27 " style="stroke-width: 1.42 ;&st7; " /><path d=" M 2024.79,  120.77  L 2020.54,  120.77 " style="stroke-width: 1.42 ;&st7; " /><path d=" M 2022.66,   78.27  L 2022.66,  112.27 " style="stroke-width: 0.85 ;&st7; " /><path d=" M 2022.66,  107.37  L 2019.83,  104.54  L 2019.83,  108.79  L 2022.66,  111.62  L 2025.49,  108.79  L 2025.49,  104.54  L 2022.66,  107.37 " style="stroke-width: 0.28 ;&st9;" /><path d=" M 2021.24,  452.21  L 2024.08,  452.21 " style="stroke-width: 0.85 ;&st7; " /><path d=" M 2019.83,  449.38  L 2025.49,  449.38 " style="stroke-width: 0.85 ;&st7; " /><path d=" M 2018.41,  446.54  L 2026.91,  446.54 " style="stroke-width: 0.85 ;&st7; " /><path d=" M 2014.16,  443.71  L 2031.16,  443.71 " style="stroke-width: 0.85 ;&st7; " /><path d=" M 2022.66,  435.21  L 2022.66,  443.71 " style="stroke-width: 0.85 ;&st7; " /><path d=" M 2031.16,  435.21  L 2031.16,  401.22  L 2014.16,  401.22  L 2014.16,  435.21  L 2031.16,  435.21 " style="stroke-width: 1.42 ;&st7; " /><path d=" M 2184.13,  324.73  L 2184.13,  341.73 " style="stroke-width: 0.85 ;&st7; " /><path d=" M 2141.64,  324.73  L 2141.64,  341.73 " style="stroke-width: 0.85 ;&st7; " /><path d=" M 2145.89,  429.55  L 2141.64,  433.80  L 2137.39,  429.55 " style="stroke-width: 1.42 ;&st7; " /><path d=" M 2124.64,  129.26  L 2124.64,  171.76  L 2413.60,  171.76  L 2413.60,  129.26  L 2124.64,  129.26 " style="stroke-width: 1.42 ;&st7; " /><path d=" M 2137.39,  426.15  L 2141.64,  430.40  L 2145.89,  426.15 " style="stroke-width: 1.42 ;&st7; " /><path d=" M 2188.38,  429.55  L 2184.13,  433.80  L 2179.88,  429.55 " style="stroke-width: 1.42 ;&st7; " /><path d=" M 2179.88,  426.15  L 2184.13,  430.40  L 2188.38,  426.15 " style="stroke-width: 1.42 ;&st7; " /><path d=" M 2456.09,  324.73  L 2456.09,  341.73 " style="stroke-width: 0.85 ;&st7; " /><path d=" M 2498.58,  324.73  L 2498.58,  341.73 " style="stroke-width: 0.85 ;&st7; " /><path d=" M 2447.59,  324.73  L 2447.59,  341.73  L 2507.08,  341.73  L 2507.08,  324.73  L 2447.59,  324.73 " style="stroke-width: 1.42 ;&st7; " /><path d=" M 2400.85,  243.99  L 2396.60,  248.24  L 2309.49,  248.24  L 2307.36,  252.49  L 2305.24,  248.24  L 2218.13,  248.24  L 2213.88,  243.99 " style="stroke-width: 0.85 ;&st7; " /><path d=" M 2133.14,  324.73  L 2133.14,  341.73  L 2192.63,  341.73  L 2192.63,  324.73  L 2133.14,  324.73 " style="stroke-width: 1.42 ;&st7; " /><path d=" M 2024.08,  429.55  C 2024.08   428.76  2023.44   428.13  2022.66   428.13 " style="stroke-width: 0.85 ;&st7; " /><path d=" M 2022.66,  428.13  C 2021.88   428.13  2021.25   428.76  2021.25   429.55 " style="stroke-width: 0.85 ;&st7; " /><path d=" M 2021.25,  429.55  C 2021.25   430.33  2021.88   430.96  2022.66   430.96 " style="stroke-width: 0.85 ;&st7; " /><path d=" M 2022.66,  430.96  C 2023.44   430.96  2024.08   430.33  2024.08   429.55 " style="stroke-width: 0.85 ;&st7; " /><path d=" M 2024.08,  406.88  C 2024.08   406.10  2023.44   405.47  2022.66   405.47 " style="stroke-width: 0.85 ;&st7; " /><path d=" M 2022.66,  405.47  C 2021.88   405.47  2021.25   406.10  2021.25   406.88 " style="stroke-width: 0.85 ;&st7; " /><path d=" M 2021.25,  406.88  C 2021.25   407.67  2021.88   408.30  2022.66   408.30 " style="stroke-width: 0.85 ;&st7; " /><path d=" M 2022.66,  408.30  C 2023.44   408.30  2024.08   407.67  2024.08   406.88 " style="stroke-width: 0.85 ;&st7; " /><path d=" M 2020.54,  112.27  C 2018.19   112.27  2016.29   114.17  2016.29   116.52 " style="stroke-width: 1.42 ;&st7; " /><path d=" M 2016.29,  116.52  C 2016.29   118.86  2018.19   120.77  2020.54   120.77 " style="stroke-width: 1.42 ;&st7; " /><path d=" M 2024.79,  120.77  C 2027.13   120.77  2029.04   118.86  2029.04   116.52 " style="stroke-width: 1.42 ;&st7; " /><path d=" M 2029.04,  116.52  C 2029.04   114.17  2027.13   112.27  2024.79   112.27 " style="stroke-width: 1.42 ;&st7; " /><path d=" M 2375.64,  176.29  C 2375.64   173.79  2373.61   171.76  2371.10   171.76 " style="stroke-width: 1.42 ;&st7; " /><path d=" M 2371.10,  171.76  C 2368.60   171.76  2366.57   173.79  2366.57   176.29 " style="stroke-width: 1.42 ;&st7; " /><path d=" M 2366.57,  176.29  C 2366.57   178.79  2368.60   180.82  2371.10   180.82 " style="stroke-width: 1.42 ;&st7; " /><path d=" M 2371.10,  180.82  C 2373.61   180.82  2375.64   178.79  2375.64   176.29 " style="stroke-width: 1.42 ;&st7; " /><path d=" M 2350.14,  176.29  C 2350.14   173.79  2348.11   171.76  2345.61   171.76 " style="stroke-width: 1.42 ;&st7; " /><path d=" M 2345.61,  171.76  C 2343.10   171.76  2341.08   173.79  2341.08   176.29 " style="stroke-width: 1.42 ;&st7; " /><path d=" M 2341.08,  176.29  C 2341.08   178.79  2343.10   180.82  2345.61   180.82 " style="stroke-width: 1.42 ;&st7; " /><path d=" M 2345.61,  180.82  C 2348.11   180.82  2350.14   178.79  2350.14   176.29 " style="stroke-width: 1.42 ;&st7; " /><path d=" M 2324.64,  176.29  C 2324.64   173.79  2322.62   171.76  2320.11   171.76 " style="stroke-width: 1.42 ;&st7; " /><path d=" M 2320.11,  171.76  C 2317.61   171.76  2315.58   173.79  2315.58   176.29 " style="stroke-width: 1.42 ;&st7; " /><path d=" M 2315.58,  176.29  C 2315.58   178.79  2317.61   180.82  2320.11   180.82 " style="stroke-width: 1.42 ;&st7; " /><path d=" M 2320.11,  180.82  C 2322.62   180.82  2324.64   178.79  2324.64   176.29 " style="stroke-width: 1.42 ;&st7; " /><path d=" M 2299.15,  176.29  C 2299.15   173.79  2297.12   171.76  2294.62   171.76 " style="stroke-width: 1.42 ;&st7; " /><path d=" M 2294.62,  171.76  C 2292.11   171.76  2290.08   173.79  2290.08   176.29 " style="stroke-width: 1.42 ;&st7; " /><path d=" M 2290.08,  176.29  C 2290.08   178.79  2292.11   180.82  2294.62   180.82 " style="stroke-width: 1.42 ;&st7; " /><path d=" M 2294.62,  180.82  C 2297.12   180.82  2299.15   178.79  2299.15   176.29 " style="stroke-width: 1.42 ;&st7; " /><path d=" M 2273.65,  176.29  C 2273.65   173.79  2271.62   171.76  2269.12   171.76 " style="stroke-width: 1.42 ;&st7; " /><path d=" M 2269.12,  171.76  C 2266.62   171.76  2264.59   173.79  2264.59   176.29 " style="stroke-width: 1.42 ;&st7; " /><path d=" M 2264.59,  176.29  C 2264.59   178.79  2266.62   180.82  2269.12   180.82 " style="stroke-width: 1.42 ;&st7; " /><path d=" M 2269.12,  180.82  C 2271.62   180.82  2273.65   178.79  2273.65   176.29 " style="stroke-width: 1.42 ;&st7; " /><path d=" M 2248.16,  176.29  C 2248.16   173.79  2246.13   171.76  2243.63   171.76 " style="stroke-width: 1.42 ;&st7; " /><path d=" M 2243.63,  171.76  C 2241.12   171.76  2239.09   173.79  2239.09   176.29 " style="stroke-width: 1.42 ;&st7; " /><path d=" M 2239.09,  176.29  C 2239.09   178.79  2241.12   180.82  2243.63   180.82 " style="stroke-width: 1.42 ;&st7; " /><path d=" M 2243.63,  180.82  C 2246.13   180.82  2248.16   178.79  2248.16   176.29 " style="stroke-width: 1.42 ;&st7; " /><path d=" M 2222.66,  176.29  C 2222.66   173.79  2220.63   171.76  2218.13   171.76 " style="stroke-width: 1.42 ;&st7; " /><path d=" M 2218.13,  171.76  C 2215.63   171.76  2213.60   173.79  2213.60   176.29 " style="stroke-width: 1.42 ;&st7; " /><path d=" M 2213.60,  176.29  C 2213.60   178.79  2215.63   180.82  2218.13   180.82 " style="stroke-width: 1.42 ;&st7; " /><path d=" M 2218.13,  180.82  C 2220.63   180.82  2222.66   178.79  2222.66   176.29 " style="stroke-width: 1.42 ;&st7; " /><path d=" M 2460.62,   82.80  C 2460.62    80.30  2458.59    78.27  2456.09    78.27 " style="stroke-width: 1.42 ;&st7; " /><path d=" M 2456.09,   78.27  C 2453.59    78.27  2451.56    80.30  2451.56    82.80 " style="stroke-width: 1.42 ;&st7; " /><path d=" M 2451.56,   82.80  C 2451.56    85.31  2453.59    87.34  2456.09    87.34 " style="stroke-width: 1.42 ;&st7; " /><path d=" M 2456.09,   87.34  C 2458.59    87.34  2460.62    85.31  2460.62    82.80 " style="stroke-width: 1.42 ;&st7; " /><path d=" M 2498.58,   78.27  C 2496.08    78.27  2494.05    80.30  2494.05    82.80 " style="stroke-width: 1.42 ;&st7; " /><path d=" M 2494.05,   82.80  C 2494.05    85.31  2496.08    87.34  2498.58    87.34 " style="stroke-width: 1.42 ;&st7; " /><path d=" M 2498.58,   87.34  C 2501.09    87.34  2503.12    85.31  2503.12    82.80 " style="stroke-width: 1.42 ;&st7; " /><path d=" M 2188.67,  176.29  C 2188.67   173.79  2186.64   171.76  2184.14   171.76 " style="stroke-width: 1.42 ;&st7; " /><path d=" M 2184.14,  171.76  C 2181.63   171.76  2179.60   173.79  2179.60   176.29 " style="stroke-width: 1.42 ;&st7; " /><path d=" M 2179.60,  176.29  C 2179.60   178.79  2181.63   180.82  2184.14   180.82 " style="stroke-width: 1.42 ;&st7; " /><path d=" M 2184.14,  180.82  C 2186.64   180.82  2188.67   178.79  2188.67   176.29 " style="stroke-width: 1.42 ;&st7; " /><path d=" M 2146.17,  176.29  C 2146.17   173.79  2144.15   171.76  2141.64   171.76 " style="stroke-width: 1.42 ;&st7; " /><path d=" M 2141.64,  171.76  C 2139.14   171.76  2137.11   173.79  2137.11   176.29 " style="stroke-width: 1.42 ;&st7; " /><path d=" M 2137.11,  176.29  C 2137.11   178.79  2139.14   180.82  2141.64   180.82 " style="stroke-width: 1.42 ;&st7; " /><path d=" M 2141.64,  180.82  C 2144.15   180.82  2146.17   178.79  2146.17   176.29 " style="stroke-width: 1.42 ;&st7; " /><path d=" M 2401.13,  176.29  C 2401.13   173.79  2399.10   171.76  2396.60   171.76 " style="stroke-width: 1.42 ;&st7; " /><path d=" M 2396.60,  171.76  C 2394.10   171.76  2392.07   173.79  2392.07   176.29 " style="stroke-width: 1.42 ;&st7; " /><path d=" M 2392.07,  176.29  C 2392.07   178.79  2394.10   180.82  2396.60   180.82 " style="stroke-width: 1.42 ;&st7; " /><path d=" M 2396.60,  180.82  C 2399.10   180.82  2401.13   178.79  2401.13   176.29 " style="stroke-width: 1.42 ;&st7; " /><text style="&st18;" transform="matrix(&st16;  2013.76  74.58 )">FLCY</text><text style="&st18;" transform="matrix(&st16;  2016.65  397.53 )">1</text><text ewd:textID="5" style="&st18;" transform="matrix(&st17;  2045.88  437.74 )">Front Door Courtesy Light <tspan dy="6" x="0">Switch Assembly LH</tspan></text><text style="&st18;" transform="matrix(&st17;  2038.77  437.74 )">O5</text><text style="&st18;" transform="matrix(&st17;  2018.97  208.22 )">R</text><text style="&st18;" transform="matrix(&st16;  2015.87  86.47 )">2</text><text style="&st18;" transform="matrix(&st16;  2018.56  118.49 )">2F</text><text style="&st18;" transform="matrix(&st16;  2006.02  118.49 )">27</text><text style="&st18;" transform="matrix(&st17;  2018.97  276.21 )">R</text><text style="&st18;" transform="matrix(&st16;  2045.4  609.99 )">G</text><text style="&st18;" transform="matrix(&st16;  2096.39  609.99 )">G</text><text style="&st18;" transform="matrix(&st16;  2095.79  626.98 )">W</text><text style="&st18;" transform="matrix(&st16;  2044.8  626.98 )">W</text><text style="&st18;" transform="matrix(&st16;  2139.12  33.47 )">F8(A),F9(B),F10(C)</text><text ewd:textID="8" style="&st18;" transform="matrix(&st16;  2139.12  40.58 )">Main Body ECU</text><text style="&st18;" transform="matrix(&st16;  2394.27  178.26 )">A</text><text style="&st18;" transform="matrix(&st16;  2382.54  178.26 )">19</text><text style="&st18;" transform="matrix(&st16;  2368.77  178.26 )">A</text><text style="&st18;" transform="matrix(&st16;  2360.23  178.26 )">5</text><text style="&st18;" transform="matrix(&st16;  2343.28  178.26 )">A</text><text style="&st18;" transform="matrix(&st16;  2334.73  178.26 )">6</text><text style="&st18;" transform="matrix(&st16;  2317.78  178.26 )">A</text><text style="&st18;" transform="matrix(&st16;  2305.28  178.26 )">20</text><text style="&st18;" transform="matrix(&st16;  2292.29  178.26 )">A</text><text style="&st18;" transform="matrix(&st16;  2280.56  178.26 )">17</text><text style="&st18;" transform="matrix(&st16;  2266.79  178.26 )">A</text><text style="&st18;" transform="matrix(&st16;  2258.24  178.26 )">3</text><text style="&st18;" transform="matrix(&st16;  2241.29  178.26 )">A</text><text style="&st18;" transform="matrix(&st16;  2232.75  178.26 )">4</text><text style="&st18;" transform="matrix(&st16;  2215.8  178.26 )">A</text><text style="&st18;" transform="matrix(&st16;  2204.07  178.26 )">18</text><text style="&st18;" transform="matrix(&st17;  2392.9  209.11 )">W</text><text style="&st18;" transform="matrix(&st16;  2389.64  168.06 )">RR-</text><text style="&st18;" transform="matrix(&st17;  2367.41  208.08 )">B</text><text style="&st18;" transform="matrix(&st16;  2364.15  168.06 )">RR+</text><text style="&st18;" transform="matrix(&st17;  2341.91  208.51 )">G</text><text style="&st18;" transform="matrix(&st16;  2339.14  168.06 )">RL-</text><text style="&st18;" transform="matrix(&st17;  2316.42  208.22 )">R</text><text style="&st18;" transform="matrix(&st16;  2313.65  168.06 )">RL+</text><text style="&st18;" transform="matrix(&st17;  2290.92  209.11 )">W</text><text style="&st18;" transform="matrix(&st16;  2288.01  168.06 )">FR-</text><text style="&st18;" transform="matrix(&st17;  2265.42  208.08 )">B</text><text style="&st18;" transform="matrix(&st16;  2262.52  168.06 )">FR+</text><text style="&st18;" transform="matrix(&st17;  2239.93  208.51 )">G</text><text style="&st18;" transform="matrix(&st16;  2237.51  168.06 )">FL-</text><text style="&st18;" transform="matrix(&st17;  2214.43  208.22 )">R</text><text style="&st18;" transform="matrix(&st16;  2212.02  168.06 )">FL+</text><text style="&st18;" transform="matrix(&st16;  2442.03  84.77 )">13</text><text style="&st18;" transform="matrix(&st16;  2496.25  84.77 )">B</text><text style="&st18;" transform="matrix(&st16;  2484.53  84.77 )">14</text><text style="&st18;" transform="matrix(&st16;  2453.76  84.77 )">B</text><text style="&st18;" transform="matrix(&st16;  2488.83  74.58 )">CANH</text><text style="&st18;" transform="matrix(&st16;  2446.84  74.58 )">CANL</text><text style="&st18;" transform="matrix(&st16;  2169.3  178.26 )">25</text><text style="&st18;" transform="matrix(&st16;  2181.8  178.26 )">A</text><text style="&st18;" transform="matrix(&st16;  2128.36  178.26 )">11</text><text style="&st18;" transform="matrix(&st16;  2139.31  178.26 )">A</text><text ewd:textID="7" style="&st18;" transform="matrix(&st17;  2207.35  344.25 )">Junction Connector</text><text style="&st18;" transform="matrix(&st17;  2200.24  344.25 )">A36</text><text style="&st18;" transform="matrix(&st17;  2180.44  404.57 )">W</text><text style="&st18;" transform="matrix(&st17;  2137.95  406.45 )">GR</text><text style="&st18;" transform="matrix(&st16;  2177.35  349.92 )">5</text><text style="&st18;" transform="matrix(&st16;  2135.63  321.04 )">1</text><text ewd:textID="15" style="&st18;" transform="matrix(&st16;  2122.12  125.28 )">Skid Control ECU with Actuator Assembly</text><text style="&st18;" transform="matrix(&st16;  2122.12  118.18 )">A6(A)</text><text style="&st18;" transform="matrix(&st16;  2131.89  168.06 )">CANH</text><text style="&st18;" transform="matrix(&st17;  2180.44  260.1 )">W</text><text style="&st18;" transform="matrix(&st17;  2137.95  259.07 )">B</text><text style="&st18;" transform="matrix(&st16;  2177.35  321.04 )">4</text><text style="&st18;" transform="matrix(&st16;  2174.88  168.06 )">CANL</text><text style="&st18;" transform="matrix(&st16;  2446.12  349.92 )">14</text><text style="&st18;" transform="matrix(&st17;  2494.89  406.45 )">GR</text><text style="&st18;" transform="matrix(&st16;  2446.12  321.04 )">13</text><text style="&st18;" transform="matrix(&st17;  2452.39  260.1 )">W</text><text style="&st18;" transform="matrix(&st17;  2494.89  259.21 )">R</text><text style="&st18;" transform="matrix(&st16;  2169.32  441.43 )">2</text><text style="&st18;" transform="matrix(&st16;  2491.79  321.04 )">2</text><text style="&st18;" transform="matrix(&st16;  2127.6  441.43 )">1</text><text style="&st18;" transform="matrix(&st16;  2491.79  349.92 )">3</text><text style="&st18;" transform="matrix(&st17;  2452.39  404.57 )">W</text><text style="&st18;" transform="matrix(&st16;  2134.85  349.92 )">2</text><text ewd:textID="16" style="&st18;" transform="matrix(&st16;  2282.96  260.13 )">Speed Sensors</text></svg>