﻿<?xml version="1.0" encoding="utf-8"?>
<!DOCTYPE svg PUBLIC "-//W3C//DTD SVG 1.0//EN" "http://www.w3.org/TR/2001/REC-SVG-20010904/DTD/svg10.dtd"[
	<!ENTITY ns_flows "http://ns.adobe.com/Flows/1.0/">
	<!ENTITY ns_svg "http://www.w3.org/2000/svg">
	<!ENTITY ns_xlink "http://www.w3.org/1999/xlink">
	<!ENTITY st0 "font-size:7px;font-family:'MS-PGothic';adobe-font-script:japanese;">
	<!ENTITY st1 "font-size:6px;font-family:'ArialMT';">
	<!-- White fill  -->
	<!ENTITY st2 "fill:#FFFFFF;stroke:#000000; stroke-width:1.41;stroke-linecap:round;stroke-linejoin:round;">
	<!-- Yellow fill  -->
	<!ENTITY st3 "fill:#FFFFCC;stroke:#FFFFCC; stroke-width:0.1;stroke-linecap:round;stroke-linejoin:round;">
	<!-- Gray fill  -->
	<!ENTITY st4 "fill:#CCCCCC;stroke:#CCCCCC; stroke-width:0.1;stroke-linecap:round;stroke-linejoin:round;">
	<!-- Light-blue fill -->
	<!ENTITY st5 "fill:#CCECF4;stroke:#000000; stroke-width:1.133;stroke-linecap:round;stroke-linejoin:round;">
	<!ENTITY st6 "fill:none;stroke-linecap:butt; stroke-linejoin:round;">
	<!ENTITY st7 "fill:none;stroke:#000000;stroke-linecap:round;stroke-linejoin:round;">
	<!ENTITY st8 "enable-background:new    ;">
	<!-- Black fill -->
	<!ENTITY st9 "fill:#000000;stroke:#000000; stroke-linecap:round;stroke-linejoin:round;">
	<!-- SRS note   -->
	<!ENTITY st10 "font-size:9px;font-family:'ArialMT';">
	<!ENTITY st11 "font-size:9px;font-family:'Svg Symbol';">
	<!ENTITY st12 "font-size:6px;font-family:'Svg Symbol';">
	<!ENTITY st13 "fill:none;stroke:#ff0000;stroke-linecap:round;stroke-linejoin:round;">
	<!-- Yellow fill  -->
	<!ENTITY st14 "fill:#FFFF00;stroke:#FFFF00; stroke-width:0.1;stroke-linecap:round;stroke-linejoin:round;">
	<!ENTITY st15 "font-size:6px;font-family:'MS-PGothic';adobe-font-script:japanese;">
	<!ENTITY st16 "1.00 0.00 0.00 1.00">
	<!ENTITY st17 "0.00 -1.00 1.00 0.00">
	<!ENTITY st18 "font-size:6px;font-family:'Arial';">
	<!ENTITY st19 "font-size:9px;font-family:'Arial';">
	<!ENTITY st20 "font-size:6px;font-family:'MS-PGothic','MS PGothic';adobe-font-script:japanese;">
	<!ENTITY st21 "font-size:7px;font-family:'MS-PGothic','MS PGothic';adobe-font-script:japanese;">
	<!ATTLIST svg
		xmlns:ewd CDATA #FIXED "http://shcl.co.jp/ewd"
		xmlns:a CDATA #FIXED "http://ns.adobe.com/AdobeSVGViewerExtensions/3.0/"
		ewd:ver CDATA #IMPLIED
	>
	<!ATTLIST a
		ewd:lineID CDATA #IMPLIED
		ewd:groupID CDATA #IMPLIED
		ewd:figtype CDATA #IMPLIED
		ewd:code CDATA #IMPLIED
		ewd:figID CDATA #IMPLIED
		ewd:pinNo CDATA #IMPLIED
		ewd:comment CDATA #IMPLIED >
	<!ATTLIST g
		ewd:lineID CDATA #IMPLIED
		ewd:groupID CDATA #IMPLIED
		ewd:figtype CDATA #IMPLIED
		ewd:code CDATA #IMPLIED
		ewd:figID CDATA #IMPLIED
		ewd:pinNo CDATA #IMPLIED
		ewd:comment CDATA #IMPLIED >
	<!ATTLIST text
		ewd:textID CDATA #IMPLIED >
	<!ATTLIST title
		ewd:textID CDATA #IMPLIED >
]>
<!-- Generator: Shintec Hozumi YS   -->
<svg onload="call_execInitLoadProc_svg('system')" style="overflow:visible;  enable-background:new 0 0 8218.652 710.000" viewBox="0 0 8218.652 710.000" height="710.000" width="8218.652" xml:space="preserve" ewd:ver="L2.1.2.7" xmlns="&ns_svg;" xmlns:a="http://ns.adobe.com/AdobeSVGViewerExtensions/3.0/" xmlns:ewd="http://shcl.co.jp/ewd" xmlns:xlink="&ns_xlink;">
<path d=" M 7512.74,  248.24  L 7504.25,  248.24 " style="stroke-width: 1.42 ;&st7; " /><path d=" M 7546.74,  248.24  L 7538.24,  248.24 " style="stroke-width: 1.42 ;&st7; " /><path d=" M 7589.23,  248.24  L 7580.73,  248.24 " style="stroke-width: 1.42 ;&st7; " /><path d=" M 7538.24,  239.75  L 7538.24,   95.84 " style="stroke-width: 0.85 ;&st7;stroke-dasharray:3, 1.5;" /><path d=" M 7801.69,  367.22  L 7801.69,  409.72  L 8192.63,  409.72  L 8192.63,  367.22  L 7801.69,  367.22 " style="stroke-width: 1.42 ;&st7; " /><path d=" M 7537.04,  153.76  L 7536.77,  154.23  L 7536.68,  154.76  L 7536.77,  155.29  L 7537.04,  155.76  L 7537.46,  156.11  L 7537.97,  156.30  L 7538.51,  156.30  L 7539.02,  156.11  L 7539.43,  155.76  L 7539.70,  155.29  L 7539.80,  154.76  L 7539.70,  154.23  L 7539.43,  153.76  L 7539.02,  153.41  L 7538.51,  153.22  L 7537.97,  153.22  L 7537.46,  153.41  L 7537.04,  153.76  L 7537.44,  154.47  L 7537.44,  155.05  L 7537.81,  155.50  L 7538.38,  155.60  L 7538.89,  155.31  L 7539.09,  154.76  L 7538.89,  154.21  L 7538.38,  153.92  L 7537.81,  154.02  L 7538.24,  154.76 " style="stroke-width: 0.85 ;&st7; " /><path d=" M 7537.04,  204.75  L 7536.77,  205.22  L 7536.68,  205.75  L 7536.77,  206.28  L 7537.04,  206.75  L 7537.46,  207.10  L 7537.97,  207.29  L 7538.51,  207.29  L 7539.02,  207.10  L 7539.43,  206.75  L 7539.70,  206.28  L 7539.80,  205.75  L 7539.70,  205.22  L 7539.43,  204.75  L 7539.02,  204.40  L 7538.51,  204.22  L 7537.97,  204.22  L 7537.46,  204.40  L 7537.04,  204.75  L 7537.44,  205.46  L 7537.44,  206.04  L 7537.81,  206.49  L 7538.38,  206.59  L 7538.89,  206.30  L 7539.09,  205.75  L 7538.89,  205.20  L 7538.38,  204.92  L 7537.81,  205.01  L 7538.24,  205.75 " style="stroke-width: 0.85 ;&st7; " /><path d=" M 7542.49,  257.31  L 7538.24,  253.06  L 7533.99,  257.31 " style="stroke-width: 1.42 ;&st7; " /><path d=" M 7542.49,  253.91  L 7538.24,  249.66  L 7533.99,  253.91 " style="stroke-width: 1.42 ;&st7; " /><path d=" M 7584.98,  257.31  L 7580.73,  253.06  L 7576.48,  257.31 " style="stroke-width: 1.42 ;&st7; " /><path d=" M 7584.98,  253.91  L 7580.73,  249.66  L 7576.48,  253.91 " style="stroke-width: 1.42 ;&st7; " /><path d=" M 7538.24,  248.24  L 7538.24,  367.22 " style="stroke-width: 0.85 ;&st7;stroke-dasharray:3, 1.5;" /><path d=" M 7537.04,  281.24  L 7536.77,  281.71  L 7536.68,  282.24  L 7536.77,  282.77  L 7537.04,  283.24  L 7537.46,  283.59  L 7537.97,  283.77  L 7538.51,  283.77  L 7539.02,  283.59  L 7539.43,  283.24  L 7539.70,  282.77  L 7539.80,  282.24  L 7539.70,  281.71  L 7539.43,  281.24  L 7539.02,  280.89  L 7538.51,  280.70  L 7537.97,  280.70  L 7537.46,  280.89  L 7537.04,  281.24  L 7537.44,  281.95  L 7537.44,  282.53  L 7537.81,  282.97  L 7538.38,  283.07  L 7538.89,  282.79  L 7539.09,  282.24  L 7538.89,  281.69  L 7538.38,  281.40  L 7537.81,  281.50  L 7538.24,  282.24 " style="stroke-width: 0.85 ;&st7; " /><path d=" M 7537.04,  332.23  L 7536.77,  332.70  L 7536.68,  333.23  L 7536.77,  333.76  L 7537.04,  334.23  L 7537.46,  334.58  L 7537.97,  334.77  L 7538.51,  334.77  L 7539.02,  334.58  L 7539.43,  334.23  L 7539.70,  333.76  L 7539.80,  333.23  L 7539.70,  332.70  L 7539.43,  332.23  L 7539.02,  331.88  L 7538.51,  331.69  L 7537.97,  331.69  L 7537.46,  331.88  L 7537.04,  332.23  L 7537.44,  332.94  L 7537.44,  333.52  L 7537.81,  333.97  L 7538.38,  334.07  L 7538.89,  333.78  L 7539.09,  333.23  L 7538.89,  332.68  L 7538.38,  332.39  L 7537.81,  332.49  L 7538.24,  333.23 " style="stroke-width: 0.85 ;&st7; " /><path d=" M 7508.78,   91.30  C 7508.78    88.80  7506.75    86.77  7504.25    86.77 " style="stroke-width: 1.42 ;&st7; " /><path d=" M 7504.25,   86.77  C 7501.74    86.77  7499.71    88.80  7499.71    91.30 " style="stroke-width: 1.42 ;&st7; " /><path d=" M 7504.25,   95.84  C 7506.75    95.84  7508.78    93.81  7508.78    91.30 " style="stroke-width: 1.42 ;&st7; " /><path d=" M 7823.23,   91.30  C 7823.23    88.80  7821.20    86.77  7818.69    86.77 " style="stroke-width: 1.42 ;&st7; " /><path d=" M 7818.69,   86.77  C 7816.19    86.77  7814.16    88.80  7814.16    91.30 " style="stroke-width: 1.42 ;&st7; " /><path d=" M 7814.16,   91.30  C 7814.16    93.81  7816.19    95.84  7818.69    95.84 " style="stroke-width: 1.42 ;&st7; " /><path d=" M 7818.69,   95.84  C 7821.20    95.84  7823.23    93.81  7823.23    91.30 " style="stroke-width: 1.42 ;&st7; " /><path d=" M 7636.26,   91.30  C 7636.26    88.80  7634.23    86.77  7631.72    86.77 " style="stroke-width: 1.42 ;&st7; " /><path d=" M 7631.72,   86.77  C 7629.22    86.77  7627.19    88.80  7627.19    91.30 " style="stroke-width: 1.42 ;&st7; " /><path d=" M 7627.19,   91.30  C 7627.19    93.81  7629.22    95.84  7631.72    95.84 " style="stroke-width: 1.42 ;&st7; " /><path d=" M 7631.72,   95.84  C 7634.23    95.84  7636.26    93.81  7636.26    91.30 " style="stroke-width: 1.42 ;&st7; " /><path d=" M 7950.70,   91.30  C 7950.70    88.80  7948.68    86.77  7946.17    86.77 " style="stroke-width: 1.42 ;&st7; " /><path d=" M 7946.17,   86.77  C 7943.67    86.77  7941.64    88.80  7941.64    91.30 " style="stroke-width: 1.42 ;&st7; " /><path d=" M 7941.64,   91.30  C 7941.64    93.81  7943.67    95.84  7946.17    95.84 " style="stroke-width: 1.42 ;&st7; " /><path d=" M 7946.17,   95.84  C 7948.68    95.84  7950.70    93.81  7950.70    91.30 " style="stroke-width: 1.42 ;&st7; " /><path d=" M 7908.21,   91.30  C 7908.21    88.80  7906.18    86.77  7903.68    86.77 " style="stroke-width: 1.42 ;&st7; " /><path d=" M 7903.68,   86.77  C 7901.18    86.77  7899.15    88.80  7899.15    91.30 " style="stroke-width: 1.42 ;&st7; " /><path d=" M 7899.15,   91.30  C 7899.15    93.81  7901.18    95.84  7903.68    95.84 " style="stroke-width: 1.42 ;&st7; " /><path d=" M 7903.68,   95.84  C 7906.18    95.84  7908.21    93.81  7908.21    91.30 " style="stroke-width: 1.42 ;&st7; " /><path d=" M 7670.25,   91.30  C 7670.25    88.80  7668.22    86.77  7665.72    86.77 " style="stroke-width: 1.42 ;&st7; " /><path d=" M 7665.72,   86.77  C 7663.22    86.77  7661.19    88.80  7661.19    91.30 " style="stroke-width: 1.42 ;&st7; " /><path d=" M 7661.19,   91.30  C 7661.19    93.81  7663.22    95.84  7665.72    95.84 " style="stroke-width: 1.42 ;&st7; " /><path d=" M 7665.72,   95.84  C 7668.22    95.84  7670.25    93.81  7670.25    91.30 " style="stroke-width: 1.42 ;&st7; " /><path d=" M 7704.25,   91.30  C 7704.25    88.80  7702.22    86.77  7699.71    86.77 " style="stroke-width: 1.42 ;&st7; " /><path d=" M 7699.71,   86.77  C 7697.21    86.77  7695.18    88.80  7695.18    91.30 " style="stroke-width: 1.42 ;&st7; " /><path d=" M 7695.18,   91.30  C 7695.18    93.81  7697.21    95.84  7699.71    95.84 " style="stroke-width: 1.42 ;&st7; " /><path d=" M 7699.71,   95.84  C 7702.22    95.84  7704.25    93.81  7704.25    91.30 " style="stroke-width: 1.42 ;&st7; " /><path d=" M 7993.20,  362.69  C 7993.20   360.19  7991.17   358.16  7988.67   358.16 " style="stroke-width: 1.42 ;&st7; " /><path d=" M 7988.67,  358.16  C 7986.16   358.16  7984.13   360.19  7984.13   362.69 " style="stroke-width: 1.42 ;&st7; " /><path d=" M 7984.13,  362.69  C 7984.13   365.19  7986.16   367.22  7988.67   367.22 " style="stroke-width: 1.42 ;&st7; " /><path d=" M 7988.67,  367.22  C 7991.17   367.22  7993.20   365.19  7993.20   362.69 " style="stroke-width: 1.42 ;&st7; " /><path d=" M 7865.72,   91.30  C 7865.72    88.80  7863.69    86.77  7861.19    86.77 " style="stroke-width: 1.42 ;&st7; " /><path d=" M 7861.19,   86.77  C 7858.68    86.77  7856.65    88.80  7856.65    91.30 " style="stroke-width: 1.42 ;&st7; " /><path d=" M 7856.65,   91.30  C 7856.65    93.81  7858.68    95.84  7861.19    95.84 " style="stroke-width: 1.42 ;&st7; " /><path d=" M 7861.19,   95.84  C 7863.69    95.84  7865.72    93.81  7865.72    91.30 " style="stroke-width: 1.42 ;&st7; " /><path d=" M 7950.70,  362.69  C 7950.70   360.19  7948.68   358.16  7946.17   358.16 " style="stroke-width: 1.42 ;&st7; " /><path d=" M 7946.17,  358.16  C 7943.67   358.16  7941.64   360.19  7941.64   362.69 " style="stroke-width: 1.42 ;&st7; " /><path d=" M 7941.64,  362.69  C 7941.64   365.19  7943.67   367.22  7946.17   367.22 " style="stroke-width: 1.42 ;&st7; " /><path d=" M 7946.17,  367.22  C 7948.68   367.22  7950.70   365.19  7950.70   362.69 " style="stroke-width: 1.42 ;&st7; " /><path d=" M 7908.21,  362.69  C 7908.21   360.19  7906.18   358.16  7903.68   358.16 " style="stroke-width: 1.42 ;&st7; " /><path d=" M 7903.68,  358.16  C 7901.18   358.16  7899.15   360.19  7899.15   362.69 " style="stroke-width: 1.42 ;&st7; " /><path d=" M 7899.15,  362.69  C 7899.15   365.19  7901.18   367.22  7903.68   367.22 " style="stroke-width: 1.42 ;&st7; " /><path d=" M 7903.68,  367.22  C 7906.18   367.22  7908.21   365.19  7908.21   362.69 " style="stroke-width: 1.42 ;&st7; " /><path d=" M 7865.72,  362.69  C 7865.72   360.19  7863.69   358.16  7861.19   358.16 " style="stroke-width: 1.42 ;&st7; " /><path d=" M 7861.19,  358.16  C 7858.68   358.16  7856.65   360.19  7856.65   362.69 " style="stroke-width: 1.42 ;&st7; " /><path d=" M 7856.65,  362.69  C 7856.65   365.19  7858.68   367.22  7861.19   367.22 " style="stroke-width: 1.42 ;&st7; " /><path d=" M 7861.19,  367.22  C 7863.69   367.22  7865.72   365.19  7865.72   362.69 " style="stroke-width: 1.42 ;&st7; " /><path d=" M 7542.77,   91.30  C 7542.77    88.80  7540.74    86.77  7538.24    86.77 " style="stroke-width: 1.42 ;&st7; " /><path d=" M 7538.24,   86.77  C 7535.74    86.77  7533.71    88.80  7533.71    91.30 " style="stroke-width: 1.42 ;&st7; " /><path d=" M 7533.71,   91.30  C 7533.71    93.81  7535.74    95.84  7538.24    95.84 " style="stroke-width: 1.42 ;&st7; " /><path d=" M 7538.24,   95.84  C 7540.74    95.84  7542.77    93.81  7542.77    91.30 " style="stroke-width: 1.42 ;&st7; " /><path d=" M 7823.23,  362.69  C 7823.23   360.19  7821.20   358.16  7818.69   358.16 " style="stroke-width: 1.42 ;&st7; " /><path d=" M 7818.69,  358.16  C 7816.19   358.16  7814.16   360.19  7814.16   362.69 " style="stroke-width: 1.42 ;&st7; " /><path d=" M 7814.16,  362.69  C 7814.16   365.19  7816.19   367.22  7818.69   367.22 " style="stroke-width: 1.42 ;&st7; " /><path d=" M 7818.69,  367.22  C 7821.20   367.22  7823.23   365.19  7823.23   362.69 " style="stroke-width: 1.42 ;&st7; " /><path d=" M 7738.24,   91.30  C 7738.24    88.80  7736.21    86.77  7733.71    86.77 " style="stroke-width: 1.42 ;&st7; " /><path d=" M 7733.71,   86.77  C 7731.20    86.77  7729.18    88.80  7729.18    91.30 " style="stroke-width: 1.42 ;&st7; " /><path d=" M 7729.18,   91.30  C 7729.18    93.81  7731.20    95.84  7733.71    95.84 " style="stroke-width: 1.42 ;&st7; " /><path d=" M 7733.71,   95.84  C 7736.21    95.84  7738.24    93.81  7738.24    91.30 " style="stroke-width: 1.42 ;&st7; " /><path d=" M 7993.20,   91.30  C 7993.20    88.80  7991.17    86.77  7988.67    86.77 " style="stroke-width: 1.42 ;&st7; " /><path d=" M 7988.67,   86.77  C 7986.16    86.77  7984.13    88.80  7984.13    91.30 " style="stroke-width: 1.42 ;&st7; " /><path d=" M 7984.13,   91.30  C 7984.13    93.81  7986.16    95.84  7988.67    95.84 " style="stroke-width: 1.42 ;&st7; " /><path d=" M 7988.67,   95.84  C 7991.17    95.84  7993.20    93.81  7993.20    91.30 " style="stroke-width: 1.42 ;&st7; " /><path d=" M 7585.27,   91.30  C 7585.27    88.80  7583.24    86.77  7580.73    86.77 " style="stroke-width: 1.42 ;&st7; " /><path d=" M 7580.73,   86.77  C 7578.23    86.77  7576.20    88.80  7576.20    91.30 " style="stroke-width: 1.42 ;&st7; " /><path d=" M 7576.20,   91.30  C 7576.20    93.81  7578.23    95.84  7580.73    95.84 " style="stroke-width: 1.42 ;&st7; " /><path d=" M 7580.73,   95.84  C 7583.24    95.84  7585.27    93.81  7585.27    91.30 " style="stroke-width: 1.42 ;&st7; " /><text style="&st18;" transform="matrix(&st16;  7570.84  83.36 )">ADPG</text><text style="&st18;" transform="matrix(&st16;  7528.21  83.36 )">AGND</text><text style="&st18;" transform="matrix(&st16;  7578.26  93.27 )">C</text><text style="&st18;" transform="matrix(&st16;  7565.9  93.27 )">25</text><text style="&st18;" transform="matrix(&st16;  7529.05  363.53 )">11</text><text style="&st18;" transform="matrix(&st16;  7573.94  363.53 )">9</text><text style="&st18;" transform="matrix(&st16;  7501.77  93.27 )">C</text><text style="&st18;" transform="matrix(&st17;  7996.3  186.44 )">(*3)</text><text style="&st18;" transform="matrix(&st17;  7953.81  186.44 )">(*3)</text><text style="&st18;" transform="matrix(&st17;  7911.32  186.44 )">(*3)</text><text style="&st18;" transform="matrix(&st17;  7868.82  186.44 )">(*3)</text><text style="&st18;" transform="matrix(&st17;  7826.33  186.44 )">(*3)</text><text style="&st18;" transform="matrix(&st16;  7852.39  374.86 )">US4-</text><text style="&st18;" transform="matrix(&st17;  7857.49  182.73 )">#</text><text style="&st18;" transform="matrix(&st16;  7809.58  374.86 )">USV4</text><text style="&st18;" transform="matrix(&st17;  7815.0  182.73 )">#</text><text style="&st18;" transform="matrix(&st16;  7809.58  83.36 )">USV4</text><text style="&st18;" transform="matrix(&st16;  7936.49  374.86 )">UGD4</text><text style="&st18;" transform="matrix(&st16;  7629.39  93.27 )">E</text><text style="&st18;" transform="matrix(&st16;  7621.63  93.27 )">1</text><text style="&st18;" transform="matrix(&st16;  7623.0  83.36 )">USV1</text><text style="&st18;" transform="matrix(&st17;  7628.03  182.73 )">#</text><text style="&st18;" transform="matrix(&st16;  7625.93  374.86 )">UPI</text><text style="&st18;" transform="matrix(&st16;  7625.71  363.53 )">1</text><text style="&st18;" transform="matrix(&st16;  7936.49  83.36 )">UGD4</text><text style="&st18;" transform="matrix(&st17;  7899.98  182.73 )">#</text><text style="&st18;" transform="matrix(&st16;  7894.88  83.36 )">US4+</text><text style="&st18;" transform="matrix(&st16;  7894.88  374.86 )">US4+</text><text style="&st18;" transform="matrix(&st16;  7935.3  93.27 )">4</text><text style="&st18;" transform="matrix(&st16;  7943.7  93.27 )">H</text><text style="&st18;" transform="matrix(&st16;  7816.22  93.27 )">H</text><text style="&st18;" transform="matrix(&st16;  7901.21  93.27 )">H</text><text style="&st18;" transform="matrix(&st16;  7658.93  363.53 )">2</text><text style="&st18;" transform="matrix(&st16;  7656.01  374.86 )">UDO-</text><text style="&st18;" transform="matrix(&st17;  7662.02  182.73 )">#</text><text style="&st18;" transform="matrix(&st16;  7657.31  83.36 )">US1-</text><text style="&st18;" transform="matrix(&st16;  7654.84  93.27 )">2</text><text style="&st18;" transform="matrix(&st16;  7663.39  93.27 )">E</text><text style="&st18;" transform="matrix(&st16;  7697.38  93.27 )">E</text><text style="&st18;" transform="matrix(&st16;  7688.84  93.27 )">3</text><text style="&st18;" transform="matrix(&st16;  7978.57  364.66 )">1</text><text style="&st18;" transform="matrix(&st16;  7986.33  364.66 )">B</text><text style="&st18;" transform="matrix(&st16;  7691.31  83.36 )">US1+</text><text style="&st18;" transform="matrix(&st17;  7696.02  182.73 )">#</text><text style="&st18;" transform="matrix(&st16;  7690.0  374.86 )">UDO+</text><text style="&st18;" transform="matrix(&st16;  7692.92  363.53 )">3</text><text style="&st18;" transform="matrix(&st16;  7987.68  93.27 )">I</text><text style="&st18;" transform="matrix(&st16;  7892.8  93.27 )">3</text><text style="&st18;" transform="matrix(&st16;  7852.39  83.36 )">US4-</text><text style="&st18;" transform="matrix(&st16;  7850.31  93.27 )">2</text><text style="&st18;" transform="matrix(&st16;  7858.71  93.27 )">H</text><text style="&st18;" transform="matrix(&st16;  7799.17  417.61 )">G42(D),s2(A),s4(B),t2(C)</text><text style="&st18;" transform="matrix(&st16;  7943.84  364.66 )">A</text><text style="&st18;" transform="matrix(&st16;  7935.3  364.66 )">4</text><text style="&st18;" transform="matrix(&st16;  7901.35  364.66 )">A</text><text style="&st18;" transform="matrix(&st16;  7892.8  364.66 )">3</text><text style="&st18;" transform="matrix(&st16;  7850.31  364.66 )">2</text><text style="&st18;" transform="matrix(&st16;  7858.86  364.66 )">A</text><text style="&st18;" transform="matrix(&st16;  7524.96  93.27 )">11</text><text style="&st18;" transform="matrix(&st16;  7535.77  93.27 )">C</text><text style="&st18;" transform="matrix(&st16;  7808.59  93.27 )">1</text><text style="&st18;" transform="matrix(&st16;  7528.21  374.86 )">AGND</text><text style="&st18;" transform="matrix(&st17;  7577.04  182.59 )">V</text><text style="&st18;" transform="matrix(&st16;  7570.84  374.86 )">AUXO</text><text style="&st18;" transform="matrix(&st17;  7500.55  183.61 )">W</text><text style="&st18;" transform="matrix(&st16;  7808.59  364.66 )">1</text><text style="&st18;" transform="matrix(&st16;  7816.36  364.66 )">A</text><text style="&st18;" transform="matrix(&st16;  7892.66  24.98 )">G5(A),G6(B),G37(C),G38(D),G40(E),G41(F),s1(H),s3(I),t1(J)</text><text style="&st18;" transform="matrix(&st16;  7978.57  93.27 )">1</text><text style="&st18;" transform="matrix(&st16;  7726.92  363.53 )">4</text><text style="&st18;" transform="matrix(&st16;  7724.38  374.86 )">UJSG</text><text style="&st18;" transform="matrix(&st17;  7730.01  182.73 )">#</text><text style="&st18;" transform="matrix(&st16;  7724.42  83.36 )">UGD1</text><text style="&st18;" transform="matrix(&st16;  7722.83  93.27 )">4</text><text style="&st18;" transform="matrix(&st16;  7731.38  93.27 )">E</text><text style="&st18;" transform="matrix(&st16;  7982.77  83.36 )">LV1</text><text style="&st18;" transform="matrix(&st17;  7984.97  182.59 )">B</text><text style="&st18;" transform="matrix(&st16;  7982.77  374.86 )">LV1</text><text style="&st18;" transform="matrix(&st16;  7523.43  245.96 )">5</text><text style="&st18;" transform="matrix(&st16;  7565.92  245.96 )">4</text><text style="&st18;" transform="matrix(&st17;  7500.55  311.09 )">W</text><text style="&st18;" transform="matrix(&st17;  7942.48  182.73 )">#</text><text style="&st18;" transform="matrix(&st17;  7577.04  310.06 )">B</text><text ewd:textID="45" style="&st18;" transform="matrix(&st16;  7799.17  424.43 )">Stereo Component Tuner Assembly</text><text ewd:textID="21" style="&st18;" transform="matrix(&st16;  7892.66  32.08 )">Navigation Receiver Assembly</text></svg>