﻿<?xml version="1.0" encoding="UTF-8"?>
<!DOCTYPE svg PUBLIC "-//W3C//DTD SVG 1.0//EN" "http://www.w3.org/TR/2001/REC-SVG-20010904/DTD/svg10.dtd"[
	<!ENTITY ns_flows "http://ns.adobe.com/Flows/1.0/">
	<!ENTITY ns_svg "http://www.w3.org/2000/svg">
	<!ENTITY ns_xlink "http://www.w3.org/1999/xlink">
	<!ENTITY st0 "font-size:7px;font-family:'MS-PGothic';adobe-font-script:japanese;">
	<!ENTITY st1 "font-size:6px;font-family:'ArialMT';">
	<!-- White fill  -->
	<!ENTITY st2 "fill:#FFFFFF;stroke:#000000; stroke-width:1.41;stroke-linecap:round;stroke-linejoin:round;">
	<!-- Yellow fill  -->
	<!ENTITY st3 "fill:#FFFFCC;stroke:#FFFFCC; stroke-width:0.1;stroke-linecap:round;stroke-linejoin:round;">
	<!-- Gray fill  -->
	<!ENTITY st4 "fill:#CCCCCC;stroke:#CCCCCC; stroke-width:0.1;stroke-linecap:round;stroke-linejoin:round;">
	<!-- Light-blue fill -->
	<!ENTITY st5 "fill:#CCECF4;stroke:#000000; stroke-width:1.133;stroke-linecap:round;stroke-linejoin:round;">
	<!ENTITY st6 "fill:none;stroke-linecap:butt; stroke-linejoin:round;">
	<!ENTITY st7 "fill:none;stroke:#000000;stroke-linecap:round;stroke-linejoin:round;">
	<!ENTITY st8 "enable-background:new    ;">
	<!-- Black fill -->
	<!ENTITY st9 "fill:#000000;stroke:#000000; stroke-linecap:round;stroke-linejoin:round;">
	<!-- SRS note   -->
	<!ENTITY st10 "font-size:9px;font-family:'ArialMT';">
	<!ENTITY st11 "font-size:9px;font-family:'Svg Symbol';">
	<!ENTITY st12 "font-size:6px;font-family:'Svg Symbol';">
	<!ENTITY st13 "fill:none;stroke:#ff0000;stroke-linecap:round;stroke-linejoin:round;">
	<!-- Yellow fill  -->
	<!ENTITY st14 "fill:#FFFF00;stroke:#FFFF00; stroke-width:0.1;stroke-linecap:round;stroke-linejoin:round;">
	<!ENTITY st15 "font-size:6px;font-family:'MS-PGothic';adobe-font-script:japanese;">
	<!ENTITY st16 "1.00 0.00 0.00 1.00">
	<!ENTITY st17 "0.00 -1.00 1.00 0.00">
	<!ENTITY st18 "font-size:6px;font-family:'Arial';">
	<!ENTITY st19 "font-size:9px;font-family:'Arial';">
	<!ENTITY st20 "font-size:6px;font-family:'MS-PGothic','MS PGothic';adobe-font-script:japanese;">
	<!ENTITY st21 "font-size:7px;font-family:'MS-PGothic','MS PGothic';adobe-font-script:japanese;">
	<!ATTLIST svg
		xmlns:ewd CDATA #FIXED "http://shcl.co.jp/ewd"
		xmlns:a CDATA #FIXED "http://ns.adobe.com/AdobeSVGViewerExtensions/3.0/"
		ewd:ver CDATA #IMPLIED
	>
	<!ATTLIST a
		ewd:lineID CDATA #IMPLIED
		ewd:groupID CDATA #IMPLIED
		ewd:figtype CDATA #IMPLIED
		ewd:code CDATA #IMPLIED
		ewd:figID CDATA #IMPLIED
		ewd:pinNo CDATA #IMPLIED
		ewd:comment CDATA #IMPLIED >
	<!ATTLIST g
		ewd:lineID CDATA #IMPLIED
		ewd:groupID CDATA #IMPLIED
		ewd:figtype CDATA #IMPLIED
		ewd:code CDATA #IMPLIED
		ewd:figID CDATA #IMPLIED
		ewd:pinNo CDATA #IMPLIED
		ewd:comment CDATA #IMPLIED >
	<!ATTLIST text
		ewd:textID CDATA #IMPLIED >
	<!ATTLIST title
		ewd:textID CDATA #IMPLIED >
]>
<!-- Generator: Shintec Hozumi YS   -->
<svg onload="call_execInitLoadProc_svg('system')" style="overflow:visible;  enable-background:new 0 0 949.789 710.000" viewBox="0 0 949.789 710.000" height="710.000" width="949.789" xml:space="preserve" ewd:ver="L2.1.2.7" xmlns="&ns_svg;" xmlns:a="http://ns.adobe.com/AdobeSVGViewerExtensions/3.0/" xmlns:ewd="http://shcl.co.jp/ewd" xmlns:xlink="&ns_xlink;">
	<script type="text/javascript" xlink:href="../../../../../system/js/ewd/fig/svgfig.js"/>
	<defs>
		<font horiz-adv-x="1229">
			<font-face font-family="Svg Symbol" units-per-em="2048" panose-1="5 5 1 2 1 7 6 2 5 7" ascent="2059" descent="450" alphabetic="0"/>
			<missing-glyph d="M 103,0 l 0,1280 1024,0 0,-1280 -1024,0 z m 32,32 l 960,0 0,1216 -960,0 0,-1216 z"/>
			<glyph unicode="&#xF057;" horiz-adv-x="1573" d="M 1517,0 l -567,0 24,279 q 141,59 207.5,168 66.5,109 66.5,306    0,272 -132.5,417.5 -132.5,145.5 -333.5,145.5 -194,0 -328,-147.5 -134,-147.5 -134,-401.5 0,-200 68.5,-319 68.5,-119     206.5,-169 l 25,-279 -564,0 0,279 35,0 q 3,-61 32,-83 45,-35 137,-35 l 270,0 0,70 q -210,61 -324.5,209 -114.5,148     -114.5,349 0,252 186.5,425 186.5,173 504.5,173 195,0 358.5,-73.5 163.5,-73.5 252,-214.5 88.5,-141 88.5,-310 0,-207     -121.5,-360.5 -121.5,-153.5 -317.5,-197.5 l -8,-70 275,0 q 92,0 128,28 36,28 42,90 l 38,0 0,-279 z"/>
		</font>
	</defs>
<g id="ewd_top">
	<a ewd:code="b24" ewd:figID="1" ewd:figtype="conn" style="cursor:pointer;">
		<path d=" M  280.45,  477.71  L  280.45,  511.70  L  356.94,  511.70  L  356.94,  477.71  L  280.45,  477.71 " style="&st5;"/>
		<title ewd:textID="8">Seat Heater Control Sub-Assembly LH</title>
	</a>
	<a ewd:code="F92" ewd:figID="2" ewd:figtype="conn" style="cursor:pointer;">
		<path d=" M  186.97,  265.24  L  186.97,  307.73  L  484.42,  307.73  L  484.42,  265.24  L  186.97,  265.24 " style="&st5;"/>
		<title ewd:textID="3">Refreshing Seat Switch</title>
	</a>
	<a ewd:code="a15" ewd:figID="3" ewd:figtype="conn" style="cursor:pointer;">
		<path d=" M  407.93,  477.71  L  407.93,  511.70  L  484.42,  511.70  L  484.42,  477.71  L  407.93,  477.71 " style="&st5;"/>
		<title ewd:textID="9">Seat Heater Control Sub-Assembly RH</title>
	</a>
	<a ewd:code="b21-A,b22-B" ewd:figID="4" ewd:figtype="conn" style="cursor:pointer;">
		<path d=" M  654.39,  520.20  L  654.39,  554.19  L  696.88,  554.19  L  696.88,  520.20  L  654.39,  520.20 " style="&st5;"/>
		<title ewd:textID="2">Junction Connector</title>
	</a>
	<a ewd:code="a14" ewd:figID="5" ewd:figtype="conn" style="cursor:pointer;">
		<path d=" M  382.44,  562.69  L  433.43,  562.69  L  433.43,  579.69  L  382.44,  579.69  L  382.44,  562.69 " style="&st5;"/>
		<title ewd:textID="2">Junction Connector</title>
	</a>
	<a ewd:code="a13" ewd:figID="6" ewd:figtype="conn" style="cursor:pointer;">
		<path d=" M  773.37,  418.22  L  773.37,  452.21  L  943.34,  452.21  L  943.34,  418.22  L  773.37,  418.22 " style="&st5;"/>
		<title ewd:textID="7">Seat Cushion Climate Control Blower Assembly RH</title>
	</a>
	<a ewd:code="F42,F87" ewd:figID="7" ewd:figtype="conn" style="cursor:pointer;">
		<path d=" M  186.97,  146.26  L  186.97,  188.75  L  807.37,  188.75  L  807.37,  146.26  L  186.97,  146.26 " style="&st5;"/>
		<title ewd:textID="1">A/C Amplifier Assembly</title>
	</a>
	<a ewd:code="c2" ewd:figID="8" ewd:figtype="conn" style="cursor:pointer;">
		<path d=" M  824.36,  265.24  L  824.36,  307.73  L  943.34,  307.73  L  943.34,  265.24  L  824.36,  265.24 " style="&st5;"/>
		<title ewd:textID="5">Seat Back Climate Control Blower RH</title>
	</a>
	<a ewd:code="b21-A,b22-B" ewd:figID="9" ewd:figtype="conn" style="cursor:pointer;">
		<path d=" M   76.49,  256.74  L   76.49,  290.74  L  118.98,  290.74  L  118.98,  256.74  L   76.49,  256.74 " style="&st5;"/>
		<title ewd:textID="2">Junction Connector</title>
	</a>
	<a ewd:code="F64" ewd:figID="10" ewd:figtype="conn" style="cursor:pointer;">
		<path d=" M  237.96,  656.18  L  237.96,  673.17  L  254.96,  673.17  L  254.96,  656.18  L  237.96,  656.18 " style="&st5;"/>
		<title ewd:textID="2">Junction Connector</title>
	</a>
	<a ewd:code="b20" ewd:figID="11" ewd:figtype="conn" style="cursor:pointer;">
		<path d=" M  569.40,  418.22  L  569.40,  452.21  L  739.38,  452.21  L  739.38,  418.22  L  569.40,  418.22 " style="&st5;"/>
		<title ewd:textID="6">Seat Cushion Climate Control Blower Assembly LH</title>
	</a>
	<a ewd:code="a14" ewd:figID="12" ewd:figtype="conn" style="cursor:pointer;">
		<path d=" M  832.86,  520.20  L  892.35,  520.20  L  892.35,  537.20  L  832.86,  537.20  L  832.86,  520.20 " style="&st5;"/>
		<title ewd:textID="2">Junction Connector</title>
	</a>
	<a ewd:code="d4" ewd:figID="13" ewd:figtype="conn" style="cursor:pointer;">
		<path d=" M  569.40,  265.24  L  569.40,  307.73  L  688.38,  307.73  L  688.38,  265.24  L  569.40,  265.24 " style="&st5;"/>
		<title ewd:textID="4">Seat Back Climate Control Blower LH</title>
	</a>
	<a ewd:code="4" ewd:figID="14" ewd:figtype="jb" style="cursor:pointer;">
		<path d=" M  186.97,  358.73  L  186.97,  409.72  L  254.96,  409.72  L  254.96,  358.73  L  186.97,  358.73 " style="&st4;"/>
	</a>
	<a ewd:code="2" ewd:figID="15" ewd:figtype="jb" style="cursor:pointer;">
		<path d=" M   25.50,   35.78  L   25.50,  112.27  L  212.46,  112.27  L  212.46,   35.78  L   25.50,   35.78 " style="&st4;"/>
	</a>
	<a ewd:code="FUSE61" ewd:figID="16" ewd:figtype="fuse" style="cursor:pointer;">
		<path d=" M   29.75,   35.78  L   29.75,   78.27  L   55.24,   78.27  L   55.24,   35.78  L   29.75,   35.78 " style="&st7;"/>
	</a>
	<a ewd:code="FUSE53" ewd:figID="17" ewd:figtype="fuse" style="cursor:pointer;">
		<path d=" M  148.73,   35.78  L  148.73,   78.27  L  174.22,   78.27  L  174.22,   35.78  L  148.73,   35.78 " style="&st7;"/>
	</a>
	<a ewd:lineID="1" style="cursor:pointer;">
		<path d=" M  390.93,  579.69  L  390.93,  605.18  L   42.49,  605.18  L   42.49,  245.98 " style="stroke:#008837;stroke-width: 5.10 ;&st6;"/>
	</a>
	<a ewd:lineID="2" style="cursor:pointer;">
		<path d=" M   42.49,  186.49  L   42.49,  231.25 " style="stroke:#00A0C6;stroke-width: 5.10 ;&st6;"/>
	</a>
	<a ewd:lineID="3" style="cursor:pointer;">
		<path d=" M   42.49,  112.27  L   42.49,  171.76 " style="stroke:#00A0C6;stroke-width: 5.10 ;&st6;"/>
	</a>
	<a ewd:lineID="4" style="cursor:pointer;">
		<path d=" M  586.40,  452.21  L  586.40,  630.68  L   84.99,  630.68  L   84.99,  299.80 " style="stroke:#000000;stroke-width: 5.10 ;&st6;"/>
	</a>
	<a ewd:lineID="5" style="cursor:pointer;">
		<path d=" M   84.99,  186.49  L   84.99,  247.68 " style="stroke:#008837;stroke-width: 5.10 ;&st6;"/>
	</a>
	<a ewd:lineID="6" style="cursor:pointer;">
		<path d=" M   84.99,  112.27  L   84.99,  171.76 " style="stroke:#00A0C6;stroke-width: 5.10 ;&st6;"/>
	</a>
	<a ewd:lineID="7" style="cursor:pointer;">
		<path d=" M  297.45,  511.70  L  297.45,  579.69  L  110.48,  579.69  L  110.48,  299.80 " style="stroke:#7FC97F;stroke-width: 5.10 ;&st6;"/>
	</a>
	<a ewd:lineID="8" style="cursor:pointer;">
		<path d=" M  161.47,  112.27  L  161.47,  426.71  L  203.97,  426.71  L  203.97,  409.72 " style="stroke:#00A0C6;stroke-width: 5.10 ;&st6;"/>
	</a>
	<a ewd:lineID="9" style="cursor:pointer;">
		<path d=" M  203.97,  307.73  L  203.97,  358.73 " style="stroke:#00A0C6;stroke-width: 5.10 ;&st6;"/>
	</a>
	<a ewd:lineID="10" style="cursor:pointer;">
		<path d=" M  203.97,  197.82  L  203.97,  265.24 " style="stroke:#56077D;stroke-width: 5.10 ;&st6;"/>
	</a>
	<a ewd:lineID="11" style="cursor:pointer;">
		<path d=" M  246.46,  409.72  L  246.46,  656.18 " style="stroke:#000000;stroke-width: 5.10 ;&st6;"/>
		<path d=" M  246.46,  409.72  L  246.46,  656.18 " style="stroke:#FFFFFF;stroke-width: 4.53 ;&st6;"/>
		<path d=" M  246.46,  409.72  L  246.46,  656.18 " style="stroke:#000000;stroke-width: 1.13 ;&st6;"/>
	</a>
	<a ewd:lineID="12" style="cursor:pointer;">
		<path d=" M  246.46,  307.73  L  246.46,  358.73 " style="stroke:#000000;stroke-width: 5.10 ;&st6;"/>
		<path d=" M  246.46,  307.73  L  246.46,  358.73 " style="stroke:#FFFFFF;stroke-width: 4.53 ;&st6;"/>
		<path d=" M  246.46,  307.73  L  246.46,  358.73 " style="stroke:#000000;stroke-width: 1.13 ;&st6;"/>
	</a>
	<a ewd:lineID="13" style="cursor:pointer;">
		<path d=" M  246.46,  197.82  L  246.46,  265.24 " style="stroke:#99D9E8;stroke-width: 5.10 ;&st6;"/>
	</a>
	<a ewd:lineID="14" style="cursor:pointer;">
		<path d=" M  288.95,  197.82  L  288.95,  265.24 " style="stroke:#56077D;stroke-width: 5.10 ;&st6;"/>
	</a>
	<a ewd:lineID="15" style="cursor:pointer;">
		<path d=" M  297.45,  432.95  L  297.45,  477.71 " style="stroke:#FF0000;stroke-width: 5.10 ;&st6;"/>
	</a>
	<a ewd:lineID="16" style="cursor:pointer;">
		<path d=" M  297.45,  373.74  L  297.45,  418.22 " style="stroke:#000000;stroke-width: 5.10 ;&st6;"/>
		<path d=" M  297.45,  373.74  L  297.45,  418.22 " style="stroke:#FFFFFF;stroke-width: 4.53 ;&st6;"/>
	</a>
	<a ewd:lineID="17" style="cursor:pointer;">
		<path d=" M  297.45,  307.73  L  297.45,  358.73 " style="stroke:#000000;stroke-width: 5.10 ;&st6;"/>
		<path d=" M  297.45,  307.73  L  297.45,  358.73 " style="stroke:#FFFFFF;stroke-width: 4.53 ;&st6;"/>
	</a>
	<a ewd:lineID="18" style="cursor:pointer;">
		<path d=" M  331.44,  197.82  L  331.44,  265.24 " style="stroke:#000000;stroke-width: 5.10 ;&st6;"/>
		<path d=" M  331.44,  197.82  L  331.44,  265.24 " style="stroke:#FFFFFF;stroke-width: 4.53 ;&st6;"/>
	</a>
	<a ewd:lineID="19" style="cursor:pointer;">
		<path d=" M  688.38,  563.26  L  688.38,  647.68  L  339.94,  647.68  L  339.94,  511.70 " style="stroke:#000000;stroke-width: 5.10 ;&st6;"/>
		<path d=" M  688.38,  563.26  L  688.38,  647.68  L  339.94,  647.68  L  339.94,  511.70 " style="stroke:#FFFFFF;stroke-width: 4.53 ;&st6;"/>
		<path d=" M  688.38,  563.26  L  688.38,  647.68  L  339.94,  647.68  L  339.94,  511.70 " style="stroke:#000000;stroke-width: 1.13 ;&st6;"/>
	</a>
	<a ewd:lineID="20" style="cursor:pointer;">
		<path d=" M  339.94,  432.95  L  339.94,  477.71 " style="stroke:#56077D;stroke-width: 5.10 ;&st6;"/>
	</a>
	<a ewd:lineID="21" style="cursor:pointer;">
		<path d=" M  339.94,  373.46  L  339.94,  418.22 " style="stroke:#56077D;stroke-width: 5.10 ;&st6;"/>
	</a>
	<a ewd:lineID="22" style="cursor:pointer;">
		<path d=" M  339.94,  307.73  L  339.94,  358.73 " style="stroke:#56077D;stroke-width: 5.10 ;&st6;"/>
	</a>
	<a ewd:lineID="23" style="cursor:pointer;">
		<path d=" M  424.93,  579.69  L  424.93,  605.18  L  790.37,  605.18  L  790.37,  452.21 " style="stroke:#000000;stroke-width: 5.10 ;&st6;"/>
	</a>
	<a ewd:lineID="24" style="cursor:pointer;">
		<path d=" M  424.93,  511.70  L  424.93,  562.69 " style="stroke:#7FC97F;stroke-width: 5.10 ;&st6;"/>
	</a>
	<a ewd:lineID="25" style="cursor:pointer;">
		<path d=" M  424.93,  432.95  L  424.93,  477.71 " style="stroke:#FF0000;stroke-width: 5.10 ;&st6;"/>
	</a>
	<a ewd:lineID="26" style="cursor:pointer;">
		<path d=" M  424.93,  373.46  L  424.93,  418.22 " style="stroke:#99D9E8;stroke-width: 5.10 ;&st6;"/>
	</a>
	<a ewd:lineID="27" style="cursor:pointer;">
		<path d=" M  424.93,  307.73  L  424.93,  358.73 " style="stroke:#99D9E8;stroke-width: 5.10 ;&st6;"/>
	</a>
	<a ewd:lineID="28" style="cursor:pointer;">
		<path d=" M  841.36,  537.20  L  841.36,  664.67  L  467.42,  664.67  L  467.42,  511.70 " style="stroke:#000000;stroke-width: 5.10 ;&st6;"/>
		<path d=" M  841.36,  537.20  L  841.36,  664.67  L  467.42,  664.67  L  467.42,  511.70 " style="stroke:#FFFFFF;stroke-width: 4.53 ;&st6;"/>
		<path d=" M  841.36,  537.20  L  841.36,  664.67  L  467.42,  664.67  L  467.42,  511.70 " style="stroke:#000000;stroke-width: 1.13 ;&st6;"/>
	</a>
	<a ewd:lineID="29" style="cursor:pointer;">
		<path d=" M  467.42,  432.95  L  467.42,  477.71 " style="stroke:#56077D;stroke-width: 5.10 ;&st6;"/>
	</a>
	<a ewd:lineID="30" style="cursor:pointer;">
		<path d=" M  467.42,  373.46  L  467.42,  418.22 " style="stroke:#7FC97F;stroke-width: 5.10 ;&st6;"/>
	</a>
	<a ewd:lineID="31" style="cursor:pointer;">
		<path d=" M  467.42,  307.73  L  467.42,  358.73 " style="stroke:#7FC97F;stroke-width: 5.10 ;&st6;"/>
	</a>
	<a ewd:lineID="32" style="cursor:pointer;">
		<path d=" M  586.40,  373.46  L  586.40,  418.22 " style="stroke:#000000;stroke-width: 5.10 ;&st6;"/>
		<path d=" M  586.40,  373.46  L  586.40,  418.22 " style="stroke:#FFFFFF;stroke-width: 4.53 ;&st6;"/>
		<path d=" M  586.40,  373.46  L  586.40,  418.22 " style="stroke:#000000;stroke-width: 1.13 ;&st6;"/>
	</a>
	<a ewd:lineID="33" style="cursor:pointer;">
		<path d=" M  586.40,  307.73  L  586.40,  358.73 " style="stroke:#000000;stroke-width: 5.10 ;&st6;"/>
		<path d=" M  586.40,  307.73  L  586.40,  358.73 " style="stroke:#FFFFFF;stroke-width: 4.53 ;&st6;"/>
		<path d=" M  586.40,  307.73  L  586.40,  358.73 " style="stroke:#000000;stroke-width: 1.13 ;&st6;"/>
	</a>
	<a ewd:lineID="34" style="cursor:pointer;">
		<path d=" M  628.89,  452.21  L  628.89,  579.69  L  662.89,  579.69  L  662.89,  563.26 " style="stroke:#000000;stroke-width: 5.10 ;&st6;"/>
		<path d=" M  628.89,  452.21  L  628.89,  579.69  L  662.89,  579.69  L  662.89,  563.26 " style="stroke:#FFFFFF;stroke-width: 4.53 ;&st6;"/>
		<path d=" M  628.89,  452.21  L  628.89,  579.69  L  662.89,  579.69  L  662.89,  563.26 " style="stroke:#000000;stroke-width: 1.13 ;&st6;"/>
	</a>
	<a ewd:lineID="35" style="cursor:pointer;">
		<path d=" M  628.89,  373.46  L  628.89,  418.22 " style="stroke:#008837;stroke-width: 5.10 ;&st6;"/>
	</a>
	<a ewd:lineID="36" style="cursor:pointer;">
		<path d=" M  628.89,  307.73  L  628.89,  358.73 " style="stroke:#008837;stroke-width: 5.10 ;&st6;"/>
	</a>
	<a ewd:lineID="37" style="cursor:pointer;">
		<path d=" M  671.39,  373.46  L  671.39,  418.22 " style="stroke:#F668B2;stroke-width: 5.10 ;&st6;"/>
	</a>
	<a ewd:lineID="38" style="cursor:pointer;">
		<path d=" M  671.39,  307.73  L  671.39,  358.73 " style="stroke:#F668B2;stroke-width: 5.10 ;&st6;"/>
	</a>
	<a ewd:lineID="39" style="cursor:pointer;">
		<path d=" M  688.38,  511.13  L  688.38,  494.70  L  739.38,  494.70  L  739.38,  564.96 " style="stroke:#000000;stroke-width: 5.10 ;&st6;"/>
		<path d=" M  688.38,  511.13  L  688.38,  494.70  L  739.38,  494.70  L  739.38,  564.96 " style="stroke:#FFFFFF;stroke-width: 4.53 ;&st6;"/>
		<path d=" M  688.38,  511.13  L  688.38,  494.70  L  739.38,  494.70  L  739.38,  564.96 " style="stroke:#000000;stroke-width: 1.13 ;&st6;"/>
	</a>
	<a ewd:lineID="40" style="cursor:pointer;">
		<path d=" M  722.38,  373.46  L  722.38,  418.22 " style="stroke:#7FC97F;stroke-width: 5.10 ;&st6;"/>
	</a>
	<a ewd:lineID="41" style="cursor:pointer;">
		<path d=" M  722.38,  279.97  L  722.38,  358.73 " style="stroke:#00A0C6;stroke-width: 5.10 ;&st6;"/>
	</a>
	<a ewd:lineID="42" style="cursor:pointer;">
		<path d=" M  722.38,  197.82  L  722.38,  265.24 " style="stroke:#00A0C6;stroke-width: 5.10 ;&st6;"/>
	</a>
	<a ewd:lineID="43" style="cursor:pointer;">
		<path d=" M  739.38,  579.69  L  739.38,  681.67 " style="stroke:#000000;stroke-width: 5.10 ;&st6;"/>
		<path d=" M  739.38,  579.69  L  739.38,  681.67 " style="stroke:#FFFFFF;stroke-width: 4.53 ;&st6;"/>
		<path d=" M  739.38,  579.69  L  739.38,  681.67 " style="stroke:#000000;stroke-width: 1.13 ;&st6;"/>
	</a>
	<a ewd:lineID="44" style="cursor:pointer;">
		<path d=" M  790.37,  373.46  L  790.37,  418.22 " style="stroke:#7FC97F;stroke-width: 5.10 ;&st6;"/>
	</a>
	<a ewd:lineID="45" style="cursor:pointer;">
		<path d=" M  790.37,  279.97  L  790.37,  358.73 " style="stroke:#7FC97F;stroke-width: 5.10 ;&st6;"/>
	</a>
	<a ewd:lineID="46" style="cursor:pointer;">
		<path d=" M  790.37,  197.82  L  790.37,  265.24 " style="stroke:#7FC97F;stroke-width: 5.10 ;&st6;"/>
	</a>
	<a ewd:lineID="47" style="cursor:pointer;">
		<path d=" M  841.36,  452.21  L  841.36,  520.20 " style="stroke:#000000;stroke-width: 5.10 ;&st6;"/>
		<path d=" M  841.36,  452.21  L  841.36,  520.20 " style="stroke:#FFFFFF;stroke-width: 4.53 ;&st6;"/>
		<path d=" M  841.36,  452.21  L  841.36,  520.20 " style="stroke:#000000;stroke-width: 1.13 ;&st6;"/>
	</a>
	<a ewd:lineID="48" style="cursor:pointer;">
		<path d=" M  841.36,  373.46  L  841.36,  418.22 " style="stroke:#000000;stroke-width: 5.10 ;&st6;"/>
		<path d=" M  841.36,  373.46  L  841.36,  418.22 " style="stroke:#FFFFFF;stroke-width: 4.53 ;&st6;"/>
		<path d=" M  841.36,  373.46  L  841.36,  418.22 " style="stroke:#000000;stroke-width: 1.13 ;&st6;"/>
	</a>
	<a ewd:lineID="49" style="cursor:pointer;">
		<path d=" M  841.36,  307.73  L  841.36,  358.73 " style="stroke:#000000;stroke-width: 5.10 ;&st6;"/>
		<path d=" M  841.36,  307.73  L  841.36,  358.73 " style="stroke:#FFFFFF;stroke-width: 4.53 ;&st6;"/>
		<path d=" M  841.36,  307.73  L  841.36,  358.73 " style="stroke:#000000;stroke-width: 1.13 ;&st6;"/>
	</a>
	<a ewd:lineID="50" style="cursor:pointer;">
		<path d=" M  883.85,  613.68  L  883.85,  681.67 " style="stroke:#000000;stroke-width: 5.10 ;&st6;"/>
		<path d=" M  883.85,  613.68  L  883.85,  681.67 " style="stroke:#FFFFFF;stroke-width: 4.53 ;&st6;"/>
		<path d=" M  883.85,  613.68  L  883.85,  681.67 " style="stroke:#000000;stroke-width: 1.13 ;&st6;"/>
	</a>
	<a ewd:lineID="51" style="cursor:pointer;">
		<path d=" M  883.85,  537.20  L  883.85,  598.95 " style="stroke:#000000;stroke-width: 5.10 ;&st6;"/>
		<path d=" M  883.85,  537.20  L  883.85,  598.95 " style="stroke:#FFFFFF;stroke-width: 4.53 ;&st6;"/>
		<path d=" M  883.85,  537.20  L  883.85,  598.95 " style="stroke:#000000;stroke-width: 1.13 ;&st6;"/>
	</a>
	<a ewd:lineID="52" style="cursor:pointer;">
		<path d=" M  883.85,  373.46  L  883.85,  418.22 " style="stroke:#008837;stroke-width: 5.10 ;&st6;"/>
	</a>
	<a ewd:lineID="53" style="cursor:pointer;">
		<path d=" M  883.85,  307.73  L  883.85,  358.73 " style="stroke:#008837;stroke-width: 5.10 ;&st6;"/>
	</a>
	<a ewd:lineID="54" style="cursor:pointer;">
		<path d=" M  926.35,  373.46  L  926.35,  418.22 " style="stroke:#F668B2;stroke-width: 5.10 ;&st6;"/>
	</a>
	<a ewd:lineID="55" style="cursor:pointer;">
		<path d=" M  926.35,  307.73  L  926.35,  358.73 " style="stroke:#F668B2;stroke-width: 5.10 ;&st6;"/>
	</a>
	<path d=" M  161.47,   69.77  L  161.47,  103.77 " style="stroke-width: 0.85 ;&st7; "/>
	<path d=" M   50.99,  239.75  L   42.49,  239.75 " style="stroke-width: 1.42 ;&st7; "/>
	<path d=" M   50.99,  180.26  L   42.49,  180.26 " style="stroke-width: 1.42 ;&st7; "/>
	<path d=" M   93.48,  180.26  L   84.99,  180.26 " style="stroke-width: 1.42 ;&st7; "/>
	<path d=" M  163.60,  112.27  L  159.35,  112.27 " style="stroke-width: 1.42 ;&st7; "/>
	<path d=" M  163.60,  103.77  L  159.35,  103.77 " style="stroke-width: 1.42 ;&st7; "/>
	<path d=" M  248.58,  409.72  L  244.33,  409.72 " style="stroke-width: 1.42 ;&st7; "/>
	<path d=" M  248.58,  401.22  L  244.33,  401.22 " style="stroke-width: 1.42 ;&st7; "/>
	<path d=" M  248.58,  367.22  L  244.33,  367.22 " style="stroke-width: 1.42 ;&st7; "/>
	<path d=" M  248.58,  358.73  L  244.33,  358.73 " style="stroke-width: 1.42 ;&st7; "/>
	<path d=" M   42.49,   69.77  L   42.49,   78.27 " style="stroke-width: 0.85 ;&st7; "/>
	<path d=" M   44.62,  103.77  L   40.37,  103.77 " style="stroke-width: 1.42 ;&st7; "/>
	<path d=" M   44.62,  112.27  L   40.37,  112.27 " style="stroke-width: 1.42 ;&st7; "/>
	<path d=" M  206.09,  409.72  L  201.84,  409.72 " style="stroke-width: 1.42 ;&st7; "/>
	<path d=" M  206.09,  401.22  L  201.84,  401.22 " style="stroke-width: 1.42 ;&st7; "/>
	<path d=" M  206.09,  367.22  L  201.84,  367.22 " style="stroke-width: 1.42 ;&st7; "/>
	<path d=" M  206.09,  358.73  L  201.84,  358.73 " style="stroke-width: 1.42 ;&st7; "/>
	<path d=" M   42.49,   78.27  L   42.49,  103.77 " style="stroke-width: 0.85 ;&st7; "/>
	<path d=" M   87.11,  103.77  L   82.86,  103.77 " style="stroke-width: 1.42 ;&st7; "/>
	<path d=" M   87.11,  112.27  L   82.86,  112.27 " style="stroke-width: 1.42 ;&st7; "/>
	<path d=" M  305.95,  367.22  L  297.45,  367.22 " style="stroke-width: 1.42 ;&st7; "/>
	<path d=" M  348.44,  367.22  L  339.94,  367.22 " style="stroke-width: 1.42 ;&st7; "/>
	<path d=" M  433.43,  367.22  L  424.93,  367.22 " style="stroke-width: 1.42 ;&st7; "/>
	<path d=" M  475.92,  367.22  L  467.42,  367.22 " style="stroke-width: 1.42 ;&st7; "/>
	<path d=" M  305.95,  426.71  L  297.45,  426.71 " style="stroke-width: 1.42 ;&st7; "/>
	<path d=" M  348.44,  426.71  L  339.94,  426.71 " style="stroke-width: 1.42 ;&st7; "/>
	<path d=" M  433.43,  426.71  L  424.93,  426.71 " style="stroke-width: 1.42 ;&st7; "/>
	<path d=" M  475.92,  426.71  L  467.42,  426.71 " style="stroke-width: 1.42 ;&st7; "/>
	<path d=" M  594.90,  367.22  L  586.40,  367.22 " style="stroke-width: 1.42 ;&st7; "/>
	<path d=" M  637.39,  367.22  L  628.89,  367.22 " style="stroke-width: 1.42 ;&st7; "/>
	<path d=" M  679.89,  367.22  L  671.39,  367.22 " style="stroke-width: 1.42 ;&st7; "/>
	<path d=" M  730.88,  571.19  L  739.38,  571.19 " style="stroke-width: 1.42 ;&st7; "/>
	<path d=" M  730.88,  273.74  L  722.38,  273.74 " style="stroke-width: 1.42 ;&st7; "/>
	<path d=" M  730.88,  367.22  L  722.38,  367.22 " style="stroke-width: 1.42 ;&st7; "/>
	<path d=" M  798.87,  273.74  L  790.37,  273.74 " style="stroke-width: 1.42 ;&st7; "/>
	<path d=" M  798.87,  367.22  L  790.37,  367.22 " style="stroke-width: 1.42 ;&st7; "/>
	<path d=" M  849.86,  367.22  L  841.36,  367.22 " style="stroke-width: 1.42 ;&st7; "/>
	<path d=" M  892.35,  367.22  L  883.85,  367.22 " style="stroke-width: 1.42 ;&st7; "/>
	<path d=" M  934.84,  367.22  L  926.35,  367.22 " style="stroke-width: 1.42 ;&st7; "/>
	<path d=" M  875.35,  605.18  L  883.85,  605.18 " style="stroke-width: 1.42 ;&st7; "/>
	<path d=" M  344.19,  435.78  L  339.94,  431.53  L  335.69,  435.78 " style="stroke-width: 1.42 ;&st7; "/>
	<path d=" M  888.10,  599.52  L  883.85,  603.77  L  879.60,  599.52 " style="stroke-width: 1.42 ;&st7; "/>
	<path d=" M  879.60,  596.12  L  883.85,  600.37  L  888.10,  596.12 " style="stroke-width: 1.42 ;&st7; "/>
	<path d=" M  882.44,  710.00  L  885.27,  710.00 " style="stroke-width: 0.85 ;&st7; "/>
	<path d=" M  881.02,  707.17  L  886.68,  707.17 " style="stroke-width: 0.85 ;&st7; "/>
	<path d=" M  879.60,  704.33  L  888.10,  704.33 " style="stroke-width: 0.85 ;&st7; "/>
	<path d=" M  875.35,  701.50  L  892.35,  701.50 " style="stroke-width: 0.85 ;&st7; "/>
	<path d=" M  883.85,  697.25  L  883.85,  701.50 " style="stroke-width: 0.85 ;&st7; "/>
	<path d=" M  841.36,  528.70  L  883.85,  528.70  L  883.85,  537.20 " style="stroke-width: 0.85 ;&st7; "/>
	<path d=" M  840.17,  527.69  L  839.89,  528.16  L  839.80,  528.70  L  839.89,  529.23  L  840.17,  529.70  L  840.58,  530.05  L  841.09,  530.23  L  841.63,  530.23  L  842.14,  530.05  L  842.55,  529.70  L  842.82,  529.23  L  842.92,  528.70  L  842.82,  528.16  L  842.55,  527.69  L  842.14,  527.35  L  841.63,  527.16  L  841.09,  527.16  L  840.58,  527.35  L  840.17,  527.69  L  840.56,  528.41  L  840.56,  528.99  L  840.93,  529.43  L  841.51,  529.53  L  842.01,  529.24  L  842.21,  528.70  L  842.01,  528.15  L  841.51,  527.86  L  840.93,  527.96  L  841.36,  528.70 " style="stroke-width: 0.85 ;&st7; "/>
	<path d=" M  841.36,  520.20  L  841.36,  537.20 " style="stroke-width: 0.85 ;&st7; "/>
	<path d=" M  832.86,  520.20  L  892.35,  520.20  L  892.35,  537.20  L  832.86,  537.20  L  832.86,  520.20 " style="stroke-width: 1.42 ;&st7; "/>
	<path d=" M  930.59,  372.89  L  926.34,  368.64  L  922.10,  372.89 " style="stroke-width: 1.42 ;&st7; "/>
	<path d=" M  930.59,  376.29  L  926.34,  372.04  L  922.10,  376.29 " style="stroke-width: 1.42 ;&st7; "/>
	<path d=" M  888.10,  372.89  L  883.85,  368.64  L  879.60,  372.89 " style="stroke-width: 1.42 ;&st7; "/>
	<path d=" M  888.10,  376.29  L  883.85,  372.04  L  879.60,  376.29 " style="stroke-width: 1.42 ;&st7; "/>
	<path d=" M  845.61,  372.89  L  841.36,  368.64  L  837.11,  372.89 " style="stroke-width: 1.42 ;&st7; "/>
	<path d=" M  845.61,  376.29  L  841.36,  372.04  L  837.11,  376.29 " style="stroke-width: 1.42 ;&st7; "/>
	<path d=" M  824.36,  265.24  L  824.36,  307.73  L  943.34,  307.73  L  943.34,  265.24  L  824.36,  265.24 " style="stroke-width: 1.42 ;&st7; "/>
	<path d=" M  773.37,  418.22  L  773.37,  452.21  L  943.34,  452.21  L  943.34,  418.22  L  773.37,  418.22 " style="stroke-width: 1.42 ;&st7; "/>
	<path d=" M  794.62,  372.89  L  790.37,  368.64  L  786.12,  372.89 " style="stroke-width: 1.42 ;&st7; "/>
	<path d=" M  794.62,  376.29  L  790.37,  372.04  L  786.12,  376.29 " style="stroke-width: 1.42 ;&st7; "/>
	<path d=" M  794.62,  279.41  L  790.37,  275.16  L  786.12,  279.41 " style="stroke-width: 1.42 ;&st7; "/>
	<path d=" M  794.62,  282.80  L  790.37,  278.56  L  786.12,  282.80 " style="stroke-width: 1.42 ;&st7; "/>
	<path d=" M  726.63,  372.89  L  722.38,  368.64  L  718.13,  372.89 " style="stroke-width: 1.42 ;&st7; "/>
	<path d=" M  726.63,  376.29  L  722.38,  372.04  L  718.13,  376.29 " style="stroke-width: 1.42 ;&st7; "/>
	<path d=" M  726.63,  279.41  L  722.38,  275.16  L  718.13,  279.41 " style="stroke-width: 1.42 ;&st7; "/>
	<path d=" M  726.63,  282.80  L  722.38,  278.56  L  718.13,  282.80 " style="stroke-width: 1.42 ;&st7; "/>
	<path d=" M  737.96,  710.00  L  740.79,  710.00 " style="stroke-width: 0.85 ;&st7; "/>
	<path d=" M  736.54,  707.17  L  742.21,  707.17 " style="stroke-width: 0.85 ;&st7; "/>
	<path d=" M  735.13,  704.33  L  743.63,  704.33 " style="stroke-width: 0.85 ;&st7; "/>
	<path d=" M  730.88,  701.50  L  747.87,  701.50 " style="stroke-width: 0.85 ;&st7; "/>
	<path d=" M  739.38,  697.25  L  739.38,  701.50 " style="stroke-width: 0.85 ;&st7; "/>
	<path d=" M  743.63,  565.52  L  739.38,  569.77  L  735.13,  565.52 " style="stroke-width: 1.42 ;&st7; "/>
	<path d=" M  735.13,  562.12  L  739.38,  566.37  L  743.63,  562.12 " style="stroke-width: 1.42 ;&st7; "/>
	<path d=" M  688.38,  537.20  L  662.89,  537.20  L  662.89,  554.19 " style="stroke-width: 0.85 ;&st7; "/>
	<path d=" M  654.39,  545.69  L  696.88,  545.69 " style="stroke-width: 1.13 ;&st7;stroke-dasharray:3, 1.5;"/>
	<path d=" M  654.39,  528.70  L  696.88,  528.70 " style="stroke-width: 1.13 ;&st7;stroke-dasharray:3, 1.5;"/>
	<path d=" M  687.19,  536.19  L  686.92,  536.66  L  686.83,  537.20  L  686.92,  537.73  L  687.19,  538.20  L  687.61,  538.54  L  688.11,  538.73  L  688.66,  538.73  L  689.16,  538.54  L  689.58,  538.20  L  689.85,  537.73  L  689.94,  537.20  L  689.85,  536.66  L  689.58,  536.19  L  689.16,  535.85  L  688.66,  535.66  L  688.11,  535.66  L  687.61,  535.85  L  687.19,  536.19  L  687.59,  536.90  L  687.59,  537.49  L  687.96,  537.93  L  688.53,  538.03  L  689.04,  537.74  L  689.23,  537.20  L  689.04,  536.65  L  688.53,  536.36  L  687.96,  536.46  L  688.38,  537.20 " style="stroke-width: 0.85 ;&st7; "/>
	<path d=" M  688.38,  554.19  L  688.38,  520.20 " style="stroke-width: 0.85 ;&st7; "/>
	<path d=" M  654.39,  520.20  L  654.39,  554.19  L  696.88,  554.19  L  696.88,  520.20  L  654.39,  520.20 " style="stroke-width: 1.42 ;&st7; "/>
	<path d=" M  569.40,  418.22  L  569.40,  452.21  L  739.38,  452.21  L  739.38,  418.22  L  569.40,  418.22 " style="stroke-width: 1.42 ;&st7; "/>
	<path d=" M  675.64,  372.89  L  671.39,  368.64  L  667.14,  372.89 " style="stroke-width: 1.42 ;&st7; "/>
	<path d=" M  675.64,  376.29  L  671.39,  372.04  L  667.14,  376.29 " style="stroke-width: 1.42 ;&st7; "/>
	<path d=" M  633.14,  372.89  L  628.89,  368.64  L  624.65,  372.89 " style="stroke-width: 1.42 ;&st7; "/>
	<path d=" M  633.14,  376.29  L  628.89,  372.04  L  624.65,  376.29 " style="stroke-width: 1.42 ;&st7; "/>
	<path d=" M  590.65,  372.89  L  586.40,  368.64  L  582.15,  372.89 " style="stroke-width: 1.42 ;&st7; "/>
	<path d=" M  590.65,  376.29  L  586.40,  372.04  L  582.15,  376.29 " style="stroke-width: 1.42 ;&st7; "/>
	<path d=" M  569.40,  265.24  L  569.40,  307.73  L  688.38,  307.73  L  688.38,  265.24  L  569.40,  265.24 " style="stroke-width: 1.42 ;&st7; "/>
	<path d=" M  423.74,  570.19  L  423.46,  570.66  L  423.37,  571.19  L  423.46,  571.72  L  423.74,  572.19  L  424.15,  572.54  L  424.66,  572.73  L  425.20,  572.73  L  425.71,  572.54  L  426.12,  572.19  L  426.39,  571.72  L  426.49,  571.19  L  426.39,  570.66  L  426.12,  570.19  L  425.71,  569.84  L  425.20,  569.65  L  424.66,  569.65  L  424.15,  569.84  L  423.74,  570.19  L  424.13,  570.90  L  424.13,  571.48  L  424.50,  571.93  L  425.08,  572.03  L  425.58,  571.74  L  425.78,  571.19  L  425.58,  570.64  L  425.08,  570.35  L  424.50,  570.45  L  424.93,  571.19 " style="stroke-width: 0.85 ;&st7; "/>
	<path d=" M  424.93,  571.19  L  390.93,  571.19  L  390.93,  579.69 " style="stroke-width: 0.85 ;&st7; "/>
	<path d=" M  382.44,  562.69  L  433.43,  562.69  L  433.43,  579.69  L  382.44,  579.69  L  382.44,  562.69 " style="stroke-width: 1.42 ;&st7; "/>
	<path d=" M  424.93,  562.69  L  424.93,  579.69 " style="stroke-width: 0.85 ;&st7; "/>
	<path d=" M  407.93,  477.71  L  407.93,  511.70  L  484.42,  511.70  L  484.42,  477.71  L  407.93,  477.71 " style="stroke-width: 1.42 ;&st7; "/>
	<path d=" M  280.45,  477.71  L  280.45,  511.70  L  356.94,  511.70  L  356.94,  477.71  L  280.45,  477.71 " style="stroke-width: 1.42 ;&st7; "/>
	<path d=" M  471.67,  432.38  L  467.42,  428.13  L  463.17,  432.38 " style="stroke-width: 1.42 ;&st7; "/>
	<path d=" M  471.67,  435.78  L  467.42,  431.53  L  463.17,  435.78 " style="stroke-width: 1.42 ;&st7; "/>
	<path d=" M  429.18,  432.38  L  424.93,  428.13  L  420.68,  432.38 " style="stroke-width: 1.42 ;&st7; "/>
	<path d=" M  429.18,  435.78  L  424.93,  431.53  L  420.68,  435.78 " style="stroke-width: 1.42 ;&st7; "/>
	<path d=" M  344.19,  432.38  L  339.94,  428.13  L  335.69,  432.38 " style="stroke-width: 1.42 ;&st7; "/>
	<path d=" M  301.70,  432.38  L  297.45,  428.13  L  293.20,  432.38 " style="stroke-width: 1.42 ;&st7; "/>
	<path d=" M  301.70,  435.78  L  297.45,  431.53  L  293.20,  435.78 " style="stroke-width: 1.42 ;&st7; "/>
	<path d=" M  471.67,  372.89  L  467.42,  368.64  L  463.17,  372.89 " style="stroke-width: 1.42 ;&st7; "/>
	<path d=" M  471.67,  376.29  L  467.42,  372.04  L  463.17,  376.29 " style="stroke-width: 1.42 ;&st7; "/>
	<path d=" M  429.18,  372.89  L  424.93,  368.64  L  420.68,  372.89 " style="stroke-width: 1.42 ;&st7; "/>
	<path d=" M  429.18,  376.29  L  424.93,  372.04  L  420.68,  376.29 " style="stroke-width: 1.42 ;&st7; "/>
	<path d=" M  344.19,  372.89  L  339.94,  368.64  L  335.69,  372.89 " style="stroke-width: 1.42 ;&st7; "/>
	<path d=" M  344.19,  376.29  L  339.94,  372.04  L  335.69,  376.29 " style="stroke-width: 1.42 ;&st7; "/>
	<path d=" M  301.70,  372.89  L  297.45,  368.64  L  293.20,  372.89 " style="stroke-width: 1.42 ;&st7; "/>
	<path d=" M  301.70,  376.29  L  297.45,  372.04  L  293.20,  376.29 " style="stroke-width: 1.42 ;&st7; "/>
	<path d=" M   83.79,  272.74  L   83.52,  273.21  L   83.43,  273.74  L   83.52,  274.27  L   83.79,  274.74  L   84.21,  275.09  L   84.71,  275.28  L   85.26,  275.28  L   85.76,  275.09  L   86.18,  274.74  L   86.45,  274.27  L   86.54,  273.74  L   86.45,  273.21  L   86.18,  272.74  L   85.76,  272.39  L   85.26,  272.20  L   84.71,  272.20  L   84.21,  272.39  L   83.79,  272.74  L   84.19,  273.45  L   84.19,  274.03  L   84.56,  274.48  L   85.13,  274.58  L   85.64,  274.29  L   85.84,  273.74  L   85.64,  273.19  L   85.13,  272.90  L   84.56,  273.00  L   84.99,  273.74 " style="stroke-width: 0.85 ;&st7; "/>
	<path d=" M   76.49,  282.24  L  118.98,  282.24 " style="stroke-width: 1.13 ;&st7;stroke-dasharray:3, 1.5;"/>
	<path d=" M   76.49,  265.24  L  118.98,  265.24 " style="stroke-width: 1.13 ;&st7;stroke-dasharray:3, 1.5;"/>
	<path d=" M   84.99,  273.74  L  110.48,  273.74 " style="stroke-width: 0.85 ;&st7; "/>
	<path d=" M  110.48,  273.74  L  110.48,  290.74 " style="stroke-width: 0.85 ;&st7; "/>
	<path d=" M   84.99,  256.74  L   84.99,  290.74 " style="stroke-width: 0.85 ;&st7; "/>
	<path d=" M   76.49,  256.74  L   76.49,  290.74  L  118.98,  290.74  L  118.98,  256.74  L   76.49,  256.74 " style="stroke-width: 1.42 ;&st7; "/>
	<path d=" M  186.97,  265.24  L  186.97,  307.73  L  484.42,  307.73  L  484.42,  265.24  L  186.97,  265.24 " style="stroke-width: 1.42 ;&st7; "/>
	<path d=" M   42.49,   86.77  L   84.99,   86.77  L   84.99,  103.77 " style="stroke-width: 0.85 ;&st7; "/>
	<path d=" M   41.30,   85.77  L   41.03,   86.24  L   40.93,   86.77  L   41.03,   87.30  L   41.30,   87.77  L   41.71,   88.12  L   42.22,   88.31  L   42.76,   88.31  L   43.27,   88.12  L   43.69,   87.77  L   43.96,   87.30  L   44.05,   86.77  L   43.96,   86.24  L   43.69,   85.77  L   43.27,   85.42  L   42.76,   85.24  L   42.22,   85.24  L   41.71,   85.42  L   41.30,   85.77  L   41.69,   86.48  L   41.69,   87.06  L   42.07,   87.51  L   42.64,   87.61  L   43.14,   87.32  L   43.34,   86.77  L   43.14,   86.22  L   42.64,   85.94  L   42.07,   86.03  L   42.49,   86.77 " style="stroke-width: 0.85 ;&st7; "/>
	<path d=" M   29.75,   35.78  L   29.75,   78.27  L   55.24,   78.27  L   55.24,   35.78  L   29.75,   35.78 " style="stroke-width: 1.42 ;&st7; "/>
	<path d=" M   42.49,   98.87  L   39.66,   96.04  L   39.66,  100.29  L   42.49,  103.12  L   45.33,  100.29  L   45.33,   96.04  L   42.49,   98.87 " style="stroke-width: 0.28 ;&st9;"/>
	<path d=" M  203.97,  372.12  L  206.80,  374.95  L  206.80,  370.70  L  203.97,  367.87  L  201.13,  370.70  L  201.13,  374.95  L  203.97,  372.12 " style="stroke-width: 0.28 ;&st9;"/>
	<path d=" M  203.97,  396.32  L  201.13,  393.49  L  201.13,  397.74  L  203.97,  400.57  L  206.80,  397.74  L  206.80,  393.49  L  203.97,  396.32 " style="stroke-width: 0.28 ;&st9;"/>
	<path d=" M  203.97,  401.22  L  203.97,  367.22 " style="stroke-width: 0.85 ;&st7; "/>
	<path d=" M  246.46,  372.12  L  249.29,  374.95  L  249.29,  370.70  L  246.46,  367.87  L  243.63,  370.70  L  243.63,  374.95  L  246.46,  372.12 " style="stroke-width: 0.28 ;&st9;"/>
	<path d=" M  246.46,  396.32  L  243.63,  393.49  L  243.63,  397.74  L  246.46,  400.57  L  249.29,  397.74  L  249.29,  393.49  L  246.46,  396.32 " style="stroke-width: 0.28 ;&st9;"/>
	<path d=" M  246.46,  401.22  L  246.46,  367.22 " style="stroke-width: 0.85 ;&st7; "/>
	<path d=" M  161.47,   98.87  L  158.64,   96.04  L  158.64,  100.29  L  161.47,  103.12  L  164.31,  100.29  L  164.31,   96.04  L  161.47,   98.87 " style="stroke-width: 0.28 ;&st9;"/>
	<path d=" M  242.21,  704.33  L  250.71,  704.33 " style="stroke-width: 0.85 ;&st7; "/>
	<path d=" M  246.46,  697.25  L  246.46,  701.50 " style="stroke-width: 0.85 ;&st7; "/>
	<path d=" M  237.96,  701.50  L  254.96,  701.50 " style="stroke-width: 0.85 ;&st7; "/>
	<path d=" M  237.96,  656.18  L  237.96,  673.17  L  254.96,  673.17  L  254.96,  656.18  L  237.96,  656.18 " style="stroke-width: 1.42 ;&st7; "/>
	<path d=" M  246.46,  656.18  L  246.46,  681.67 " style="stroke-width: 0.85 ;&st7; "/>
	<path d=" M  245.04,  710.00  L  247.88,  710.00 " style="stroke-width: 0.85 ;&st7; "/>
	<path d=" M  243.63,  707.17  L  249.29,  707.17 " style="stroke-width: 0.85 ;&st7; "/>
	<path d=" M   84.99,   98.87  L   82.15,   96.04  L   82.15,  100.29  L   84.99,  103.12  L   87.82,  100.29  L   87.82,   96.04  L   84.99,   98.87 " style="stroke-width: 0.28 ;&st9;"/>
	<path d=" M   89.24,  189.32  L   84.99,  185.07  L   80.74,  189.32 " style="stroke-width: 1.42 ;&st7; "/>
	<path d=" M   89.24,  185.92  L   84.99,  181.67  L   80.74,  185.92 " style="stroke-width: 1.42 ;&st7; "/>
	<path d=" M   46.74,  189.32  L   42.49,  185.07  L   38.24,  189.32 " style="stroke-width: 1.42 ;&st7; "/>
	<path d=" M   46.74,  185.92  L   42.49,  181.67  L   38.24,  185.92 " style="stroke-width: 1.42 ;&st7; "/>
	<path d=" M   46.74,  248.81  L   42.49,  244.56  L   38.24,  248.81 " style="stroke-width: 1.42 ;&st7; "/>
	<path d=" M   46.74,  245.41  L   42.49,  241.16  L   38.24,  245.41 " style="stroke-width: 1.42 ;&st7; "/>
	<path d=" M  186.97,  146.26  L  186.97,  188.75  L  807.36,  188.75  L  807.36,  146.26  L  186.97,  146.26 " style="stroke-width: 1.42 ;&st7; "/>
	<path d=" M  148.73,   35.78  L  148.73,   78.27  L  174.22,   78.27  L  174.22,   35.78  L  148.73,   35.78 " style="stroke-width: 1.42 ;&st7; "/>
	<path d=" M  161.47,   47.11  C  158.74    48.72   157.82    52.25   159.44    54.99 " style="stroke-width: 1.42 ;&st7; "/>
	<path d=" M  159.44,   54.99  C  159.96    55.87   160.59    56.51   161.47    57.03 " style="stroke-width: 1.42 ;&st7; "/>
	<path d=" M  161.47,   66.94  C  164.21    65.33   165.12    61.80   163.51    59.06 " style="stroke-width: 1.42 ;&st7; "/>
	<path d=" M  163.51,   59.06  C  162.99    58.18   162.35    57.55   161.47    57.03 " style="stroke-width: 1.42 ;&st7; "/>
	<path d=" M  162.89,   45.69  C  162.89    44.91   162.26    44.28   161.47    44.28 " style="stroke-width: 0.85 ;&st7; "/>
	<path d=" M  161.47,   44.28  C  160.69    44.28   160.06    44.91   160.06    45.69 " style="stroke-width: 0.85 ;&st7; "/>
	<path d=" M  160.06,   45.69  C  160.06    46.48   160.69    47.11   161.47    47.11 " style="stroke-width: 0.85 ;&st7; "/>
	<path d=" M  161.47,   47.11  C  162.26    47.11   162.89    46.48   162.89    45.69 " style="stroke-width: 0.85 ;&st7; "/>
	<path d=" M  162.89,   68.36  C  162.89    67.57   162.26    66.94   161.47    66.94 " style="stroke-width: 0.85 ;&st7; "/>
	<path d=" M  161.47,   66.94  C  160.69    66.94   160.06    67.57   160.06    68.36 " style="stroke-width: 0.85 ;&st7; "/>
	<path d=" M  160.06,   68.36  C  160.06    69.14   160.69    69.77   161.47    69.77 " style="stroke-width: 0.85 ;&st7; "/>
	<path d=" M  161.47,   69.77  C  162.26    69.77   162.89    69.14   162.89    68.36 " style="stroke-width: 0.85 ;&st7; "/>
	<path d=" M  250.99,  193.29  C  250.99   190.78   248.96   188.75   246.46   188.75 " style="stroke-width: 1.42 ;&st7; "/>
	<path d=" M  246.46,  188.75  C  243.96   188.75   241.93   190.78   241.93   193.29 " style="stroke-width: 1.42 ;&st7; "/>
	<path d=" M  241.93,  193.29  C  241.93   195.79   243.96   197.82   246.46   197.82 " style="stroke-width: 1.42 ;&st7; "/>
	<path d=" M  246.46,  197.82  C  248.96   197.82   250.99   195.79   250.99   193.29 " style="stroke-width: 1.42 ;&st7; "/>
	<path d=" M  293.48,  193.29  C  293.48   190.78   291.45   188.75   288.95   188.75 " style="stroke-width: 1.42 ;&st7; "/>
	<path d=" M  288.95,  188.75  C  286.45   188.75   284.42   190.78   284.42   193.29 " style="stroke-width: 1.42 ;&st7; "/>
	<path d=" M  284.42,  193.29  C  284.42   195.79   286.45   197.82   288.95   197.82 " style="stroke-width: 1.42 ;&st7; "/>
	<path d=" M  288.95,  197.82  C  291.45   197.82   293.48   195.79   293.48   193.29 " style="stroke-width: 1.42 ;&st7; "/>
	<path d=" M  335.98,  193.29  C  335.98   190.78   333.95   188.75   331.44   188.75 " style="stroke-width: 1.42 ;&st7; "/>
	<path d=" M  331.44,  188.75  C  328.94   188.75   326.91   190.78   326.91   193.29 " style="stroke-width: 1.42 ;&st7; "/>
	<path d=" M  326.91,  193.29  C  326.91   195.79   328.94   197.82   331.44   197.82 " style="stroke-width: 1.42 ;&st7; "/>
	<path d=" M  331.44,  197.82  C  333.95   197.82   335.98   195.79   335.98   193.29 " style="stroke-width: 1.42 ;&st7; "/>
	<path d=" M   91.36,  108.02  C   91.36   105.67    89.46   103.77    87.11   103.77 " style="stroke-width: 1.42 ;&st7; "/>
	<path d=" M   87.11,  112.27  C   89.46   112.27    91.36   110.36    91.36   108.02 " style="stroke-width: 1.42 ;&st7; "/>
	<path d=" M   78.61,  108.02  C   78.61   110.36    80.51   112.27    82.86   112.27 " style="stroke-width: 1.42 ;&st7; "/>
	<path d=" M   82.86,  103.77  C   80.51   103.77    78.61   105.67    78.61   108.02 " style="stroke-width: 1.42 ;&st7; "/>
	<path d=" M  167.85,  108.02  C  167.85   105.67   165.94   103.77   163.60   103.77 " style="stroke-width: 1.42 ;&st7; "/>
	<path d=" M  163.60,  112.27  C  165.94   112.27   167.85   110.36   167.85   108.02 " style="stroke-width: 1.42 ;&st7; "/>
	<path d=" M  155.10,  108.02  C  155.10   110.36   157.00   112.27   159.35   112.27 " style="stroke-width: 1.42 ;&st7; "/>
	<path d=" M  159.35,  103.77  C  157.00   103.77   155.10   105.67   155.10   108.02 " style="stroke-width: 1.42 ;&st7; "/>
	<path d=" M  252.83,  405.47  C  252.83   403.12   250.93   401.22   248.58   401.22 " style="stroke-width: 1.42 ;&st7; "/>
	<path d=" M  248.58,  409.72  C  250.93   409.72   252.83   407.81   252.83   405.47 " style="stroke-width: 1.42 ;&st7; "/>
	<path d=" M  240.08,  405.47  C  240.08   407.81   241.99   409.72   244.33   409.72 " style="stroke-width: 1.42 ;&st7; "/>
	<path d=" M  244.33,  401.22  C  241.99   401.22   240.08   403.12   240.08   405.47 " style="stroke-width: 1.42 ;&st7; "/>
	<path d=" M  252.83,  362.97  C  252.83   360.63   250.93   358.73   248.58   358.73 " style="stroke-width: 1.42 ;&st7; "/>
	<path d=" M  248.58,  367.22  C  250.93   367.22   252.83   365.32   252.83   362.97 " style="stroke-width: 1.42 ;&st7; "/>
	<path d=" M  240.08,  362.97  C  240.08   365.32   241.99   367.22   244.33   367.22 " style="stroke-width: 1.42 ;&st7; "/>
	<path d=" M  244.33,  358.73  C  241.99   358.73   240.08   360.63   240.08   362.97 " style="stroke-width: 1.42 ;&st7; "/>
	<path d=" M  210.34,  405.47  C  210.34   403.12   208.44   401.22   206.09   401.22 " style="stroke-width: 1.42 ;&st7; "/>
	<path d=" M  206.09,  409.72  C  208.44   409.72   210.34   407.81   210.34   405.47 " style="stroke-width: 1.42 ;&st7; "/>
	<path d=" M  197.59,  405.47  C  197.59   407.81   199.49   409.72   201.84   409.72 " style="stroke-width: 1.42 ;&st7; "/>
	<path d=" M  201.84,  401.22  C  199.49   401.22   197.59   403.12   197.59   405.47 " style="stroke-width: 1.42 ;&st7; "/>
	<path d=" M  210.34,  362.97  C  210.34   360.63   208.44   358.73   206.09   358.73 " style="stroke-width: 1.42 ;&st7; "/>
	<path d=" M  206.09,  367.22  C  208.44   367.22   210.34   365.32   210.34   362.97 " style="stroke-width: 1.42 ;&st7; "/>
	<path d=" M  197.59,  362.97  C  197.59   365.32   199.49   367.22   201.84   367.22 " style="stroke-width: 1.42 ;&st7; "/>
	<path d=" M  201.84,  358.73  C  199.49   358.73   197.59   360.63   197.59   362.97 " style="stroke-width: 1.42 ;&st7; "/>
	<path d=" M   42.49,   47.11  C   39.75    48.72    38.84    52.25    40.46    54.99 " style="stroke-width: 1.42 ;&st7; "/>
	<path d=" M   40.46,   54.99  C   40.98    55.87    41.61    56.51    42.49    57.03 " style="stroke-width: 1.42 ;&st7; "/>
	<path d=" M   42.49,   66.94  C   45.23    65.33    46.14    61.80    44.53    59.06 " style="stroke-width: 1.42 ;&st7; "/>
	<path d=" M   44.53,   59.06  C   44.01    58.18    43.37    57.55    42.49    57.03 " style="stroke-width: 1.42 ;&st7; "/>
	<path d=" M   43.91,   45.69  C   43.91    44.91    43.28    44.28    42.49    44.28 " style="stroke-width: 0.85 ;&st7; "/>
	<path d=" M   42.49,   44.28  C   41.71    44.28    41.08    44.91    41.08    45.69 " style="stroke-width: 0.85 ;&st7; "/>
	<path d=" M   41.08,   45.69  C   41.08    46.48    41.71    47.11    42.49    47.11 " style="stroke-width: 0.85 ;&st7; "/>
	<path d=" M   42.49,   47.11  C   43.28    47.11    43.91    46.48    43.91    45.69 " style="stroke-width: 0.85 ;&st7; "/>
	<path d=" M   43.91,   68.36  C   43.91    67.57    43.28    66.94    42.49    66.94 " style="stroke-width: 0.85 ;&st7; "/>
	<path d=" M   42.49,   66.94  C   41.71    66.94    41.08    67.57    41.08    68.36 " style="stroke-width: 0.85 ;&st7; "/>
	<path d=" M   41.08,   68.36  C   41.08    69.14    41.71    69.77    42.49    69.77 " style="stroke-width: 0.85 ;&st7; "/>
	<path d=" M   42.49,   69.77  C   43.28    69.77    43.91    69.14    43.91    68.36 " style="stroke-width: 0.85 ;&st7; "/>
	<path d=" M   40.37,  103.77  C   38.02   103.77    36.12   105.67    36.12   108.02 " style="stroke-width: 1.42 ;&st7; "/>
	<path d=" M   36.12,  108.02  C   36.12   110.36    38.02   112.27    40.37   112.27 " style="stroke-width: 1.42 ;&st7; "/>
	<path d=" M   44.62,  112.27  C   46.96   112.27    48.87   110.36    48.87   108.02 " style="stroke-width: 1.42 ;&st7; "/>
	<path d=" M   48.87,  108.02  C   48.87   105.67    46.96   103.77    44.62   103.77 " style="stroke-width: 1.42 ;&st7; "/>
	<path d=" M  208.50,  193.29  C  208.50   190.78   206.47   188.75   203.97   188.75 " style="stroke-width: 1.42 ;&st7; "/>
	<path d=" M  203.97,  188.75  C  201.46   188.75   199.43   190.78   199.43   193.29 " style="stroke-width: 1.42 ;&st7; "/>
	<path d=" M  199.43,  193.29  C  199.43   195.79   201.46   197.82   203.97   197.82 " style="stroke-width: 1.42 ;&st7; "/>
	<path d=" M  203.97,  197.82  C  206.47   197.82   208.50   195.79   208.50   193.29 " style="stroke-width: 1.42 ;&st7; "/>
	<path d=" M   89.52,  295.27  C   89.52   292.77    87.49   290.74    84.99   290.74 " style="stroke-width: 1.42 ;&st7; "/>
	<path d=" M   84.99,  290.74  C   82.48   290.74    80.45   292.77    80.45   295.27 " style="stroke-width: 1.42 ;&st7; "/>
	<path d=" M   80.45,  295.27  C   80.45   297.77    82.48   299.80    84.99   299.80 " style="stroke-width: 1.42 ;&st7; "/>
	<path d=" M   84.99,  299.80  C   87.49   299.80    89.52   297.77    89.52   295.27 " style="stroke-width: 1.42 ;&st7; "/>
	<path d=" M  115.01,  295.27  C  115.01   292.77   112.98   290.74   110.48   290.74 " style="stroke-width: 1.42 ;&st7; "/>
	<path d=" M  110.48,  290.74  C  107.98   290.74   105.95   292.77   105.95   295.27 " style="stroke-width: 1.42 ;&st7; "/>
	<path d=" M  105.95,  295.27  C  105.95   297.77   107.98   299.80   110.48   299.80 " style="stroke-width: 1.42 ;&st7; "/>
	<path d=" M  110.48,  299.80  C  112.98   299.80   115.01   297.77   115.01   295.27 " style="stroke-width: 1.42 ;&st7; "/>
	<path d=" M   89.52,  252.21  C   89.52   249.71    87.49   247.68    84.99   247.68 " style="stroke-width: 1.42 ;&st7; "/>
	<path d=" M   84.99,  247.68  C   82.48   247.68    80.45   249.71    80.45   252.21 " style="stroke-width: 1.42 ;&st7; "/>
	<path d=" M   80.45,  252.21  C   80.45   254.71    82.48   256.74    84.99   256.74 " style="stroke-width: 1.42 ;&st7; "/>
	<path d=" M   84.99,  256.74  C   87.49   256.74    89.52   254.71    89.52   252.21 " style="stroke-width: 1.42 ;&st7; "/>
	<path d=" M  667.42,  558.73  C  667.42   556.22   665.39   554.19   662.89   554.19 " style="stroke-width: 1.42 ;&st7; "/>
	<path d=" M  662.89,  554.19  C  660.39   554.19   658.36   556.22   658.36   558.73 " style="stroke-width: 1.42 ;&st7; "/>
	<path d=" M  658.36,  558.73  C  658.36   561.23   660.39   563.26   662.89   563.26 " style="stroke-width: 1.42 ;&st7; "/>
	<path d=" M  662.89,  563.26  C  665.39   563.26   667.42   561.23   667.42   558.73 " style="stroke-width: 1.42 ;&st7; "/>
	<path d=" M  692.92,  558.73  C  692.92   556.22   690.89   554.19   688.38   554.19 " style="stroke-width: 1.42 ;&st7; "/>
	<path d=" M  688.38,  554.19  C  685.88   554.19   683.85   556.22   683.85   558.73 " style="stroke-width: 1.42 ;&st7; "/>
	<path d=" M  683.85,  558.73  C  683.85   561.23   685.88   563.26   688.38   563.26 " style="stroke-width: 1.42 ;&st7; "/>
	<path d=" M  688.38,  563.26  C  690.89   563.26   692.92   561.23   692.92   558.73 " style="stroke-width: 1.42 ;&st7; "/>
	<path d=" M  692.92,  515.67  C  692.92   513.16   690.89   511.13   688.38   511.13 " style="stroke-width: 1.42 ;&st7; "/>
	<path d=" M  688.38,  511.13  C  685.88   511.13   683.85   513.16   683.85   515.67 " style="stroke-width: 1.42 ;&st7; "/>
	<path d=" M  683.85,  515.67  C  683.85   518.17   685.88   520.20   688.38   520.20 " style="stroke-width: 1.42 ;&st7; "/>
	<path d=" M  688.38,  520.20  C  690.89   520.20   692.92   518.17   692.92   515.67 " style="stroke-width: 1.42 ;&st7; "/>
	<path d=" M  726.91,  193.29  C  726.91   190.78   724.88   188.75   722.38   188.75 " style="stroke-width: 1.42 ;&st7; "/>
	<path d=" M  722.38,  188.75  C  719.88   188.75   717.85   190.78   717.85   193.29 " style="stroke-width: 1.42 ;&st7; "/>
	<path d=" M  717.85,  193.29  C  717.85   195.79   719.88   197.82   722.38   197.82 " style="stroke-width: 1.42 ;&st7; "/>
	<path d=" M  722.38,  197.82  C  724.88   197.82   726.91   195.79   726.91   193.29 " style="stroke-width: 1.42 ;&st7; "/>
	<path d=" M  794.90,  193.29  C  794.90   190.78   792.87   188.75   790.37   188.75 " style="stroke-width: 1.42 ;&st7; "/>
	<path d=" M  790.37,  188.75  C  787.86   188.75   785.84   190.78   785.84   193.29 " style="stroke-width: 1.42 ;&st7; "/>
	<path d=" M  785.84,  193.29  C  785.84   195.79   787.86   197.82   790.37   197.82 " style="stroke-width: 1.42 ;&st7; "/>
	<path d=" M  790.37,  197.82  C  792.87   197.82   794.90   195.79   794.90   193.29 " style="stroke-width: 1.42 ;&st7; "/>
	<text style="&st18;" transform="matrix(&st16;  201.63  195.26 )">A</text>
	<text style="&st18;" transform="matrix(&st17;  200.27  233.58 )">V</text>
	<text style="&st18;" transform="matrix(&st16;  322.19  272.88 )">BLRH</text>
	<text style="&st18;" transform="matrix(&st16;  280.19  272.88 )">BLLH</text>
	<text style="&st18;" transform="matrix(&st16;  236.71  272.88 )">SVSG</text>
	<text style="&st18;" transform="matrix(&st16;  194.99  272.88 )">SVS5</text>
	<text style="&st18;" transform="matrix(&st16;  82.65  297.24 )">A</text>
	<text style="&st18;" transform="matrix(&st16;  74.11  297.24 )">6</text>
	<text style="&st18;" transform="matrix(&st16;  108.15  297.24 )">A</text>
	<text style="&st18;" transform="matrix(&st16;  99.6  297.24 )">5</text>
	<text style="&st18;" transform="matrix(&st16;  82.65  254.18 )">B</text>
	<text style="&st18;" transform="matrix(&st16;  74.89  254.18 )">1</text>
	<text style="&st18;" transform="matrix(&st17;  81.29  139.74 )">L</text>
	<text style="&st18;" transform="matrix(&st17;  38.8  139.74 )">L</text>
	<text style="&st18;" transform="matrix(&st17;  38.8  207.73 )">L</text>
	<text style="&st18;" transform="matrix(&st17;  81.29  208.51 )">G</text>
	<text ewd:textID="2" style="&st18;" transform="matrix(&st17;  133.7  293.26 )">Junction <tspan dy="6" x="0">Connector</tspan></text>
	<text style="&st18;" transform="matrix(&st17;  126.87  293.26 )">b21(A),b22(B)</text>
	<text style="&st18;" transform="matrix(&st16;  462.62  304.04 )">RV</text>
	<text style="&st18;" transform="matrix(&st17;  463.73  337.96 )">LG</text>
	<text style="&st18;" transform="matrix(&st17;  421.23  337.89 )">SB</text>
	<text style="&st18;" transform="matrix(&st16;  460.63  315.93 )">2</text>
	<text style="&st18;" transform="matrix(&st16;  415.74  315.93 )">11</text>
	<text style="&st18;" transform="matrix(&st16;  419.24  304.04 )">SW</text>
	<text style="&st18;" transform="matrix(&st16;  335.14  304.04 )">RV</text>
	<text style="&st18;" transform="matrix(&st17;  336.25  335.56 )">V</text>
	<text style="&st18;" transform="matrix(&st17;  293.75  336.58 )">W</text>
	<text style="&st18;" transform="matrix(&st16;  333.93  315.93 )">1</text>
	<text style="&st18;" transform="matrix(&st16;  290.66  315.93 )">6</text>
	<text style="&st18;" transform="matrix(&st16;  291.76  304.04 )">SW</text>
	<text style="&st18;" transform="matrix(&st16;  282.64  364.94 )">8</text>
	<text style="&st18;" transform="matrix(&st16;  325.13  364.94 )">9</text>
	<text style="&st18;" transform="matrix(&st16;  406.16  364.94 )">24</text>
	<text style="&st18;" transform="matrix(&st16;  448.65  364.94 )">25</text>
	<text style="&st18;" transform="matrix(&st16;  279.46  424.43 )">10</text>
	<text style="&st18;" transform="matrix(&st16;  322.73  424.43 )">11</text>
	<text style="&st18;" transform="matrix(&st16;  406.94  424.43 )">10</text>
	<text style="&st18;" transform="matrix(&st16;  450.21  424.43 )">11</text>
	<text style="&st18;" transform="matrix(&st16;  291.44  474.02 )">1</text>
	<text style="&st18;" transform="matrix(&st16;  333.15  474.02 )">5</text>
	<text style="&st18;" transform="matrix(&st16;  290.66  519.89 )">4</text>
	<text style="&st18;" transform="matrix(&st16;  333.15  519.89 )">6</text>
	<text style="&st18;" transform="matrix(&st17;  364.83  514.22 )">b24</text>
	<text style="&st18;" transform="matrix(&st16;  418.92  474.02 )">1</text>
	<text style="&st18;" transform="matrix(&st16;  460.63  474.02 )">5</text>
	<text style="&st18;" transform="matrix(&st16;  418.14  519.89 )">4</text>
	<text style="&st18;" transform="matrix(&st16;  460.63  519.89 )">6</text>
	<text style="&st18;" transform="matrix(&st17;  492.31  514.22 )">a15</text>
	<text style="&st18;" transform="matrix(&st16;  418.14  559.0 )">4</text>
	<text style="&st18;" transform="matrix(&st16;  414.96  587.88 )">10</text>
	<text style="&st18;" transform="matrix(&st16;  381.74  587.88 )">11</text>
	<text ewd:textID="2" style="&st18;" transform="matrix(&st17;  372.79  582.21 )">Junction <tspan dy="6" x="0">Connector</tspan></text>
	<text style="&st18;" transform="matrix(&st17;  365.97  582.21 )">a14</text>
	<text style="&st18;" transform="matrix(&st16;  566.88  248.77 )">d4</text>
	<text style="&st18;" transform="matrix(&st16;  579.61  315.93 )">3</text>
	<text style="&st18;" transform="matrix(&st16;  622.88  315.93 )">1</text>
	<text style="&st18;" transform="matrix(&st16;  664.6  315.93 )">2</text>
	<text style="&st18;" transform="matrix(&st16;  571.59  364.94 )">4</text>
	<text style="&st18;" transform="matrix(&st16;  610.9  364.94 )">10</text>
	<text style="&st18;" transform="matrix(&st16;  656.57  364.94 )">6</text>
	<text style="&st18;" transform="matrix(&st17;  582.71  340.93 )">W-B</text>
	<text style="&st18;" transform="matrix(&st17;  625.2  335.98 )">G</text>
	<text style="&st18;" transform="matrix(&st17;  667.69  335.56 )">P</text>
	<text style="&st18;" transform="matrix(&st16;  660.56  560.69 )">B</text>
	<text style="&st18;" transform="matrix(&st16;  649.61  560.69 )">11</text>
	<text style="&st18;" transform="matrix(&st16;  686.05  560.69 )">B</text>
	<text style="&st18;" transform="matrix(&st16;  674.33  560.69 )">12</text>
	<text style="&st18;" transform="matrix(&st16;  686.05  517.64 )">A</text>
	<text style="&st18;" transform="matrix(&st16;  677.51  517.64 )">9</text>
	<text ewd:textID="2" style="&st18;" transform="matrix(&st17;  711.6  556.72 )">Junction <tspan dy="6" x="0">Connector</tspan></text>
	<text style="&st18;" transform="matrix(&st17;  704.78  556.72 )">b21(A),b22(B)</text>
	<text style="&st18;" transform="matrix(&st16;  724.56  577.41 )">5</text>
	<text style="&st18;" transform="matrix(&st16;  579.61  414.53 )">2</text>
	<text style="&st18;" transform="matrix(&st16;  622.11  414.53 )">3</text>
	<text style="&st18;" transform="matrix(&st16;  664.6  414.53 )">4</text>
	<text style="&st18;" transform="matrix(&st16;  580.39  460.4 )">1</text>
	<text style="&st18;" transform="matrix(&st16;  622.11  460.4 )">6</text>
	<text style="&st18;" transform="matrix(&st17;  582.71  400.42 )">W-B</text>
	<text style="&st18;" transform="matrix(&st17;  625.2  395.47 )">G</text>
	<text style="&st18;" transform="matrix(&st17;  667.69  395.05 )">P</text>
	<text style="&st18;" transform="matrix(&st17;  463.73  397.45 )">LG</text>
	<text style="&st18;" transform="matrix(&st17;  421.23  397.38 )">SB</text>
	<text style="&st18;" transform="matrix(&st17;  336.25  395.05 )">V</text>
	<text style="&st18;" transform="matrix(&st17;  293.75  396.07 )">W</text>
	<text style="&st18;" transform="matrix(&st17;  293.75  454.68 )">R</text>
	<text style="&st18;" transform="matrix(&st17;  336.25  454.54 )">V</text>
	<text style="&st18;" transform="matrix(&st17;  421.23  454.68 )">R</text>
	<text style="&st18;" transform="matrix(&st17;  463.73  454.54 )">V</text>
	<text style="&st18;" transform="matrix(&st17;  421.23  541.93 )">LG</text>
	<text style="&st18;" transform="matrix(&st17;  336.25  544.9 )">W-B</text>
	<text style="&st18;" transform="matrix(&st17;  293.75  541.93 )">LG</text>
	<text style="&st18;" transform="matrix(&st17;  106.79  329.46 )">LG</text>
	<text style="&st18;" transform="matrix(&st17;  81.29  327.06 )">B</text>
	<text style="&st18;" transform="matrix(&st17;  38.8  268.0 )">G</text>
	<text style="&st18;" transform="matrix(&st17;  625.2  493.9 )">W-B</text>
	<text style="&st18;" transform="matrix(&st17;  582.71  488.53 )">B</text>
	<text style="&st18;" transform="matrix(&st17;  684.69  587.39 )">W-B</text>
	<text style="&st18;" transform="matrix(&st17;  735.68  646.88 )">W-B</text>
	<text style="&st18;" transform="matrix(&st16;  713.05  185.06 )">LOUT</text>
	<text style="&st18;" transform="matrix(&st16;  708.32  195.26 )">10</text>
	<text style="&st18;" transform="matrix(&st16;  719.91  195.26 )">C</text>
	<text style="&st18;" transform="matrix(&st17;  718.68  233.22 )">L</text>
	<text style="&st18;" transform="matrix(&st16;  703.61  271.46 )">28</text>
	<text style="&st18;" transform="matrix(&st16;  490.59  626.98 )">B</text>
	<text style="&st18;" transform="matrix(&st16;  541.58  601.49 )">B</text>
	<text style="&st18;" transform="matrix(&st16;  490.59  601.49 )">B</text>
	<text style="&st18;" transform="matrix(&st16;  609.37  135.46 )">F42(A),F87(C)</text>
	<text ewd:textID="1" style="&st18;" transform="matrix(&st16;  609.37  142.56 )">A/C Amplifier Assembly</text>
	<text ewd:textID="5" style="&st18;" transform="matrix(&st16;  821.84  255.6 )">Seat Back Climate <tspan dy="6" x="0">Control Blower RH</tspan></text>
	<text ewd:textID="4" style="&st18;" transform="matrix(&st16;  566.88  255.6 )">Seat Back Climate <tspan dy="6" x="0">Control Blower LH</tspan></text>
	<text ewd:textID="7" style="&st18;" transform="matrix(&st16;  855.83  466.93 )">Seat Cushion Climate <tspan dy="6" x="0">Control Blower Assembly RH</tspan></text>
	<text ewd:textID="9" style="&st18;" transform="matrix(&st17;  499.14  514.22 )">Seat Heater Control <tspan dy="6" x="0">Sub-Assembly RH</tspan></text>
	<text ewd:textID="6" style="&st18;" transform="matrix(&st16;  651.87  466.93 )">Seat Cushion Climate <tspan dy="6" x="0">Control Blower Assembly LH</tspan></text>
	<text ewd:textID="8" style="&st18;" transform="matrix(&st17;  371.66  514.22 )">Seat Heater Control <tspan dy="6" x="0">Sub-Assembly LH</tspan></text>
	<text ewd:textID="3" style="&st18;" transform="matrix(&st16;  396.91  261.54 )">Refreshing Seat Switch</text>
	<text style="&st18;" transform="matrix(&st16;  704.39  364.94 )">12</text>
	<text style="&st18;" transform="matrix(&st17;  718.68  335.21 )">L</text>
	<text style="&st18;" transform="matrix(&st16;  715.59  414.53 )">5</text>
	<text style="&st18;" transform="matrix(&st17;  718.68  397.45 )">LG</text>
	<text style="&st18;" transform="matrix(&st16;  651.87  460.1 )">b20</text>
	<text style="&st18;" transform="matrix(&st16;  780.55  185.06 )">ROUT</text>
	<text style="&st18;" transform="matrix(&st16;  779.49  195.26 )">9</text>
	<text style="&st18;" transform="matrix(&st16;  787.9  195.26 )">C</text>
	<text style="&st18;" transform="matrix(&st17;  786.67  235.98 )">LG</text>
	<text style="&st18;" transform="matrix(&st16;  771.6  271.46 )">23</text>
	<text style="&st18;" transform="matrix(&st16;  772.37  364.94 )">12</text>
	<text style="&st18;" transform="matrix(&st17;  786.67  337.96 )">LG</text>
	<text style="&st18;" transform="matrix(&st16;  783.58  414.53 )">5</text>
	<text style="&st18;" transform="matrix(&st17;  786.67  397.45 )">LG</text>
	<text style="&st18;" transform="matrix(&st16;  855.83  460.1 )">a13</text>
	<text style="&st18;" transform="matrix(&st16;  821.84  248.77 )">c2</text>
	<text style="&st18;" transform="matrix(&st16;  834.57  315.93 )">3</text>
	<text style="&st18;" transform="matrix(&st16;  877.84  315.93 )">1</text>
	<text style="&st18;" transform="matrix(&st16;  919.56  315.93 )">2</text>
	<text style="&st18;" transform="matrix(&st16;  826.55  364.94 )">4</text>
	<text style="&st18;" transform="matrix(&st16;  865.86  364.94 )">10</text>
	<text style="&st18;" transform="matrix(&st16;  911.53  364.94 )">6</text>
	<text style="&st18;" transform="matrix(&st17;  837.66  340.93 )">W-B</text>
	<text style="&st18;" transform="matrix(&st17;  880.16  335.98 )">G</text>
	<text style="&st18;" transform="matrix(&st17;  922.65  335.56 )">P</text>
	<text style="&st18;" transform="matrix(&st16;  834.57  414.53 )">2</text>
	<text style="&st18;" transform="matrix(&st16;  877.06  414.53 )">3</text>
	<text style="&st18;" transform="matrix(&st16;  919.56  414.53 )">4</text>
	<text style="&st18;" transform="matrix(&st17;  837.66  400.42 )">W-B</text>
	<text style="&st18;" transform="matrix(&st17;  880.16  395.47 )">G</text>
	<text style="&st18;" transform="matrix(&st17;  922.65  395.05 )">P</text>
	<text style="&st18;" transform="matrix(&st16;  834.57  545.39 )">2</text>
	<text style="&st18;" transform="matrix(&st16;  834.57  516.51 )">6</text>
	<text style="&st18;" transform="matrix(&st16;  877.06  545.39 )">3</text>
	<text style="&st18;" transform="matrix(&st16;  869.04  611.4 )">5</text>
	<text ewd:textID="2" style="&st18;" transform="matrix(&st17;  907.07  539.72 )">Junction <tspan dy="6" x="0">Connector</tspan></text>
	<text style="&st18;" transform="matrix(&st17;  900.24  539.72 )">a14</text>
	<text style="&st18;" transform="matrix(&st16;  784.36  460.4 )">1</text>
	<text style="&st18;" transform="matrix(&st16;  834.57  460.4 )">6</text>
	<text style="&st18;" transform="matrix(&st17;  735.68  536.4 )">W-B</text>
	<text style="&st18;" transform="matrix(&st17;  786.67  488.53 )">B</text>
	<text style="&st18;" transform="matrix(&st17;  837.66  493.9 )">W-B</text>
	<text style="&st18;" transform="matrix(&st17;  880.16  578.89 )">W-B</text>
	<text style="&st18;" transform="matrix(&st17;  837.66  578.89 )">W-B</text>
	<text style="&st18;" transform="matrix(&st17;  880.16  646.88 )">W-B</text>
	<text style="&st18;" transform="matrix(&st17;  463.73  544.9 )">W-B</text>
	<text style="&st18;" transform="matrix(&st16;  536.21  660.98 )">W-B</text>
	<text style="&st18;" transform="matrix(&st16;  485.22  660.98 )">W-B</text>
	<text style="&st18;" transform="matrix(&st16;  536.21  643.98 )">W-B</text>
	<text style="&st18;" transform="matrix(&st16;  485.22  643.98 )">W-B</text>
	<text style="&st18;" transform="matrix(&st16;  541.58  626.98 )">B</text>
	<text style="&st18;" transform="matrix(&st16;  178.78  53.34 )">10A <tspan dy="6" x="0">ECU-IG </tspan><tspan dy="6" x="0">NO.2</tspan></text>
	<text style="&st18;" transform="matrix(&st16;  155.4  32.08 )">(IG)</text>
	<text ewd:textID="1" style="&st18;" transform="matrix(&st16;  184.44  142.56 )">A/C Amplifier Assembly</text>
	<text style="&st18;" transform="matrix(&st16;  184.44  135.46 )">F42(A),F87(C)</text>
	<text style="&st18;" transform="matrix(&st17;  157.78  139.74 )">L</text>
	<text style="&st18;" transform="matrix(&st16;  237.38  185.06 )">SG-4</text>
	<text style="&st18;" transform="matrix(&st16;  231.63  195.26 )">35</text>
	<text style="&st18;" transform="matrix(&st16;  244.13  195.26 )">A</text>
	<text style="&st18;" transform="matrix(&st17;  242.76  235.91 )">SB</text>
	<text style="&st18;" transform="matrix(&st16;  244.13  304.04 )">E</text>
	<text style="&st18;" transform="matrix(&st16;  280.12  185.06 )">SW 4</text>
	<text style="&st18;" transform="matrix(&st16;  274.9  195.26 )">16</text>
	<text style="&st18;" transform="matrix(&st16;  286.48  195.26 )">C</text>
	<text style="&st18;" transform="matrix(&st17;  285.26  233.58 )">V</text>
	<text style="&st18;" transform="matrix(&st16;  322.61  185.06 )">SW 5</text>
	<text style="&st18;" transform="matrix(&st16;  317.39  195.26 )">15</text>
	<text style="&st18;" transform="matrix(&st16;  328.97  195.26 )">C</text>
	<text style="&st18;" transform="matrix(&st17;  327.75  234.6 )">W</text>
	<text style="&st18;" transform="matrix(&st16;  27.68  237.47 )">6</text>
	<text style="&st18;" transform="matrix(&st16;  27.68  177.98 )">5</text>
	<text style="&st18;" transform="matrix(&st16;  70.17  177.98 )">6</text>
	<text style="&st18;" transform="matrix(&st16;  72.3  109.99 )">5</text>
	<text style="&st18;" transform="matrix(&st16;  80.89  109.99 )">2F</text>
	<text style="&st18;" transform="matrix(&st17;  242.76  519.4 )">W-B</text>
	<text style="&st18;" transform="matrix(&st16;  239.67  652.49 )">8</text>
	<text style="&st18;" transform="matrix(&st16;  258.1  659.54 )">F64</text>
	<text ewd:textID="2" style="&st18;" transform="matrix(&st16;  258.1  666.64 )">Junction <tspan dy="6" x="0">Connector</tspan></text>
	<text style="&st18;" transform="matrix(&st17;  242.76  340.93 )">W-B</text>
	<text style="&st18;" transform="matrix(&st17;  200.27  335.21 )">L</text>
	<text style="&st18;" transform="matrix(&st16;  144.83  109.99 )">39</text>
	<text style="&st18;" transform="matrix(&st16;  157.16  109.99 )">2B</text>
	<text style="&st18;" transform="matrix(&st16;  236.49  315.93 )">12</text>
	<text style="&st18;" transform="matrix(&st16;  197.18  315.93 )">5</text>
	<text style="&st18;" transform="matrix(&st16;  229.81  407.44 )">35</text>
	<text style="&st18;" transform="matrix(&st16;  242.15  407.44 )">4B</text>
	<text style="&st18;" transform="matrix(&st16;  229.81  364.94 )">59</text>
	<text style="&st18;" transform="matrix(&st16;  242.15  364.94 )">4B</text>
	<text style="&st18;" transform="matrix(&st16;  187.32  407.44 )">66</text>
	<text style="&st18;" transform="matrix(&st16;  199.66  407.44 )">4A</text>
	<text style="&st18;" transform="matrix(&st16;  187.32  364.94 )">53</text>
	<text style="&st18;" transform="matrix(&st16;  199.66  364.94 )">4B</text>
	<text style="&st18;" transform="matrix(&st16;  200.22  304.04 )">IG</text>
	<text style="&st18;" transform="matrix(&st16;  396.91  254.72 )">F92</text>
	<text style="&st18;" transform="matrix(&st16;  59.8  56.17 )">20A <tspan dy="6" x="0">S/HTR FR</tspan></text>
	<text style="&st18;" transform="matrix(&st16;  38.04  109.99 )">2C</text>
	<text style="&st18;" transform="matrix(&st16;  26.62  109.99 )">14</text>
	<text style="&st18;" transform="matrix(&st16;  36.42  32.08 )">(IG)</text>
	<text style="&st18;" transform="matrix(&st16;  324.66  261.55 )">9</text>
	<text style="&st18;" transform="matrix(&st16;  282.16  261.55 )">7</text>
	<text style="&st18;" transform="matrix(&st16;  236.49  261.55 )">10</text>
	<text style="&st18;" transform="matrix(&st16;  197.18  261.55 )">8</text>
	<text style="&st18;" transform="matrix(&st16;  195.67  185.06 )">S5-4</text>
	<text style="&st18;" transform="matrix(&st16;  189.91  195.26 )">31</text>
	<a ewd:code="Ob1" ewd:figID="18" ewd:figtype="w2w" ewd:pinNo="5" style="cursor:pointer;">
		<path d=" M  747.88,  571.19  L  730.88,  571.19  L  730.88,  579.69  L  747.88,  579.69  L  747.88,  571.19 " style="&st2;"/>
		<text style="&st8;" transform="matrix(&st16;  732.72  577.93 )"><tspan style="&st18;" x="0" y="0">Ob1</tspan></text>
	</a>
	<a ewd:code="db3" ewd:figID="19" ewd:figtype="w2w" ewd:pinNo="6" style="cursor:pointer;">
		<path d=" M  679.89,  358.73  L  662.89,  358.73  L  662.89,  367.22  L  679.89,  367.22  L  679.89,  358.73 " style="&st2;"/>
		<text style="&st8;" transform="matrix(&st16;  665.14  365.47 )"><tspan style="&st18;" x="0" y="0">db3</tspan></text>
	</a>
	<a ewd:code="Na3" ewd:figID="20" ewd:figtype="w2w" ewd:pinNo="5" style="cursor:pointer;">
		<path d=" M  892.35,  605.18  L  875.35,  605.18  L  875.35,  613.68  L  892.35,  613.68  L  892.35,  605.18 " style="&st2;"/>
		<text style="&st8;" transform="matrix(&st16;  877.09  611.93 )"><tspan style="&st18;" x="0" y="0">Na3</tspan></text>
	</a>
	<a ewd:code="ca2" ewd:figID="21" ewd:figtype="w2w" ewd:pinNo="6" style="cursor:pointer;">
		<path d=" M  934.84,  358.73  L  917.85,  358.73  L  917.85,  367.22  L  934.84,  367.22  L  934.84,  358.73 " style="&st2;"/>
		<text style="&st8;" transform="matrix(&st16;  920.28  365.47 )"><tspan style="&st18;" x="0" y="0">ca2</tspan></text>
	</a>
	<a ewd:code="db3" ewd:figID="22" ewd:figtype="w2w" ewd:pinNo="10" style="cursor:pointer;">
		<path d=" M  637.39,  358.73  L  620.40,  358.73  L  620.40,  367.22  L  637.39,  367.22  L  637.39,  358.73 " style="&st2;"/>
		<text style="&st8;" transform="matrix(&st16;  622.65  365.47 )"><tspan style="&st18;" x="0" y="0">db3</tspan></text>
	</a>
	<a ewd:code="db3" ewd:figID="23" ewd:figtype="w2w" ewd:pinNo="4" style="cursor:pointer;">
		<path d=" M  594.90,  358.73  L  577.90,  358.73  L  577.90,  367.22  L  594.90,  367.22  L  594.90,  358.73 " style="&st2;"/>
		<text style="&st8;" transform="matrix(&st16;  580.16  365.47 )"><tspan style="&st18;" x="0" y="0">db3</tspan></text>
	</a>
	<a ewd:code="Na3" ewd:figID="24" ewd:figtype="w2w" ewd:pinNo="11" style="cursor:pointer;">
		<path d=" M  475.92,  418.22  L  458.92,  418.22  L  458.92,  426.71  L  475.92,  426.71  L  475.92,  418.22 " style="&st2;"/>
		<text style="&st8;" transform="matrix(&st16;  460.65  424.96 )"><tspan style="&st18;" x="0" y="0">Na3</tspan></text>
	</a>
	<a ewd:code="Na3" ewd:figID="25" ewd:figtype="w2w" ewd:pinNo="10" style="cursor:pointer;">
		<path d=" M  433.43,  418.22  L  416.43,  418.22  L  416.43,  426.71  L  433.43,  426.71  L  433.43,  418.22 " style="&st2;"/>
		<text style="&st8;" transform="matrix(&st16;  418.16  424.96 )"><tspan style="&st18;" x="0" y="0">Na3</tspan></text>
	</a>
	<a ewd:code="Ob1" ewd:figID="26" ewd:figtype="w2w" ewd:pinNo="11" style="cursor:pointer;">
		<path d=" M  348.44,  418.22  L  331.44,  418.22  L  331.44,  426.71  L  348.44,  426.71  L  348.44,  418.22 " style="&st2;"/>
		<text style="&st8;" transform="matrix(&st16;  333.29  424.96 )"><tspan style="&st18;" x="0" y="0">Ob1</tspan></text>
	</a>
	<a ewd:code="Ob1" ewd:figID="27" ewd:figtype="w2w" ewd:pinNo="10" style="cursor:pointer;">
		<path d=" M  305.95,  418.22  L  288.95,  418.22  L  288.95,  426.71  L  305.95,  426.71  L  305.95,  418.22 " style="&st2;"/>
		<text style="&st8;" transform="matrix(&st16;  290.79  424.96 )"><tspan style="&st18;" x="0" y="0">Ob1</tspan></text>
	</a>
	<a ewd:code="FN1" ewd:figID="28" ewd:figtype="w2w" ewd:pinNo="25" style="cursor:pointer;">
		<path d=" M  475.92,  358.73  L  458.92,  358.73  L  458.92,  367.22  L  475.92,  367.22  L  475.92,  358.73 " style="&st2;"/>
		<text style="&st8;" transform="matrix(&st16;  460.92  365.47 )"><tspan style="&st18;" x="0" y="0">FN1</tspan></text>
	</a>
	<a ewd:code="FN1" ewd:figID="29" ewd:figtype="w2w" ewd:pinNo="24" style="cursor:pointer;">
		<path d=" M  433.43,  358.73  L  416.43,  358.73  L  416.43,  367.22  L  433.43,  367.22  L  433.43,  358.73 " style="&st2;"/>
		<text style="&st8;" transform="matrix(&st16;  418.42  365.47 )"><tspan style="&st18;" x="0" y="0">FN1</tspan></text>
	</a>
	<a ewd:code="FO1" ewd:figID="30" ewd:figtype="w2w" ewd:pinNo="9" style="cursor:pointer;">
		<path d=" M  348.44,  358.73  L  331.44,  358.73  L  331.44,  367.22  L  348.44,  367.22  L  348.44,  358.73 " style="&st2;"/>
		<text style="&st8;" transform="matrix(&st16;  333.14  365.47 )"><tspan style="&st18;" x="0" y="0">FO1</tspan></text>
	</a>
	<a ewd:code="FO1" ewd:figID="31" ewd:figtype="w2w" ewd:pinNo="8" style="cursor:pointer;">
		<path d=" M  305.95,  358.73  L  288.95,  358.73  L  288.95,  367.22  L  305.95,  367.22  L  305.95,  358.73 " style="&st2;"/>
		<text style="&st8;" transform="matrix(&st16;  290.65  365.47 )"><tspan style="&st18;" x="0" y="0">FO1</tspan></text>
	</a>
	<a ewd:code="Ob1" ewd:figID="32" ewd:figtype="w2w" ewd:pinNo="6" style="cursor:pointer;">
		<path d=" M   93.48,  171.76  L   76.49,  171.76  L   76.49,  180.26  L   93.48,  180.26  L   93.48,  171.76 " style="&st2;"/>
		<text style="&st8;" transform="matrix(&st16;  78.33  178.5 )"><tspan style="&st18;" x="0" y="0">Ob1</tspan></text>
	</a>
	<a ewd:code="FN1" ewd:figID="33" ewd:figtype="w2w" ewd:pinNo="5" style="cursor:pointer;">
		<path d=" M   50.99,  171.76  L   33.99,  171.76  L   33.99,  180.26  L   50.99,  180.26  L   50.99,  171.76 " style="&st2;"/>
		<text style="&st8;" transform="matrix(&st16;  35.99  178.5 )"><tspan style="&st18;" x="0" y="0">FN1</tspan></text>
	</a>
	<a ewd:code="Na3" ewd:figID="34" ewd:figtype="w2w" ewd:pinNo="6" style="cursor:pointer;">
		<path d=" M   50.99,  231.25  L   33.99,  231.25  L   33.99,  239.75  L   50.99,  239.75  L   50.99,  231.25 " style="&st2;"/>
		<text style="&st8;" transform="matrix(&st16;  35.73  237.99 )"><tspan style="&st18;" x="0" y="0">Na3</tspan></text>
	</a>
	<a ewd:code="FO1" ewd:figID="35" ewd:figtype="w2w" ewd:pinNo="28" style="cursor:pointer;">
		<path d=" M  730.88,  265.24  L  713.88,  265.24  L  713.88,  273.74  L  730.88,  273.74  L  730.88,  265.24 " style="&st2;"/>
		<text style="&st8;" transform="matrix(&st16;  715.58  271.98 )"><tspan style="&st18;" x="0" y="0">FO1</tspan></text>
	</a>
	<a ewd:code="Ob1" ewd:figID="36" ewd:figtype="w2w" ewd:pinNo="12" style="cursor:pointer;">
		<path d=" M  730.88,  358.73  L  713.88,  358.73  L  713.88,  367.22  L  730.88,  367.22  L  730.88,  358.73 " style="&st2;"/>
		<text style="&st8;" transform="matrix(&st16;  715.72  365.47 )"><tspan style="&st18;" x="0" y="0">Ob1</tspan></text>
	</a>
	<a ewd:code="FN1" ewd:figID="37" ewd:figtype="w2w" ewd:pinNo="23" style="cursor:pointer;">
		<path d=" M  798.87,  265.24  L  781.87,  265.24  L  781.87,  273.74  L  798.87,  273.74  L  798.87,  265.24 " style="&st2;"/>
		<text style="&st8;" transform="matrix(&st16;  783.86  271.98 )"><tspan style="&st18;" x="0" y="0">FN1</tspan></text>
	</a>
	<a ewd:code="Na3" ewd:figID="38" ewd:figtype="w2w" ewd:pinNo="12" style="cursor:pointer;">
		<path d=" M  798.87,  358.73  L  781.87,  358.73  L  781.87,  367.22  L  798.87,  367.22  L  798.87,  358.73 " style="&st2;"/>
		<text style="&st8;" transform="matrix(&st16;  783.6  365.47 )"><tspan style="&st18;" x="0" y="0">Na3</tspan></text>
	</a>
	<a ewd:code="ca2" ewd:figID="39" ewd:figtype="w2w" ewd:pinNo="4" style="cursor:pointer;">
		<path d=" M  849.86,  358.73  L  832.86,  358.73  L  832.86,  367.22  L  849.86,  367.22  L  849.86,  358.73 " style="&st2;"/>
		<text style="&st8;" transform="matrix(&st16;  835.3  365.47 )"><tspan style="&st18;" x="0" y="0">ca2</tspan></text>
	</a>
	<a ewd:code="ca2" ewd:figID="40" ewd:figtype="w2w" ewd:pinNo="10" style="cursor:pointer;">
		<path d=" M  892.35,  358.73  L  875.35,  358.73  L  875.35,  367.22  L  892.35,  367.22  L  892.35,  358.73 " style="&st2;"/>
		<text style="&st8;" transform="matrix(&st16;  877.79  365.47 )"><tspan style="&st18;" x="0" y="0">ca2</tspan></text>
	</a>
	<a ewd:code="F2" ewd:figID="41" ewd:figtype="gp" style="cursor:pointer;">
		<path d=" M  235.84,  681.67  L  257.08,  681.67  L  246.46,  697.25  L  235.84,  681.67 " style="&st2;"/>
		<text style="&st8;" transform="matrix(&st16;  242.15  689.83 )"><tspan style="&st18;" x="0" y="0">F2</tspan></text>
	</a>
	<a ewd:code="O1" ewd:figID="42" ewd:figtype="gp" style="cursor:pointer;">
		<path d=" M  728.75,  681.67  L  750.00,  681.67  L  739.38,  697.25  L  728.75,  681.67 " style="&st2;"/>
		<text style="&st8;" transform="matrix(&st16;  734.8  689.83 )"><tspan style="&st18;" x="0" y="0">O1</tspan></text>
	</a>
	<a ewd:code="N1" ewd:figID="43" ewd:figtype="gp" style="cursor:pointer;">
		<path d=" M  873.23,  681.67  L  894.48,  681.67  L  883.85,  697.25  L  873.23,  681.67 " style="&st2;"/>
		<text style="&st8;" transform="matrix(&st16;  879.58  689.83 )"><tspan style="&st18;" x="0" y="0">N1</tspan></text>
	</a>
</g>
</svg>