﻿<?xml version="1.0" encoding="utf-8"?>
<!DOCTYPE svg PUBLIC "-//W3C//DTD SVG 1.0//EN" "http://www.w3.org/TR/2001/REC-SVG-20010904/DTD/svg10.dtd"[
	<!ENTITY ns_flows "http://ns.adobe.com/Flows/1.0/">
	<!ENTITY ns_svg "http://www.w3.org/2000/svg">
	<!ENTITY ns_xlink "http://www.w3.org/1999/xlink">
	<!ENTITY st0 "font-size:7px;font-family:'MS-PGothic';adobe-font-script:japanese;">
	<!ENTITY st1 "font-size:6px;font-family:'ArialMT';">
	<!-- White fill  -->
	<!ENTITY st2 "fill:#FFFFFF;stroke:#000000; stroke-width:1.41;stroke-linecap:round;stroke-linejoin:round;">
	<!-- Yellow fill  -->
	<!ENTITY st3 "fill:#FFFFCC;stroke:#FFFFCC; stroke-width:0.1;stroke-linecap:round;stroke-linejoin:round;">
	<!-- Gray fill  -->
	<!ENTITY st4 "fill:#CCCCCC;stroke:#CCCCCC; stroke-width:0.1;stroke-linecap:round;stroke-linejoin:round;">
	<!-- Light-blue fill -->
	<!ENTITY st5 "fill:#CCECF4;stroke:#000000; stroke-width:1.133;stroke-linecap:round;stroke-linejoin:round;">
	<!ENTITY st6 "fill:none;stroke-linecap:butt; stroke-linejoin:round;">
	<!ENTITY st7 "fill:none;stroke:#000000;stroke-linecap:round;stroke-linejoin:round;">
	<!ENTITY st8 "enable-background:new    ;">
	<!-- Black fill -->
	<!ENTITY st9 "fill:#000000;stroke:#000000; stroke-linecap:round;stroke-linejoin:round;">
	<!-- SRS note   -->
	<!ENTITY st10 "font-size:9px;font-family:'ArialMT';">
	<!ENTITY st11 "font-size:9px;font-family:'Svg Symbol';">
	<!ENTITY st12 "font-size:6px;font-family:'Svg Symbol';">
	<!ENTITY st13 "fill:none;stroke:#ff0000;stroke-linecap:round;stroke-linejoin:round;">
	<!-- Yellow fill  -->
	<!ENTITY st14 "fill:#FFFF00;stroke:#FFFF00; stroke-width:0.1;stroke-linecap:round;stroke-linejoin:round;">
	<!ENTITY st15 "font-size:6px;font-family:'MS-PGothic';adobe-font-script:japanese;">
	<!ENTITY st16 "1.00 0.00 0.00 1.00">
	<!ENTITY st17 "0.00 -1.00 1.00 0.00">
	<!ENTITY st18 "font-size:6px;font-family:'Arial';">
	<!ENTITY st19 "font-size:9px;font-family:'Arial';">
	<!ENTITY st20 "font-size:6px;font-family:'MS-PGothic','MS PGothic';adobe-font-script:japanese;">
	<!ENTITY st21 "font-size:7px;font-family:'MS-PGothic','MS PGothic';adobe-font-script:japanese;">
	<!ATTLIST svg
		xmlns:ewd CDATA #FIXED "http://shcl.co.jp/ewd"
		xmlns:a CDATA #FIXED "http://ns.adobe.com/AdobeSVGViewerExtensions/3.0/"
		ewd:ver CDATA #IMPLIED
	>
	<!ATTLIST a
		ewd:lineID CDATA #IMPLIED
		ewd:groupID CDATA #IMPLIED
		ewd:figtype CDATA #IMPLIED
		ewd:code CDATA #IMPLIED
		ewd:figID CDATA #IMPLIED
		ewd:pinNo CDATA #IMPLIED
		ewd:comment CDATA #IMPLIED >
	<!ATTLIST g
		ewd:lineID CDATA #IMPLIED
		ewd:groupID CDATA #IMPLIED
		ewd:figtype CDATA #IMPLIED
		ewd:code CDATA #IMPLIED
		ewd:figID CDATA #IMPLIED
		ewd:pinNo CDATA #IMPLIED
		ewd:comment CDATA #IMPLIED >
	<!ATTLIST text
		ewd:textID CDATA #IMPLIED >
	<!ATTLIST title
		ewd:textID CDATA #IMPLIED >
]>
<!-- Generator: Shintec Hozumi YS   -->
<svg onload="call_execInitLoadProc_svg('system')" style="overflow:visible;  enable-background:new 0 0 986.543 710.000" viewBox="0 0 986.543 710.000" height="710.000" width="986.543" xml:space="preserve" ewd:ver="L2.1.2.7" xmlns="&ns_svg;" xmlns:a="http://ns.adobe.com/AdobeSVGViewerExtensions/3.0/" xmlns:ewd="http://shcl.co.jp/ewd" xmlns:xlink="&ns_xlink;"><script type="text/javascript" xlink:href="../../../../../system/js/ewd/fig/svgfig.js" xmlns:xlink="http://www.w3.org/1999/xlink" /><defs><font horiz-adv-x="1229"><font-face font-family="Svg Symbol" units-per-em="2048" panose-1="5 5 1 2 1 7 6 2 5 7" ascent="2059" descent="450" alphabetic="0" /><missing-glyph d="M 103,0 l 0,1280 1024,0 0,-1280 -1024,0 z m 32,32 l 960,0 0,1216 -960,0 0,-1216 z" /><glyph unicode="" horiz-adv-x="1573" d="M 1517,0 l -567,0 24,279 q 141,59 207.5,168 66.5,109 66.5,306    0,272 -132.5,417.5 -132.5,145.5 -333.5,145.5 -194,0 -328,-147.5 -134,-147.5 -134,-401.5 0,-200 68.5,-319 68.5,-119     206.5,-169 l 25,-279 -564,0 0,279 35,0 q 3,-61 32,-83 45,-35 137,-35 l 270,0 0,70 q -210,61 -324.5,209 -114.5,148     -114.5,349 0,252 186.5,425 186.5,173 504.5,173 195,0 358.5,-73.5 163.5,-73.5 252,-214.5 88.5,-141 88.5,-310 0,-207     -121.5,-360.5 -121.5,-153.5 -317.5,-197.5 l -8,-70 275,0 q 92,0 128,28 36,28 42,90 l 38,0 0,-279 z" /></font></defs>
<g id="ewd_top"><a ewd:code="C2,C5" ewd:figID="1" ewd:figtype="conn" style="cursor:pointer;"><path d=" M  399.43,  494.70  L  985.84,  494.70  L  985.84,  647.68  L  399.43,  647.68  L  399.43,  494.70 " style="&st5;" /><title ewd:textID="5">Generator Assembly</title></a><a ewd:code="FUSE1" ewd:figID="2" ewd:figtype="rb" style="cursor:pointer;"><path d=" M  182.72,  367.22  L  182.72,  324.73  L  157.22,  324.73  L  157.22,  367.22  L  182.72,  367.22 " style="&st5;" /></a><a ewd:code="F14" ewd:figID="3" ewd:figtype="conn" style="cursor:pointer;"><path d=" M  407.93,  154.76  L  407.93,  273.74  L  450.42,  273.74  L  450.42,  154.76  L  407.93,  154.76 " style="&st5;" /><title ewd:textID="4">Combination Meter Assembly</title></a><a ewd:code="A37" ewd:figID="4" ewd:figtype="conn" style="cursor:pointer;"><path d=" M  586.40,  239.75  L  603.40,  239.75  L  603.40,  256.74  L  586.40,  256.74  L  586.40,  239.75 " style="&st5;" /><title ewd:textID="7">Junction Connector</title></a><a ewd:code="F42" ewd:figID="5" ewd:figtype="conn" style="cursor:pointer;"><path d=" M  858.36,  103.77  L  858.36,  137.76  L  892.35,  137.76  L  892.35,  103.77  L  858.36,  103.77 " style="&st5;" /><title ewd:textID="1">A/C Amplifier Assembly</title></a><a ewd:code="FUSE42" ewd:figID="6" ewd:figtype="rb" style="cursor:pointer;"><path d=" M  114.73,  367.22  L  114.73,  324.73  L   89.24,  324.73  L   89.24,  367.22  L  114.73,  367.22 " style="&st5;" /></a><a ewd:code="B37" ewd:figID="7" ewd:figtype="conn" style="cursor:pointer;"><path d=" M  798.87,  103.77  L  798.87,  137.76  L  832.86,  137.76  L  832.86,  103.77  L  798.87,  103.77 " style="&st5;" /><title>ECM</title></a><a ewd:code="2" ewd:figID="8" ewd:figtype="jb" style="cursor:pointer;"><path d=" M  246.46,   95.27  L  246.46,  163.26  L  305.95,  163.26  L  305.95,   95.27  L  246.46,   95.27 " style="&st4;" /></a><a ewd:code="5" ewd:figID="9" ewd:figtype="jb" style="cursor:pointer;"><path d=" M  798.87,  256.74  L  798.87,  307.73  L  883.85,  307.73  L  883.85,  256.74  L  798.87,  256.74 " style="&st4;" /></a><a ewd:code="1" ewd:figID="10" ewd:figtype="jb" style="cursor:pointer;"><path d=" M  152.97,  401.22  L  178.47,  401.22  L  178.47,  409.72  L  152.97,  409.72  L  152.97,  401.22 " style="&st4;" /></a><a ewd:code="1" ewd:figID="11" ewd:figtype="jb" style="cursor:pointer;"><path d=" M   84.99,  290.74  L   84.99,  299.24  L  110.48,  299.24  L  110.48,  290.74  L   84.99,  290.74 " style="&st4;" /></a><a ewd:code="2" ewd:figID="12" ewd:figtype="jb" style="cursor:pointer;"><path d=" M  577.90,   95.27  L  577.90,  163.26  L  628.89,  163.26  L  628.89,   95.27  L  577.90,   95.27 " style="&st4;" /></a><a ewd:code="FUSE47" ewd:figID="13" ewd:figtype="fuse" style="cursor:pointer;"><path d=" M  276.20,  137.76  L  276.20,   95.27  L  250.71,   95.27  L  250.71,  137.76  L  276.20,  137.76 " style="&st7;" /></a><a ewd:code="FUSE42" ewd:figID="14" ewd:figtype="fuse" style="cursor:pointer;"><path d=" M  114.73,  367.22  L  114.73,  324.73  L   89.24,  324.73  L   89.24,  367.22  L  114.73,  367.22 " style="&st7;" /></a><a ewd:code="FUSE48" ewd:figID="15" ewd:figtype="fuse" style="cursor:pointer;"><path d=" M  607.65,  137.76  L  607.65,   95.27  L  582.15,   95.27  L  582.15,  137.76  L  607.65,  137.76 " style="&st7;" /></a><a ewd:code="FUSE1" ewd:figID="16" ewd:figtype="fuse" style="cursor:pointer;"><path d=" M  182.72,  367.22  L  182.72,  324.73  L  157.22,  324.73  L  157.22,  367.22  L  182.72,  367.22 " style="&st7;" /></a><a ewd:lineID="1" style="cursor:pointer;"><path d=" M  101.98,  290.74  L  101.98,   52.78  L  960.34,   52.78  L  960.34,  485.64 " style="stroke:#000000;stroke-width: 5.10 ;&st6;" /><path d=" M  101.98,  290.74  L  101.98,   52.78  L  960.34,   52.78  L  960.34,  485.64 " style="stroke:#FFFFFF;stroke-width: 4.53 ;&st6;" /></a><a ewd:lineID="2" style="cursor:pointer;"><path d=" M  169.97,  409.72  L  169.97,  528.70 " style="stroke:#000000;stroke-width: 5.10 ;&st6;" /></a><a ewd:lineID="3" style="cursor:pointer;"><path d=" M  169.97,  290.74  L  169.97,   69.77  L  679.89,   69.77  L  679.89,  394.99 " style="stroke:#008837;stroke-width: 5.10 ;&st6;" /></a><a ewd:lineID="4" style="cursor:pointer;"><path d=" M  424.93,  154.76  L  424.93,  129.26  L  348.44,  129.26  L  348.44,  239.75  L  263.46,  239.75  L  263.46,  163.26 " style="stroke:#FF0000;stroke-width: 5.10 ;&st6;" /></a><a ewd:lineID="5" style="cursor:pointer;"><path d=" M  424.93,  409.72  L  424.93,  485.64 " style="stroke:#F668B2;stroke-width: 5.10 ;&st6;" /></a><a ewd:lineID="6" style="cursor:pointer;"><path d=" M  424.93,  347.96  L  424.93,  394.99 " style="stroke:#F668B2;stroke-width: 5.10 ;&st6;" /></a><a ewd:lineID="7" style="cursor:pointer;"><path d=" M  424.93,  333.23  L  424.93,  273.74 " style="stroke:#F668B2;stroke-width: 5.10 ;&st6;" /></a><a ewd:lineID="8" style="cursor:pointer;"><path d=" M  594.90,  409.72  L  594.90,  485.64 " style="stroke:#999999;stroke-width: 5.10 ;&st6;" /></a><a ewd:lineID="9" style="cursor:pointer;"><path d=" M  594.90,  256.74  L  594.90,  394.99 " style="stroke:#999999;stroke-width: 5.10 ;&st6;" /></a><a ewd:lineID="10" style="cursor:pointer;"><path d=" M  594.90,  163.26  L  594.90,  239.75 " style="stroke:#999999;stroke-width: 5.10 ;&st6;" /></a><a ewd:lineID="11" style="cursor:pointer;"><path d=" M  679.89,  409.72  L  679.89,  485.64 " style="stroke:#56077D;stroke-width: 5.10 ;&st6;" /></a><a ewd:lineID="12" style="cursor:pointer;"><path d=" M  815.86,  418.22  L  815.86,  485.64 " style="stroke:#00A0C6;stroke-width: 5.10 ;&st6;" /></a><a ewd:lineID="13" style="cursor:pointer;"><path d=" M  815.86,  403.48  L  815.86,  364.96 " style="stroke:#00A0C6;stroke-width: 5.10 ;&st6;" /></a><a ewd:lineID="14" style="cursor:pointer;"><path d=" M  815.86,  350.23  L  815.86,  307.73 " style="stroke:#00A0C6;stroke-width: 5.10 ;&st6;" /></a><a ewd:lineID="15" style="cursor:pointer;"><path d=" M  815.86,  256.74  L  815.86,  220.48 " style="stroke:#00A0C6;stroke-width: 5.10 ;&st6;" /></a><a ewd:lineID="16" style="cursor:pointer;"><path d=" M  815.86,  146.83  L  815.86,  205.75 " style="stroke:#00A0C6;stroke-width: 5.10 ;&st6;" /></a><a ewd:lineID="17" style="cursor:pointer;"><path d=" M  875.35,  256.74  L  875.35,  146.83 " style="stroke:#00A0C6;stroke-width: 5.10 ;&st6;" /></a><a ewd:code="CA1" ewd:figID="17" ewd:figtype="w2w" ewd:pinNo="1" style="cursor:pointer;"><path d=" M  688.38,  401.22  L  671.39,  401.22  L  671.39,  409.72  L  688.38,  409.72  L  688.38,  401.22 " style="&st2;" /><text style="&st8;" transform="matrix(&st16;  673.16  407.96 )"><tspan style="&st18;" x="0" y="0">CA1</tspan></text></a><a ewd:code="CA1" ewd:figID="18" ewd:figtype="w2w" ewd:pinNo="2" style="cursor:pointer;"><path d=" M  433.43,  401.22  L  416.43,  401.22  L  416.43,  409.72  L  433.43,  409.72  L  433.43,  401.22 " style="&st2;" /><text style="&st8;" transform="matrix(&st16;  418.2  407.96 )"><tspan style="&st18;" x="0" y="0">CA1</tspan></text></a><a ewd:code="FA2" ewd:figID="19" ewd:figtype="w2w" ewd:pinNo="43" style="cursor:pointer;"><path d=" M  433.43,  333.23  L  416.43,  333.23  L  416.43,  341.73  L  433.43,  341.73  L  433.43,  333.23 " style="&st2;" /><text style="&st8;" transform="matrix(&st16;  418.16  339.97 )"><tspan style="&st18;" x="0" y="0">FA2</tspan></text></a><a ewd:code="CA1" ewd:figID="20" ewd:figtype="w2w" ewd:pinNo="5" style="cursor:pointer;"><path d=" M  603.40,  401.22  L  586.40,  401.22  L  586.40,  409.72  L  603.40,  409.72  L  603.40,  401.22 " style="&st2;" /><text style="&st8;" transform="matrix(&st16;  588.17  407.96 )"><tspan style="&st18;" x="0" y="0">CA1</tspan></text></a><a ewd:code="FA2" ewd:figID="21" ewd:figtype="w2w" ewd:pinNo="41" style="cursor:pointer;"><path d=" M  824.36,  350.23  L  807.37,  350.23  L  807.37,  358.73  L  824.36,  358.73  L  824.36,  350.23 " style="&st2;" /><text style="&st8;" transform="matrix(&st16;  809.1  356.97 )"><tspan style="&st18;" x="0" y="0">FA2</tspan></text></a><a ewd:code="BF1" ewd:figID="22" ewd:figtype="w2w" ewd:pinNo="5" style="cursor:pointer;"><path d=" M  824.36,  205.75  L  807.37,  205.75  L  807.37,  214.25  L  824.36,  214.25  L  824.36,  205.75 " style="&st2;" /><text style="&st8;" transform="matrix(&st16;  809.51  212.49 )"><tspan style="&st18;" x="0" y="0">BF1</tspan></text></a><a ewd:code="CA1" ewd:figID="23" ewd:figtype="w2w" ewd:pinNo="4" style="cursor:pointer;"><path d=" M  824.36,  409.72  L  807.37,  409.72  L  807.37,  418.22  L  824.36,  418.22  L  824.36,  409.72 " style="&st2;" /><text style="&st8;" transform="matrix(&st16;  809.13  416.46 )"><tspan style="&st18;" x="0" y="0">CA1</tspan></text></a></g></svg>