﻿<?xml version="1.0" encoding="UTF-8"?>
<!DOCTYPE svg PUBLIC "-//W3C//DTD SVG 1.0//EN" "http://www.w3.org/TR/2001/REC-SVG-20010904/DTD/svg10.dtd"[
	<!ENTITY ns_flows "http://ns.adobe.com/Flows/1.0/">
	<!ENTITY ns_svg "http://www.w3.org/2000/svg">
	<!ENTITY ns_xlink "http://www.w3.org/1999/xlink">
	<!ENTITY st0 "font-size:7px;font-family:'MS-PGothic';adobe-font-script:japanese;">
	<!ENTITY st1 "font-size:6px;font-family:'ArialMT';">
	<!-- White fill  -->
	<!ENTITY st2 "fill:#FFFFFF;stroke:#000000; stroke-width:1.41;stroke-linecap:round;stroke-linejoin:round;">
	<!-- Yellow fill  -->
	<!ENTITY st3 "fill:#FFFFCC;stroke:#FFFFCC; stroke-width:0.1;stroke-linecap:round;stroke-linejoin:round;">
	<!-- Gray fill  -->
	<!ENTITY st4 "fill:#CCCCCC;stroke:#CCCCCC; stroke-width:0.1;stroke-linecap:round;stroke-linejoin:round;">
	<!-- Light-blue fill -->
	<!ENTITY st5 "fill:#CCECF4;stroke:#000000; stroke-width:1.133;stroke-linecap:round;stroke-linejoin:round;">
	<!ENTITY st6 "fill:none;stroke-linecap:butt; stroke-linejoin:round;">
	<!ENTITY st7 "fill:none;stroke:#000000;stroke-linecap:round;stroke-linejoin:round;">
	<!ENTITY st8 "enable-background:new    ;">
	<!-- Black fill -->
	<!ENTITY st9 "fill:#000000;stroke:#000000; stroke-linecap:round;stroke-linejoin:round;">
	<!-- SRS note   -->
	<!ENTITY st10 "font-size:9px;font-family:'ArialMT';">
	<!ENTITY st11 "font-size:9px;font-family:'Svg Symbol';">
	<!ENTITY st12 "font-size:6px;font-family:'Svg Symbol';">
	<!ENTITY st13 "fill:none;stroke:#ff0000;stroke-linecap:round;stroke-linejoin:round;">
	<!-- Yellow fill  -->
	<!ENTITY st14 "fill:#FFFF00;stroke:#FFFF00; stroke-width:0.1;stroke-linecap:round;stroke-linejoin:round;">
	<!ENTITY st15 "font-size:6px;font-family:'MS-PGothic';adobe-font-script:japanese;">
	<!ENTITY st16 "1.00 0.00 0.00 1.00">
	<!ENTITY st17 "0.00 -1.00 1.00 0.00">
	<!ENTITY st18 "font-size:6px;font-family:'Arial';">
	<!ENTITY st19 "font-size:9px;font-family:'Arial';">
	<!ENTITY st20 "font-size:6px;font-family:'MS-PGothic','MS PGothic';adobe-font-script:japanese;">
	<!ENTITY st21 "font-size:7px;font-family:'MS-PGothic','MS PGothic';adobe-font-script:japanese;">
	<!ATTLIST svg
		xmlns:ewd CDATA #FIXED "http://shcl.co.jp/ewd"
		xmlns:a CDATA #FIXED "http://ns.adobe.com/AdobeSVGViewerExtensions/3.0/"
		ewd:ver CDATA #IMPLIED
	>
	<!ATTLIST a
		ewd:lineID CDATA #IMPLIED
		ewd:groupID CDATA #IMPLIED
		ewd:figtype CDATA #IMPLIED
		ewd:code CDATA #IMPLIED
		ewd:figID CDATA #IMPLIED
		ewd:pinNo CDATA #IMPLIED
		ewd:comment CDATA #IMPLIED >
	<!ATTLIST g
		ewd:lineID CDATA #IMPLIED
		ewd:groupID CDATA #IMPLIED
		ewd:figtype CDATA #IMPLIED
		ewd:code CDATA #IMPLIED
		ewd:figID CDATA #IMPLIED
		ewd:pinNo CDATA #IMPLIED
		ewd:comment CDATA #IMPLIED >
	<!ATTLIST text
		ewd:textID CDATA #IMPLIED >
	<!ATTLIST title
		ewd:textID CDATA #IMPLIED >
]>
<!-- Generator: Shintec Hozumi YS   -->
<svg onload="call_execInitLoadProc_svg('system')" style="overflow:visible;  enable-background:new 0 0 402.805 710.000" viewBox="0 0 402.805 710.000" height="710.000" width="402.805" xml:space="preserve" ewd:ver="L2.1.2.7" xmlns="&ns_svg;" xmlns:a="http://ns.adobe.com/AdobeSVGViewerExtensions/3.0/" xmlns:ewd="http://shcl.co.jp/ewd" xmlns:xlink="&ns_xlink;">
	<script type="text/javascript" xlink:href="../../../../../system/js/ewd/fig/svgfig.js"/>
	<defs>
		<font horiz-adv-x="1229">
			<font-face font-family="Svg Symbol" units-per-em="2048" panose-1="5 5 1 2 1 7 6 2 5 7" ascent="2059" descent="450" alphabetic="0"/>
			<missing-glyph d="M 103,0 l 0,1280 1024,0 0,-1280 -1024,0 z m 32,32 l 960,0 0,1216 -960,0 0,-1216 z"/>
			<glyph unicode="&#xF057;" horiz-adv-x="1573" d="M 1517,0 l -567,0 24,279 q 141,59 207.5,168 66.5,109 66.5,306    0,272 -132.5,417.5 -132.5,145.5 -333.5,145.5 -194,0 -328,-147.5 -134,-147.5 -134,-401.5 0,-200 68.5,-319 68.5,-119     206.5,-169 l 25,-279 -564,0 0,279 35,0 q 3,-61 32,-83 45,-35 137,-35 l 270,0 0,70 q -210,61 -324.5,209 -114.5,148     -114.5,349 0,252 186.5,425 186.5,173 504.5,173 195,0 358.5,-73.5 163.5,-73.5 252,-214.5 88.5,-141 88.5,-310 0,-207     -121.5,-360.5 -121.5,-153.5 -317.5,-197.5 l -8,-70 275,0 q 92,0 128,28 36,28 42,90 l 38,0 0,-279 z"/>
		</font>
	</defs>
<g id="ewd_top">
	<a ewd:code="F42,F87" ewd:figID="1" ewd:figtype="conn" style="cursor:pointer;">
		<path d=" M  152.97,  452.21  L  152.97,  486.20  L  237.96,  486.20  L  237.96,  452.21  L  152.97,  452.21 " style="&st5;"/>
		<title ewd:textID="1">A/C Amplifier Assembly</title>
	</a>
	<a ewd:code="A37" ewd:figID="2" ewd:figtype="conn" style="cursor:pointer;">
		<path d=" M  212.46,  154.76  L  229.46,  154.76  L  229.46,  171.76  L  212.46,  171.76  L  212.46,  154.76 " style="&st5;"/>
		<title ewd:textID="6">Junction Connector</title>
	</a>
	<a ewd:code="1" ewd:figID="3" ewd:figtype="rb" style="cursor:pointer;">
		<path d=" M  254.96,  273.74  L  212.46,  273.74  L  212.46,  307.73  L  254.96,  307.73  L  254.96,  273.74 " style="&st5;"/>
	</a>
	<a ewd:code="F3" ewd:figID="4" ewd:figtype="conn" style="cursor:pointer;">
		<path d=" M  101.98,  554.19  L  101.98,  639.18  L  246.46,  639.18  L  246.46,  554.19  L  101.98,  554.19 " style="&st5;"/>
		<title ewd:textID="4">Front Window Deicer Switch (Outer Mirror Heater Switch Assembly)</title>
	</a>
	<a ewd:code="FUSE21" ewd:figID="5" ewd:figtype="rb" style="cursor:pointer;">
		<path d=" M  327.20,   35.78  L  327.20,   78.27  L  352.69,   78.27  L  352.69,   35.78  L  327.20,   35.78 " style="&st5;"/>
	</a>
	<a ewd:code="A31" ewd:figID="6" ewd:figtype="conn" style="cursor:pointer;">
		<path d=" M  297.45,  452.21  L  297.45,  520.20  L  382.44,  520.20  L  382.44,  452.21  L  297.45,  452.21 " style="&st5;"/>
		<title ewd:textID="5">Front Wiper Deicer (Windshield Glass)</title>
	</a>
	<a ewd:code="5" ewd:figID="7" ewd:figtype="jb" style="cursor:pointer;">
		<path d=" M  152.97,  341.73  L  178.47,  341.73  L  178.47,  392.72  L  152.97,  392.72  L  152.97,  341.73 " style="&st4;"/>
	</a>
	<a ewd:code="2" ewd:figID="8" ewd:figtype="jb" style="cursor:pointer;">
		<path d=" M  101.98,   35.78  L  229.46,   35.78  L  229.46,  112.27  L  101.98,  112.27  L  101.98,   35.78 " style="&st4;"/>
	</a>
	<a ewd:code="4" ewd:figID="9" ewd:figtype="jb" style="cursor:pointer;">
		<path d=" M  101.98,  197.25  L  178.47,  197.25  L  178.47,  248.24  L  101.98,  248.24  L  101.98,  197.25 " style="&st4;"/>
	</a>
	<a ewd:code="FUSE21" ewd:figID="10" ewd:figtype="fuse" style="cursor:pointer;">
		<path d=" M  327.20,   35.78  L  327.20,   78.27  L  352.69,   78.27  L  352.69,   35.78  L  327.20,   35.78 " style="&st7;"/>
	</a>
	<a ewd:code="FUSE53" ewd:figID="11" ewd:figtype="fuse" style="cursor:pointer;">
		<path d=" M  106.23,   35.78  L  106.23,   78.27  L  131.73,   78.27  L  131.73,   35.78  L  106.23,   35.78 " style="&st7;"/>
	</a>
	<a ewd:lineID="1" style="cursor:pointer;">
		<path d=" M  118.98,  248.24  L  118.98,  554.19 " style="stroke:#00A0C6;stroke-width: 5.10 ;&st6;"/>
	</a>
	<a ewd:lineID="2" style="cursor:pointer;">
		<path d=" M  118.98,  112.27  L  118.98,  197.25 " style="stroke:#00A0C6;stroke-width: 5.10 ;&st6;"/>
	</a>
	<a ewd:lineID="3" style="cursor:pointer;">
		<path d=" M  169.97,  495.27  L  169.97,  554.19 " style="stroke:#FF0000;stroke-width: 5.10 ;&st6;"/>
	</a>
	<a ewd:lineID="4" style="cursor:pointer;">
		<path d=" M  169.97,  443.14  L  169.97,  392.72 " style="stroke:#00A0C6;stroke-width: 5.10 ;&st6;"/>
	</a>
	<a ewd:lineID="5" style="cursor:pointer;">
		<path d=" M  169.97,  341.73  L  169.97,  248.24 " style="stroke:#00A0C6;stroke-width: 5.10 ;&st6;"/>
	</a>
	<a ewd:lineID="6" style="cursor:pointer;">
		<path d=" M  220.96,  495.27  L  220.96,  554.19 " style="stroke:#F668B2;stroke-width: 5.10 ;&st6;"/>
	</a>
	<a ewd:lineID="7" style="cursor:pointer;">
		<path d=" M  220.96,  401.22  L  220.96,  443.14 " style="stroke:#7FC97F;stroke-width: 5.10 ;&st6;"/>
	</a>
	<a ewd:lineID="8" style="cursor:pointer;">
		<path d=" M  220.96,  333.23  L  220.96,  386.49 " style="stroke:#7FC97F;stroke-width: 5.10 ;&st6;"/>
	</a>
	<a ewd:lineID="9" style="cursor:pointer;">
		<path d=" M  220.96,  171.76  L  220.96,  248.24 " style="stroke:#00A0C6;stroke-width: 5.10 ;&st6;"/>
	</a>
	<a ewd:lineID="10" style="cursor:pointer;">
		<path d=" M  220.96,  154.76  L  220.96,  112.27 " style="stroke:#00A0C6;stroke-width: 5.10 ;&st6;"/>
	</a>
	<a ewd:lineID="11" style="cursor:pointer;">
		<path d=" M  246.46,  333.23  L  246.46,  375.72  L  314.45,  375.72  L  314.45,  452.21 " style="stroke:#00A0C6;stroke-width: 5.10 ;&st6;"/>
	</a>
	<a ewd:lineID="12" style="cursor:pointer;">
		<path d=" M  365.44,  452.21  L  365.44,  358.73  L  263.46,  358.73  L  246.46,  341.73  L  246.46,  333.23 " style="stroke:#00A0C6;stroke-width: 5.10 ;&st6;"/>
	</a>
	<a ewd:lineID="13" style="cursor:pointer;">
		<path d=" M  246.46,  248.24  L  246.46,  231.25  L  339.94,  231.25  L  339.94,  103.77 " style="stroke:#000000;stroke-width: 5.10 ;&st6;"/>
		<path d=" M  246.46,  248.24  L  246.46,  231.25  L  339.94,  231.25  L  339.94,  103.77 " style="stroke:#FFFFFF;stroke-width: 2.27 ;&st6;"/>
		<path d=" M  246.46,  248.24  L  246.46,  231.25  L  339.94,  231.25  L  339.94,  103.77 " style="stroke:#FF0000;stroke-width: 1.13 ;&st6;"/>
	</a>
	<a ewd:lineID="14" style="cursor:pointer;">
		<path d=" M  314.45,  520.20  L  314.45,  681.67 " style="stroke:#000000;stroke-width: 5.10 ;&st6;"/>
		<path d=" M  314.45,  520.20  L  314.45,  681.67 " style="stroke:#FFFFFF;stroke-width: 4.53 ;&st6;"/>
		<path d=" M  314.45,  520.20  L  314.45,  681.67 " style="stroke:#000000;stroke-width: 1.13 ;&st6;"/>
	</a>
	<path d=" M  342.07,  103.77  L  337.82,  103.77 " style="stroke-width: 1.42 ;&st7; "/>
	<path d=" M  339.94,   69.77  L  339.94,   95.27 " style="stroke-width: 0.85 ;&st7; "/>
	<path d=" M  342.07,   95.27  L  337.82,   95.27 " style="stroke-width: 1.42 ;&st7; "/>
	<path d=" M  246.46,  300.65  L  252.12,  277.99 " style="stroke-width: 1.42 ;&st7; "/>
	<path d=" M  246.46,  307.73  L  246.46,  303.48 " style="stroke-width: 0.85 ;&st7; "/>
	<path d=" M  246.46,  273.74  L  246.46,  277.99 " style="stroke-width: 0.85 ;&st7; "/>
	<path d=" M  220.96,  273.74  L  220.96,  282.24 " style="stroke-width: 0.85 ;&st7; "/>
	<path d=" M  220.96,  299.24  L  220.96,  307.73 " style="stroke-width: 0.85 ;&st7; "/>
	<path d=" M  223.09,  248.24  L  218.84,  248.24 " style="stroke-width: 1.42 ;&st7; "/>
	<path d=" M  223.09,  256.74  L  218.84,  256.74 " style="stroke-width: 1.42 ;&st7; "/>
	<path d=" M  248.58,  248.24  L  244.33,  248.24 " style="stroke-width: 1.42 ;&st7; "/>
	<path d=" M  248.58,  256.74  L  244.33,  256.74 " style="stroke-width: 1.42 ;&st7; "/>
	<path d=" M  223.09,  333.23  L  218.84,  333.23 " style="stroke-width: 1.42 ;&st7; "/>
	<path d=" M  223.09,  324.73  L  218.84,  324.73 " style="stroke-width: 1.42 ;&st7; "/>
	<path d=" M  248.58,  324.73  L  244.33,  324.73 " style="stroke-width: 1.42 ;&st7; "/>
	<path d=" M  248.58,  333.23  L  244.33,  333.23 " style="stroke-width: 1.42 ;&st7; "/>
	<path d=" M  223.09,  112.27  L  218.84,  112.27 " style="stroke-width: 1.42 ;&st7; "/>
	<path d=" M  223.09,  103.77  L  218.84,  103.77 " style="stroke-width: 1.42 ;&st7; "/>
	<path d=" M  118.98,   69.77  L  118.98,  103.77 " style="stroke-width: 0.85 ;&st7; "/>
	<path d=" M  121.10,  103.77  L  116.86,  103.77 " style="stroke-width: 1.42 ;&st7; "/>
	<path d=" M  121.10,  112.27  L  116.86,  112.27 " style="stroke-width: 1.42 ;&st7; "/>
	<path d=" M  169.97,  606.60  L  175.64,  583.94 " style="stroke-width: 1.42 ;&st7; "/>
	<path d=" M  169.97,  630.68  L  169.97,  609.43 " style="stroke-width: 0.85 ;&st7; "/>
	<path d=" M  169.97,  583.94  L  169.97,  554.19 " style="stroke-width: 0.85 ;&st7; "/>
	<path d=" M  216.71,  605.18  L  225.21,  605.18 " style="stroke-width: 0.85 ;&st7; "/>
	<path d=" M  233.69,  604.02  L  226.33,  608.27 " style="stroke-width: 0.85 ;&st7; "/>
	<path d=" M  228.34,  611.74  L  235.70,  607.49 " style="stroke-width: 0.85 ;&st7; "/>
	<path d=" M  216.71,  579.69  L  225.21,  579.69 " style="stroke-width: 0.85 ;&st7; "/>
	<path d=" M  121.10,  197.25  L  116.86,  197.25 " style="stroke-width: 1.42 ;&st7; "/>
	<path d=" M  121.10,  205.75  L  116.86,  205.75 " style="stroke-width: 1.42 ;&st7; "/>
	<path d=" M  121.10,  239.75  L  116.86,  239.75 " style="stroke-width: 1.42 ;&st7; "/>
	<path d=" M  121.10,  248.24  L  116.86,  248.24 " style="stroke-width: 1.42 ;&st7; "/>
	<path d=" M  172.10,  239.75  L  167.85,  239.75 " style="stroke-width: 1.42 ;&st7; "/>
	<path d=" M  172.10,  248.24  L  167.85,  248.24 " style="stroke-width: 1.42 ;&st7; "/>
	<path d=" M  172.10,  341.73  L  167.85,  341.73 " style="stroke-width: 1.42 ;&st7; "/>
	<path d=" M  172.10,  350.23  L  167.85,  350.23 " style="stroke-width: 1.42 ;&st7; "/>
	<path d=" M  172.10,  384.22  L  167.85,  384.22 " style="stroke-width: 1.42 ;&st7; "/>
	<path d=" M  172.10,  392.72  L  167.85,  392.72 " style="stroke-width: 1.42 ;&st7; "/>
	<path d=" M  212.46,  392.72  L  220.96,  392.72 " style="stroke-width: 1.42 ;&st7; "/>
	<path d=" M  117.79,   85.77  L  117.52,   86.24  L  117.42,   86.77  L  117.52,   87.30  L  117.79,   87.77  L  118.20,   88.12  L  118.71,   88.31  L  119.25,   88.31  L  119.76,   88.12  L  120.17,   87.77  L  120.44,   87.30  L  120.54,   86.77  L  120.44,   86.24  L  120.17,   85.77  L  119.76,   85.42  L  119.25,   85.24  L  118.71,   85.24  L  118.20,   85.42  L  117.79,   85.77  L  118.18,   86.48  L  118.18,   87.06  L  118.56,   87.51  L  119.13,   87.61  L  119.63,   87.32  L  119.83,   86.77  L  119.63,   86.22  L  119.13,   85.94  L  118.56,   86.03  L  118.98,   86.77 " style="stroke-width: 0.85 ;&st7; "/>
	<path d=" M  118.98,   86.77  L  220.96,   86.77  L  220.96,  103.77 " style="stroke-width: 0.85 ;&st7; "/>
	<path d=" M  220.96,   98.87  L  218.13,   96.04  L  218.13,  100.29  L  220.96,  103.12  L  223.80,  100.29  L  223.80,   96.04  L  220.96,   98.87 " style="stroke-width: 0.28 ;&st9;"/>
	<path d=" M  339.94,   90.37  L  337.11,   87.54  L  337.11,   91.79  L  339.94,   94.62  L  342.78,   91.79  L  342.78,   87.54  L  339.94,   90.37 " style="stroke-width: 0.28 ;&st9;"/>
	<path d=" M  327.20,   35.78  L  327.20,   78.27  L  352.69,   78.27  L  352.69,   35.78  L  327.20,   35.78 " style="stroke-width: 1.42 ;&st7; "/>
	<path d=" M  305.95,  477.71  L  305.95,  494.70  L  373.94,  494.70  L  373.94,  477.71  L  305.95,  477.71 " style="stroke-width: 1.42 ;&st7; "/>
	<path d=" M  254.96,  273.74  L  212.46,  273.74  L  212.46,  307.73  L  254.96,  307.73  L  254.96,  273.74 " style="stroke-width: 1.42 ;&st7; "/>
	<path d=" M  220.96,  261.64  L  223.80,  264.47  L  223.80,  260.22  L  220.96,  257.39  L  218.13,  260.22  L  218.13,  264.47  L  220.96,  261.64 " style="stroke-width: 0.28 ;&st9;"/>
	<path d=" M  246.46,  261.64  L  249.29,  264.47  L  249.29,  260.22  L  246.46,  257.39  L  243.63,  260.22  L  243.63,  264.47  L  246.46,  261.64 " style="stroke-width: 0.28 ;&st9;"/>
	<path d=" M  220.96,  319.84  L  218.13,  317.00  L  218.13,  321.25  L  220.96,  324.09  L  223.80,  321.25  L  223.80,  317.00  L  220.96,  319.84 " style="stroke-width: 0.28 ;&st9;"/>
	<path d=" M  246.46,  319.84  L  243.63,  317.00  L  243.63,  321.25  L  246.46,  324.09  L  249.29,  321.25  L  249.29,  317.00  L  246.46,  319.84 " style="stroke-width: 0.28 ;&st9;"/>
	<path d=" M  220.96,  256.74  L  220.96,  273.74 " style="stroke-width: 0.85 ;&st7; "/>
	<path d=" M  246.46,  256.74  L  246.46,  273.74 " style="stroke-width: 0.85 ;&st7; "/>
	<path d=" M  246.46,  307.73  L  246.46,  324.73 " style="stroke-width: 0.85 ;&st7; "/>
	<path d=" M  220.96,  307.73  L  220.96,  324.73 " style="stroke-width: 0.85 ;&st7; "/>
	<path d=" M  152.97,  452.21  L  152.97,  486.20  L  237.96,  486.20  L  237.96,  452.21  L  152.97,  452.21 " style="stroke-width: 1.42 ;&st7; "/>
	<path d=" M  220.96,  154.76  L  220.96,  171.76 " style="stroke-width: 0.85 ;&st7; "/>
	<path d=" M  212.46,  154.76  L  229.46,  154.76  L  229.46,  171.76  L  212.46,  171.76  L  212.46,  154.76 " style="stroke-width: 1.42 ;&st7; "/>
	<path d=" M  101.98,  554.19  L  101.98,  639.18  L  246.46,  639.18  L  246.46,  554.19  L  101.98,  554.19 " style="stroke-width: 1.42 ;&st7; "/>
	<path d=" M  106.23,   35.78  L  106.23,   78.27  L  131.73,   78.27  L  131.73,   35.78  L  106.23,   35.78 " style="stroke-width: 1.42 ;&st7; "/>
	<path d=" M  118.98,   98.87  L  116.15,   96.04  L  116.15,  100.29  L  118.98,  103.12  L  121.81,  100.29  L  121.81,   96.04  L  118.98,   98.87 " style="stroke-width: 0.28 ;&st9;"/>
	<path d=" M  117.79,  221.75  L  117.52,  222.22  L  117.42,  222.75  L  117.52,  223.28  L  117.79,  223.75  L  118.20,  224.10  L  118.71,  224.28  L  119.25,  224.28  L  119.76,  224.10  L  120.17,  223.75  L  120.44,  223.28  L  120.54,  222.75  L  120.44,  222.22  L  120.17,  221.75  L  119.76,  221.40  L  119.25,  221.21  L  118.71,  221.21  L  118.20,  221.40  L  117.79,  221.75  L  118.18,  222.46  L  118.18,  223.04  L  118.56,  223.48  L  119.13,  223.58  L  119.63,  223.30  L  119.83,  222.75  L  119.63,  222.20  L  119.13,  221.91  L  118.56,  222.01  L  118.98,  222.75 " style="stroke-width: 0.85 ;&st7; "/>
	<path d=" M  168.78,  629.68  L  168.51,  630.15  L  168.41,  630.68  L  168.51,  631.21  L  168.78,  631.68  L  169.19,  632.03  L  169.70,  632.22  L  170.24,  632.22  L  170.75,  632.03  L  171.16,  631.68  L  171.44,  631.21  L  171.53,  630.68  L  171.44,  630.15  L  171.16,  629.68  L  170.75,  629.33  L  170.24,  629.14  L  169.70,  629.14  L  169.19,  629.33  L  168.78,  629.68  L  169.17,  630.39  L  169.17,  630.97  L  169.55,  631.42  L  170.12,  631.52  L  170.62,  631.23  L  170.82,  630.68  L  170.62,  630.13  L  170.12,  629.84  L  169.55,  629.94  L  169.97,  630.68 " style="stroke-width: 0.85 ;&st7; "/>
	<path d=" M  118.98,  554.19  L  118.98,  630.68  L  178.47,  630.68 " style="stroke-width: 0.85 ;&st7; "/>
	<path d=" M  178.47,  630.68  L  186.97,  630.68  L  188.39,  627.85  L  191.22,  633.51  L  194.05,  627.85  L  196.88,  633.51  L  199.72,  627.85  L  202.55,  633.51  L  203.97,  630.68  L  212.46,  630.68 " style="stroke-width: 0.85 ;&st7; "/>
	<path d=" M  220.96,  605.18  L  226.63,  613.68  L  215.30,  613.68  L  220.96,  605.18 " style="stroke-width: 0.28 ;&st9;"/>
	<path d=" M  233.70,  604.02  L  231.36,  607.06  L  229.89,  604.52  L  233.70,  604.02  L  232.41,  604.76  L  231.43,  606.04  L  230.81,  604.97  L  232.41,  604.76  L  231.77,  605.13  L  231.46,  605.53  L  231.27,  605.20  L  231.77,  605.13 " style="stroke-width: 0.85 ;&st7; "/>
	<path d=" M  235.70,  607.49  L  233.37,  610.53  L  231.90,  607.99  L  235.70,  607.49  L  234.42,  608.23  L  233.43,  609.51  L  232.81,  608.44  L  234.42,  608.23  L  233.78,  608.60  L  233.46,  609.00  L  233.27,  608.67  L  233.78,  608.60 " style="stroke-width: 0.85 ;&st7; "/>
	<path d=" M  220.96,  554.19  L  220.96,  630.68  L  212.46,  630.68 " style="stroke-width: 0.85 ;&st7; "/>
	<path d=" M  314.45,  697.25  L  314.45,  701.50 " style="stroke-width: 0.85 ;&st7; "/>
	<path d=" M  305.95,  701.50  L  322.95,  701.50 " style="stroke-width: 0.85 ;&st7; "/>
	<path d=" M  310.20,  704.33  L  318.70,  704.33 " style="stroke-width: 0.85 ;&st7; "/>
	<path d=" M  311.61,  707.17  L  317.28,  707.17 " style="stroke-width: 0.85 ;&st7; "/>
	<path d=" M  313.03,  710.00  L  315.86,  710.00 " style="stroke-width: 0.85 ;&st7; "/>
	<path d=" M  220.96,  579.69  L  226.63,  588.19  L  215.30,  588.19  L  220.96,  579.69 " style="stroke-width: 0.28 ;&st9;"/>
	<path d=" M  118.98,  210.65  L  121.81,  213.48  L  121.81,  209.23  L  118.98,  206.40  L  116.15,  209.23  L  116.15,  213.48  L  118.98,  210.65 " style="stroke-width: 0.28 ;&st9;"/>
	<path d=" M  118.98,  234.85  L  116.15,  232.02  L  116.15,  236.27  L  118.98,  239.10  L  121.81,  236.27  L  121.81,  232.02  L  118.98,  234.85 " style="stroke-width: 0.28 ;&st9;"/>
	<path d=" M  118.98,  239.75  L  118.98,  205.75 " style="stroke-width: 0.85 ;&st7; "/>
	<path d=" M  169.97,  234.85  L  167.14,  232.02  L  167.14,  236.27  L  169.97,  239.10  L  172.80,  236.27  L  172.80,  232.02  L  169.97,  234.85 " style="stroke-width: 0.28 ;&st9;"/>
	<path d=" M  169.97,  239.75  L  169.97,  222.75  L  118.98,  222.75 " style="stroke-width: 0.85 ;&st7; "/>
	<path d=" M  169.97,  355.12  L  172.80,  357.95  L  172.80,  353.71  L  169.97,  350.87  L  167.14,  353.71  L  167.14,  357.95  L  169.97,  355.12 " style="stroke-width: 0.28 ;&st9;"/>
	<path d=" M  169.97,  379.33  L  167.14,  376.49  L  167.14,  380.74  L  169.97,  383.58  L  172.80,  380.74  L  172.80,  376.49  L  169.97,  379.33 " style="stroke-width: 0.28 ;&st9;"/>
	<path d=" M  169.97,  384.22  L  169.97,  350.23 " style="stroke-width: 0.85 ;&st7; "/>
	<path d=" M  297.45,  452.21  L  297.45,  520.20  L  382.44,  520.20  L  382.44,  452.21  L  297.45,  452.21 " style="stroke-width: 1.42 ;&st7; "/>
	<path d=" M  314.45,  477.71  L  314.45,  452.21 " style="stroke-width: 0.85 ;&st7; "/>
	<path d=" M  365.44,  477.71  L  365.44,  452.21 " style="stroke-width: 0.85 ;&st7; "/>
	<path d=" M  314.45,  520.20  L  314.45,  494.70 " style="stroke-width: 0.85 ;&st7; "/>
	<path d=" M  216.71,  383.65  L  220.96,  387.90  L  225.21,  383.65 " style="stroke-width: 1.42 ;&st7; "/>
	<path d=" M  225.21,  387.05  L  220.96,  391.30  L  216.71,  387.05 " style="stroke-width: 1.42 ;&st7; "/>
	<path d=" M  333.57,   99.52  C  333.57   101.87   335.47   103.77   337.82   103.77 " style="stroke-width: 1.42 ;&st7; "/>
	<path d=" M  346.32,   99.52  C  346.32    97.17   344.41    95.27   342.07    95.27 " style="stroke-width: 1.42 ;&st7; "/>
	<path d=" M  342.07,  103.77  C  344.41   103.77   346.32   101.87   346.32    99.52 " style="stroke-width: 1.42 ;&st7; "/>
	<path d=" M  337.82,   95.27  C  335.47    95.27   333.57    97.17   333.57    99.52 " style="stroke-width: 1.42 ;&st7; "/>
	<path d=" M  341.36,   68.36  C  341.36    67.57   340.73    66.94   339.94    66.94 " style="stroke-width: 0.85 ;&st7; "/>
	<path d=" M  339.94,   66.94  C  339.16    66.94   338.53    67.57   338.53    68.36 " style="stroke-width: 0.85 ;&st7; "/>
	<path d=" M  338.53,   68.36  C  338.53    69.14   339.16    69.77   339.94    69.77 " style="stroke-width: 0.85 ;&st7; "/>
	<path d=" M  339.94,   69.77  C  340.73    69.77   341.36    69.14   341.36    68.36 " style="stroke-width: 0.85 ;&st7; "/>
	<path d=" M  341.36,   45.69  C  341.36    44.91   340.73    44.28   339.94    44.28 " style="stroke-width: 0.85 ;&st7; "/>
	<path d=" M  339.94,   44.28  C  339.16    44.28   338.53    44.91   338.53    45.69 " style="stroke-width: 0.85 ;&st7; "/>
	<path d=" M  338.53,   45.69  C  338.53    46.48   339.16    47.11   339.94    47.11 " style="stroke-width: 0.85 ;&st7; "/>
	<path d=" M  339.94,   47.11  C  340.73    47.11   341.36    46.48   341.36    45.69 " style="stroke-width: 0.85 ;&st7; "/>
	<path d=" M  339.94,   66.94  C  342.68    65.33   343.59    61.80   341.98    59.06 " style="stroke-width: 1.42 ;&st7; "/>
	<path d=" M  341.98,   59.06  C  341.46    58.18   340.83    57.55   339.94    57.03 " style="stroke-width: 1.42 ;&st7; "/>
	<path d=" M  339.94,   47.11  C  337.21    48.72   336.29    52.25   337.91    54.99 " style="stroke-width: 1.42 ;&st7; "/>
	<path d=" M  337.91,   54.99  C  338.43    55.87   339.06    56.51   339.94    57.03 " style="stroke-width: 1.42 ;&st7; "/>
	<path d=" M  227.34,  108.02  C  227.34   105.67   225.43   103.77   223.09   103.77 " style="stroke-width: 1.42 ;&st7; "/>
	<path d=" M  247.88,  302.07  C  247.88   301.29   247.24   300.65   246.46   300.65 " style="stroke-width: 0.85 ;&st7; "/>
	<path d=" M  246.46,  300.65  C  245.68   300.65   245.04   301.29   245.04   302.07 " style="stroke-width: 0.85 ;&st7; "/>
	<path d=" M  245.04,  302.07  C  245.04   302.85   245.68   303.48   246.46   303.48 " style="stroke-width: 0.85 ;&st7; "/>
	<path d=" M  246.46,  303.48  C  247.24   303.48   247.88   302.85   247.88   302.07 " style="stroke-width: 0.85 ;&st7; "/>
	<path d=" M  247.88,  279.41  C  247.88   278.62   247.24   277.99   246.46   277.99 " style="stroke-width: 0.85 ;&st7; "/>
	<path d=" M  246.46,  277.99  C  245.68   277.99   245.04   278.62   245.04   279.41 " style="stroke-width: 0.85 ;&st7; "/>
	<path d=" M  245.04,  279.41  C  245.04   280.19   245.68   280.82   246.46   280.82 " style="stroke-width: 0.85 ;&st7; "/>
	<path d=" M  246.46,  280.82  C  247.24   280.82   247.88   280.19   247.88   279.41 " style="stroke-width: 0.85 ;&st7; "/>
	<path d=" M  218.43,  288.26  C  219.80   289.66   222.04   289.68   223.44   288.31 " style="stroke-width: 0.85 ;&st7; "/>
	<path d=" M  223.44,  288.31  C  224.84   286.94   224.86   284.70   223.49   283.30 " style="stroke-width: 0.85 ;&st7; "/>
	<path d=" M  223.49,  283.30  C  222.80   282.59   221.95   282.24   220.96   282.24 " style="stroke-width: 0.85 ;&st7; "/>
	<path d=" M  218.43,  293.22  C  219.80   294.61   222.04   294.64   223.44   293.27 " style="stroke-width: 0.85 ;&st7; "/>
	<path d=" M  223.44,  293.27  C  224.84   291.90   224.86   289.66   223.49   288.26 " style="stroke-width: 0.85 ;&st7; "/>
	<path d=" M  223.49,  288.26  C  222.12   286.86   219.88   286.84   218.48   288.21 " style="stroke-width: 0.85 ;&st7; "/>
	<path d=" M  218.48,  288.21  C  218.47   288.22   218.45   288.24   218.43   288.26 " style="stroke-width: 0.85 ;&st7; "/>
	<path d=" M  220.96,  299.24  C  222.92   299.24   224.50   297.65   224.50   295.69 " style="stroke-width: 0.85 ;&st7; "/>
	<path d=" M  224.50,  295.69  C  224.50   293.74   222.92   292.15   220.96   292.15 " style="stroke-width: 0.85 ;&st7; "/>
	<path d=" M  220.96,  292.15  C  219.97   292.15   219.13   292.51   218.43   293.22 " style="stroke-width: 0.85 ;&st7; "/>
	<path d=" M  218.84,  248.24  C  216.49   248.24   214.59   250.15   214.59   252.49 " style="stroke-width: 1.42 ;&st7; "/>
	<path d=" M  214.59,  252.49  C  214.59   254.84   216.49   256.74   218.84   256.74 " style="stroke-width: 1.42 ;&st7; "/>
	<path d=" M  223.09,  256.74  C  225.43   256.74   227.34   254.84   227.34   252.49 " style="stroke-width: 1.42 ;&st7; "/>
	<path d=" M  227.34,  252.49  C  227.34   250.15   225.43   248.24   223.09   248.24 " style="stroke-width: 1.42 ;&st7; "/>
	<path d=" M  244.33,  248.24  C  241.99   248.24   240.08   250.15   240.08   252.49 " style="stroke-width: 1.42 ;&st7; "/>
	<path d=" M  240.08,  252.49  C  240.08   254.84   241.99   256.74   244.33   256.74 " style="stroke-width: 1.42 ;&st7; "/>
	<path d=" M  248.58,  256.74  C  250.93   256.74   252.83   254.84   252.83   252.49 " style="stroke-width: 1.42 ;&st7; "/>
	<path d=" M  252.83,  252.49  C  252.83   250.15   250.93   248.24   248.58   248.24 " style="stroke-width: 1.42 ;&st7; "/>
	<path d=" M  227.34,  328.98  C  227.34   326.63   225.43   324.73   223.09   324.73 " style="stroke-width: 1.42 ;&st7; "/>
	<path d=" M  223.09,  333.23  C  225.43   333.23   227.34   331.33   227.34   328.98 " style="stroke-width: 1.42 ;&st7; "/>
	<path d=" M  214.59,  328.98  C  214.59   331.33   216.49   333.23   218.84   333.23 " style="stroke-width: 1.42 ;&st7; "/>
	<path d=" M  218.84,  324.73  C  216.49   324.73   214.59   326.63   214.59   328.98 " style="stroke-width: 1.42 ;&st7; "/>
	<path d=" M  244.33,  324.73  C  241.99   324.73   240.08   326.63   240.08   328.98 " style="stroke-width: 1.42 ;&st7; "/>
	<path d=" M  240.08,  328.98  C  240.08   331.33   241.99   333.23   244.33   333.23 " style="stroke-width: 1.42 ;&st7; "/>
	<path d=" M  248.58,  333.23  C  250.93   333.23   252.83   331.33   252.83   328.98 " style="stroke-width: 1.42 ;&st7; "/>
	<path d=" M  252.83,  328.98  C  252.83   326.63   250.93   324.73   248.58   324.73 " style="stroke-width: 1.42 ;&st7; "/>
	<path d=" M  223.09,  112.27  C  225.43   112.27   227.34   110.36   227.34   108.02 " style="stroke-width: 1.42 ;&st7; "/>
	<path d=" M  214.59,  108.02  C  214.59   110.36   216.49   112.27   218.84   112.27 " style="stroke-width: 1.42 ;&st7; "/>
	<path d=" M  218.84,  103.77  C  216.49   103.77   214.59   105.67   214.59   108.02 " style="stroke-width: 1.42 ;&st7; "/>
	<path d=" M  225.50,  447.68  C  225.50   445.17   223.47   443.14   220.96   443.14 " style="stroke-width: 1.42 ;&st7; "/>
	<path d=" M  220.96,  443.14  C  218.46   443.14   216.43   445.17   216.43   447.68 " style="stroke-width: 1.42 ;&st7; "/>
	<path d=" M  216.43,  447.68  C  216.43   450.18   218.46   452.21   220.96   452.21 " style="stroke-width: 1.42 ;&st7; "/>
	<path d=" M  220.96,  452.21  C  223.47   452.21   225.50   450.18   225.50   447.68 " style="stroke-width: 1.42 ;&st7; "/>
	<path d=" M  174.50,  447.68  C  174.50   445.17   172.47   443.14   169.97   443.14 " style="stroke-width: 1.42 ;&st7; "/>
	<path d=" M  169.97,  443.14  C  167.47   443.14   165.44   445.17   165.44   447.68 " style="stroke-width: 1.42 ;&st7; "/>
	<path d=" M  165.44,  447.68  C  165.44   450.18   167.47   452.21   169.97   452.21 " style="stroke-width: 1.42 ;&st7; "/>
	<path d=" M  169.97,  452.21  C  172.47   452.21   174.50   450.18   174.50   447.68 " style="stroke-width: 1.42 ;&st7; "/>
	<path d=" M  225.50,  490.74  C  225.50   488.23   223.47   486.20   220.96   486.20 " style="stroke-width: 1.42 ;&st7; "/>
	<path d=" M  220.96,  486.20  C  218.46   486.20   216.43   488.23   216.43   490.74 " style="stroke-width: 1.42 ;&st7; "/>
	<path d=" M  216.43,  490.74  C  216.43   493.24   218.46   495.27   220.96   495.27 " style="stroke-width: 1.42 ;&st7; "/>
	<path d=" M  220.96,  495.27  C  223.47   495.27   225.50   493.24   225.50   490.74 " style="stroke-width: 1.42 ;&st7; "/>
	<path d=" M  174.50,  490.74  C  174.50   488.23   172.47   486.20   169.97   486.20 " style="stroke-width: 1.42 ;&st7; "/>
	<path d=" M  169.97,  486.20  C  167.47   486.20   165.44   488.23   165.44   490.74 " style="stroke-width: 1.42 ;&st7; "/>
	<path d=" M  165.44,  490.74  C  165.44   493.24   167.47   495.27   169.97   495.27 " style="stroke-width: 1.42 ;&st7; "/>
	<path d=" M  169.97,  495.27  C  172.47   495.27   174.50   493.24   174.50   490.74 " style="stroke-width: 1.42 ;&st7; "/>
	<path d=" M  118.98,   47.11  C  116.24    48.72   115.33    52.25   116.94    54.99 " style="stroke-width: 1.42 ;&st7; "/>
	<path d=" M  116.94,   54.99  C  117.46    55.87   118.10    56.51   118.98    57.03 " style="stroke-width: 1.42 ;&st7; "/>
	<path d=" M  118.98,   66.94  C  121.72    65.33   122.63    61.80   121.02    59.06 " style="stroke-width: 1.42 ;&st7; "/>
	<path d=" M  121.02,   59.06  C  120.50    58.18   119.86    57.55   118.98    57.03 " style="stroke-width: 1.42 ;&st7; "/>
	<path d=" M  120.40,   45.69  C  120.40    44.91   119.76    44.28   118.98    44.28 " style="stroke-width: 0.85 ;&st7; "/>
	<path d=" M  118.98,   44.28  C  118.20    44.28   117.56    44.91   117.56    45.69 " style="stroke-width: 0.85 ;&st7; "/>
	<path d=" M  117.56,   45.69  C  117.56    46.48   118.20    47.11   118.98    47.11 " style="stroke-width: 0.85 ;&st7; "/>
	<path d=" M  118.98,   47.11  C  119.76    47.11   120.40    46.48   120.40    45.69 " style="stroke-width: 0.85 ;&st7; "/>
	<path d=" M  120.40,   68.36  C  120.40    67.57   119.76    66.94   118.98    66.94 " style="stroke-width: 0.85 ;&st7; "/>
	<path d=" M  118.98,   66.94  C  118.20    66.94   117.56    67.57   117.56    68.36 " style="stroke-width: 0.85 ;&st7; "/>
	<path d=" M  117.56,   68.36  C  117.56    69.14   118.20    69.77   118.98    69.77 " style="stroke-width: 0.85 ;&st7; "/>
	<path d=" M  118.98,   69.77  C  119.76    69.77   120.40    69.14   120.40    68.36 " style="stroke-width: 0.85 ;&st7; "/>
	<path d=" M  116.86,  103.77  C  114.51   103.77   112.61   105.67   112.61   108.02 " style="stroke-width: 1.42 ;&st7; "/>
	<path d=" M  112.61,  108.02  C  112.61   110.36   114.51   112.27   116.86   112.27 " style="stroke-width: 1.42 ;&st7; "/>
	<path d=" M  121.10,  112.27  C  123.45   112.27   125.35   110.36   125.35   108.02 " style="stroke-width: 1.42 ;&st7; "/>
	<path d=" M  125.35,  108.02  C  125.35   105.67   123.45   103.77   121.10   103.77 " style="stroke-width: 1.42 ;&st7; "/>
	<path d=" M  171.39,  608.02  C  171.39   607.23   170.75   606.60   169.97   606.60 " style="stroke-width: 0.85 ;&st7; "/>
	<path d=" M  169.97,  606.60  C  169.19   606.60   168.56   607.23   168.56   608.02 " style="stroke-width: 0.85 ;&st7; "/>
	<path d=" M  168.56,  608.02  C  168.56   608.80   169.19   609.43   169.97   609.43 " style="stroke-width: 0.85 ;&st7; "/>
	<path d=" M  169.97,  609.43  C  170.75   609.43   171.39   608.80   171.39   608.02 " style="stroke-width: 0.85 ;&st7; "/>
	<path d=" M  171.39,  585.35  C  171.39   584.57   170.75   583.94   169.97   583.94 " style="stroke-width: 0.85 ;&st7; "/>
	<path d=" M  169.97,  583.94  C  169.19   583.94   168.56   584.57   168.56   585.35 " style="stroke-width: 0.85 ;&st7; "/>
	<path d=" M  168.56,  585.35  C  168.56   586.14   169.19   586.77   169.97   586.77 " style="stroke-width: 0.85 ;&st7; "/>
	<path d=" M  169.97,  586.77  C  170.75   586.77   171.39   586.14   171.39   585.35 " style="stroke-width: 0.85 ;&st7; "/>
	<path d=" M  116.86,  197.25  C  114.51   197.25   112.61   199.15   112.61   201.50 " style="stroke-width: 1.42 ;&st7; "/>
	<path d=" M  112.61,  201.50  C  112.61   203.85   114.51   205.75   116.86   205.75 " style="stroke-width: 1.42 ;&st7; "/>
	<path d=" M  121.10,  205.75  C  123.45   205.75   125.35   203.85   125.35   201.50 " style="stroke-width: 1.42 ;&st7; "/>
	<path d=" M  125.35,  201.50  C  125.35   199.15   123.45   197.25   121.10   197.25 " style="stroke-width: 1.42 ;&st7; "/>
	<path d=" M  116.86,  239.75  C  114.51   239.75   112.61   241.65   112.61   243.99 " style="stroke-width: 1.42 ;&st7; "/>
	<path d=" M  112.61,  243.99  C  112.61   246.34   114.51   248.24   116.86   248.24 " style="stroke-width: 1.42 ;&st7; "/>
	<path d=" M  121.10,  248.24  C  123.45   248.24   125.35   246.34   125.35   243.99 " style="stroke-width: 1.42 ;&st7; "/>
	<path d=" M  125.35,  243.99  C  125.35   241.65   123.45   239.75   121.10   239.75 " style="stroke-width: 1.42 ;&st7; "/>
	<path d=" M  167.85,  239.75  C  165.50   239.75   163.60   241.65   163.60   243.99 " style="stroke-width: 1.42 ;&st7; "/>
	<path d=" M  163.60,  243.99  C  163.60   246.34   165.50   248.24   167.85   248.24 " style="stroke-width: 1.42 ;&st7; "/>
	<path d=" M  172.10,  248.24  C  174.44   248.24   176.35   246.34   176.35   243.99 " style="stroke-width: 1.42 ;&st7; "/>
	<path d=" M  176.35,  243.99  C  176.35   241.65   174.44   239.75   172.10   239.75 " style="stroke-width: 1.42 ;&st7; "/>
	<path d=" M  167.85,  341.73  C  165.50   341.73   163.60   343.63   163.60   345.98 " style="stroke-width: 1.42 ;&st7; "/>
	<path d=" M  163.60,  345.98  C  163.60   348.32   165.50   350.23   167.85   350.23 " style="stroke-width: 1.42 ;&st7; "/>
	<path d=" M  172.10,  350.23  C  174.44   350.23   176.35   348.32   176.35   345.98 " style="stroke-width: 1.42 ;&st7; "/>
	<path d=" M  176.35,  345.98  C  176.35   343.63   174.44   341.73   172.10   341.73 " style="stroke-width: 1.42 ;&st7; "/>
	<path d=" M  167.85,  384.22  C  165.50   384.22   163.60   386.12   163.60   388.47 " style="stroke-width: 1.42 ;&st7; "/>
	<path d=" M  163.60,  388.47  C  163.60   390.82   165.50   392.72   167.85   392.72 " style="stroke-width: 1.42 ;&st7; "/>
	<path d=" M  172.10,  392.72  C  174.44   392.72   176.35   390.82   176.35   388.47 " style="stroke-width: 1.42 ;&st7; "/>
	<path d=" M  176.35,  388.47  C  176.35   386.12   174.44   384.22   172.10   384.22 " style="stroke-width: 1.42 ;&st7; "/>
	<text style="&st18;" transform="matrix(&st16;  172.8  562.39 )">E</text>
	<text style="&st18;" transform="matrix(&st16;  223.8  562.39 )">D</text>
	<text style="&st18;" transform="matrix(&st16;  114.67  203.47 )">4A</text>
	<text style="&st18;" transform="matrix(&st16;  102.33  203.47 )">66</text>
	<text style="&st18;" transform="matrix(&st16;  114.67  245.96 )">4B</text>
	<text style="&st18;" transform="matrix(&st16;  103.11  245.96 )">41</text>
	<text style="&st18;" transform="matrix(&st16;  165.52  245.96 )">4C</text>
	<text style="&st18;" transform="matrix(&st16;  154.1  245.96 )">19</text>
	<text style="&st18;" transform="matrix(&st17;  166.28  309.71 )">L</text>
	<text style="&st18;" transform="matrix(&st17;  115.28  309.71 )">L</text>
	<text style="&st18;" transform="matrix(&st16;  165.66  347.95 )">5B</text>
	<text style="&st18;" transform="matrix(&st16;  153.33  347.95 )">26</text>
	<text style="&st18;" transform="matrix(&st16;  165.66  390.44 )">5A</text>
	<text style="&st18;" transform="matrix(&st16;  153.33  390.44 )">27</text>
	<text style="&st18;" transform="matrix(&st16;  317.28  516.51 )">E</text>
	<text style="&st18;" transform="matrix(&st16;  368.27  460.4 )">B2</text>
	<text style="&st18;" transform="matrix(&st16;  317.28  460.4 )">B</text>
	<text ewd:textID="3" style="&st18;" transform="matrix(&st16;  329.77  488.17 )">Deicer</text>
	<text ewd:textID="4" style="&st18;" transform="matrix(&st17;  261.18  641.7 )">Front Window Deicer Switch <tspan dy="6" x="0">(Outer Mirror Heater Switch Assembly)</tspan></text>
	<text ewd:textID="5" style="&st18;" transform="matrix(&st17;  397.15  522.72 )">Front Wiper Deicer (Windshield Glass)</text>
	<text style="&st18;" transform="matrix(&st16;  202.19  398.94 )">58</text>
	<text style="&st18;" transform="matrix(&st17;  245.57  488.73 )">F42(A),F87(C)</text>
	<text ewd:textID="1" style="&st18;" transform="matrix(&st17;  252.68  488.73 )">A/C Amplifier Assembly</text>
	<text style="&st18;" transform="matrix(&st16;  161.53  482.51 )">SW 1</text>
	<text style="&st18;" transform="matrix(&st16;  211.92  459.84 )">FDEF</text>
	<text style="&st18;" transform="matrix(&st16;  164.21  459.84 )">IG+</text>
	<text style="&st18;" transform="matrix(&st16;  204.32  109.99 )">27</text>
	<text style="&st18;" transform="matrix(&st16;  216.51  109.99 )">2D</text>
	<text style="&st18;" transform="matrix(&st17;  310.75  428.69 )">L</text>
	<text style="&st18;" transform="matrix(&st17;  361.74  428.69 )">L</text>
	<text style="&st18;" transform="matrix(&st17;  217.27  431.45 )">LG</text>
	<text style="&st18;" transform="matrix(&st17;  336.25  153.08 )">B-R</text>
	<text style="&st18;" transform="matrix(&st16;  358.65  448.52 )">3</text>
	<text ewd:textID="2" style="&st18;" transform="matrix(&st16;  258.1  289.88 )">DEICER <tspan dy="6" x="0">Relay</tspan></text>
	<text style="&st18;" transform="matrix(&st16;  330.83  32.08 )">(BAT)</text>
	<text style="&st18;" transform="matrix(&st16;  333.15  86.47 )">2</text>
	<text style="&st18;" transform="matrix(&st16;  338.35  101.49 )">1</text>
	<text style="&st18;" transform="matrix(&st16;  357.25  56.17 )">20A <tspan dy="6" x="0">DEICER</tspan></text>
	<text style="&st18;" transform="matrix(&st16;  210.22  179.95 )">20</text>
	<text style="&st18;" transform="matrix(&st16;  307.66  528.39 )">2</text>
	<text style="&st18;" transform="matrix(&st17;  390.05  522.72 )">A31</text>
	<text style="&st18;" transform="matrix(&st16;  308.44  448.52 )">1</text>
	<text style="&st18;" transform="matrix(&st17;  217.27  363.46 )">LG</text>
	<text style="&st18;" transform="matrix(&st16;  214.95  315.93 )">1</text>
	<text style="&st18;" transform="matrix(&st16;  239.67  315.93 )">3</text>
	<text style="&st18;" transform="matrix(&st16;  214.17  270.05 )">2</text>
	<text style="&st18;" transform="matrix(&st16;  239.66  270.05 )">5</text>
	<text style="&st18;" transform="matrix(&st16;  219.37  254.46 )">1</text>
	<text style="&st18;" transform="matrix(&st16;  244.87  254.46 )">1</text>
	<text style="&st18;" transform="matrix(&st16;  219.37  330.95 )">1</text>
	<text style="&st18;" transform="matrix(&st16;  244.87  330.95 )">1</text>
	<text style="&st18;" transform="matrix(&st17;  310.75  630.45 )">W-B</text>
	<text style="&st18;" transform="matrix(&st16;  210.22  151.07 )">22</text>
	<text style="&st18;" transform="matrix(&st17;  217.27  207.73 )">L</text>
	<text style="&st18;" transform="matrix(&st17;  217.27  131.24 )">L</text>
	<text ewd:textID="6" style="&st18;" transform="matrix(&st17;  244.18  174.28 )">Junction Connector</text>
	<text style="&st18;" transform="matrix(&st17;  237.07  174.28 )">A37</text>
	<text style="&st18;" transform="matrix(&st17;  254.07  641.7 )">F3</text>
	<text style="&st18;" transform="matrix(&st16;  218.63  449.65 )">A</text>
	<text style="&st18;" transform="matrix(&st16;  206.13  449.65 )">40</text>
	<text style="&st18;" transform="matrix(&st16;  167.64  449.65 )">A</text>
	<text style="&st18;" transform="matrix(&st16;  159.87  449.65 )">1</text>
	<text style="&st18;" transform="matrix(&st16;  218.49  492.71 )">C</text>
	<text style="&st18;" transform="matrix(&st16;  207.68  492.71 )">11</text>
	<text style="&st18;" transform="matrix(&st16;  213.26  482.51 )">FDFI</text>
	<text style="&st18;" transform="matrix(&st16;  167.5  492.71 )">C</text>
	<text style="&st18;" transform="matrix(&st16;  159.09  492.71 )">5</text>
	<text style="&st18;" transform="matrix(&st16;  214.17  550.5 )">5</text>
	<text style="&st18;" transform="matrix(&st16;  163.18  550.5 )">4</text>
	<text style="&st18;" transform="matrix(&st16;  112.96  550.5 )">1</text>
	<text style="&st18;" transform="matrix(&st16;  136.29  53.34 )">10A <tspan dy="6" x="0">ECU-IG </tspan><tspan dy="6" x="0">NO.2</tspan></text>
	<text style="&st18;" transform="matrix(&st16;  112.9  32.08 )">(IG)</text>
	<text style="&st18;" transform="matrix(&st16;  114.67  109.99 )">2B</text>
	<text style="&st18;" transform="matrix(&st16;  102.33  109.99 )">39</text>
	<text style="&st18;" transform="matrix(&st17;  115.28  156.74 )">L</text>
	<text style="&st18;" transform="matrix(&st17;  166.28  428.69 )">L</text>
	<text style="&st18;" transform="matrix(&st17;  166.28  522.67 )">R</text>
	<text style="&st18;" transform="matrix(&st17;  217.27  522.53 )">P</text>
	<text style="&st18;" transform="matrix(&st16;  121.81  562.39 )">IG</text>
	<a ewd:code="FA1" ewd:figID="12" ewd:figtype="w2w" ewd:pinNo="58" style="cursor:pointer;">
		<path d=" M  229.46,  392.72  L  212.46,  392.72  L  212.46,  401.22  L  229.46,  401.22  L  229.46,  392.72 " style="&st2;"/>
		<text style="&st8;" transform="matrix(&st16;  214.61  399.46 )"><tspan style="&st18;" x="0" y="0">FA1</tspan></text>
	</a>
	<a ewd:code="A1" ewd:figID="13" ewd:figtype="gp" style="cursor:pointer;">
		<path d=" M  303.82,  681.67  L  325.07,  681.67  L  314.45,  697.25  L  303.82,  681.67 " style="&st2;"/>
		<text style="&st8;" transform="matrix(&st16;  310.32  689.83 )"><tspan style="&st18;" x="0" y="0">A1</tspan></text>
	</a>
</g>
</svg>