﻿<?xml version="1.0" encoding="utf-8"?>
<!DOCTYPE svg PUBLIC "-//W3C//DTD SVG 1.0//EN" "http://www.w3.org/TR/2001/REC-SVG-20010904/DTD/svg10.dtd"[
	<!ENTITY ns_flows "http://ns.adobe.com/Flows/1.0/">
	<!ENTITY ns_svg "http://www.w3.org/2000/svg">
	<!ENTITY ns_xlink "http://www.w3.org/1999/xlink">
	<!ENTITY st0 "font-size:7px;font-family:'MS-PGothic';adobe-font-script:japanese;">
	<!ENTITY st1 "font-size:6px;font-family:'ArialMT';">
	<!-- White fill  -->
	<!ENTITY st2 "fill:#FFFFFF;stroke:#000000; stroke-width:1.41;stroke-linecap:round;stroke-linejoin:round;">
	<!-- Yellow fill  -->
	<!ENTITY st3 "fill:#FFFFCC;stroke:#FFFFCC; stroke-width:0.1;stroke-linecap:round;stroke-linejoin:round;">
	<!-- Gray fill  -->
	<!ENTITY st4 "fill:#CCCCCC;stroke:#CCCCCC; stroke-width:0.1;stroke-linecap:round;stroke-linejoin:round;">
	<!-- Light-blue fill -->
	<!ENTITY st5 "fill:#CCECF4;stroke:#000000; stroke-width:1.133;stroke-linecap:round;stroke-linejoin:round;">
	<!ENTITY st6 "fill:none;stroke-linecap:butt; stroke-linejoin:round;">
	<!ENTITY st7 "fill:none;stroke:#000000;stroke-linecap:round;stroke-linejoin:round;">
	<!ENTITY st8 "enable-background:new    ;">
	<!-- Black fill -->
	<!ENTITY st9 "fill:#000000;stroke:#000000; stroke-linecap:round;stroke-linejoin:round;">
	<!-- SRS note   -->
	<!ENTITY st10 "font-size:9px;font-family:'ArialMT';">
	<!ENTITY st11 "font-size:9px;font-family:'Svg Symbol';">
	<!ENTITY st12 "font-size:6px;font-family:'Svg Symbol';">
	<!ENTITY st13 "fill:none;stroke:#ff0000;stroke-linecap:round;stroke-linejoin:round;">
	<!-- Yellow fill  -->
	<!ENTITY st14 "fill:#FFFF00;stroke:#FFFF00; stroke-width:0.1;stroke-linecap:round;stroke-linejoin:round;">
	<!ENTITY st15 "font-size:6px;font-family:'MS-PGothic';adobe-font-script:japanese;">
	<!ENTITY st16 "1.00 0.00 0.00 1.00">
	<!ENTITY st17 "0.00 -1.00 1.00 0.00">
	<!ENTITY st18 "font-size:6px;font-family:'Arial';">
	<!ENTITY st19 "font-size:9px;font-family:'Arial';">
	<!ENTITY st20 "font-size:6px;font-family:'MS-PGothic','MS PGothic';adobe-font-script:japanese;">
	<!ENTITY st21 "font-size:7px;font-family:'MS-PGothic','MS PGothic';adobe-font-script:japanese;">
	<!ATTLIST svg
		xmlns:ewd CDATA #FIXED "http://shcl.co.jp/ewd"
		xmlns:a CDATA #FIXED "http://ns.adobe.com/AdobeSVGViewerExtensions/3.0/"
		ewd:ver CDATA #IMPLIED
	>
	<!ATTLIST a
		ewd:lineID CDATA #IMPLIED
		ewd:groupID CDATA #IMPLIED
		ewd:figtype CDATA #IMPLIED
		ewd:code CDATA #IMPLIED
		ewd:figID CDATA #IMPLIED
		ewd:pinNo CDATA #IMPLIED
		ewd:comment CDATA #IMPLIED >
	<!ATTLIST g
		ewd:lineID CDATA #IMPLIED
		ewd:groupID CDATA #IMPLIED
		ewd:figtype CDATA #IMPLIED
		ewd:code CDATA #IMPLIED
		ewd:figID CDATA #IMPLIED
		ewd:pinNo CDATA #IMPLIED
		ewd:comment CDATA #IMPLIED >
	<!ATTLIST text
		ewd:textID CDATA #IMPLIED >
	<!ATTLIST title
		ewd:textID CDATA #IMPLIED >
]>
<!-- Generator: Shintec Hozumi YS   -->
<svg onload="call_execInitLoadProc_svg('system')" style="overflow:visible;  enable-background:new 0 0 5703.890 710.000" viewBox="0 0 5703.890 710.000" height="710.000" width="5703.890" xml:space="preserve" ewd:ver="L2.1.2.7" xmlns="&ns_svg;" xmlns:a="http://ns.adobe.com/AdobeSVGViewerExtensions/3.0/" xmlns:ewd="http://shcl.co.jp/ewd" xmlns:xlink="&ns_xlink;">
<path d=" M 4423.51,  150.51  L 4427.76,  150.51 " style="stroke-width: 1.42 ;&st7; " /><path d=" M 4427.76,  159.01  L 4423.51,  159.01 " style="stroke-width: 1.42 ;&st7; " /><path d=" M 4423.51,  447.96  L 4427.76,  447.96 " style="stroke-width: 1.42 ;&st7; " /><path d=" M 4427.76,  456.46  L 4423.51,  456.46 " style="stroke-width: 1.42 ;&st7; " /><path d=" M 4483.00,  159.01  L 4478.75,  159.01 " style="stroke-width: 1.42 ;&st7; " /><path d=" M 4483.00,  150.51  L 4478.75,  150.51 " style="stroke-width: 1.42 ;&st7; " /><path d=" M 4423.51,  184.50  L 4427.76,  184.50 " style="stroke-width: 1.42 ;&st7; " /><path d=" M 4427.76,  193.00  L 4423.51,  193.00 " style="stroke-width: 1.42 ;&st7; " /><path d=" M 4483.00,  184.50  L 4478.75,  184.50 " style="stroke-width: 1.42 ;&st7; " /><path d=" M 4483.00,  193.00  L 4478.75,  193.00 " style="stroke-width: 1.42 ;&st7; " /><path d=" M 4423.51,  328.98  L 4427.76,  328.98 " style="stroke-width: 1.42 ;&st7; " /><path d=" M 4427.76,  337.48  L 4423.51,  337.48 " style="stroke-width: 1.42 ;&st7; " /><path d=" M 4334.28,  333.23  L 4334.28,  337.48 " style="stroke-width: 1.42 ;&st7; " /><path d=" M 4483.00,  218.50  L 4478.75,  218.50 " style="stroke-width: 1.42 ;&st7; " /><path d=" M 4483.00,  227.00  L 4478.75,  227.00 " style="stroke-width: 1.42 ;&st7; " /><path d=" M 4483.00,  260.99  L 4478.75,  260.99 " style="stroke-width: 1.42 ;&st7; " /><path d=" M 4483.00,  269.49  L 4478.75,  269.49 " style="stroke-width: 1.42 ;&st7; " /><path d=" M 4483.00,  294.99  L 4478.75,  294.99 " style="stroke-width: 1.42 ;&st7; " /><path d=" M 4483.00,  303.48  L 4478.75,  303.48 " style="stroke-width: 1.42 ;&st7; " /><path d=" M 4423.51,  218.50  L 4427.76,  218.50 " style="stroke-width: 1.42 ;&st7; " /><path d=" M 4427.76,  227.00  L 4423.51,  227.00 " style="stroke-width: 1.42 ;&st7; " /><path d=" M 4423.51,  260.99  L 4427.76,  260.99 " style="stroke-width: 1.42 ;&st7; " /><path d=" M 4427.76,  269.49  L 4423.51,  269.49 " style="stroke-width: 1.42 ;&st7; " /><path d=" M 4423.51,  294.99  L 4427.76,  294.99 " style="stroke-width: 1.42 ;&st7; " /><path d=" M 4427.76,  303.48  L 4423.51,  303.48 " style="stroke-width: 1.42 ;&st7; " /><path d=" M 4423.51,  362.97  L 4427.76,  362.97 " style="stroke-width: 1.42 ;&st7; " /><path d=" M 4427.76,  371.47  L 4423.51,  371.47 " style="stroke-width: 1.42 ;&st7; " /><path d=" M 4483.00,  371.47  L 4478.75,  371.47 " style="stroke-width: 1.42 ;&st7; " /><path d=" M 4483.00,  362.97  L 4478.75,  362.97 " style="stroke-width: 1.42 ;&st7; " /><path d=" M 4423.51,  515.95  L 4427.76,  515.95 " style="stroke-width: 1.42 ;&st7; " /><path d=" M 4427.76,  524.45  L 4423.51,  524.45 " style="stroke-width: 1.42 ;&st7; " /><path d=" M 4334.28,  520.20  L 4334.28,  524.45 " style="stroke-width: 1.42 ;&st7; " /><path d=" M 4483.00,  481.95  L 4478.75,  481.95 " style="stroke-width: 1.42 ;&st7; " /><path d=" M 4483.00,  490.45  L 4478.75,  490.45 " style="stroke-width: 1.42 ;&st7; " /><path d=" M 4423.51,  481.95  L 4427.76,  481.95 " style="stroke-width: 1.42 ;&st7; " /><path d=" M 4427.76,  490.45  L 4423.51,  490.45 " style="stroke-width: 1.42 ;&st7; " /><path d=" M 4423.51,  549.94  L 4427.76,  549.94 " style="stroke-width: 1.42 ;&st7; " /><path d=" M 4427.76,  558.44  L 4423.51,  558.44 " style="stroke-width: 1.42 ;&st7; " /><path d=" M 4483.00,  549.94  L 4478.75,  549.94 " style="stroke-width: 1.42 ;&st7; " /><path d=" M 4483.00,  558.44  L 4478.75,  558.44 " style="stroke-width: 1.42 ;&st7; " /><path d=" M 4483.00,  447.96  L 4478.75,  447.96 " style="stroke-width: 1.42 ;&st7; " /><path d=" M 4483.00,  456.46  L 4478.75,  456.46 " style="stroke-width: 1.42 ;&st7; " /><path d=" M 4483.00,  337.48  L 4478.75,  337.48 " style="stroke-width: 1.42 ;&st7; " /><path d=" M 4483.00,  328.98  L 4478.75,  328.98 " style="stroke-width: 1.42 ;&st7; " /><path d=" M 4053.82,  622.18  L 4053.82,  647.68  L 4138.81,  647.68  L 4138.81,  622.18  L 4053.82,  622.18 " style="stroke-width: 1.42 ;&st7; " /><path d=" M 4436.90,  154.76  L 4439.74,  151.93  L 4435.49,  151.93  L 4432.65,  154.76  L 4435.49,  157.59  L 4439.74,  157.59  L 4436.90,  154.76 " style="stroke-width: 0.28 ;&st9;" /><path d=" M 4436.90,  452.21  L 4439.74,  449.38  L 4435.49,  449.38  L 4432.65,  452.21  L 4435.49,  455.04  L 4439.74,  455.04  L 4436.90,  452.21 " style="stroke-width: 0.28 ;&st9;" /><path d=" M 4453.25,  154.76  L 4453.25,  333.23  L 4432.01,  333.23 " style="stroke-width: 0.85 ;&st7; " /><path d=" M 4155.80,  180.26  L 4155.80,  205.75  L 4240.79,  205.75  L 4240.79,  180.26  L 4155.80,  180.26 " style="stroke-width: 1.42 ;&st7; " /><path d=" M 4469.61,  154.76  L 4466.77,  151.93  L 4471.02,  151.93  L 4473.85,  154.76  L 4471.02,  157.59  L 4466.77,  157.59  L 4469.61,  154.76 " style="stroke-width: 0.28 ;&st9;" /><path d=" M 4436.90,  188.75  L 4439.74,  185.92  L 4435.49,  185.92  L 4432.65,  188.75  L 4435.49,  191.59  L 4439.74,  191.59  L 4436.90,  188.75 " style="stroke-width: 0.28 ;&st9;" /><path d=" M 4452.06,  153.76  L 4451.79,  154.23  L 4451.70,  154.76  L 4451.79,  155.29  L 4452.06,  155.76  L 4452.48,  156.11  L 4452.98,  156.30  L 4453.52,  156.30  L 4454.03,  156.11  L 4454.45,  155.76  L 4454.72,  155.29  L 4454.81,  154.76  L 4454.72,  154.23  L 4454.45,  153.76  L 4454.03,  153.41  L 4453.52,  153.22  L 4452.98,  153.22  L 4452.48,  153.41  L 4452.06,  153.76  L 4452.46,  154.47  L 4452.46,  155.05  L 4452.83,  155.50  L 4453.40,  155.60  L 4453.91,  155.31  L 4454.10,  154.76  L 4453.91,  154.21  L 4453.40,  153.92  L 4452.83,  154.02  L 4453.25,  154.76 " style="stroke-width: 0.85 ;&st7; " /><path d=" M 4469.61,  188.75  L 4466.77,  185.92  L 4471.02,  185.92  L 4473.85,  188.75  L 4471.02,  191.59  L 4466.77,  191.59  L 4469.61,  188.75 " style="stroke-width: 0.28 ;&st9;" /><path d=" M 4432.01,  154.76  L 4474.50,  154.76 " style="stroke-width: 0.85 ;&st7; " /><path d=" M 4452.06,  187.75  L 4451.79,  188.22  L 4451.70,  188.75  L 4451.79,  189.29  L 4452.06,  189.76  L 4452.48,  190.10  L 4452.98,  190.29  L 4453.52,  190.29  L 4454.03,  190.10  L 4454.45,  189.76  L 4454.72,  189.29  L 4454.81,  188.75  L 4454.72,  188.22  L 4454.45,  187.75  L 4454.03,  187.41  L 4453.52,  187.22  L 4452.98,  187.22  L 4452.48,  187.41  L 4452.06,  187.75  L 4452.46,  188.46  L 4452.46,  189.05  L 4452.83,  189.49  L 4453.40,  189.59  L 4453.91,  189.30  L 4454.10,  188.75  L 4453.91,  188.21  L 4453.40,  187.92  L 4452.83,  188.02  L 4453.25,  188.75 " style="stroke-width: 0.85 ;&st7; " /><path d=" M 4432.01,  188.75  L 4474.50,  188.75 " style="stroke-width: 0.85 ;&st7; " /><path d=" M 4432.01,  222.75  L 4474.50,  222.75 " style="stroke-width: 0.85 ;&st7; " /><path d=" M 4436.90,  333.23  L 4439.74,  330.40  L 4435.49,  330.40  L 4432.65,  333.23  L 4435.49,  336.06  L 4439.74,  336.06  L 4436.90,  333.23 " style="stroke-width: 0.28 ;&st9;" /><path d=" M 4328.61,  328.98  L 4332.86,  333.23  L 4328.61,  337.48 " style="stroke-width: 1.42 ;&st7; " /><path d=" M 4325.21,  328.98  L 4329.46,  333.23  L 4325.21,  337.48 " style="stroke-width: 1.42 ;&st7; " /><path d=" M 4469.61,  222.75  L 4466.77,  219.92  L 4471.02,  219.92  L 4473.85,  222.75  L 4471.02,  225.58  L 4466.77,  225.58  L 4469.61,  222.75 " style="stroke-width: 0.28 ;&st9;" /><path d=" M 4452.06,  221.75  L 4451.79,  222.22  L 4451.70,  222.75  L 4451.79,  223.28  L 4452.06,  223.75  L 4452.48,  224.10  L 4452.98,  224.28  L 4453.52,  224.28  L 4454.03,  224.10  L 4454.45,  223.75  L 4454.72,  223.28  L 4454.81,  222.75  L 4454.72,  222.22  L 4454.45,  221.75  L 4454.03,  221.40  L 4453.52,  221.21  L 4452.98,  221.21  L 4452.48,  221.40  L 4452.06,  221.75  L 4452.46,  222.46  L 4452.46,  223.04  L 4452.83,  223.48  L 4453.40,  223.58  L 4453.91,  223.30  L 4454.10,  222.75  L 4453.91,  222.20  L 4453.40,  221.91  L 4452.83,  222.01  L 4453.25,  222.75 " style="stroke-width: 0.85 ;&st7; " /><path d=" M 4469.61,  265.24  L 4466.77,  262.41  L 4471.02,  262.41  L 4473.85,  265.24  L 4471.02,  268.07  L 4466.77,  268.07  L 4469.61,  265.24 " style="stroke-width: 0.28 ;&st9;" /><path d=" M 4469.61,  299.24  L 4466.77,  296.40  L 4471.02,  296.40  L 4473.85,  299.24  L 4471.02,  302.07  L 4466.77,  302.07  L 4469.61,  299.24 " style="stroke-width: 0.28 ;&st9;" /><path d=" M 4155.80,  214.25  L 4155.80,  239.75  L 4240.79,  239.75  L 4240.79,  214.25  L 4155.80,  214.25 " style="stroke-width: 1.42 ;&st7; " /><path d=" M 4436.90,  222.75  L 4439.74,  219.92  L 4435.49,  219.92  L 4432.65,  222.75  L 4435.49,  225.58  L 4439.74,  225.58  L 4436.90,  222.75 " style="stroke-width: 0.28 ;&st9;" /><path d=" M 4432.01,  265.24  L 4474.50,  265.24 " style="stroke-width: 0.85 ;&st7; " /><path d=" M 4452.06,  264.24  L 4451.79,  264.71  L 4451.70,  265.24  L 4451.79,  265.77  L 4452.06,  266.24  L 4452.48,  266.59  L 4452.98,  266.78  L 4453.52,  266.78  L 4454.03,  266.59  L 4454.45,  266.24  L 4454.72,  265.77  L 4454.81,  265.24  L 4454.72,  264.71  L 4454.45,  264.24  L 4454.03,  263.89  L 4453.52,  263.71  L 4452.98,  263.71  L 4452.48,  263.89  L 4452.06,  264.24  L 4452.46,  264.95  L 4452.46,  265.53  L 4452.83,  265.98  L 4453.40,  266.08  L 4453.91,  265.79  L 4454.10,  265.24  L 4453.91,  264.69  L 4453.40,  264.41  L 4452.83,  264.50  L 4453.25,  265.24 " style="stroke-width: 0.85 ;&st7; " /><path d=" M 4155.80,  256.74  L 4155.80,  282.24  L 4240.79,  282.24  L 4240.79,  256.74  L 4155.80,  256.74 " style="stroke-width: 1.42 ;&st7; " /><path d=" M 4436.90,  265.24  L 4439.74,  262.41  L 4435.49,  262.41  L 4432.65,  265.24  L 4435.49,  268.07  L 4439.74,  268.07  L 4436.90,  265.24 " style="stroke-width: 0.28 ;&st9;" /><path d=" M 4432.01,  299.24  L 4474.50,  299.24 " style="stroke-width: 0.85 ;&st7; " /><path d=" M 4452.06,  298.23  L 4451.79,  298.70  L 4451.70,  299.24  L 4451.79,  299.77  L 4452.06,  300.24  L 4452.48,  300.58  L 4452.98,  300.77  L 4453.52,  300.77  L 4454.03,  300.58  L 4454.45,  300.24  L 4454.72,  299.77  L 4454.81,  299.24  L 4454.72,  298.70  L 4454.45,  298.23  L 4454.03,  297.89  L 4453.52,  297.70  L 4452.98,  297.70  L 4452.48,  297.89  L 4452.06,  298.23  L 4452.46,  298.94  L 4452.46,  299.53  L 4452.83,  299.97  L 4453.40,  300.07  L 4453.91,  299.78  L 4454.10,  299.24  L 4453.91,  298.69  L 4453.40,  298.40  L 4452.83,  298.50  L 4453.25,  299.24 " style="stroke-width: 0.85 ;&st7; " /><path d=" M 4155.80,  290.74  L 4155.80,  316.23  L 4240.79,  316.23  L 4240.79,  290.74  L 4155.80,  290.74 " style="stroke-width: 1.42 ;&st7; " /><path d=" M 4436.90,  299.24  L 4439.74,  296.40  L 4435.49,  296.40  L 4432.65,  299.24  L 4435.49,  302.07  L 4439.74,  302.07  L 4436.90,  299.24 " style="stroke-width: 0.28 ;&st9;" /><path d=" M 4452.06,  451.21  L 4451.79,  451.68  L 4451.70,  452.21  L 4451.79,  452.74  L 4452.06,  453.21  L 4452.48,  453.56  L 4452.98,  453.75  L 4453.52,  453.75  L 4454.03,  453.56  L 4454.45,  453.21  L 4454.72,  452.74  L 4454.81,  452.21  L 4454.72,  451.68  L 4454.45,  451.21  L 4454.03,  450.86  L 4453.52,  450.67  L 4452.98,  450.67  L 4452.48,  450.86  L 4452.06,  451.21  L 4452.46,  451.92  L 4452.46,  452.50  L 4452.83,  452.95  L 4453.40,  453.05  L 4453.91,  452.76  L 4454.10,  452.21  L 4453.91,  451.66  L 4453.40,  451.37  L 4452.83,  451.47  L 4453.25,  452.21 " style="stroke-width: 0.85 ;&st7; " /><path d=" M 4432.01,  452.21  L 4474.50,  452.21 " style="stroke-width: 0.85 ;&st7; " /><path d=" M 4432.01,  486.20  L 4474.50,  486.20 " style="stroke-width: 0.85 ;&st7; " /><path d=" M 4469.61,  486.20  L 4466.77,  483.37  L 4471.02,  483.37  L 4473.85,  486.20  L 4471.02,  489.04  L 4466.77,  489.04  L 4469.61,  486.20 " style="stroke-width: 0.28 ;&st9;" /><path d=" M 4452.06,  485.20  L 4451.79,  485.67  L 4451.70,  486.20  L 4451.79,  486.74  L 4452.06,  487.21  L 4452.48,  487.55  L 4452.98,  487.74  L 4453.52,  487.74  L 4454.03,  487.55  L 4454.45,  487.21  L 4454.72,  486.74  L 4454.81,  486.20  L 4454.72,  485.67  L 4454.45,  485.20  L 4454.03,  484.86  L 4453.52,  484.67  L 4452.98,  484.67  L 4452.48,  484.86  L 4452.06,  485.20  L 4452.46,  485.91  L 4452.46,  486.50  L 4452.83,  486.94  L 4453.40,  487.04  L 4453.91,  486.75  L 4454.10,  486.20  L 4453.91,  485.66  L 4453.40,  485.37  L 4452.83,  485.47  L 4453.25,  486.20 " style="stroke-width: 0.85 ;&st7; " /><path d=" M 4155.80,  477.71  L 4155.80,  503.20  L 4240.79,  503.20  L 4240.79,  477.71  L 4155.80,  477.71 " style="stroke-width: 1.42 ;&st7; " /><path d=" M 4436.90,  486.20  L 4439.74,  483.37  L 4435.49,  483.37  L 4432.65,  486.20  L 4435.49,  489.04  L 4439.74,  489.04  L 4436.90,  486.20 " style="stroke-width: 0.28 ;&st9;" /><path d=" M 4432.01,  554.19  L 4474.50,  554.19 " style="stroke-width: 0.85 ;&st7; " /><path d=" M 4452.06,  553.19  L 4451.79,  553.66  L 4451.70,  554.19  L 4451.79,  554.73  L 4452.06,  555.20  L 4452.48,  555.54  L 4452.98,  555.73  L 4453.52,  555.73  L 4454.03,  555.54  L 4454.45,  555.20  L 4454.72,  554.73  L 4454.81,  554.19  L 4454.72,  553.66  L 4454.45,  553.19  L 4454.03,  552.84  L 4453.52,  552.66  L 4452.98,  552.66  L 4452.48,  552.84  L 4452.06,  553.19  L 4452.46,  553.90  L 4452.46,  554.48  L 4452.83,  554.93  L 4453.40,  555.03  L 4453.91,  554.74  L 4454.10,  554.19  L 4453.91,  553.65  L 4453.40,  553.36  L 4452.83,  553.46  L 4453.25,  554.19 " style="stroke-width: 0.85 ;&st7; " /><path d=" M 4155.80,  545.69  L 4155.80,  571.19  L 4240.79,  571.19  L 4240.79,  545.69  L 4155.80,  545.69 " style="stroke-width: 1.42 ;&st7; " /><path d=" M 4436.90,  554.19  L 4439.74,  551.36  L 4435.49,  551.36  L 4432.65,  554.19  L 4435.49,  557.03  L 4439.74,  557.03  L 4436.90,  554.19 " style="stroke-width: 0.28 ;&st9;" /><path d=" M 4469.61,  554.19  L 4466.77,  551.36  L 4471.02,  551.36  L 4473.85,  554.19  L 4471.02,  557.03  L 4466.77,  557.03  L 4469.61,  554.19 " style="stroke-width: 0.28 ;&st9;" /><path d=" M 4469.61,  452.21  L 4466.77,  449.38  L 4471.02,  449.38  L 4473.85,  452.21  L 4471.02,  455.04  L 4466.77,  455.04  L 4469.61,  452.21 " style="stroke-width: 0.28 ;&st9;" /><path d=" M 4155.80,  324.73  L 4155.80,  350.23  L 4240.79,  350.23  L 4240.79,  324.73  L 4155.80,  324.73 " style="stroke-width: 1.42 ;&st7; " /><path d=" M 4452.06,  332.23  L 4451.79,  332.70  L 4451.70,  333.23  L 4451.79,  333.76  L 4452.06,  334.23  L 4452.48,  334.58  L 4452.98,  334.77  L 4453.52,  334.77  L 4454.03,  334.58  L 4454.45,  334.23  L 4454.72,  333.76  L 4454.81,  333.23  L 4454.72,  332.70  L 4454.45,  332.23  L 4454.03,  331.88  L 4453.52,  331.69  L 4452.98,  331.69  L 4452.48,  331.88  L 4452.06,  332.23  L 4452.46,  332.94  L 4452.46,  333.52  L 4452.83,  333.97  L 4453.40,  334.07  L 4453.91,  333.78  L 4454.10,  333.23  L 4453.91,  332.68  L 4453.40,  332.39  L 4452.83,  332.49  L 4453.25,  333.23 " style="stroke-width: 0.85 ;&st7; " /><path d=" M 4469.61,  333.23  L 4466.77,  330.40  L 4471.02,  330.40  L 4473.85,  333.23  L 4471.02,  336.06  L 4466.77,  336.06  L 4469.61,  333.23 " style="stroke-width: 0.28 ;&st9;" /><path d=" M 4453.25,  333.23  L 4474.50,  333.23 " style="stroke-width: 0.85 ;&st7; " /><path d=" M 4155.80,  358.73  L 4155.80,  384.22  L 4240.79,  384.22  L 4240.79,  358.73  L 4155.80,  358.73 " style="stroke-width: 1.42 ;&st7; " /><path d=" M 4436.90,  367.22  L 4439.74,  364.39  L 4435.49,  364.39  L 4432.65,  367.22  L 4435.49,  370.06  L 4439.74,  370.06  L 4436.90,  367.22 " style="stroke-width: 0.28 ;&st9;" /><path d=" M 4453.25,  333.23  L 4453.25,  367.22  L 4432.01,  367.22 " style="stroke-width: 0.85 ;&st7; " /><path d=" M 4453.25,  452.21  L 4453.25,  554.19 " style="stroke-width: 0.85 ;&st7; " /><path d=" M 4469.61,  367.22  L 4466.77,  364.39  L 4471.02,  364.39  L 4473.85,  367.22  L 4471.02,  370.06  L 4466.77,  370.06  L 4469.61,  367.22 " style="stroke-width: 0.28 ;&st9;" /><path d=" M 4453.25,  367.22  L 4474.50,  367.22 " style="stroke-width: 0.85 ;&st7; " /><path d=" M 4452.06,  366.22  L 4451.79,  366.69  L 4451.70,  367.22  L 4451.79,  367.76  L 4452.06,  368.23  L 4452.48,  368.57  L 4452.98,  368.76  L 4453.52,  368.76  L 4454.03,  368.57  L 4454.45,  368.23  L 4454.72,  367.76  L 4454.81,  367.22  L 4454.72,  366.69  L 4454.45,  366.22  L 4454.03,  365.88  L 4453.52,  365.69  L 4452.98,  365.69  L 4452.48,  365.88  L 4452.06,  366.22  L 4452.46,  366.93  L 4452.46,  367.52  L 4452.83,  367.96  L 4453.40,  368.06  L 4453.91,  367.77  L 4454.10,  367.22  L 4453.91,  366.68  L 4453.40,  366.39  L 4452.83,  366.49  L 4453.25,  367.22 " style="stroke-width: 0.85 ;&st7; " /><path d=" M 4432.01,  520.20  L 4453.25,  520.20 " style="stroke-width: 0.85 ;&st7; " /><path d=" M 4436.90,  520.20  L 4439.74,  517.37  L 4435.49,  517.37  L 4432.65,  520.20  L 4435.49,  523.03  L 4439.74,  523.03  L 4436.90,  520.20 " style="stroke-width: 0.28 ;&st9;" /><path d=" M 4328.61,  515.95  L 4332.86,  520.20  L 4328.61,  524.45 " style="stroke-width: 1.42 ;&st7; " /><path d=" M 4325.21,  515.95  L 4329.46,  520.20  L 4325.21,  524.45 " style="stroke-width: 1.42 ;&st7; " /><path d=" M 4155.80,  511.70  L 4155.80,  537.20  L 4240.79,  537.20  L 4240.79,  511.70  L 4155.80,  511.70 " style="stroke-width: 1.42 ;&st7; " /><path d=" M 4452.06,  519.20  L 4451.79,  519.67  L 4451.70,  520.20  L 4451.79,  520.73  L 4452.06,  521.20  L 4452.48,  521.55  L 4452.98,  521.73  L 4453.52,  521.73  L 4454.03,  521.55  L 4454.45,  521.20  L 4454.72,  520.73  L 4454.81,  520.20  L 4454.72,  519.67  L 4454.45,  519.20  L 4454.03,  518.85  L 4453.52,  518.66  L 4452.98,  518.66  L 4452.48,  518.85  L 4452.06,  519.20  L 4452.46,  519.91  L 4452.46,  520.49  L 4452.83,  520.94  L 4453.40,  521.03  L 4453.91,  520.75  L 4454.10,  520.20  L 4453.91,  519.65  L 4453.40,  519.36  L 4452.83,  519.46  L 4453.25,  520.20 " style="stroke-width: 0.85 ;&st7; " /><path d=" M 4053.82,  579.69  L 4053.82,  613.68  L 4138.81,  613.68  L 4138.81,  579.69  L 4053.82,  579.69 " style="stroke-width: 1.42 ;&st7; " /><path d=" M 4423.51,  150.51  C 4421.16   150.51  4419.26   152.41  4419.26   154.76 " style="stroke-width: 1.42 ;&st7; " /><path d=" M 4419.26,  154.76  C 4419.26   157.11  4421.16   159.01  4423.51   159.01 " style="stroke-width: 1.42 ;&st7; " /><path d=" M 4427.76,  159.01  C 4430.11   159.01  4432.01   157.11  4432.01   154.76 " style="stroke-width: 1.42 ;&st7; " /><path d=" M 4432.01,  154.76  C 4432.01   152.41  4430.11   150.51  4427.76   150.51 " style="stroke-width: 1.42 ;&st7; " /><path d=" M 4423.51,  447.96  C 4421.16   447.96  4419.26   449.86  4419.26   452.21 " style="stroke-width: 1.42 ;&st7; " /><path d=" M 4419.26,  452.21  C 4419.26   454.56  4421.16   456.46  4423.51   456.46 " style="stroke-width: 1.42 ;&st7; " /><path d=" M 4427.76,  456.46  C 4430.11   456.46  4432.01   454.56  4432.01   452.21 " style="stroke-width: 1.42 ;&st7; " /><path d=" M 4432.01,  452.21  C 4432.01   449.86  4430.11   447.96  4427.76   447.96 " style="stroke-width: 1.42 ;&st7; " /><path d=" M 4487.25,  154.76  C 4487.25   152.41  4485.35   150.51  4483.00   150.51 " style="stroke-width: 1.42 ;&st7; " /><path d=" M 4483.00,  159.01  C 4485.35   159.01  4487.25   157.11  4487.25   154.76 " style="stroke-width: 1.42 ;&st7; " /><path d=" M 4474.50,  154.76  C 4474.50   157.11  4476.40   159.01  4478.75   159.01 " style="stroke-width: 1.42 ;&st7; " /><path d=" M 4478.75,  150.51  C 4476.40   150.51  4474.50   152.41  4474.50   154.76 " style="stroke-width: 1.42 ;&st7; " /><path d=" M 4423.51,  184.50  C 4421.16   184.50  4419.26   186.41  4419.26   188.75 " style="stroke-width: 1.42 ;&st7; " /><path d=" M 4419.26,  188.75  C 4419.26   191.10  4421.16   193.00  4423.51   193.00 " style="stroke-width: 1.42 ;&st7; " /><path d=" M 4427.76,  193.00  C 4430.11   193.00  4432.01   191.10  4432.01   188.75 " style="stroke-width: 1.42 ;&st7; " /><path d=" M 4432.01,  188.75  C 4432.01   186.41  4430.11   184.50  4427.76   184.50 " style="stroke-width: 1.42 ;&st7; " /><path d=" M 4478.75,  184.50  C 4476.40   184.50  4474.50   186.41  4474.50   188.75 " style="stroke-width: 1.42 ;&st7; " /><path d=" M 4474.50,  188.75  C 4474.50   191.10  4476.40   193.00  4478.75   193.00 " style="stroke-width: 1.42 ;&st7; " /><path d=" M 4483.00,  193.00  C 4485.35   193.00  4487.25   191.10  4487.25   188.75 " style="stroke-width: 1.42 ;&st7; " /><path d=" M 4487.25,  188.75  C 4487.25   186.41  4485.35   184.50  4483.00   184.50 " style="stroke-width: 1.42 ;&st7; " /><path d=" M 4423.51,  328.98  C 4421.16   328.98  4419.26   330.88  4419.26   333.23 " style="stroke-width: 1.42 ;&st7; " /><path d=" M 4419.26,  333.23  C 4419.26   335.58  4421.16   337.48  4423.51   337.48 " style="stroke-width: 1.42 ;&st7; " /><path d=" M 4427.76,  337.48  C 4430.11   337.48  4432.01   335.58  4432.01   333.23 " style="stroke-width: 1.42 ;&st7; " /><path d=" M 4432.01,  333.23  C 4432.01   330.88  4430.11   328.98  4427.76   328.98 " style="stroke-width: 1.42 ;&st7; " /><path d=" M 4478.75,  218.50  C 4476.40   218.50  4474.50   220.40  4474.50   222.75 " style="stroke-width: 1.42 ;&st7; " /><path d=" M 4474.50,  222.75  C 4474.50   225.09  4476.40   227.00  4478.75   227.00 " style="stroke-width: 1.42 ;&st7; " /><path d=" M 4483.00,  227.00  C 4485.35   227.00  4487.25   225.09  4487.25   222.75 " style="stroke-width: 1.42 ;&st7; " /><path d=" M 4487.25,  222.75  C 4487.25   220.40  4485.35   218.50  4483.00   218.50 " style="stroke-width: 1.42 ;&st7; " /><path d=" M 4478.75,  260.99  C 4476.40   260.99  4474.50   262.89  4474.50   265.24 " style="stroke-width: 1.42 ;&st7; " /><path d=" M 4474.50,  265.24  C 4474.50   267.59  4476.40   269.49  4478.75   269.49 " style="stroke-width: 1.42 ;&st7; " /><path d=" M 4483.00,  269.49  C 4485.35   269.49  4487.25   267.59  4487.25   265.24 " style="stroke-width: 1.42 ;&st7; " /><path d=" M 4487.25,  265.24  C 4487.25   262.89  4485.35   260.99  4483.00   260.99 " style="stroke-width: 1.42 ;&st7; " /><path d=" M 4478.75,  294.99  C 4476.40   294.99  4474.50   296.89  4474.50   299.24 " style="stroke-width: 1.42 ;&st7; " /><path d=" M 4474.50,  299.24  C 4474.50   301.58  4476.40   303.48  4478.75   303.48 " style="stroke-width: 1.42 ;&st7; " /><path d=" M 4483.00,  303.48  C 4485.35   303.48  4487.25   301.58  4487.25   299.24 " style="stroke-width: 1.42 ;&st7; " /><path d=" M 4487.25,  299.24  C 4487.25   296.89  4485.35   294.99  4483.00   294.99 " style="stroke-width: 1.42 ;&st7; " /><path d=" M 4423.51,  218.50  C 4421.16   218.50  4419.26   220.40  4419.26   222.75 " style="stroke-width: 1.42 ;&st7; " /><path d=" M 4419.26,  222.75  C 4419.26   225.09  4421.16   227.00  4423.51   227.00 " style="stroke-width: 1.42 ;&st7; " /><path d=" M 4427.76,  227.00  C 4430.11   227.00  4432.01   225.09  4432.01   222.75 " style="stroke-width: 1.42 ;&st7; " /><path d=" M 4432.01,  222.75  C 4432.01   220.40  4430.11   218.50  4427.76   218.50 " style="stroke-width: 1.42 ;&st7; " /><path d=" M 4423.51,  260.99  C 4421.16   260.99  4419.26   262.89  4419.26   265.24 " style="stroke-width: 1.42 ;&st7; " /><path d=" M 4419.26,  265.24  C 4419.26   267.59  4421.16   269.49  4423.51   269.49 " style="stroke-width: 1.42 ;&st7; " /><path d=" M 4427.76,  269.49  C 4430.11   269.49  4432.01   267.59  4432.01   265.24 " style="stroke-width: 1.42 ;&st7; " /><path d=" M 4432.01,  265.24  C 4432.01   262.89  4430.11   260.99  4427.76   260.99 " style="stroke-width: 1.42 ;&st7; " /><path d=" M 4423.51,  294.99  C 4421.16   294.99  4419.26   296.89  4419.26   299.24 " style="stroke-width: 1.42 ;&st7; " /><path d=" M 4419.26,  299.24  C 4419.26   301.58  4421.16   303.48  4423.51   303.48 " style="stroke-width: 1.42 ;&st7; " /><path d=" M 4427.76,  303.48  C 4430.11   303.48  4432.01   301.58  4432.01   299.24 " style="stroke-width: 1.42 ;&st7; " /><path d=" M 4432.01,  299.24  C 4432.01   296.89  4430.11   294.99  4427.76   294.99 " style="stroke-width: 1.42 ;&st7; " /><path d=" M 4478.75,  481.95  C 4476.40   481.95  4474.50   483.86  4474.50   486.20 " style="stroke-width: 1.42 ;&st7; " /><path d=" M 4474.50,  486.20  C 4474.50   488.55  4476.40   490.45  4478.75   490.45 " style="stroke-width: 1.42 ;&st7; " /><path d=" M 4483.00,  490.45  C 4485.35   490.45  4487.25   488.55  4487.25   486.20 " style="stroke-width: 1.42 ;&st7; " /><path d=" M 4487.25,  486.20  C 4487.25   483.86  4485.35   481.95  4483.00   481.95 " style="stroke-width: 1.42 ;&st7; " /><path d=" M 4423.51,  481.95  C 4421.16   481.95  4419.26   483.86  4419.26   486.20 " style="stroke-width: 1.42 ;&st7; " /><path d=" M 4419.26,  486.20  C 4419.26   488.55  4421.16   490.45  4423.51   490.45 " style="stroke-width: 1.42 ;&st7; " /><path d=" M 4427.76,  490.45  C 4430.11   490.45  4432.01   488.55  4432.01   486.20 " style="stroke-width: 1.42 ;&st7; " /><path d=" M 4432.01,  486.20  C 4432.01   483.86  4430.11   481.95  4427.76   481.95 " style="stroke-width: 1.42 ;&st7; " /><path d=" M 4423.51,  549.94  C 4421.16   549.94  4419.26   551.85  4419.26   554.19 " style="stroke-width: 1.42 ;&st7; " /><path d=" M 4419.26,  554.19  C 4419.26   556.54  4421.16   558.44  4423.51   558.44 " style="stroke-width: 1.42 ;&st7; " /><path d=" M 4427.76,  558.44  C 4430.11   558.44  4432.01   556.54  4432.01   554.19 " style="stroke-width: 1.42 ;&st7; " /><path d=" M 4432.01,  554.19  C 4432.01   551.85  4430.11   549.94  4427.76   549.94 " style="stroke-width: 1.42 ;&st7; " /><path d=" M 4478.75,  549.94  C 4476.40   549.94  4474.50   551.85  4474.50   554.19 " style="stroke-width: 1.42 ;&st7; " /><path d=" M 4474.50,  554.19  C 4474.50   556.54  4476.40   558.44  4478.75   558.44 " style="stroke-width: 1.42 ;&st7; " /><path d=" M 4483.00,  558.44  C 4485.35   558.44  4487.25   556.54  4487.25   554.19 " style="stroke-width: 1.42 ;&st7; " /><path d=" M 4487.25,  554.19  C 4487.25   551.85  4485.35   549.94  4483.00   549.94 " style="stroke-width: 1.42 ;&st7; " /><path d=" M 4478.75,  447.96  C 4476.40   447.96  4474.50   449.86  4474.50   452.21 " style="stroke-width: 1.42 ;&st7; " /><path d=" M 4474.50,  452.21  C 4474.50   454.56  4476.40   456.46  4478.75   456.46 " style="stroke-width: 1.42 ;&st7; " /><path d=" M 4483.00,  456.46  C 4485.35   456.46  4487.25   454.56  4487.25   452.21 " style="stroke-width: 1.42 ;&st7; " /><path d=" M 4487.25,  452.21  C 4487.25   449.86  4485.35   447.96  4483.00   447.96 " style="stroke-width: 1.42 ;&st7; " /><path d=" M 4483.00,  337.48  C 4485.35   337.48  4487.25   335.58  4487.25   333.23 " style="stroke-width: 1.42 ;&st7; " /><path d=" M 4474.50,  333.23  C 4474.50   335.58  4476.40   337.48  4478.75   337.48 " style="stroke-width: 1.42 ;&st7; " /><path d=" M 4478.75,  328.98  C 4476.40   328.98  4474.50   330.88  4474.50   333.23 " style="stroke-width: 1.42 ;&st7; " /><path d=" M 4487.25,  333.23  C 4487.25   330.88  4485.35   328.98  4483.00   328.98 " style="stroke-width: 1.42 ;&st7; " /><path d=" M 4423.51,  362.97  C 4421.16   362.97  4419.26   364.88  4419.26   367.22 " style="stroke-width: 1.42 ;&st7; " /><path d=" M 4419.26,  367.22  C 4419.26   369.57  4421.16   371.47  4423.51   371.47 " style="stroke-width: 1.42 ;&st7; " /><path d=" M 4427.76,  371.47  C 4430.11   371.47  4432.01   369.57  4432.01   367.22 " style="stroke-width: 1.42 ;&st7; " /><path d=" M 4432.01,  367.22  C 4432.01   364.88  4430.11   362.97  4427.76   362.97 " style="stroke-width: 1.42 ;&st7; " /><path d=" M 4483.00,  371.47  C 4485.35   371.47  4487.25   369.57  4487.25   367.22 " style="stroke-width: 1.42 ;&st7; " /><path d=" M 4474.50,  367.22  C 4474.50   369.57  4476.40   371.47  4478.75   371.47 " style="stroke-width: 1.42 ;&st7; " /><path d=" M 4478.75,  362.97  C 4476.40   362.97  4474.50   364.88  4474.50   367.22 " style="stroke-width: 1.42 ;&st7; " /><path d=" M 4487.25,  367.22  C 4487.25   364.88  4485.35   362.97  4483.00   362.97 " style="stroke-width: 1.42 ;&st7; " /><path d=" M 4423.51,  515.95  C 4421.16   515.95  4419.26   517.85  4419.26   520.20 " style="stroke-width: 1.42 ;&st7; " /><path d=" M 4419.26,  520.20  C 4419.26   522.55  4421.16   524.45  4423.51   524.45 " style="stroke-width: 1.42 ;&st7; " /><path d=" M 4427.76,  524.45  C 4430.11   524.45  4432.01   522.55  4432.01   520.20 " style="stroke-width: 1.42 ;&st7; " /><path d=" M 4432.01,  520.20  C 4432.01   517.85  4430.11   515.95  4427.76   515.95 " style="stroke-width: 1.42 ;&st7; " /><text ewd:textID="161" style="&st18;" transform="matrix(&st16;  4157.53  196.39 )">Un-Lock Warning <tspan dy="6" x="0">Switch Assembly</tspan></text><text style="&st18;" transform="matrix(&st16;  4055.81  632.65 )">(GND)</text><text style="&st18;" transform="matrix(&st16;  4081.04  631.21 )">G6</text><text ewd:textID="103" style="&st18;" transform="matrix(&st16;  4157.53  306.87 )">Outer Mirror Switch <tspan dy="6" x="0">Assembly</tspan></text><text ewd:textID="55" style="&st18;" transform="matrix(&st16;  4157.53  272.88 )">Engine Switch</text><text style="&st18;" transform="matrix(&st16;  4006.53  626.98 )">BR</text><text ewd:textID="160" style="&st18;" transform="matrix(&st16;  4157.53  561.83 )">Turn Signal Flasher <tspan dy="6" x="0">Assembly</tspan></text><text style="&st18;" transform="matrix(&st16;  4377.5  340.86 )">(*10)</text><text style="&st18;" transform="matrix(&st16;  4220.23  190.72 )">(UN-)</text><text style="&st18;" transform="matrix(&st16;  4157.53  189.28 )">F18</text><text style="&st18;" transform="matrix(&st16;  4275.58  185.06 )">W-B</text><text style="&st18;" transform="matrix(&st16;  4476.57  156.73 )">4B</text><text style="&st18;" transform="matrix(&st16;  4477.31  147.52 )">10</text><text style="&st18;" transform="matrix(&st16;  4421.18  190.72 )">4C</text><text style="&st18;" transform="matrix(&st16;  4421.68  181.52 )">33</text><text style="&st18;" transform="matrix(&st16;  4476.57  190.72 )">4A</text><text style="&st18;" transform="matrix(&st16;  4476.92  181.52 )">70</text><text style="&st18;" transform="matrix(&st16;  4276.18  329.53 )">G-B</text><text style="&st18;" transform="matrix(&st16;  4421.18  335.2 )">4C</text><text style="&st18;" transform="matrix(&st16;  4421.68  325.99 )">34</text><text style="&st18;" transform="matrix(&st16;  4340.8  325.99 )">2</text><text style="&st18;" transform="matrix(&st16;  4377.57  329.53 )">W-B</text><text style="&st18;" transform="matrix(&st16;  4476.57  224.72 )">4B</text><text style="&st18;" transform="matrix(&st16;  4476.92  215.51 )">34</text><text ewd:textID="149" style="&st18;" transform="matrix(&st16;  4157.53  493.84 )">Tire Pressure <tspan dy="6" x="0">Warning ECU</tspan></text><text ewd:textID="136" style="&st18;" transform="matrix(&st16;  4157.53  230.38 )">Security Indicator <tspan dy="6" x="0">Light Assembly</tspan></text><text style="&st18;" transform="matrix(&st16;  4421.33  156.73 )">4B</text><text style="&st18;" transform="matrix(&st16;  4421.68  147.52 )">35</text><text style="&st18;" transform="matrix(&st16;  4421.33  454.18 )">4B</text><text style="&st18;" transform="matrix(&st16;  4421.68  444.97 )">63</text><text style="&st18;" transform="matrix(&st16;  4476.43  335.2 )">4C</text><text style="&st18;" transform="matrix(&st16;  4476.92  325.99 )">46</text><text ewd:textID="91" style="&st18;" transform="matrix(&st16;  4157.53  340.86 )">Key Inter Lock <tspan dy="6" x="0">Solenoid</tspan></text><text style="&st18;" transform="matrix(&st16;  4216.84  335.2 )">(KLS-)</text><text style="&st18;" transform="matrix(&st16;  4157.53  333.76 )">z3</text><text style="&st18;" transform="matrix(&st16;  4275.51  340.86 )">(*10)</text><text style="&st18;" transform="matrix(&st16;  4476.43  267.21 )">4C</text><text style="&st18;" transform="matrix(&st16;  4477.31  258.0 )">10</text><text style="&st18;" transform="matrix(&st16;  4476.43  301.2 )">4C</text><text style="&st18;" transform="matrix(&st16;  4477.7  292.0 )">11</text><text style="&st18;" transform="matrix(&st16;  4218.75  224.72 )">(GND)</text><text style="&st18;" transform="matrix(&st16;  4157.53  223.28 )">F32</text><text style="&st18;" transform="matrix(&st16;  4275.58  219.05 )">W-B</text><text style="&st18;" transform="matrix(&st16;  4421.33  224.72 )">4B</text><text style="&st18;" transform="matrix(&st16;  4421.68  215.51 )">59</text><text style="&st18;" transform="matrix(&st16;  4277.1  272.88 )">(*3)</text><text style="&st18;" transform="matrix(&st16;  4218.75  267.21 )">(GND)</text><text style="&st18;" transform="matrix(&st16;  4157.53  265.77 )">F71</text><text style="&st18;" transform="matrix(&st16;  4275.58  261.54 )">W-B</text><text style="&st18;" transform="matrix(&st16;  4421.33  267.21 )">4B</text><text style="&st18;" transform="matrix(&st16;  4421.68  258.0 )">69</text><text style="&st18;" transform="matrix(&st16;  4229.48  301.2 )">(E)</text><text style="&st18;" transform="matrix(&st16;  4157.53  299.76 )">F4</text><text style="&st18;" transform="matrix(&st16;  4275.58  295.54 )">W-B</text><text style="&st18;" transform="matrix(&st16;  4421.33  301.2 )">4B</text><text style="&st18;" transform="matrix(&st16;  4421.68  292.0 )">33</text><text style="&st18;" transform="matrix(&st16;  4165.1  448.51 )">W-B</text><text style="&st18;" transform="matrix(&st16;  4165.1  151.06 )">W-B</text><text style="&st18;" transform="matrix(&st16;  4114.11  448.51 )">W-B</text><text style="&st18;" transform="matrix(&st16;  4114.11  151.06 )">W-B</text><text style="&st18;" transform="matrix(&st16;  4476.57  488.17 )">4B</text><text style="&st18;" transform="matrix(&st16;  4476.92  478.97 )">62</text><text style="&st18;" transform="matrix(&st16;  4218.75  488.17 )">(GND)</text><text style="&st18;" transform="matrix(&st16;  4157.53  486.73 )">F7</text><text style="&st18;" transform="matrix(&st16;  4275.58  482.51 )">W-B</text><text style="&st18;" transform="matrix(&st16;  4421.33  488.17 )">4B</text><text style="&st18;" transform="matrix(&st16;  4423.66  478.97 )">2</text><text style="&st18;" transform="matrix(&st16;  4229.48  556.16 )">(E)</text><text style="&st18;" transform="matrix(&st16;  4157.53  554.72 )">F11</text><text style="&st18;" transform="matrix(&st16;  4275.58  550.5 )">W-B</text><text style="&st18;" transform="matrix(&st16;  4421.33  556.16 )">4A</text><text style="&st18;" transform="matrix(&st16;  4421.68  546.96 )">63</text><text style="&st18;" transform="matrix(&st16;  4476.57  556.16 )">4B</text><text style="&st18;" transform="matrix(&st16;  4477.31  546.96 )">14</text><text style="&st18;" transform="matrix(&st16;  4476.57  454.18 )">4B</text><text style="&st18;" transform="matrix(&st16;  4476.92  444.97 )">50</text><text style="&st18;" transform="matrix(&st16;  4220.16  369.19 )">(ESS)</text><text ewd:textID="145" style="&st18;" transform="matrix(&st16;  4157.53  374.86 )">Steering Sensor</text><text style="&st18;" transform="matrix(&st16;  4157.53  367.75 )">F19</text><text style="&st18;" transform="matrix(&st16;  4421.18  369.19 )">4C</text><text style="&st18;" transform="matrix(&st16;  4423.66  359.99 )">9</text><text style="&st18;" transform="matrix(&st16;  4275.58  363.53 )">W-B</text><text style="&st18;" transform="matrix(&st16;  4476.57  369.19 )">4B</text><text style="&st18;" transform="matrix(&st16;  4476.92  359.99 )">58</text><text style="&st18;" transform="matrix(&st16;  4275.58  516.5 )">W-B</text><text style="&st18;" transform="matrix(&st16;  4421.33  522.17 )">4A</text><text style="&st18;" transform="matrix(&st16;  4377.57  516.5 )">W-B</text><text style="&st18;" transform="matrix(&st16;  4229.48  522.17 )">(E)</text><text style="&st18;" transform="matrix(&st16;  4157.53  520.73 )">G36</text><text style="&st18;" transform="matrix(&st16;  4421.68  512.96 )">86</text><text style="&st18;" transform="matrix(&st16;  4338.82  512.96 )">43</text><text ewd:textID="114" style="&st18;" transform="matrix(&st16;  4081.04  595.82 )">Radio &amp; Display <tspan dy="6" x="0">Receiver </tspan><tspan dy="6" x="0">Assembly</tspan></text><text style="&st18;" transform="matrix(&st16;  4006.53  584.49 )">BR</text><text style="&st18;" transform="matrix(&st16;  4055.81  590.16 )">(GND)</text><text style="&st18;" transform="matrix(&st16;  4081.04  588.72 )">G48</text><text style="&st18;" transform="matrix(&st16;  4003.17  595.82 )">(*35)</text><text style="&st18;" transform="matrix(&st16;  4003.17  638.31 )">(*34)</text><text style="&st18;" transform="matrix(&st16;  4275.51  196.39 )">(*10)</text><text ewd:textID="97" style="&st18;" transform="matrix(&st16;  4081.04  638.31 )">Navigation <tspan dy="6" x="0">Receiver Assembly</tspan></text><text ewd:textID="23" style="&st18;" transform="matrix(&st16;  4157.53  527.83 )">Accessory Meter Assembly</text></svg>