﻿<?xml version="1.0" encoding="UTF-8"?>
<!DOCTYPE svg PUBLIC "-//W3C//DTD SVG 1.0//EN" "http://www.w3.org/TR/2001/REC-SVG-20010904/DTD/svg10.dtd"[
	<!ENTITY ns_flows "http://ns.adobe.com/Flows/1.0/">
	<!ENTITY ns_svg "http://www.w3.org/2000/svg">
	<!ENTITY ns_xlink "http://www.w3.org/1999/xlink">
	<!ENTITY st0 "font-size:7px;font-family:'MS-PGothic';adobe-font-script:japanese;">
	<!ENTITY st1 "font-size:6px;font-family:'ArialMT';">
	<!-- White fill  -->
	<!ENTITY st2 "fill:#FFFFFF;stroke:#000000; stroke-width:1.41;stroke-linecap:round;stroke-linejoin:round;">
	<!-- Yellow fill  -->
	<!ENTITY st3 "fill:#FFFFCC;stroke:#FFFFCC; stroke-width:0.1;stroke-linecap:round;stroke-linejoin:round;">
	<!-- Gray fill  -->
	<!ENTITY st4 "fill:#CCCCCC;stroke:#CCCCCC; stroke-width:0.1;stroke-linecap:round;stroke-linejoin:round;">
	<!-- Light-blue fill -->
	<!ENTITY st5 "fill:#CCECF4;stroke:#000000; stroke-width:1.133;stroke-linecap:round;stroke-linejoin:round;">
	<!ENTITY st6 "fill:none;stroke-linecap:butt; stroke-linejoin:round;">
	<!ENTITY st7 "fill:none;stroke:#000000;stroke-linecap:round;stroke-linejoin:round;">
	<!ENTITY st8 "enable-background:new    ;">
	<!-- Black fill -->
	<!ENTITY st9 "fill:#000000;stroke:#000000; stroke-linecap:round;stroke-linejoin:round;">
	<!-- SRS note   -->
	<!ENTITY st10 "font-size:9px;font-family:'ArialMT';">
	<!ENTITY st11 "font-size:9px;font-family:'Svg Symbol';">
	<!ENTITY st12 "font-size:6px;font-family:'Svg Symbol';">
	<!ENTITY st13 "fill:none;stroke:#ff0000;stroke-linecap:round;stroke-linejoin:round;">
	<!-- Yellow fill  -->
	<!ENTITY st14 "fill:#FFFF00;stroke:#FFFF00; stroke-width:0.1;stroke-linecap:round;stroke-linejoin:round;">
	<!ENTITY st15 "font-size:6px;font-family:'MS-PGothic';adobe-font-script:japanese;">
	<!ENTITY st16 "1.00 0.00 0.00 1.00">
	<!ENTITY st17 "0.00 -1.00 1.00 0.00">
	<!ENTITY st18 "font-size:6px;font-family:'Arial';">
	<!ENTITY st19 "font-size:9px;font-family:'Arial';">
	<!ENTITY st20 "font-size:6px;font-family:'MS-PGothic','MS PGothic';adobe-font-script:japanese;">
	<!ENTITY st21 "font-size:7px;font-family:'MS-PGothic','MS PGothic';adobe-font-script:japanese;">
	<!ATTLIST svg
		xmlns:ewd CDATA #FIXED "http://shcl.co.jp/ewd"
		xmlns:a CDATA #FIXED "http://ns.adobe.com/AdobeSVGViewerExtensions/3.0/"
		ewd:ver CDATA #IMPLIED
	>
	<!ATTLIST a
		ewd:lineID CDATA #IMPLIED
		ewd:groupID CDATA #IMPLIED
		ewd:figtype CDATA #IMPLIED
		ewd:code CDATA #IMPLIED
		ewd:figID CDATA #IMPLIED
		ewd:pinNo CDATA #IMPLIED
		ewd:comment CDATA #IMPLIED >
	<!ATTLIST g
		ewd:lineID CDATA #IMPLIED
		ewd:groupID CDATA #IMPLIED
		ewd:figtype CDATA #IMPLIED
		ewd:code CDATA #IMPLIED
		ewd:figID CDATA #IMPLIED
		ewd:pinNo CDATA #IMPLIED
		ewd:comment CDATA #IMPLIED >
	<!ATTLIST text
		ewd:textID CDATA #IMPLIED >
	<!ATTLIST title
		ewd:textID CDATA #IMPLIED >
]>
<!-- Generator: Shintec Hozumi YS   -->
<svg onload="call_execInitLoadProc_svg('system')" style="overflow:visible;  enable-background:new 0 0 389.769 710.000" viewBox="0 0 389.769 710.000" height="710.000" width="389.769" xml:space="preserve" ewd:ver="L2.1.2.7" xmlns="&ns_svg;" xmlns:a="http://ns.adobe.com/AdobeSVGViewerExtensions/3.0/" xmlns:ewd="http://shcl.co.jp/ewd" xmlns:xlink="&ns_xlink;">
	<script type="text/javascript" xlink:href="../../../../../system/js/ewd/fig/svgfig.js"/>
	<defs>
		<font horiz-adv-x="1229">
			<font-face font-family="Svg Symbol" units-per-em="2048" panose-1="5 5 1 2 1 7 6 2 5 7" ascent="2059" descent="450" alphabetic="0"/>
			<missing-glyph d="M 103,0 l 0,1280 1024,0 0,-1280 -1024,0 z m 32,32 l 960,0 0,1216 -960,0 0,-1216 z"/>
			<glyph unicode="&#xF057;" horiz-adv-x="1573" d="M 1517,0 l -567,0 24,279 q 141,59 207.5,168 66.5,109 66.5,306    0,272 -132.5,417.5 -132.5,145.5 -333.5,145.5 -194,0 -328,-147.5 -134,-147.5 -134,-401.5 0,-200 68.5,-319 68.5,-119     206.5,-169 l 25,-279 -564,0 0,279 35,0 q 3,-61 32,-83 45,-35 137,-35 l 270,0 0,70 q -210,61 -324.5,209 -114.5,148     -114.5,349 0,252 186.5,425 186.5,173 504.5,173 195,0 358.5,-73.5 163.5,-73.5 252,-214.5 88.5,-141 88.5,-310 0,-207     -121.5,-360.5 -121.5,-153.5 -317.5,-197.5 l -8,-70 275,0 q 92,0 128,28 36,28 42,90 l 38,0 0,-279 z"/>
		</font>
	</defs>
<g id="ewd_top">
	<a ewd:code="N11" ewd:figID="1" ewd:figtype="conn" style="cursor:pointer;">
		<path d=" M  212.46,  469.21  L  212.46,  511.70  L  297.45,  511.70  L  297.45,  469.21  L  212.46,  469.21 " style="&st5;"/>
		<title ewd:textID="2">Stereo Component Amplifier Assembly</title>
	</a>
	<a ewd:code="G37" ewd:figID="2" ewd:figtype="conn" style="cursor:pointer;">
		<path d=" M  212.46,  256.74  L  212.46,  299.24  L  297.45,  299.24  L  297.45,  256.74  L  212.46,  256.74 " style="&st5;"/>
		<title ewd:textID="1">Navigation Receiver Assembly</title>
	</a>
	<a ewd:lineID="1" style="cursor:pointer;">
		<path d=" M  229.46,  390.74  L  229.46,  460.14 " style="stroke:#000000;stroke-width: 5.10 ;&st6;"/>
		<path d=" M  229.46,  390.74  L  229.46,  460.14 " style="stroke:#FFFFFF;stroke-width: 4.53 ;&st6;"/>
	</a>
	<a ewd:lineID="2" style="cursor:pointer;">
		<path d=" M  229.46,  308.30  L  229.46,  375.72 " style="stroke:#000000;stroke-width: 5.10 ;&st6;"/>
		<path d=" M  229.46,  308.30  L  229.46,  375.72 " style="stroke:#FFFFFF;stroke-width: 4.53 ;&st6;"/>
	</a>
	<a ewd:lineID="3" style="cursor:pointer;">
		<path d=" M  280.45,  390.45  L  280.45,  460.14 " style="stroke:#000000;stroke-width: 5.10 ;&st6;"/>
	</a>
	<a ewd:lineID="4" style="cursor:pointer;">
		<path d=" M  280.45,  308.30  L  280.45,  375.72 " style="stroke:#000000;stroke-width: 5.10 ;&st6;"/>
	</a>
	<path d=" M  237.96,  384.22  L  229.46,  384.22 " style="stroke-width: 1.42 ;&st7; "/>
	<path d=" M  288.95,  384.22  L  280.45,  384.22 " style="stroke-width: 1.42 ;&st7; "/>
	<path d=" M  212.46,  469.21  L  212.46,  511.70  L  297.45,  511.70  L  297.45,  469.21  L  212.46,  469.21 " style="stroke-width: 1.42 ;&st7; "/>
	<path d=" M  212.46,  256.74  L  212.46,  299.24  L  297.45,  299.24  L  297.45,  256.74  L  212.46,  256.74 " style="stroke-width: 1.42 ;&st7; "/>
	<path d=" M  284.70,  389.89  L  280.45,  385.64  L  276.20,  389.89 " style="stroke-width: 1.42 ;&st7; "/>
	<path d=" M  284.70,  393.29  L  280.45,  389.04  L  276.20,  393.29 " style="stroke-width: 1.42 ;&st7; "/>
	<path d=" M  233.71,  389.89  L  229.46,  385.64  L  225.21,  389.89 " style="stroke-width: 1.42 ;&st7; "/>
	<path d=" M  233.71,  393.29  L  229.46,  389.04  L  225.21,  393.29 " style="stroke-width: 1.42 ;&st7; "/>
	<path d=" M  233.99,  464.67  C  233.99   462.17   231.96   460.14   229.46   460.14 " style="stroke-width: 1.42 ;&st7; "/>
	<path d=" M  229.46,  460.14  C  226.96   460.14   224.93   462.17   224.93   464.67 " style="stroke-width: 1.42 ;&st7; "/>
	<path d=" M  224.93,  464.67  C  224.93   467.18   226.96   469.21   229.46   469.21 " style="stroke-width: 1.42 ;&st7; "/>
	<path d=" M  229.46,  469.21  C  231.96   469.21   233.99   467.18   233.99   464.67 " style="stroke-width: 1.42 ;&st7; "/>
	<path d=" M  284.99,  464.67  C  284.99   462.17   282.96   460.14   280.45   460.14 " style="stroke-width: 1.42 ;&st7; "/>
	<path d=" M  280.45,  460.14  C  277.95   460.14   275.92   462.17   275.92   464.67 " style="stroke-width: 1.42 ;&st7; "/>
	<path d=" M  275.92,  464.67  C  275.92   467.18   277.95   469.21   280.45   469.21 " style="stroke-width: 1.42 ;&st7; "/>
	<path d=" M  280.45,  469.21  C  282.96   469.21   284.99   467.18   284.99   464.67 " style="stroke-width: 1.42 ;&st7; "/>
	<path d=" M  284.99,  303.77  C  284.99   301.26   282.96   299.24   280.45   299.24 " style="stroke-width: 1.42 ;&st7; "/>
	<path d=" M  280.45,  299.24  C  277.95   299.24   275.92   301.26   275.92   303.77 " style="stroke-width: 1.42 ;&st7; "/>
	<path d=" M  275.92,  303.77  C  275.92   306.27   277.95   308.30   280.45   308.30 " style="stroke-width: 1.42 ;&st7; "/>
	<path d=" M  280.45,  308.30  C  282.96   308.30   284.99   306.27   284.99   303.77 " style="stroke-width: 1.42 ;&st7; "/>
	<path d=" M  233.99,  303.77  C  233.99   301.26   231.96   299.24   229.46   299.24 " style="stroke-width: 1.42 ;&st7; "/>
	<path d=" M  229.46,  299.24  C  226.96   299.24   224.93   301.26   224.93   303.77 " style="stroke-width: 1.42 ;&st7; "/>
	<path d=" M  224.93,  303.77  C  224.93   306.27   226.96   308.30   229.46   308.30 " style="stroke-width: 1.42 ;&st7; "/>
	<path d=" M  229.46,  308.30  C  231.96   308.30   233.99   306.27   233.99   303.77 " style="stroke-width: 1.42 ;&st7; "/>
	<text style="&st18;" transform="matrix(&st16;  277.98  305.74 )">C</text>
	<text style="&st18;" transform="matrix(&st16;  269.58  305.74 )">7</text>
	<text style="&st18;" transform="matrix(&st16;  226.99  305.74 )">C</text>
	<text style="&st18;" transform="matrix(&st16;  218.59  305.74 )">8</text>
	<text style="&st18;" transform="matrix(&st16;  227.13  466.64 )">A</text>
	<text style="&st18;" transform="matrix(&st16;  218.59  466.64 )">7</text>
	<text style="&st18;" transform="matrix(&st16;  278.12  466.64 )">A</text>
	<text style="&st18;" transform="matrix(&st16;  269.58  466.64 )">8</text>
	<text style="&st18;" transform="matrix(&st16;  221.41  295.54 )">TX1-</text>
	<text style="&st18;" transform="matrix(&st16;  272.4  295.54 )">TX1+</text>
	<text style="&st18;" transform="matrix(&st16;  223.0  476.84 )">TX-</text>
	<text style="&st18;" transform="matrix(&st16;  273.99  476.84 )">TX+</text>
	<text style="&st18;" transform="matrix(&st17;  225.77  345.08 )">W</text>
	<text style="&st18;" transform="matrix(&st17;  276.76  344.06 )">B</text>
	<text style="&st18;" transform="matrix(&st16;  210.69  381.94 )">42</text>
	<text style="&st18;" transform="matrix(&st16;  261.68  381.94 )">43</text>
	<text style="&st18;" transform="matrix(&st17;  225.77  430.07 )">W</text>
	<text style="&st18;" transform="matrix(&st17;  276.76  429.04 )">B</text>
	<text style="&st18;" transform="matrix(&st16;  209.94  245.94 )">G37(C)</text>
	<text ewd:textID="2" style="&st18;" transform="matrix(&st16;  209.94  526.42 )">Stereo Component <tspan dy="6" x="0">Amplifier Assembly</tspan></text>
	<text style="&st18;" transform="matrix(&st16;  209.94  519.31 )">N11(A)</text>
	<text ewd:textID="1" style="&st18;" transform="matrix(&st16;  209.94  253.05 )">Navigation Receiver Assembly</text>
	<a ewd:code="GN2" ewd:figID="3" ewd:figtype="w2w" ewd:pinNo="42" style="cursor:pointer;">
		<path d=" M  237.96,  375.72  L  220.96,  375.72  L  220.96,  384.22  L  237.96,  384.22  L  237.96,  375.72 " style="&st2;"/>
		<text style="&st8;" transform="matrix(&st16;  221.88  382.47 )"><tspan style="&st18;" x="0" y="0">GN2</tspan></text>
	</a>
	<a ewd:code="GN2" ewd:figID="4" ewd:figtype="w2w" ewd:pinNo="43" style="cursor:pointer;">
		<path d=" M  288.95,  375.72  L  271.95,  375.72  L  271.95,  384.22  L  288.95,  384.22  L  288.95,  375.72 " style="&st2;"/>
		<text style="&st8;" transform="matrix(&st16;  272.87  382.47 )"><tspan style="&st18;" x="0" y="0">GN2</tspan></text>
	</a>
</g>
</svg>