﻿<?xml version="1.0" encoding="utf-8"?>
<!DOCTYPE svg PUBLIC "-//W3C//DTD SVG 1.0//EN" "http://www.w3.org/TR/2001/REC-SVG-20010904/DTD/svg10.dtd"[
	<!ENTITY ns_flows "http://ns.adobe.com/Flows/1.0/">
	<!ENTITY ns_svg "http://www.w3.org/2000/svg">
	<!ENTITY ns_xlink "http://www.w3.org/1999/xlink">
	<!ENTITY st0 "font-size:7px;font-family:'MS-PGothic';adobe-font-script:japanese;">
	<!ENTITY st1 "font-size:6px;font-family:'ArialMT';">
	<!-- White fill  -->
	<!ENTITY st2 "fill:#FFFFFF;stroke:#000000; stroke-width:1.41;stroke-linecap:round;stroke-linejoin:round;">
	<!-- Yellow fill  -->
	<!ENTITY st3 "fill:#FFFFCC;stroke:#FFFFCC; stroke-width:0.1;stroke-linecap:round;stroke-linejoin:round;">
	<!-- Gray fill  -->
	<!ENTITY st4 "fill:#CCCCCC;stroke:#CCCCCC; stroke-width:0.1;stroke-linecap:round;stroke-linejoin:round;">
	<!-- Light-blue fill -->
	<!ENTITY st5 "fill:#CCECF4;stroke:#000000; stroke-width:1.133;stroke-linecap:round;stroke-linejoin:round;">
	<!ENTITY st6 "fill:none;stroke-linecap:butt; stroke-linejoin:round;">
	<!ENTITY st7 "fill:none;stroke:#000000;stroke-linecap:round;stroke-linejoin:round;">
	<!ENTITY st8 "enable-background:new    ;">
	<!-- Black fill -->
	<!ENTITY st9 "fill:#000000;stroke:#000000; stroke-linecap:round;stroke-linejoin:round;">
	<!-- SRS note   -->
	<!ENTITY st10 "font-size:9px;font-family:'ArialMT';">
	<!ENTITY st11 "font-size:9px;font-family:'Svg Symbol';">
	<!ENTITY st12 "font-size:6px;font-family:'Svg Symbol';">
	<!ENTITY st13 "fill:none;stroke:#ff0000;stroke-linecap:round;stroke-linejoin:round;">
	<!-- Yellow fill  -->
	<!ENTITY st14 "fill:#FFFF00;stroke:#FFFF00; stroke-width:0.1;stroke-linecap:round;stroke-linejoin:round;">
	<!ENTITY st15 "font-size:6px;font-family:'MS-PGothic';adobe-font-script:japanese;">
	<!ENTITY st16 "1.00 0.00 0.00 1.00">
	<!ENTITY st17 "0.00 -1.00 1.00 0.00">
	<!ENTITY st18 "font-size:6px;font-family:'Arial';">
	<!ENTITY st19 "font-size:9px;font-family:'Arial';">
	<!ENTITY st20 "font-size:6px;font-family:'MS-PGothic','MS PGothic';adobe-font-script:japanese;">
	<!ENTITY st21 "font-size:7px;font-family:'MS-PGothic','MS PGothic';adobe-font-script:japanese;">
	<!ATTLIST svg
		xmlns:ewd CDATA #FIXED "http://shcl.co.jp/ewd"
		xmlns:a CDATA #FIXED "http://ns.adobe.com/AdobeSVGViewerExtensions/3.0/"
		ewd:ver CDATA #IMPLIED
	>
	<!ATTLIST a
		ewd:lineID CDATA #IMPLIED
		ewd:groupID CDATA #IMPLIED
		ewd:figtype CDATA #IMPLIED
		ewd:code CDATA #IMPLIED
		ewd:figID CDATA #IMPLIED
		ewd:pinNo CDATA #IMPLIED
		ewd:comment CDATA #IMPLIED >
	<!ATTLIST g
		ewd:lineID CDATA #IMPLIED
		ewd:groupID CDATA #IMPLIED
		ewd:figtype CDATA #IMPLIED
		ewd:code CDATA #IMPLIED
		ewd:figID CDATA #IMPLIED
		ewd:pinNo CDATA #IMPLIED
		ewd:comment CDATA #IMPLIED >
	<!ATTLIST text
		ewd:textID CDATA #IMPLIED >
	<!ATTLIST title
		ewd:textID CDATA #IMPLIED >
]>
<!-- Generator: Shintec Hozumi YS   -->
<svg onload="call_execInitLoadProc_svg('system')" style="overflow:visible;  enable-background:new 0 0 2499.107 710.000" viewBox="0 0 2499.107 710.000" height="710.000" width="2499.107" xml:space="preserve" ewd:ver="L2.1.2.7" xmlns="&ns_svg;" xmlns:a="http://ns.adobe.com/AdobeSVGViewerExtensions/3.0/" xmlns:ewd="http://shcl.co.jp/ewd" xmlns:xlink="&ns_xlink;"><script type="text/javascript" xlink:href="../../../../../system/js/ewd/fig/svgfig.js" xmlns:xlink="http://www.w3.org/1999/xlink" /><defs><font horiz-adv-x="1229"><font-face font-family="Svg Symbol" units-per-em="2048" panose-1="5 5 1 2 1 7 6 2 5 7" ascent="2059" descent="450" alphabetic="0" /><missing-glyph d="M 103,0 l 0,1280 1024,0 0,-1280 -1024,0 z m 32,32 l 960,0 0,1216 -960,0 0,-1216 z" /><glyph unicode="" horiz-adv-x="1573" d="M 1517,0 l -567,0 24,279 q 141,59 207.5,168 66.5,109 66.5,306    0,272 -132.5,417.5 -132.5,145.5 -333.5,145.5 -194,0 -328,-147.5 -134,-147.5 -134,-401.5 0,-200 68.5,-319 68.5,-119     206.5,-169 l 25,-279 -564,0 0,279 35,0 q 3,-61 32,-83 45,-35 137,-35 l 270,0 0,70 q -210,61 -324.5,209 -114.5,148     -114.5,349 0,252 186.5,425 186.5,173 504.5,173 195,0 358.5,-73.5 163.5,-73.5 252,-214.5 88.5,-141 88.5,-310 0,-207     -121.5,-360.5 -121.5,-153.5 -317.5,-197.5 l -8,-70 275,0 q 92,0 128,28 36,28 42,90 l 38,0 0,-279 z" /></font></defs>
<g id="ewd_top"><a ewd:code="F47" ewd:figID="1" ewd:figtype="conn" style="cursor:pointer;"><path d=" M  671.39,  163.26  L  671.39,  205.75  L  883.85,  205.75  L  883.85,  163.26  L  671.39,  163.26 " style="&st5;" /><title ewd:textID="4">Four Wheel Drive Control ECU</title></a><a ewd:code="FUSE8" ewd:figID="2" ewd:figtype="rb" style="cursor:pointer;"><path d=" M 1364.02,   35.78  L 1364.02,   78.27  L 1389.52,   78.27  L 1389.52,   35.78  L 1364.02,   35.78 " style="&st5;" /></a><a ewd:code="FUSE8" ewd:figID="3" ewd:figtype="rb" style="cursor:pointer;"><path d=" M 2205.38,   78.27  L 2205.38,   35.78  L 2179.89,   35.78  L 2179.89,   78.27  L 2205.38,   78.27 " style="&st5;" /></a><a ewd:code="B45,B54" ewd:figID="4" ewd:figtype="conn" style="cursor:pointer;"><path d=" M  798.87,  418.22  L  798.87,  384.22  L  781.87,  384.22  L  781.87,  418.22  L  798.87,  418.22 " style="&st5;" /><title ewd:textID="12">Transfer Indicator Switch (L4 Position)</title></a><a ewd:code="F64" ewd:figID="5" ewd:figtype="conn" style="cursor:pointer;"><path d=" M 1444.76,  656.18  L 1461.76,  656.18  L 1461.76,  673.17  L 1444.76,  673.17  L 1444.76,  656.18 " style="&st5;" /><title ewd:textID="5">Junction Connector</title></a><a ewd:code="B36,F50" ewd:figID="6" ewd:figtype="conn" style="cursor:pointer;"><path d=" M  671.39,  460.71  L  671.39,  494.70  L  739.38,  494.70  L  739.38,  460.71  L  671.39,  460.71 " style="&st5;" /><title>ECM</title></a><a ewd:code="F41" ewd:figID="7" ewd:figtype="conn" style="cursor:pointer;"><path d=" M   33.99,  350.23  L   33.99,  392.72  L  280.45,  392.72  L  280.45,  350.23  L   33.99,  350.23 " style="&st5;" /><title ewd:textID="7">Power Steering ECU Assembly</title></a><a ewd:code="F73,F91" ewd:figID="8" ewd:figtype="conn" style="cursor:pointer;"><path d=" M  832.86,  333.23  L  832.86,  418.22  L  960.34,  418.22  L  960.34,  333.23  L  832.86,  333.23 " style="&st5;" /><title ewd:textID="13">Transfer Position Switch</title></a><a ewd:code="F64" ewd:figID="9" ewd:figtype="conn" style="cursor:pointer;"><path d=" M  883.85,  656.18  L  883.85,  673.17  L  900.85,  673.17  L  900.85,  656.18  L  883.85,  656.18 " style="&st5;" /><title ewd:textID="5">Junction Connector</title></a><a ewd:code="F60" ewd:figID="10" ewd:figtype="conn" style="cursor:pointer;"><path d=" M  322.95,  350.23  L  322.95,  401.22  L  739.38,  401.22  L  739.38,  350.23  L  322.95,  350.23 " style="&st5;" /><title ewd:textID="5">Junction Connector</title></a><a ewd:code="F14" ewd:figID="11" ewd:figtype="conn" style="cursor:pointer;"><path d=" M 2158.64,  248.24  L 2473.09,  248.24  L 2473.09,  443.71  L 2158.64,  443.71  L 2158.64,  248.24 " style="&st5;" /><title ewd:textID="2">Combination Meter Assembly</title></a><a ewd:code="F19" ewd:figID="12" ewd:figtype="conn" style="cursor:pointer;"><path d=" M 1359.77,  333.23  L 1359.77,  375.72  L 1470.25,  375.72  L 1470.25,  333.23  L 1359.77,  333.23 " style="&st5;" /><title ewd:textID="11">Steering Sensor</title></a><a ewd:code="A6" ewd:figID="13" ewd:figtype="conn" style="cursor:pointer;"><path d=" M 1631.73,  120.77  L 1631.73,  171.76  L 2005.66,  171.76  L 2005.66,  120.77  L 1631.73,  120.77 " style="&st5;" /><title ewd:textID="8">Skid Control ECU with Actuator Assembly</title></a><a ewd:code="F59" ewd:figID="14" ewd:figtype="conn" style="cursor:pointer;"><path d=" M  322.95,   44.28  L  322.95,   95.27  L 1257.79,   95.27  L 1257.79,   44.28  L  322.95,   44.28 " style="&st5;" /><title ewd:textID="5">Junction Connector</title></a><a ewd:code="A36" ewd:figID="15" ewd:figtype="conn" style="cursor:pointer;"><path d=" M 1640.23,  333.23  L 1640.23,  384.22  L 1793.20,  384.22  L 1793.20,  333.23  L 1640.23,  333.23 " style="&st5;" /><title ewd:textID="5">Junction Connector</title></a><a ewd:code="B40" ewd:figID="16" ewd:figtype="conn" style="cursor:pointer;"><path d=" M  127.48,  562.69  L  127.48,  528.70  L  110.48,  528.70  L  110.48,  562.69  L  127.48,  562.69 " style="&st5;" /><title ewd:textID="9">Solenoid Valve Assembly</title></a><a ewd:code="F55-A,F56-B" ewd:figID="17" ewd:figtype="conn" style="cursor:pointer;"><path d=" M 2388.10,  511.70  L 2388.10,  545.69  L 2473.09,  545.69  L 2473.09,  511.70  L 2388.10,  511.70 " style="&st5;" /><title ewd:textID="5">Junction Connector</title></a><a ewd:code="B49" ewd:figID="18" ewd:figtype="conn" style="cursor:pointer;"><path d=" M  628.89,  596.69  L  628.89,  613.68  L  645.89,  613.68  L  645.89,  596.69  L  628.89,  596.69 " style="&st5;" /><title ewd:textID="5">Junction Connector</title></a><a ewd:code="F63" ewd:figID="19" ewd:figtype="conn" style="cursor:pointer;"><path d=" M 2456.09,  656.18  L 2456.09,  673.17  L 2473.09,  673.17  L 2473.09,  656.18  L 2456.09,  656.18 " style="&st5;" /><title ewd:textID="5">Junction Connector</title></a><a ewd:code="B14" ewd:figID="20" ewd:figtype="conn" style="cursor:pointer;"><path d=" M  713.88,  596.69  L  713.88,  596.69  C  713.88   596.69   713.88   596.69   713.88   596.69  L  713.88,  596.69  C  713.88   591.99   717.69   588.19   722.38   588.19  L  722.38,  588.19  C  727.07   588.19   730.88   591.99   730.88   596.69  L  730.88,  596.69  L  730.88,  613.68  C  730.88   613.68   730.88   613.68   730.88   613.69  L  730.88,  613.69  C  730.88   618.38   727.07   622.18   722.38   622.18  L  722.38,  622.18  C  717.68   622.18   713.88   618.37   713.88   613.68  L  713.88,  613.68 " style="&st5;" /><title ewd:textID="3">Crank Position Sensor</title></a><a ewd:code="F64" ewd:figID="21" ewd:figtype="conn" style="cursor:pointer;"><path d=" M 2303.12,  656.18  L 2303.12,  673.17  L 2320.11,  673.17  L 2320.11,  656.18  L 2303.12,  656.18 " style="&st5;" /><title ewd:textID="5">Junction Connector</title></a><a ewd:code="G13-A" ewd:figID="22" ewd:figtype="conn" style="cursor:pointer;"><path d=" M  331.44,  214.25  L  331.44,  248.24  L  390.93,  248.24  L  390.93,  214.25  L  331.44,  214.25 " style="&st5;" /><title ewd:textID="5">Junction Connector</title></a><a ewd:code="2" ewd:figID="23" ewd:figtype="jb" style="cursor:pointer;"><path d=" M 2294.62,   35.78  L 2354.11,   35.78  L 2354.11,  103.77  L 2294.62,  103.77  L 2294.62,   35.78 " style="&st4;" /></a><a ewd:code="5" ewd:figID="24" ewd:figtype="jb" style="cursor:pointer;"><path d=" M  875.35,  477.71  L  875.35,  528.70  L  900.85,  528.70  L  900.85,  477.71  L  875.35,  477.71 " style="&st4;" /></a><a ewd:code="5" ewd:figID="25" ewd:figtype="jb" style="cursor:pointer;"><path d=" M   33.99,  477.71  L   59.49,  477.71  L   59.49,  528.70  L   33.99,  528.70  L   33.99,  477.71 " style="&st4;" /></a><a ewd:code="4" ewd:figID="26" ewd:figtype="jb" style="cursor:pointer;"><path d=" M 1359.77,  248.24  L 1359.77,  299.24  L 1385.27,  299.24  L 1385.27,  248.24  L 1359.77,  248.24 " style="&st4;" /></a><a ewd:code="2" ewd:figID="27" ewd:figtype="jb" style="cursor:pointer;"><path d=" M 1436.26,   35.78  L 1504.25,   35.78  L 1504.25,  103.77  L 1436.26,  103.77  L 1436.26,   35.78 " style="&st4;" /></a><a ewd:code="2" ewd:figID="28" ewd:figtype="jb" style="cursor:pointer;"><path d=" M 1359.77,  154.76  L 1359.77,  205.75  L 1385.27,  205.75  L 1385.27,  154.76  L 1359.77,  154.76 " style="&st4;" /></a><a ewd:code="4" ewd:figID="29" ewd:figtype="jb" style="cursor:pointer;"><path d=" M 1436.26,  426.71  L 1461.76,  426.71  L 1461.76,  477.71  L 1436.26,  477.71  L 1436.26,  426.71 " style="&st4;" /></a><a ewd:code="4" ewd:figID="30" ewd:figtype="jb" style="cursor:pointer;"><path d=" M   33.99,  154.76  L   59.49,  154.76  L   59.49,  205.75  L   33.99,  205.75  L   33.99,  154.76 " style="&st4;" /></a><a ewd:code="2" ewd:figID="31" ewd:figtype="jb" style="cursor:pointer;"><path d=" M 2175.64,  146.26  L 2201.13,  146.26  L 2201.13,  197.25  L 2175.64,  197.25  L 2175.64,  146.26 " style="&st4;" /></a><a ewd:code="4" ewd:figID="32" ewd:figtype="jb" style="cursor:pointer;"><path d=" M 2294.62,  511.70  L 2294.62,  562.69  L 2320.11,  562.69  L 2320.11,  511.70  L 2294.62,  511.70 " style="&st4;" /></a><a ewd:code="2" ewd:figID="33" ewd:figtype="jb" style="cursor:pointer;"><path d=" M   33.99,   35.78  L  118.98,   35.78  L  118.98,  103.77  L   33.99,  103.77  L   33.99,   35.78 " style="&st4;" /></a><a ewd:code="5" ewd:figID="34" ewd:figtype="jb" style="cursor:pointer;"><path d=" M   33.99,  248.24  L   59.49,  248.24  L   59.49,  299.24  L   33.99,  299.24  L   33.99,  248.24 " style="&st4;" /></a><a ewd:code="4" ewd:figID="35" ewd:figtype="jb" style="cursor:pointer;"><path d=" M 2252.12,  146.26  L 2277.62,  146.26  L 2277.62,  197.25  L 2252.12,  197.25  L 2252.12,  146.26 " style="&st4;" /></a><a ewd:code="4" ewd:figID="36" ewd:figtype="jb" style="cursor:pointer;"><path d=" M 1436.26,  154.76  L 1436.26,  205.75  L 1461.76,  205.75  L 1461.76,  154.76  L 1436.26,  154.76 " style="&st4;" /></a><a ewd:code="FUSE8" ewd:figID="37" ewd:figtype="fuse" style="cursor:pointer;"><path d=" M 2205.38,   78.27  L 2205.38,   35.78  L 2179.89,   35.78  L 2179.89,   78.27  L 2205.38,   78.27 " style="&st7;" /></a><a ewd:code="FUSE47" ewd:figID="38" ewd:figtype="fuse" style="cursor:pointer;"><path d=" M 2324.36,   78.27  L 2324.36,   35.78  L 2298.87,   35.78  L 2298.87,   78.27  L 2324.36,   78.27 " style="&st7;" /></a><a ewd:code="FUSE8" ewd:figID="39" ewd:figtype="fuse" style="cursor:pointer;"><path d=" M 1364.02,   35.78  L 1364.02,   78.27  L 1389.52,   78.27  L 1389.52,   35.78  L 1364.02,   35.78 " style="&st7;" /></a><a ewd:code="FUSE52" ewd:figID="40" ewd:figtype="fuse" style="cursor:pointer;"><path d=" M   38.24,   35.78  L   38.24,   78.27  L   63.74,   78.27  L   63.74,   35.78  L   38.24,   35.78 " style="&st7;" /></a><a ewd:code="FUSE52" ewd:figID="41" ewd:figtype="fuse" style="cursor:pointer;"><path d=" M 1466.01,   78.27  L 1440.51,   78.27  L 1440.51,   35.78  L 1466.01,   35.78  L 1466.01,   78.27 " style="&st7;" /></a><a ewd:lineID="1" style="cursor:pointer;"><path d=" M   50.99,  528.70  L   50.99,  664.67  L  883.85,  664.67 " style="stroke:#000000;stroke-width: 5.10 ;&st6;" /><path d=" M   50.99,  528.70  L   50.99,  664.67  L  883.85,  664.67 " style="stroke:#FFFFFF;stroke-width: 4.53 ;&st6;" /><path d=" M   50.99,  528.70  L   50.99,  664.67  L  883.85,  664.67 " style="stroke:#000000;stroke-width: 1.13 ;&st6;" /></a><a ewd:lineID="2" style="cursor:pointer;"><path d=" M   50.99,  392.72  L   50.99,  477.71 " style="stroke:#000000;stroke-width: 5.10 ;&st6;" /><path d=" M   50.99,  392.72  L   50.99,  477.71 " style="stroke:#FFFFFF;stroke-width: 4.53 ;&st6;" /><path d=" M   50.99,  392.72  L   50.99,  477.71 " style="stroke:#000000;stroke-width: 1.13 ;&st6;" /></a><a ewd:lineID="3" style="cursor:pointer;"><path d=" M   50.99,  299.24  L   50.99,  350.23 " style="stroke:#008837;stroke-width: 5.10 ;&st6;" /></a><a ewd:lineID="4" style="cursor:pointer;"><path d=" M   50.99,  205.75  L   50.99,  248.24 " style="stroke:#008837;stroke-width: 5.10 ;&st6;" /></a><a ewd:lineID="5" style="cursor:pointer;"><path d=" M   50.99,  103.77  L   50.99,  154.76 " style="stroke:#008837;stroke-width: 5.10 ;&st6;" /></a><a ewd:lineID="6" style="cursor:pointer;"><path d=" M  118.98,  562.69  L  118.98,  596.69  L  169.97,  596.69  L  169.97,  469.21 " style="stroke:#7FC97F;stroke-width: 5.10 ;&st6;" /></a><a ewd:lineID="7" style="cursor:pointer;"><path d=" M  118.98,  469.21  L  118.98,  528.70 " style="stroke:#56077D;stroke-width: 5.10 ;&st6;" /></a><a ewd:lineID="8" style="cursor:pointer;"><path d=" M  118.98,  454.48  L  118.98,  392.72 " style="stroke:#56077D;stroke-width: 5.10 ;&st6;" /></a><a ewd:lineID="9" style="cursor:pointer;"><path d=" M  169.97,  454.48  L  169.97,  392.72 " style="stroke:#7FC97F;stroke-width: 5.10 ;&st6;" /></a><a ewd:lineID="10" style="cursor:pointer;"><path d=" M  229.46,  392.72  L  229.46,  469.21  L  382.44,  469.21  L  382.44,  401.22 " style="stroke:#00A0C6;stroke-width: 5.10 ;&st6;" /></a><a ewd:lineID="11" style="cursor:pointer;"><path d=" M  263.46,  392.72  L  263.46,  443.71  L  339.94,  443.71  L  339.94,  401.22 " style="stroke:#000000;stroke-width: 5.10 ;&st6;" /><path d=" M  263.46,  392.72  L  263.46,  443.71  L  339.94,  443.71  L  339.94,  401.22 " style="stroke:#FFFFFF;stroke-width: 4.53 ;&st6;" /></a><a ewd:lineID="12" style="cursor:pointer;"><path d=" M  339.94,  307.73  L  339.94,  350.23 " style="stroke:#000000;stroke-width: 5.10 ;&st6;" /><path d=" M  339.94,  307.73  L  339.94,  350.23 " style="stroke:#FFFFFF;stroke-width: 4.53 ;&st6;" /></a><a ewd:lineID="13" style="cursor:pointer;"><path d=" M  339.94,  257.31  L  339.94,  292.72 " style="stroke:#000000;stroke-width: 5.10 ;&st6;" /><path d=" M  339.94,  257.31  L  339.94,  292.72 " style="stroke:#FFFFFF;stroke-width: 4.53 ;&st6;" /></a><a ewd:lineID="14" style="cursor:pointer;"><path d=" M  339.94,  152.78  L  339.94,  205.18 " style="stroke:#000000;stroke-width: 5.10 ;&st6;" /><path d=" M  339.94,  152.78  L  339.94,  205.18 " style="stroke:#FFFFFF;stroke-width: 4.53 ;&st6;" /></a><a ewd:lineID="15" style="cursor:pointer;"><path d=" M  339.94,   95.27  L  339.94,  137.76 " style="stroke:#000000;stroke-width: 5.10 ;&st6;" /><path d=" M  339.94,   95.27  L  339.94,  137.76 " style="stroke:#FFFFFF;stroke-width: 4.53 ;&st6;" /></a><a ewd:lineID="16" style="cursor:pointer;"><path d=" M  382.44,  307.73  L  382.44,  350.23 " style="stroke:#999999;stroke-width: 5.10 ;&st6;" /></a><a ewd:lineID="17" style="cursor:pointer;"><path d=" M  382.44,  257.31  L  382.44,  293.00 " style="stroke:#999999;stroke-width: 5.10 ;&st6;" /></a><a ewd:lineID="18" style="cursor:pointer;"><path d=" M  382.44,  152.49  L  382.44,  205.18 " style="stroke:#99D9E8;stroke-width: 5.10 ;&st6;" /></a><a ewd:lineID="19" style="cursor:pointer;"><path d=" M  382.44,   95.27  L  382.44,  137.76 " style="stroke:#99D9E8;stroke-width: 5.10 ;&st6;" /></a><a ewd:lineID="20" style="cursor:pointer;"><path d=" M  637.39,  613.68  L  637.39,  681.67 " style="stroke:#992903;stroke-width: 5.10 ;&st6;" /></a><a ewd:lineID="21" style="cursor:pointer;"><path d=" M  654.39,  520.20  L  637.39,  520.20  L  637.39,  596.69 " style="stroke:#992903;stroke-width: 5.10 ;&st6;" /></a><a ewd:lineID="22" style="cursor:pointer;"><path d=" M  688.38,  503.77  L  688.38,  647.68  L  722.38,  647.68  L  722.38,  622.18 " style="stroke:#000000;stroke-width: 5.10 ;&st6;" /></a><a ewd:lineID="23" style="cursor:pointer;"><path d=" M  688.38,  401.22  L  688.38,  451.64 " style="stroke:#000000;stroke-width: 5.10 ;&st6;" /><path d=" M  688.38,  401.22  L  688.38,  451.64 " style="stroke:#FFFFFF;stroke-width: 4.53 ;&st6;" /></a><a ewd:lineID="24" style="cursor:pointer;"><path d=" M  688.38,  223.88  L  688.38,  350.23 " style="stroke:#000000;stroke-width: 5.10 ;&st6;" /><path d=" M  688.38,  223.88  L  688.38,  350.23 " style="stroke:#FFFFFF;stroke-width: 4.53 ;&st6;" /></a><a ewd:lineID="25" style="cursor:pointer;"><path d=" M  722.38,  588.19  L  722.38,  503.77 " style="stroke:#000000;stroke-width: 5.10 ;&st6;" /><path d=" M  722.38,  588.19  L  722.38,  503.77 " style="stroke:#FFFFFF;stroke-width: 4.53 ;&st6;" /></a><a ewd:lineID="26" style="cursor:pointer;"><path d=" M  722.38,  401.22  L  722.38,  451.64 " style="stroke:#56077D;stroke-width: 5.10 ;&st6;" /></a><a ewd:lineID="27" style="cursor:pointer;"><path d=" M  722.38,  223.88  L  722.38,  350.23 " style="stroke:#008837;stroke-width: 5.10 ;&st6;" /></a><a ewd:lineID="28" style="cursor:pointer;"><path d=" M  790.37,  436.35  L  790.37,  681.67 " style="stroke:#000000;stroke-width: 5.10 ;&st6;" /><path d=" M  790.37,  436.35  L  790.37,  681.67 " style="stroke:#FFFFFF;stroke-width: 4.53 ;&st6;" /><path d=" M  790.37,  436.35  L  790.37,  681.67 " style="stroke:#000000;stroke-width: 1.13 ;&st6;" /></a><a ewd:lineID="29" style="cursor:pointer;"><path d=" M  790.37,  307.73  L  790.37,  366.09 " style="stroke:#00A0C6;stroke-width: 5.10 ;&st6;" /><path d=" M  790.37,  307.73  L  790.37,  366.09 " style="stroke:#FFFFFF;stroke-width: 2.27 ;&st6;" /><path d=" M  790.37,  307.73  L  790.37,  366.09 " style="stroke:#FFE600;stroke-width: 1.13 ;&st6;" /></a><a ewd:lineID="30" style="cursor:pointer;"><path d=" M  790.37,  293.00  L  790.37,  223.88 " style="stroke:#00A0C6;stroke-width: 5.10 ;&st6;" /></a><a ewd:lineID="31" style="cursor:pointer;"><path d=" M  866.86,  223.88  L  866.86,  315.10 " style="stroke:#000000;stroke-width: 5.10 ;&st6;" /></a><a ewd:lineID="32" style="cursor:pointer;"><path d=" M  892.35,  528.70  L  892.35,  656.18 " style="stroke:#000000;stroke-width: 5.10 ;&st6;" /><path d=" M  892.35,  528.70  L  892.35,  656.18 " style="stroke:#FFFFFF;stroke-width: 4.53 ;&st6;" /><path d=" M  892.35,  528.70  L  892.35,  656.18 " style="stroke:#000000;stroke-width: 1.13 ;&st6;" /></a><a ewd:lineID="33" style="cursor:pointer;"><path d=" M  892.35,  436.35  L  892.35,  477.71 " style="stroke:#000000;stroke-width: 5.10 ;&st6;" /><path d=" M  892.35,  436.35  L  892.35,  477.71 " style="stroke:#FFFFFF;stroke-width: 4.53 ;&st6;" /><path d=" M  892.35,  436.35  L  892.35,  477.71 " style="stroke:#000000;stroke-width: 1.13 ;&st6;" /></a><a ewd:lineID="34" style="cursor:pointer;"><path d=" M  917.85,  315.10  L  917.85,  282.24 " style="stroke:#000000;stroke-width: 5.10 ;&st6;" /><path d=" M  917.85,  315.10  L  917.85,  282.24 " style="stroke:#FFFFFF;stroke-width: 4.53 ;&st6;" /></a><a ewd:lineID="35" style="cursor:pointer;"><path d=" M 1691.22,  452.21  L 1691.22,  605.18  L 1113.31,  605.18  L 1113.31,   95.27 " style="stroke:#000000;stroke-width: 5.10 ;&st6;" /><path d=" M 1691.22,  452.21  L 1691.22,  605.18  L 1113.31,  605.18  L 1113.31,   95.27 " style="stroke:#FFFFFF;stroke-width: 4.53 ;&st6;" /></a><a ewd:lineID="36" style="cursor:pointer;"><path d=" M 1648.72,  452.21  L 1648.72,  579.69  L 1155.81,  579.69  L 1155.81,   95.27 " style="stroke:#999999;stroke-width: 5.10 ;&st6;" /></a><a ewd:lineID="37" style="cursor:pointer;"><path d=" M 1410.76,  375.72  L 1410.76,  460.71  L 1198.30,  460.71  L 1198.30,   95.27 " style="stroke:#000000;stroke-width: 5.10 ;&st6;" /><path d=" M 1410.76,  375.72  L 1410.76,  460.71  L 1198.30,  460.71  L 1198.30,   95.27 " style="stroke:#FFFFFF;stroke-width: 4.53 ;&st6;" /></a><a ewd:lineID="38" style="cursor:pointer;"><path d=" M 1376.77,  375.72  L 1376.77,  443.71  L 1240.79,  443.71  L 1240.79,   95.27 " style="stroke:#008837;stroke-width: 5.10 ;&st6;" /></a><a ewd:lineID="39" style="cursor:pointer;"><path d=" M 1376.77,  299.24  L 1376.77,  333.23 " style="stroke:#00A0C6;stroke-width: 5.10 ;&st6;" /></a><a ewd:lineID="40" style="cursor:pointer;"><path d=" M 1376.77,  205.75  L 1376.77,  248.24 " style="stroke:#00A0C6;stroke-width: 5.10 ;&st6;" /></a><a ewd:lineID="41" style="cursor:pointer;"><path d=" M 1376.77,  103.77  L 1376.77,  154.76 " style="stroke:#00A0C6;stroke-width: 5.10 ;&st6;" /></a><a ewd:lineID="42" style="cursor:pointer;"><path d=" M 1453.26,  477.71  L 1453.26,  656.18 " style="stroke:#000000;stroke-width: 5.10 ;&st6;" /><path d=" M 1453.26,  477.71  L 1453.26,  656.18 " style="stroke:#FFFFFF;stroke-width: 4.53 ;&st6;" /><path d=" M 1453.26,  477.71  L 1453.26,  656.18 " style="stroke:#000000;stroke-width: 1.13 ;&st6;" /></a><a ewd:lineID="43" style="cursor:pointer;"><path d=" M 1453.26,  375.72  L 1453.26,  426.71 " style="stroke:#000000;stroke-width: 5.10 ;&st6;" /><path d=" M 1453.26,  375.72  L 1453.26,  426.71 " style="stroke:#FFFFFF;stroke-width: 4.53 ;&st6;" /><path d=" M 1453.26,  375.72  L 1453.26,  426.71 " style="stroke:#000000;stroke-width: 1.13 ;&st6;" /></a><a ewd:lineID="44" style="cursor:pointer;"><path d=" M 1453.26,  205.75  L 1453.26,  333.23 " style="stroke:#008837;stroke-width: 5.10 ;&st6;" /></a><a ewd:lineID="45" style="cursor:pointer;"><path d=" M 1453.26,  103.77  L 1453.26,  154.76 " style="stroke:#008837;stroke-width: 5.10 ;&st6;" /></a><a ewd:lineID="46" style="cursor:pointer;"><path d=" M 1648.72,  437.48  L 1648.72,  384.22 " style="stroke:#999999;stroke-width: 5.10 ;&st6;" /></a><a ewd:lineID="47" style="cursor:pointer;"><path d=" M 1648.72,  333.23  L 1648.72,  180.82 " style="stroke:#000000;stroke-width: 5.10 ;&st6;" /></a><a ewd:lineID="48" style="cursor:pointer;"><path d=" M 1691.22,  437.20  L 1691.22,  384.22 " style="stroke:#000000;stroke-width: 5.10 ;&st6;" /><path d=" M 1691.22,  437.20  L 1691.22,  384.22 " style="stroke:#FFFFFF;stroke-width: 4.53 ;&st6;" /></a><a ewd:lineID="49" style="cursor:pointer;"><path d=" M 1691.22,  333.23  L 1691.22,  180.82 " style="stroke:#000000;stroke-width: 5.10 ;&st6;" /><path d=" M 1691.22,  333.23  L 1691.22,  180.82 " style="stroke:#FFFFFF;stroke-width: 4.53 ;&st6;" /></a><a ewd:lineID="50" style="cursor:pointer;"><path d=" M 2226.63,  443.71  L 2226.63,  545.69  L 1742.21,  545.69  L 1742.21,  452.21 " style="stroke:#00A0C6;stroke-width: 5.10 ;&st6;" /></a><a ewd:lineID="51" style="cursor:pointer;"><path d=" M 1742.21,  437.48  L 1742.21,  384.22 " style="stroke:#00A0C6;stroke-width: 5.10 ;&st6;" /></a><a ewd:lineID="52" style="cursor:pointer;"><path d=" M 1750.71,  180.82  L 1750.71,  256.74 " style="stroke:#FF0000;stroke-width: 5.10 ;&st6;" /></a><a ewd:lineID="53" style="cursor:pointer;"><path d=" M 2192.63,  443.71  L 2192.63,  520.20  L 1784.70,  520.20  L 1784.70,  452.21 " style="stroke:#000000;stroke-width: 5.10 ;&st6;" /><path d=" M 2192.63,  443.71  L 2192.63,  520.20  L 1784.70,  520.20  L 1784.70,  452.21 " style="stroke:#FFFFFF;stroke-width: 4.53 ;&st6;" /></a><a ewd:lineID="54" style="cursor:pointer;"><path d=" M 1784.70,  437.20  L 1784.70,  384.22 " style="stroke:#000000;stroke-width: 5.10 ;&st6;" /><path d=" M 1784.70,  437.20  L 1784.70,  384.22 " style="stroke:#FFFFFF;stroke-width: 4.53 ;&st6;" /></a><a ewd:lineID="55" style="cursor:pointer;"><path d=" M 1784.70,  180.82  L 1784.70,  256.74 " style="stroke:#008837;stroke-width: 5.10 ;&st6;" /></a><a ewd:lineID="56" style="cursor:pointer;"><path d=" M 1818.70,  180.82  L 1818.70,  256.74 " style="stroke:#000000;stroke-width: 5.10 ;&st6;" /></a><a ewd:lineID="57" style="cursor:pointer;"><path d=" M 1852.69,  180.82  L 1852.69,  256.74 " style="stroke:#000000;stroke-width: 5.10 ;&st6;" /><path d=" M 1852.69,  180.82  L 1852.69,  256.74 " style="stroke:#FFFFFF;stroke-width: 4.53 ;&st6;" /></a><a ewd:lineID="58" style="cursor:pointer;"><path d=" M 1886.68,  180.82  L 1886.68,  256.74 " style="stroke:#FF0000;stroke-width: 5.10 ;&st6;" /></a><a ewd:lineID="59" style="cursor:pointer;"><path d=" M 1920.68,  180.82  L 1920.68,  256.74 " style="stroke:#008837;stroke-width: 5.10 ;&st6;" /></a><a ewd:lineID="60" style="cursor:pointer;"><path d=" M 1954.67,  180.82  L 1954.67,  256.74 " style="stroke:#000000;stroke-width: 5.10 ;&st6;" /></a><a ewd:lineID="61" style="cursor:pointer;"><path d=" M 1988.67,  180.82  L 1988.67,  256.74 " style="stroke:#000000;stroke-width: 5.10 ;&st6;" /><path d=" M 1988.67,  180.82  L 1988.67,  256.74 " style="stroke:#FFFFFF;stroke-width: 4.53 ;&st6;" /></a><a ewd:lineID="62" style="cursor:pointer;"><path d=" M 2192.63,  197.25  L 2192.63,  222.75  L 2226.63,  222.75  L 2226.63,  120.77  L 2269.12,  120.77  L 2269.12,  146.26 " style="stroke:#00A0C6;stroke-width: 5.10 ;&st6;" /></a><a ewd:lineID="63" style="cursor:pointer;"><path d=" M 2192.63,  146.26  L 2192.63,  103.77 " style="stroke:#00A0C6;stroke-width: 5.10 ;&st6;" /></a><a ewd:lineID="64" style="cursor:pointer;"><path d=" M 2269.12,  197.25  L 2269.12,  248.24 " style="stroke:#00A0C6;stroke-width: 5.10 ;&st6;" /></a><a ewd:lineID="65" style="cursor:pointer;"><path d=" M 2311.61,  562.69  L 2311.61,  656.18 " style="stroke:#000000;stroke-width: 5.10 ;&st6;" /><path d=" M 2311.61,  562.69  L 2311.61,  656.18 " style="stroke:#FFFFFF;stroke-width: 4.53 ;&st6;" /><path d=" M 2311.61,  562.69  L 2311.61,  656.18 " style="stroke:#000000;stroke-width: 1.13 ;&st6;" /></a><a ewd:lineID="66" style="cursor:pointer;"><path d=" M 2311.61,  443.71  L 2311.61,  511.70 " style="stroke:#000000;stroke-width: 5.10 ;&st6;" /><path d=" M 2311.61,  443.71  L 2311.61,  511.70 " style="stroke:#FFFFFF;stroke-width: 4.53 ;&st6;" /><path d=" M 2311.61,  443.71  L 2311.61,  511.70 " style="stroke:#000000;stroke-width: 1.13 ;&st6;" /></a><a ewd:lineID="67" style="cursor:pointer;"><path d=" M 2311.61,  248.24  L 2311.61,  103.77 " style="stroke:#FF0000;stroke-width: 5.10 ;&st6;" /></a><a ewd:lineID="68" style="cursor:pointer;"><path d=" M 2396.60,  443.71  L 2396.60,  502.63 " style="stroke:#000000;stroke-width: 5.10 ;&st6;" /><path d=" M 2396.60,  443.71  L 2396.60,  502.63 " style="stroke:#FFFFFF;stroke-width: 4.53 ;&st6;" /><path d=" M 2396.60,  443.71  L 2396.60,  502.63 " style="stroke:#000000;stroke-width: 1.13 ;&st6;" /></a><a ewd:lineID="69" style="cursor:pointer;"><path d=" M 2430.59,  502.63  L 2430.59,  486.20  L 2464.59,  486.20  L 2464.59,  502.63 " style="stroke:#000000;stroke-width: 5.10 ;&st6;" /><path d=" M 2430.59,  502.63  L 2430.59,  486.20  L 2464.59,  486.20  L 2464.59,  502.63 " style="stroke:#FFFFFF;stroke-width: 4.53 ;&st6;" /><path d=" M 2430.59,  502.63  L 2430.59,  486.20  L 2464.59,  486.20  L 2464.59,  502.63 " style="stroke:#000000;stroke-width: 1.13 ;&st6;" /></a><a ewd:lineID="70" style="cursor:pointer;"><path d=" M 2464.59,  554.76  L 2464.59,  656.18 " style="stroke:#000000;stroke-width: 5.10 ;&st6;" /><path d=" M 2464.59,  554.76  L 2464.59,  656.18 " style="stroke:#FFFFFF;stroke-width: 4.53 ;&st6;" /><path d=" M 2464.59,  554.76  L 2464.59,  656.18 " style="stroke:#000000;stroke-width: 1.13 ;&st6;" /></a><a ewd:code="BF1" ewd:figID="42" ewd:figtype="w2w" ewd:pinNo="3" style="cursor:pointer;"><path d=" M  127.48,  460.71  L  110.48,  460.71  L  110.48,  469.21  L  127.48,  469.21  L  127.48,  460.71 " style="&st2;" /><text style="&st8;" transform="matrix(&st16;  112.62  467.45 )"><tspan style="&st18;" x="0" y="0">BF1</tspan></text></a><a ewd:code="BF1" ewd:figID="43" ewd:figtype="w2w" ewd:pinNo="4" style="cursor:pointer;"><path d=" M  178.47,  460.71  L  161.47,  460.71  L  161.47,  469.21  L  178.47,  469.21  L  178.47,  460.71 " style="&st2;" /><text style="&st8;" transform="matrix(&st16;  163.61  467.45 )"><tspan style="&st18;" x="0" y="0">BF1</tspan></text></a><a ewd:code="BF1" ewd:figID="44" ewd:figtype="w2w" ewd:pinNo="11" style="cursor:pointer;"><path d=" M  798.87,  299.24  L  781.87,  299.24  L  781.87,  307.73  L  798.87,  307.73  L  798.87,  299.24 " style="&st2;" /><text style="&st8;" transform="matrix(&st16;  784.01  305.98 )"><tspan style="&st18;" x="0" y="0">BF1</tspan></text></a><a ewd:code="FG1" ewd:figID="45" ewd:figtype="w2w" ewd:pinNo="30" style="cursor:pointer;"><path d=" M  390.93,  299.24  L  373.94,  299.24  L  373.94,  307.73  L  390.93,  307.73  L  390.93,  299.24 " style="&st2;" /><text style="&st8;" transform="matrix(&st16;  375.63  305.98 )"><tspan style="&st18;" x="0" y="0">FG1</tspan></text></a><a ewd:code="FG1" ewd:figID="46" ewd:figtype="w2w" ewd:pinNo="31" style="cursor:pointer;"><path d=" M  348.44,  299.24  L  331.44,  299.24  L  331.44,  307.73  L  348.44,  307.73  L  348.44,  299.24 " style="&st2;" /><text style="&st8;" transform="matrix(&st16;  333.14  305.98 )"><tspan style="&st18;" x="0" y="0">FG1</tspan></text></a><a ewd:code="FA2" ewd:figID="47" ewd:figtype="w2w" ewd:pinNo="1" style="cursor:pointer;"><path d=" M 1657.22,  443.71  L 1640.23,  443.71  L 1640.23,  452.21  L 1657.22,  452.21  L 1657.22,  443.71 " style="&st2;" /><text style="&st8;" transform="matrix(&st16;  1641.96  450.45 )"><tspan style="&st18;" x="0" y="0">FA2</tspan></text></a><a ewd:code="FA2" ewd:figID="48" ewd:figtype="w2w" ewd:pinNo="2" style="cursor:pointer;"><path d=" M 1699.72,  443.71  L 1682.72,  443.71  L 1682.72,  452.21  L 1699.72,  452.21  L 1699.72,  443.71 " style="&st2;" /><text style="&st8;" transform="matrix(&st16;  1684.45  450.45 )"><tspan style="&st18;" x="0" y="0">FA2</tspan></text></a><a ewd:code="FG1" ewd:figID="49" ewd:figtype="w2w" ewd:pinNo="55" style="cursor:pointer;"><path d=" M  348.44,  137.76  L  331.44,  137.76  L  331.44,  146.26  L  348.44,  146.26  L  348.44,  137.76 " style="&st2;" /><text style="&st8;" transform="matrix(&st16;  333.14  144.51 )"><tspan style="&st18;" x="0" y="0">FG1</tspan></text></a><a ewd:code="FA2" ewd:figID="50" ewd:figtype="w2w" ewd:pinNo="30" style="cursor:pointer;"><path d=" M 1793.20,  443.71  L 1776.20,  443.71  L 1776.20,  452.21  L 1793.20,  452.21  L 1793.20,  443.71 " style="&st2;" /><text style="&st8;" transform="matrix(&st16;  1777.93  450.45 )"><tspan style="&st18;" x="0" y="0">FA2</tspan></text></a><a ewd:code="FG1" ewd:figID="51" ewd:figtype="w2w" ewd:pinNo="54" style="cursor:pointer;"><path d=" M  390.93,  137.76  L  373.94,  137.76  L  373.94,  146.26  L  390.93,  146.26  L  390.93,  137.76 " style="&st2;" /><text style="&st8;" transform="matrix(&st16;  375.63  144.51 )"><tspan style="&st18;" x="0" y="0">FG1</tspan></text></a><a ewd:code="FA2" ewd:figID="52" ewd:figtype="w2w" ewd:pinNo="29" style="cursor:pointer;"><path d=" M 1750.71,  443.71  L 1733.71,  443.71  L 1733.71,  452.21  L 1750.71,  452.21  L 1750.71,  443.71 " style="&st2;" /><text style="&st8;" transform="matrix(&st16;  1735.44  450.45 )"><tspan style="&st18;" x="0" y="0">FA2</tspan></text></a><a ewd:code="F2" ewd:figID="53" ewd:figtype="gp" style="cursor:pointer;"><path d=" M  881.73,  681.67  L  902.97,  681.67  L  892.35,  697.25  L  881.73,  681.67 " style="&st2;" /><text style="&st8;" transform="matrix(&st16;  888.04  689.83 )"><tspan style="&st18;" x="0" y="0">F2</tspan></text></a><a ewd:code="F2" ewd:figID="54" ewd:figtype="gp" style="cursor:pointer;"><path d=" M 2300.99,  681.67  L 2322.24,  681.67  L 2311.61,  697.25  L 2300.99,  681.67 " style="&st2;" /><text style="&st8;" transform="matrix(&st16;  2307.3  689.83 )"><tspan style="&st18;" x="0" y="0">F2</tspan></text></a><a ewd:code="B1" ewd:figID="55" ewd:figtype="gp" style="cursor:pointer;"><path d=" M  626.77,  681.67  L  648.02,  681.67  L  637.39,  697.25  L  626.77,  681.67 " style="&st2;" /><text style="&st8;" transform="matrix(&st16;  633.27  689.83 )"><tspan style="&st18;" x="0" y="0">B1</tspan></text></a><a ewd:code="F2" ewd:figID="56" ewd:figtype="gp" style="cursor:pointer;"><path d=" M 1442.63,  681.67  L 1463.88,  681.67  L 1453.26,  697.25  L 1442.63,  681.67 " style="&st2;" /><text style="&st8;" transform="matrix(&st16;  1448.94  689.83 )"><tspan style="&st18;" x="0" y="0">F2</tspan></text></a><a ewd:code="B2" ewd:figID="57" ewd:figtype="gp" style="cursor:pointer;"><path d=" M  779.74,  681.67  L  800.99,  681.67  L  790.37,  697.25  L  779.74,  681.67 " style="&st2;" /><text style="&st8;" transform="matrix(&st16;  785.83  689.83 )"><tspan style="&st18;" x="0" y="0">B2</tspan></text></a><a ewd:code="F1" ewd:figID="58" ewd:figtype="gp" style="cursor:pointer;"><path d=" M 2453.96,  681.67  L 2475.21,  681.67  L 2464.59,  697.25  L 2453.96,  681.67 " style="&st2;" /><text style="&st8;" transform="matrix(&st16;  2460.68  689.83 )"><tspan style="&st18;" x="0" y="0">F1</tspan></text></a><a ewd:code="10897" ewd:figID="59" ewd:figtype="sp" style="cursor:pointer;"><path d=" M  658.64,  511.70  L  667.14,  511.70  L  671.39,  515.95  L  671.39,  524.45  L  667.14,  528.70  L  658.64,  528.70  L  654.39,  524.45  L  654.39,  515.95  L  658.64,  511.70 " style="&st2;" /></a></g></svg>