﻿<?xml version="1.0" encoding="UTF-8"?>
<!DOCTYPE svg PUBLIC "-//W3C//DTD SVG 1.0//EN" "http://www.w3.org/TR/2001/REC-SVG-20010904/DTD/svg10.dtd"[
	<!ENTITY ns_flows "http://ns.adobe.com/Flows/1.0/">
	<!ENTITY ns_svg "http://www.w3.org/2000/svg">
	<!ENTITY ns_xlink "http://www.w3.org/1999/xlink">
	<!ENTITY st0 "font-size:7px;font-family:'MS-PGothic';adobe-font-script:japanese;">
	<!ENTITY st1 "font-size:6px;font-family:'ArialMT';">
	<!-- White fill  -->
	<!ENTITY st2 "fill:#FFFFFF;stroke:#000000; stroke-width:1.41;stroke-linecap:round;stroke-linejoin:round;">
	<!-- Yellow fill  -->
	<!ENTITY st3 "fill:#FFFFCC;stroke:#FFFFCC; stroke-width:0.1;stroke-linecap:round;stroke-linejoin:round;">
	<!-- Gray fill  -->
	<!ENTITY st4 "fill:#CCCCCC;stroke:#CCCCCC; stroke-width:0.1;stroke-linecap:round;stroke-linejoin:round;">
	<!-- Light-blue fill -->
	<!ENTITY st5 "fill:#CCECF4;stroke:#000000; stroke-width:1.133;stroke-linecap:round;stroke-linejoin:round;">
	<!ENTITY st6 "fill:none;stroke-linecap:butt; stroke-linejoin:round;">
	<!ENTITY st7 "fill:none;stroke:#000000;stroke-linecap:round;stroke-linejoin:round;">
	<!ENTITY st8 "enable-background:new    ;">
	<!-- Black fill -->
	<!ENTITY st9 "fill:#000000;stroke:#000000; stroke-linecap:round;stroke-linejoin:round;">
	<!-- SRS note   -->
	<!ENTITY st10 "font-size:9px;font-family:'ArialMT';">
	<!ENTITY st11 "font-size:9px;font-family:'Svg Symbol';">
	<!ENTITY st12 "font-size:6px;font-family:'Svg Symbol';">
	<!ENTITY st13 "fill:none;stroke:#ff0000;stroke-linecap:round;stroke-linejoin:round;">
	<!-- Yellow fill  -->
	<!ENTITY st14 "fill:#FFFF00;stroke:#FFFF00; stroke-width:0.1;stroke-linecap:round;stroke-linejoin:round;">
	<!ENTITY st15 "font-size:6px;font-family:'MS-PGothic';adobe-font-script:japanese;">
	<!ENTITY st16 "1.00 0.00 0.00 1.00">
	<!ENTITY st17 "0.00 -1.00 1.00 0.00">
	<!ENTITY st18 "font-size:6px;font-family:'Arial';">
	<!ENTITY st19 "font-size:9px;font-family:'Arial';">
	<!ENTITY st20 "font-size:6px;font-family:'MS-PGothic','MS PGothic';adobe-font-script:japanese;">
	<!ENTITY st21 "font-size:7px;font-family:'MS-PGothic','MS PGothic';adobe-font-script:japanese;">
	<!ATTLIST svg
		xmlns:ewd CDATA #FIXED "http://shcl.co.jp/ewd"
		xmlns:a CDATA #FIXED "http://ns.adobe.com/AdobeSVGViewerExtensions/3.0/"
		ewd:ver CDATA #IMPLIED
	>
	<!ATTLIST a
		ewd:lineID CDATA #IMPLIED
		ewd:groupID CDATA #IMPLIED
		ewd:figtype CDATA #IMPLIED
		ewd:code CDATA #IMPLIED
		ewd:figID CDATA #IMPLIED
		ewd:pinNo CDATA #IMPLIED
		ewd:comment CDATA #IMPLIED >
	<!ATTLIST g
		ewd:lineID CDATA #IMPLIED
		ewd:groupID CDATA #IMPLIED
		ewd:figtype CDATA #IMPLIED
		ewd:code CDATA #IMPLIED
		ewd:figID CDATA #IMPLIED
		ewd:pinNo CDATA #IMPLIED
		ewd:comment CDATA #IMPLIED >
	<!ATTLIST text
		ewd:textID CDATA #IMPLIED >
	<!ATTLIST title
		ewd:textID CDATA #IMPLIED >
]>
<!-- Generator: Shintec Hozumi YS   -->
<svg onload="call_execInitLoadProc_svg('system')" style="overflow:visible;  enable-background:new 0 0 505.744 710.000" viewBox="0 0 505.744 710.000" height="710.000" width="505.744" xml:space="preserve" ewd:ver="L2.1.2.7" xmlns="&ns_svg;" xmlns:a="http://ns.adobe.com/AdobeSVGViewerExtensions/3.0/" xmlns:ewd="http://shcl.co.jp/ewd" xmlns:xlink="&ns_xlink;">
	<script type="text/javascript" xlink:href="../../../../../system/js/ewd/fig/svgfig.js"/>
	<defs>
		<font horiz-adv-x="1229">
			<font-face font-family="Svg Symbol" units-per-em="2048" panose-1="5 5 1 2 1 7 6 2 5 7" ascent="2059" descent="450" alphabetic="0"/>
			<missing-glyph d="M 103,0 l 0,1280 1024,0 0,-1280 -1024,0 z m 32,32 l 960,0 0,1216 -960,0 0,-1216 z"/>
			<glyph unicode="&#xF057;" horiz-adv-x="1573" d="M 1517,0 l -567,0 24,279 q 141,59 207.5,168 66.5,109 66.5,306    0,272 -132.5,417.5 -132.5,145.5 -333.5,145.5 -194,0 -328,-147.5 -134,-147.5 -134,-401.5 0,-200 68.5,-319 68.5,-119     206.5,-169 l 25,-279 -564,0 0,279 35,0 q 3,-61 32,-83 45,-35 137,-35 l 270,0 0,70 q -210,61 -324.5,209 -114.5,148     -114.5,349 0,252 186.5,425 186.5,173 504.5,173 195,0 358.5,-73.5 163.5,-73.5 252,-214.5 88.5,-141 88.5,-310 0,-207     -121.5,-360.5 -121.5,-153.5 -317.5,-197.5 l -8,-70 275,0 q 92,0 128,28 36,28 42,90 l 38,0 0,-279 z"/>
		</font>
	</defs>
<g id="ewd_top">
	<a ewd:code="FUSE18" ewd:figID="1" ewd:figtype="rb" style="cursor:pointer;">
		<path d=" M  471.67,   78.27  L  471.67,   35.78  L  446.18,   35.78  L  446.18,   78.27  L  471.67,   78.27 " style="&st5;"/>
	</a>
	<a ewd:code="F64" ewd:figID="2" ewd:figtype="conn" style="cursor:pointer;">
		<path d=" M   42.49,  656.18  L  127.48,  656.18  L  127.48,  673.17  L   42.49,  673.17  L   42.49,  656.18 " style="&st5;"/>
		<title ewd:textID="2">Junction Connector</title>
	</a>
	<a ewd:code="F75" ewd:figID="3" ewd:figtype="conn" style="cursor:pointer;">
		<path d=" M   33.99,  299.24  L   33.99,  341.73  L  254.96,  341.73  L  254.96,  401.22  L  433.43,  401.22  L  433.43,  299.24  L   33.99,  299.24 " style="&st5;"/>
		<title ewd:textID="4">Shift Lock Control ECU Sub-Assembly</title>
	</a>
	<a ewd:code="z3" ewd:figID="4" ewd:figtype="conn" style="cursor:pointer;">
		<path d=" M  101.98,  401.22  L  101.98,  452.21  L  135.98,  452.21  L  135.98,  401.22  L  101.98,  401.22 " style="&st5;"/>
		<title ewd:textID="3">Key Inter Lock Solenoid</title>
	</a>
	<a ewd:code="A36" ewd:figID="5" ewd:figtype="conn" style="cursor:pointer;">
		<path d=" M  339.94,  137.76  L  339.94,  154.76  L  356.94,  154.76  L  356.94,  137.76  L  339.94,  137.76 " style="&st5;"/>
		<title ewd:textID="2">Junction Connector</title>
	</a>
	<a ewd:code="F64" ewd:figID="6" ewd:figtype="conn" style="cursor:pointer;">
		<path d=" M  450.42,  656.18  L  450.42,  673.17  L  467.42,  673.17  L  467.42,  656.18  L  450.42,  656.18 " style="&st5;"/>
		<title ewd:textID="2">Junction Connector</title>
	</a>
	<a ewd:code="A47" ewd:figID="7" ewd:figtype="conn" style="cursor:pointer;">
		<path d=" M  390.93,  214.25  L  475.92,  214.25  L  475.92,  171.76  L  390.93,  171.76  L  390.93,  214.25 " style="&st5;"/>
		<title ewd:textID="6">Stop Light Switch Assembly</title>
	</a>
	<a ewd:code="4" ewd:figID="8" ewd:figtype="jb" style="cursor:pointer;">
		<path d=" M  135.98,  146.26  L  135.98,  197.25  L  195.47,  197.25  L  195.47,  146.26  L  135.98,  146.26 " style="&st4;"/>
	</a>
	<a ewd:code="5" ewd:figID="9" ewd:figtype="jb" style="cursor:pointer;">
		<path d=" M  212.46,  146.26  L  212.46,  197.25  L  305.95,  197.25  L  305.95,  146.26  L  212.46,  146.26 " style="&st4;"/>
	</a>
	<a ewd:code="2" ewd:figID="10" ewd:figtype="jb" style="cursor:pointer;">
		<path d=" M   17.00,   35.78  L   17.00,  103.77  L  135.98,  103.77  L  135.98,   35.78  L   17.00,   35.78 " style="&st4;"/>
	</a>
	<a ewd:code="4" ewd:figID="11" ewd:figtype="jb" style="cursor:pointer;">
		<path d=" M  101.98,  554.19  L  101.98,  605.18  L  127.48,  605.18  L  127.48,  554.19  L  101.98,  554.19 " style="&st4;"/>
	</a>
	<a ewd:code="4" ewd:figID="12" ewd:figtype="jb" style="cursor:pointer;">
		<path d=" M  441.93,  562.69  L  467.42,  562.69  L  467.42,  511.70  L  441.93,  511.70  L  441.93,  562.69 " style="&st4;"/>
	</a>
	<a ewd:code="5" ewd:figID="13" ewd:figtype="jb" style="cursor:pointer;">
		<path d=" M   33.99,  554.19  L   33.99,  605.18  L   59.49,  605.18  L   59.49,  554.19  L   33.99,  554.19 " style="&st4;"/>
	</a>
	<a ewd:code="4" ewd:figID="14" ewd:figtype="jb" style="cursor:pointer;">
		<path d=" M  212.46,  503.20  L  212.46,  554.19  L  237.96,  554.19  L  237.96,  503.20  L  212.46,  503.20 " style="&st4;"/>
	</a>
	<a ewd:code="5" ewd:figID="15" ewd:figtype="jb" style="cursor:pointer;">
		<path d=" M  212.46,  401.22  L  212.46,  452.21  L  237.96,  452.21  L  237.96,  401.22  L  212.46,  401.22 " style="&st4;"/>
	</a>
	<a ewd:code="FUSE44" ewd:figID="16" ewd:figtype="fuse" style="cursor:pointer;">
		<path d=" M   46.74,   78.27  L   46.74,   35.78  L   21.25,   35.78  L   21.25,   78.27  L   46.74,   78.27 " style="&st7;"/>
	</a>
	<a ewd:code="FUSE52" ewd:figID="17" ewd:figtype="fuse" style="cursor:pointer;">
		<path d=" M  106.23,   78.27  L  106.23,   35.78  L   80.74,   35.78  L   80.74,   78.27  L  106.23,   78.27 " style="&st7;"/>
	</a>
	<a ewd:code="FUSE18" ewd:figID="18" ewd:figtype="fuse" style="cursor:pointer;">
		<path d=" M  471.67,   78.27  L  471.67,   35.78  L  446.18,   35.78  L  446.18,   78.27  L  471.67,   78.27 " style="&st7;"/>
	</a>
	<a ewd:lineID="1" style="cursor:pointer;">
		<path d=" M   33.99,  103.77  L   33.99,  265.24  L  186.97,  265.24  L  186.97,  197.25 " style="stroke:#F668B2;stroke-width: 5.10 ;&st6;"/>
	</a>
	<a ewd:lineID="2" style="cursor:pointer;">
		<path d=" M   50.99,  656.18  L   50.99,  605.18 " style="stroke:#000000;stroke-width: 5.10 ;&st6;"/>
		<path d=" M   50.99,  656.18  L   50.99,  605.18 " style="stroke:#FFFFFF;stroke-width: 4.53 ;&st6;"/>
		<path d=" M   50.99,  656.18  L   50.99,  605.18 " style="stroke:#000000;stroke-width: 1.13 ;&st6;"/>
	</a>
	<a ewd:lineID="3" style="cursor:pointer;">
		<path d=" M   50.99,  554.19  L   50.99,  341.73 " style="stroke:#000000;stroke-width: 5.10 ;&st6;"/>
		<path d=" M   50.99,  554.19  L   50.99,  341.73 " style="stroke:#FFFFFF;stroke-width: 4.53 ;&st6;"/>
		<path d=" M   50.99,  554.19  L   50.99,  341.73 " style="stroke:#000000;stroke-width: 1.13 ;&st6;"/>
	</a>
	<a ewd:lineID="4" style="cursor:pointer;">
		<path d=" M   93.48,  103.77  L   93.48,  231.25  L  152.97,  231.25  L  152.97,  197.25 " style="stroke:#008837;stroke-width: 5.10 ;&st6;"/>
	</a>
	<a ewd:lineID="5" style="cursor:pointer;">
		<path d=" M  118.98,  605.18  L  118.98,  656.18 " style="stroke:#000000;stroke-width: 5.10 ;&st6;"/>
		<path d=" M  118.98,  605.18  L  118.98,  656.18 " style="stroke:#FFFFFF;stroke-width: 4.53 ;&st6;"/>
		<path d=" M  118.98,  605.18  L  118.98,  656.18 " style="stroke:#000000;stroke-width: 1.13 ;&st6;"/>
	</a>
	<a ewd:lineID="6" style="cursor:pointer;">
		<path d=" M  118.98,  511.70  L  118.98,  554.19 " style="stroke:#000000;stroke-width: 5.10 ;&st6;"/>
		<path d=" M  118.98,  511.70  L  118.98,  554.19 " style="stroke:#FFFFFF;stroke-width: 4.53 ;&st6;"/>
		<path d=" M  118.98,  511.70  L  118.98,  554.19 " style="stroke:#000000;stroke-width: 1.13 ;&st6;"/>
	</a>
	<a ewd:lineID="7" style="cursor:pointer;">
		<path d=" M  118.98,  452.21  L  118.98,  496.69 " style="stroke:#008837;stroke-width: 5.10 ;&st6;"/>
		<path d=" M  118.98,  452.21  L  118.98,  496.69 " style="stroke:#FFFFFF;stroke-width: 2.27 ;&st6;"/>
		<path d=" M  118.98,  452.21  L  118.98,  496.69 " style="stroke:#000000;stroke-width: 1.13 ;&st6;"/>
	</a>
	<a ewd:lineID="8" style="cursor:pointer;">
		<path d=" M  229.46,  611.42  L  229.46,  630.68  L  178.47,  630.68  L  178.47,  358.73  L  118.98,  358.73  L  118.98,  401.22 " style="stroke:#008837;stroke-width: 5.10 ;&st6;"/>
	</a>
	<a ewd:lineID="9" style="cursor:pointer;">
		<path d=" M  263.46,  146.26  L  263.46,   61.28  L  152.97,   61.28  L  152.97,  146.26 " style="stroke:#008837;stroke-width: 5.10 ;&st6;"/>
	</a>
	<a ewd:lineID="10" style="cursor:pointer;">
		<path d=" M  186.97,  146.26  L  186.97,   78.27  L  229.46,   78.27  L  229.46,  146.26 " style="stroke:#F668B2;stroke-width: 5.10 ;&st6;"/>
	</a>
	<a ewd:lineID="11" style="cursor:pointer;">
		<path d=" M  229.46,  554.19  L  229.46,  596.69 " style="stroke:#000000;stroke-width: 5.10 ;&st6;"/>
	</a>
	<a ewd:lineID="12" style="cursor:pointer;">
		<path d=" M  229.46,  452.21  L  229.46,  503.20 " style="stroke:#000000;stroke-width: 5.10 ;&st6;"/>
	</a>
	<a ewd:lineID="13" style="cursor:pointer;">
		<path d=" M  229.46,  401.22  L  229.46,  341.73 " style="stroke:#000000;stroke-width: 5.10 ;&st6;"/>
	</a>
	<a ewd:lineID="14" style="cursor:pointer;">
		<path d=" M  229.46,  197.25  L  229.46,  299.24 " style="stroke:#F668B2;stroke-width: 5.10 ;&st6;"/>
	</a>
	<a ewd:lineID="15" style="cursor:pointer;">
		<path d=" M  263.46,  299.24  L  263.46,  197.25 " style="stroke:#008837;stroke-width: 5.10 ;&st6;"/>
	</a>
	<a ewd:lineID="16" style="cursor:pointer;">
		<path d=" M  297.45,  197.25  L  297.45,  299.24 " style="stroke:#56077D;stroke-width: 5.10 ;&st6;"/>
	</a>
	<a ewd:lineID="17" style="cursor:pointer;">
		<path d=" M  297.45,  146.26  L  297.45,  112.27 " style="stroke:#56077D;stroke-width: 5.10 ;&st6;"/>
	</a>
	<a ewd:lineID="18" style="cursor:pointer;">
		<path d=" M  297.45,   97.25  L  297.45,   61.28  L  348.44,   61.28  L  348.44,  137.76 " style="stroke:#56077D;stroke-width: 5.10 ;&st6;"/>
		<path d=" M  297.45,   97.25  L  297.45,   61.28  L  348.44,   61.28  L  348.44,  137.76 " style="stroke:#FFFFFF;stroke-width: 2.27 ;&st6;"/>
		<path d=" M  297.45,   97.25  L  297.45,   61.28  L  348.44,   61.28  L  348.44,  137.76 " style="stroke:#008837;stroke-width: 1.13 ;&st6;"/>
	</a>
	<a ewd:lineID="19" style="cursor:pointer;">
		<path d=" M  407.93,  214.25  L  407.93,  265.24  L  348.44,  265.24  L  348.44,  154.76 " style="stroke:#56077D;stroke-width: 5.10 ;&st6;"/>
		<path d=" M  407.93,  214.25  L  407.93,  265.24  L  348.44,  265.24  L  348.44,  154.76 " style="stroke:#FFFFFF;stroke-width: 2.27 ;&st6;"/>
		<path d=" M  407.93,  214.25  L  407.93,  265.24  L  348.44,  265.24  L  348.44,  154.76 " style="stroke:#008837;stroke-width: 1.13 ;&st6;"/>
	</a>
	<a ewd:lineID="20" style="cursor:pointer;">
		<path d=" M  458.92,  656.18  L  458.92,  562.69 " style="stroke:#000000;stroke-width: 5.10 ;&st6;"/>
		<path d=" M  458.92,  656.18  L  458.92,  562.69 " style="stroke:#FFFFFF;stroke-width: 4.53 ;&st6;"/>
		<path d=" M  458.92,  656.18  L  458.92,  562.69 " style="stroke:#000000;stroke-width: 1.13 ;&st6;"/>
	</a>
	<a ewd:lineID="21" style="cursor:pointer;">
		<path d=" M  458.92,  511.70  L  458.92,  409.72 " style="stroke:#000000;stroke-width: 5.10 ;&st6;"/>
		<path d=" M  458.92,  511.70  L  458.92,  409.72 " style="stroke:#FFFFFF;stroke-width: 4.53 ;&st6;"/>
		<path d=" M  458.92,  511.70  L  458.92,  409.72 " style="stroke:#000000;stroke-width: 1.13 ;&st6;"/>
	</a>
	<a ewd:lineID="22" style="cursor:pointer;">
		<path d=" M  458.92,  394.99  L  458.92,  214.25 " style="stroke:#000000;stroke-width: 5.10 ;&st6;"/>
		<path d=" M  458.92,  394.99  L  458.92,  214.25 " style="stroke:#FFFFFF;stroke-width: 4.53 ;&st6;"/>
		<path d=" M  458.92,  394.99  L  458.92,  214.25 " style="stroke:#000000;stroke-width: 1.13 ;&st6;"/>
	</a>
	<a ewd:lineID="23" style="cursor:pointer;">
		<path d=" M  458.92,  103.77  L  458.92,  171.76 " style="stroke:#FF0000;stroke-width: 5.10 ;&st6;"/>
	</a>
	<path d=" M  118.98,  401.22  L  118.98,  418.22 " style="stroke-width: 0.85 ;&st7; "/>
	<path d=" M  118.98,  435.21  L  118.98,  452.21 " style="stroke-width: 0.85 ;&st7; "/>
	<path d=" M  121.10,  554.19  L  116.86,  554.19 " style="stroke-width: 1.42 ;&st7; "/>
	<path d=" M  121.10,  562.69  L  116.86,  562.69 " style="stroke-width: 1.42 ;&st7; "/>
	<path d=" M  121.10,  596.69  L  116.86,  596.69 " style="stroke-width: 1.42 ;&st7; "/>
	<path d=" M  121.10,  605.18  L  116.86,  605.18 " style="stroke-width: 1.42 ;&st7; "/>
	<path d=" M   53.12,  554.19  L   48.87,  554.19 " style="stroke-width: 1.42 ;&st7; "/>
	<path d=" M   53.12,  562.69  L   48.87,  562.69 " style="stroke-width: 1.42 ;&st7; "/>
	<path d=" M   53.12,  596.69  L   48.87,  596.69 " style="stroke-width: 1.42 ;&st7; "/>
	<path d=" M   53.12,  605.18  L   48.87,  605.18 " style="stroke-width: 1.42 ;&st7; "/>
	<path d=" M   33.99,   69.77  L   33.99,   78.27 " style="stroke-width: 0.85 ;&st7; "/>
	<path d=" M   36.12,   95.27  L   31.87,   95.27 " style="stroke-width: 1.42 ;&st7; "/>
	<path d=" M   36.12,  103.77  L   31.87,  103.77 " style="stroke-width: 1.42 ;&st7; "/>
	<path d=" M  189.09,  188.75  L  184.84,  188.75 " style="stroke-width: 1.42 ;&st7; "/>
	<path d=" M  189.09,  197.25  L  184.84,  197.25 " style="stroke-width: 1.42 ;&st7; "/>
	<path d=" M  189.09,  146.26  L  184.84,  146.26 " style="stroke-width: 1.42 ;&st7; "/>
	<path d=" M  189.09,  154.76  L  184.84,  154.76 " style="stroke-width: 1.42 ;&st7; "/>
	<path d=" M  231.59,  146.26  L  227.34,  146.26 " style="stroke-width: 1.42 ;&st7; "/>
	<path d=" M  231.59,  154.76  L  227.34,  154.76 " style="stroke-width: 1.42 ;&st7; "/>
	<path d=" M  231.59,  188.75  L  227.34,  188.75 " style="stroke-width: 1.42 ;&st7; "/>
	<path d=" M  231.59,  197.25  L  227.34,  197.25 " style="stroke-width: 1.42 ;&st7; "/>
	<path d=" M   95.61,   95.27  L   91.36,   95.27 " style="stroke-width: 1.42 ;&st7; "/>
	<path d=" M   95.61,  103.77  L   91.36,  103.77 " style="stroke-width: 1.42 ;&st7; "/>
	<path d=" M  265.58,  188.75  L  261.33,  188.75 " style="stroke-width: 1.42 ;&st7; "/>
	<path d=" M  265.58,  197.25  L  261.33,  197.25 " style="stroke-width: 1.42 ;&st7; "/>
	<path d=" M  265.58,  146.26  L  261.33,  146.26 " style="stroke-width: 1.42 ;&st7; "/>
	<path d=" M  265.58,  154.76  L  261.33,  154.76 " style="stroke-width: 1.42 ;&st7; "/>
	<path d=" M   93.48,   69.77  L   93.48,   78.27 " style="stroke-width: 0.85 ;&st7; "/>
	<path d=" M  155.10,  188.75  L  150.85,  188.75 " style="stroke-width: 1.42 ;&st7; "/>
	<path d=" M  155.10,  197.25  L  150.85,  197.25 " style="stroke-width: 1.42 ;&st7; "/>
	<path d=" M  155.10,  146.26  L  150.85,  146.26 " style="stroke-width: 1.42 ;&st7; "/>
	<path d=" M  155.10,  154.76  L  150.85,  154.76 " style="stroke-width: 1.42 ;&st7; "/>
	<path d=" M  110.48,  503.20  L  118.98,  503.20 " style="stroke-width: 1.42 ;&st7; "/>
	<path d=" M  231.59,  401.22  L  227.34,  401.22 " style="stroke-width: 1.42 ;&st7; "/>
	<path d=" M  231.59,  409.72  L  227.34,  409.72 " style="stroke-width: 1.42 ;&st7; "/>
	<path d=" M  231.59,  443.71  L  227.34,  443.71 " style="stroke-width: 1.42 ;&st7; "/>
	<path d=" M  231.59,  452.21  L  227.34,  452.21 " style="stroke-width: 1.42 ;&st7; "/>
	<path d=" M  231.59,  503.20  L  227.34,  503.20 " style="stroke-width: 1.42 ;&st7; "/>
	<path d=" M  231.59,  511.70  L  227.34,  511.70 " style="stroke-width: 1.42 ;&st7; "/>
	<path d=" M  231.59,  545.69  L  227.34,  545.69 " style="stroke-width: 1.42 ;&st7; "/>
	<path d=" M  231.59,  554.19  L  227.34,  554.19 " style="stroke-width: 1.42 ;&st7; "/>
	<path d=" M  237.96,  605.18  L  229.46,  605.18 " style="stroke-width: 1.42 ;&st7; "/>
	<path d=" M  458.92,   69.77  L  458.92,   78.27 " style="stroke-width: 0.85 ;&st7; "/>
	<path d=" M  461.05,   95.27  L  456.80,   95.27 " style="stroke-width: 1.42 ;&st7; "/>
	<path d=" M  461.05,  103.77  L  456.80,  103.77 " style="stroke-width: 1.42 ;&st7; "/>
	<path d=" M  299.57,  146.26  L  295.33,  146.26 " style="stroke-width: 1.42 ;&st7; "/>
	<path d=" M  299.57,  154.76  L  295.33,  154.76 " style="stroke-width: 1.42 ;&st7; "/>
	<path d=" M  299.57,  188.75  L  295.33,  188.75 " style="stroke-width: 1.42 ;&st7; "/>
	<path d=" M  299.57,  197.25  L  295.33,  197.25 " style="stroke-width: 1.42 ;&st7; "/>
	<path d=" M  288.95,  103.77  L  297.45,  103.77 " style="stroke-width: 1.42 ;&st7; "/>
	<path d=" M  365.44,  367.22  L  373.94,  367.22 " style="stroke-width: 0.85 ;&st7; "/>
	<path d=" M  390.93,  367.22  L  399.43,  367.22 " style="stroke-width: 0.85 ;&st7; "/>
	<path d=" M  307.37,  367.22  L  284.70,  361.56 " style="stroke-width: 1.42 ;&st7; "/>
	<path d=" M  314.45,  367.22  L  310.20,  367.22 " style="stroke-width: 0.85 ;&st7; "/>
	<path d=" M  284.70,  367.22  L  280.45,  367.22 " style="stroke-width: 0.85 ;&st7; "/>
	<path d=" M  450.42,  401.22  L  458.92,  401.22 " style="stroke-width: 1.42 ;&st7; "/>
	<path d=" M  461.05,  511.70  L  456.80,  511.70 " style="stroke-width: 1.42 ;&st7; "/>
	<path d=" M  461.05,  520.20  L  456.80,  520.20 " style="stroke-width: 1.42 ;&st7; "/>
	<path d=" M  461.05,  554.19  L  456.80,  554.19 " style="stroke-width: 1.42 ;&st7; "/>
	<path d=" M  461.05,  562.69  L  456.80,  562.69 " style="stroke-width: 1.42 ;&st7; "/>
	<path d=" M  101.98,  401.22  L  101.98,  452.21  L  135.98,  452.21  L  135.98,  401.22  L  101.98,  401.22 " style="stroke-width: 1.42 ;&st7; "/>
	<path d=" M  118.98,  567.59  L  121.81,  570.42  L  121.81,  566.17  L  118.98,  563.34  L  116.15,  566.17  L  116.15,  570.42  L  118.98,  567.59 " style="stroke-width: 0.28 ;&st9;"/>
	<path d=" M  118.98,  591.79  L  116.15,  588.96  L  116.15,  593.21  L  118.98,  596.04  L  121.81,  593.21  L  121.81,  588.96  L  118.98,  591.79 " style="stroke-width: 0.28 ;&st9;"/>
	<path d=" M   50.99,  697.25  L   50.99,  701.50 " style="stroke-width: 0.85 ;&st7; "/>
	<path d=" M   50.99,  567.59  L   53.82,  570.42  L   53.82,  566.17  L   50.99,  563.34  L   48.16,  566.17  L   48.16,  570.42  L   50.99,  567.59 " style="stroke-width: 0.28 ;&st9;"/>
	<path d=" M   50.99,  591.79  L   48.16,  588.96  L   48.16,  593.21  L   50.99,  596.04  L   53.82,  593.21  L   53.82,  588.96  L   50.99,  591.79 " style="stroke-width: 0.28 ;&st9;"/>
	<path d=" M   42.49,  656.18  L  127.48,  656.18  L  127.48,  673.17  L   42.49,  673.17  L   42.49,  656.18 " style="stroke-width: 1.42 ;&st7; "/>
	<path d=" M   50.99,  656.18  L   50.99,  673.17 " style="stroke-width: 0.85 ;&st7; "/>
	<path d=" M  254.96,  341.73  L  433.43,  341.73 " style="stroke-width: 1.42 ;&st7; "/>
	<path d=" M   42.49,  701.50  L   59.49,  701.50 " style="stroke-width: 0.85 ;&st7; "/>
	<path d=" M   46.74,  704.33  L   55.24,  704.33 " style="stroke-width: 0.85 ;&st7; "/>
	<path d=" M   48.16,  707.17  L   53.82,  707.17 " style="stroke-width: 0.85 ;&st7; "/>
	<path d=" M   49.58,  710.00  L   52.41,  710.00 " style="stroke-width: 0.85 ;&st7; "/>
	<path d=" M   50.99,  596.69  L   50.99,  562.69 " style="stroke-width: 0.85 ;&st7; "/>
	<path d=" M   50.99,  681.67  L   50.99,  673.17 " style="stroke-width: 0.85 ;&st7; "/>
	<path d=" M  118.98,  562.69  L  118.98,  596.69 " style="stroke-width: 0.85 ;&st7; "/>
	<path d=" M   46.74,   78.27  L   46.74,   35.78  L   21.25,   35.78  L   21.25,   78.27  L   46.74,   78.27 " style="stroke-width: 1.42 ;&st7; "/>
	<path d=" M   33.99,   90.37  L   31.16,   87.54  L   31.16,   91.79  L   33.99,   94.62  L   36.83,   91.79  L   36.83,   87.54  L   33.99,   90.37 " style="stroke-width: 0.28 ;&st9;"/>
	<path d=" M  186.97,  183.86  L  184.14,  181.03  L  184.14,  185.28  L  186.97,  188.11  L  189.80,  185.28  L  189.80,  181.03  L  186.97,  183.86 " style="stroke-width: 0.28 ;&st9;"/>
	<path d=" M  186.97,  159.65  L  189.80,  162.49  L  189.80,  158.24  L  186.97,  155.41  L  184.14,  158.24  L  184.14,  162.49  L  186.97,  159.65 " style="stroke-width: 0.28 ;&st9;"/>
	<path d=" M  229.46,  159.65  L  232.29,  162.49  L  232.29,  158.24  L  229.46,  155.41  L  226.63,  158.24  L  226.63,  162.49  L  229.46,  159.65 " style="stroke-width: 0.28 ;&st9;"/>
	<path d=" M  229.46,  183.86  L  226.63,  181.03  L  226.63,  185.28  L  229.46,  188.11  L  232.29,  185.28  L  232.29,  181.03  L  229.46,  183.86 " style="stroke-width: 0.28 ;&st9;"/>
	<path d=" M  263.46,  183.86  L  260.62,  181.03  L  260.62,  185.28  L  263.46,  188.11  L  266.29,  185.28  L  266.29,  181.03  L  263.46,  183.86 " style="stroke-width: 0.28 ;&st9;"/>
	<path d=" M  263.46,  159.65  L  266.29,  162.49  L  266.29,  158.24  L  263.46,  155.41  L  260.62,  158.24  L  260.62,  162.49  L  263.46,  159.65 " style="stroke-width: 0.28 ;&st9;"/>
	<path d=" M  106.23,   78.27  L  106.23,   35.78  L   80.74,   35.78  L   80.74,   78.27  L  106.23,   78.27 " style="stroke-width: 1.42 ;&st7; "/>
	<path d=" M   93.48,   90.37  L   90.65,   87.54  L   90.65,   91.79  L   93.48,   94.62  L   96.32,   91.79  L   96.32,   87.54  L   93.48,   90.37 " style="stroke-width: 0.28 ;&st9;"/>
	<path d=" M   33.99,   78.27  L   33.99,   95.27 " style="stroke-width: 0.85 ;&st7; "/>
	<path d=" M  186.97,  188.75  L  186.97,  154.76 " style="stroke-width: 0.85 ;&st7; "/>
	<path d=" M  229.46,  154.76  L  229.46,  188.75 " style="stroke-width: 0.85 ;&st7; "/>
	<path d=" M  263.46,  188.75  L  263.46,  154.76 " style="stroke-width: 0.85 ;&st7; "/>
	<path d=" M   93.48,   95.27  L   93.48,   78.27 " style="stroke-width: 0.85 ;&st7; "/>
	<path d=" M  152.97,  183.86  L  150.14,  181.03  L  150.14,  185.28  L  152.97,  188.11  L  155.81,  185.28  L  155.81,  181.03  L  152.97,  183.86 " style="stroke-width: 0.28 ;&st9;"/>
	<path d=" M  152.97,  159.65  L  155.81,  162.49  L  155.81,  158.24  L  152.97,  155.41  L  150.14,  158.24  L  150.14,  162.49  L  152.97,  159.65 " style="stroke-width: 0.28 ;&st9;"/>
	<path d=" M  152.97,  188.75  L  152.97,  154.76 " style="stroke-width: 0.85 ;&st7; "/>
	<path d=" M   49.80,  663.67  L   49.53,  664.14  L   49.43,  664.67  L   49.53,  665.21  L   49.80,  665.68  L   50.21,  666.02  L   50.72,  666.21  L   51.26,  666.21  L   51.77,  666.02  L   52.18,  665.68  L   52.46,  665.21  L   52.55,  664.67  L   52.46,  664.14  L   52.18,  663.67  L   51.77,  663.33  L   51.26,  663.14  L   50.72,  663.14  L   50.21,  663.33  L   49.80,  663.67  L   50.19,  664.38  L   50.19,  664.97  L   50.57,  665.41  L   51.14,  665.51  L   51.64,  665.22  L   51.84,  664.67  L   51.64,  664.13  L   51.14,  663.84  L   50.57,  663.94  L   50.99,  664.67 " style="stroke-width: 0.85 ;&st7; "/>
	<path d=" M   50.99,  664.67  L  118.98,  664.67  L  118.98,  656.18 " style="stroke-width: 0.85 ;&st7; "/>
	<path d=" M   33.99,  299.24  L   33.99,  341.73  L  254.96,  341.73  L  254.96,  401.22  L  433.43,  401.22  L  433.43,  299.24  L   33.99,  299.24 " style="stroke-width: 1.42 ;&st7; "/>
	<path d=" M  114.73,  494.14  L  118.98,  498.39  L  123.23,  494.14 " style="stroke-width: 1.42 ;&st7; "/>
	<path d=" M  123.23,  497.54  L  118.98,  501.78  L  114.73,  497.54 " style="stroke-width: 1.42 ;&st7; "/>
	<path d=" M  229.46,  414.61  L  232.29,  417.45  L  232.29,  413.20  L  229.46,  410.36  L  226.63,  413.20  L  226.63,  417.45  L  229.46,  414.61 " style="stroke-width: 0.28 ;&st9;"/>
	<path d=" M  229.46,  438.82  L  226.63,  435.98  L  226.63,  440.23  L  229.46,  443.07  L  232.29,  440.23  L  232.29,  435.98  L  229.46,  438.82 " style="stroke-width: 0.28 ;&st9;"/>
	<path d=" M  229.46,  443.71  L  229.46,  409.72 " style="stroke-width: 0.85 ;&st7; "/>
	<path d=" M  229.46,  516.60  L  232.29,  519.43  L  232.29,  515.18  L  229.46,  512.35  L  226.63,  515.18  L  226.63,  519.43  L  229.46,  516.60 " style="stroke-width: 0.28 ;&st9;"/>
	<path d=" M  229.46,  540.80  L  226.63,  537.97  L  226.63,  542.22  L  229.46,  545.05  L  232.29,  542.22  L  232.29,  537.97  L  229.46,  540.80 " style="stroke-width: 0.28 ;&st9;"/>
	<path d=" M  229.46,  545.69  L  229.46,  511.70 " style="stroke-width: 0.85 ;&st7; "/>
	<path d=" M  233.71,  614.25  L  229.46,  610.00  L  225.21,  614.25 " style="stroke-width: 1.42 ;&st7; "/>
	<path d=" M  233.71,  610.85  L  229.46,  606.60  L  225.21,  610.85 " style="stroke-width: 1.42 ;&st7; "/>
	<path d=" M  293.20,   94.70  L  297.45,   98.95  L  301.70,   94.70 " style="stroke-width: 1.42 ;&st7; "/>
	<path d=" M  471.67,   78.27  L  471.67,   35.78  L  446.18,   35.78  L  446.18,   78.27  L  471.67,   78.27 " style="stroke-width: 1.42 ;&st7; "/>
	<path d=" M  339.94,  137.76  L  339.94,  154.76  L  356.94,  154.76  L  356.94,  137.76  L  339.94,  137.76 " style="stroke-width: 1.42 ;&st7; "/>
	<path d=" M  348.44,  154.76  L  348.44,  137.76 " style="stroke-width: 0.85 ;&st7; "/>
	<path d=" M  458.92,   90.37  L  456.09,   87.54  L  456.09,   91.79  L  458.92,   94.62  L  461.76,   91.79  L  461.76,   87.54  L  458.92,   90.37 " style="stroke-width: 0.28 ;&st9;"/>
	<path d=" M  458.92,   78.27  L  458.92,   95.27 " style="stroke-width: 0.85 ;&st7; "/>
	<path d=" M  297.45,  159.65  L  300.28,  162.49  L  300.28,  158.24  L  297.45,  155.41  L  294.62,  158.24  L  294.62,  162.49  L  297.45,  159.65 " style="stroke-width: 0.28 ;&st9;"/>
	<path d=" M  297.45,  188.75  L  297.45,  154.76 " style="stroke-width: 0.85 ;&st7; "/>
	<path d=" M  297.45,  183.86  L  294.62,  181.03  L  294.62,  185.28  L  297.45,  188.11  L  300.28,  185.28  L  300.28,  181.03  L  297.45,  183.86 " style="stroke-width: 0.28 ;&st9;"/>
	<path d=" M  301.70,   98.10  L  297.45,  102.35  L  293.20,   98.10 " style="stroke-width: 1.42 ;&st7; "/>
	<path d=" M  365.44,  375.72  L  399.43,  375.72  L  399.43,  358.73  L  365.44,  358.73  L  365.44,  375.72 " style="stroke-width: 1.42 ;&st7; "/>
	<path d=" M  399.43,  367.22  L  416.43,  367.22  L  416.43,  341.73 " style="stroke-width: 0.85 ;&st7; "/>
	<path d=" M  365.44,  367.22  L  348.44,  367.22  L  348.44,  341.73 " style="stroke-width: 0.85 ;&st7; "/>
	<path d=" M  280.45,  367.22  L  271.95,  367.22  L  271.95,  341.73 " style="stroke-width: 0.85 ;&st7; "/>
	<path d=" M  322.95,  341.73  L  322.95,  367.22  L  314.45,  367.22 " style="stroke-width: 0.85 ;&st7; "/>
	<path d=" M  463.17,  395.55  L  458.92,  399.80  L  454.67,  395.55 " style="stroke-width: 1.42 ;&st7; "/>
	<path d=" M  454.67,  392.15  L  458.92,  396.40  L  463.17,  392.15 " style="stroke-width: 1.42 ;&st7; "/>
	<path d=" M  390.93,  214.25  L  475.92,  214.25  L  475.92,  171.76  L  390.93,  171.76  L  390.93,  214.25 " style="stroke-width: 1.42 ;&st7; "/>
	<path d=" M  458.92,  525.09  L  461.76,  527.93  L  461.76,  523.68  L  458.92,  520.84  L  456.09,  523.68  L  456.09,  527.93  L  458.92,  525.09 " style="stroke-width: 0.28 ;&st9;"/>
	<path d=" M  458.92,  549.30  L  456.09,  546.46  L  456.09,  550.71  L  458.92,  553.55  L  461.76,  550.71  L  461.76,  546.46  L  458.92,  549.30 " style="stroke-width: 0.28 ;&st9;"/>
	<path d=" M  458.92,  554.19  L  458.92,  520.20 " style="stroke-width: 0.85 ;&st7; "/>
	<path d=" M  454.67,  704.33  L  463.17,  704.33 " style="stroke-width: 0.85 ;&st7; "/>
	<path d=" M  458.92,  697.25  L  458.92,  701.50 " style="stroke-width: 0.85 ;&st7; "/>
	<path d=" M  450.42,  701.50  L  467.42,  701.50 " style="stroke-width: 0.85 ;&st7; "/>
	<path d=" M  450.42,  656.18  L  450.42,  673.17  L  467.42,  673.17  L  467.42,  656.18  L  450.42,  656.18 " style="stroke-width: 1.42 ;&st7; "/>
	<path d=" M  458.92,  656.18  L  458.92,  681.67 " style="stroke-width: 0.85 ;&st7; "/>
	<path d=" M  457.51,  710.00  L  460.34,  710.00 " style="stroke-width: 0.85 ;&st7; "/>
	<path d=" M  456.09,  707.17  L  461.76,  707.17 " style="stroke-width: 0.85 ;&st7; "/>
	<path d=" M  223.09,  405.47  C  223.09   407.81   224.99   409.72   227.34   409.72 " style="stroke-width: 1.42 ;&st7; "/>
	<path d=" M  231.59,  409.72  C  233.93   409.72   235.84   407.81   235.84   405.47 " style="stroke-width: 1.42 ;&st7; "/>
	<path d=" M  235.84,  405.47  C  235.84   403.12   233.93   401.22   231.59   401.22 " style="stroke-width: 1.42 ;&st7; "/>
	<path d=" M  227.34,  443.71  C  224.99   443.71   223.09   445.61   223.09   447.96 " style="stroke-width: 1.42 ;&st7; "/>
	<path d=" M  223.09,  447.96  C  223.09   450.31   224.99   452.21   227.34   452.21 " style="stroke-width: 1.42 ;&st7; "/>
	<path d=" M  231.59,  452.21  C  233.93   452.21   235.84   450.31   235.84   447.96 " style="stroke-width: 1.42 ;&st7; "/>
	<path d=" M  235.84,  447.96  C  235.84   445.61   233.93   443.71   231.59   443.71 " style="stroke-width: 1.42 ;&st7; "/>
	<path d=" M  227.34,  503.20  C  224.99   503.20   223.09   505.10   223.09   507.45 " style="stroke-width: 1.42 ;&st7; "/>
	<path d=" M  223.09,  507.45  C  223.09   509.80   224.99   511.70   227.34   511.70 " style="stroke-width: 1.42 ;&st7; "/>
	<path d=" M  231.59,  511.70  C  233.93   511.70   235.84   509.80   235.84   507.45 " style="stroke-width: 1.42 ;&st7; "/>
	<path d=" M  235.84,  507.45  C  235.84   505.10   233.93   503.20   231.59   503.20 " style="stroke-width: 1.42 ;&st7; "/>
	<path d=" M  227.34,  545.69  C  224.99   545.69   223.09   547.60   223.09   549.94 " style="stroke-width: 1.42 ;&st7; "/>
	<path d=" M  223.09,  549.94  C  223.09   552.29   224.99   554.19   227.34   554.19 " style="stroke-width: 1.42 ;&st7; "/>
	<path d=" M  231.59,  554.19  C  233.93   554.19   235.84   552.29   235.84   549.94 " style="stroke-width: 1.42 ;&st7; "/>
	<path d=" M  235.84,  549.94  C  235.84   547.60   233.93   545.69   231.59   545.69 " style="stroke-width: 1.42 ;&st7; "/>
	<path d=" M  458.92,   47.11  C  456.19    48.72   455.27    52.25   456.89    54.99 " style="stroke-width: 1.42 ;&st7; "/>
	<path d=" M  456.89,   54.99  C  457.41    55.87   458.04    56.51   458.92    57.03 " style="stroke-width: 1.42 ;&st7; "/>
	<path d=" M  458.92,   66.94  C  461.66    65.33   462.57    61.80   460.96    59.06 " style="stroke-width: 1.42 ;&st7; "/>
	<path d=" M  460.96,   59.06  C  460.44    58.18   459.81    57.55   458.92    57.03 " style="stroke-width: 1.42 ;&st7; "/>
	<path d=" M  460.34,   45.69  C  460.34    44.91   459.71    44.28   458.92    44.28 " style="stroke-width: 0.85 ;&st7; "/>
	<path d=" M  458.92,   44.28  C  458.14    44.28   457.51    44.91   457.51    45.69 " style="stroke-width: 0.85 ;&st7; "/>
	<path d=" M  457.51,   45.69  C  457.51    46.48   458.14    47.11   458.92    47.11 " style="stroke-width: 0.85 ;&st7; "/>
	<path d=" M  458.92,   47.11  C  459.71    47.11   460.34    46.48   460.34    45.69 " style="stroke-width: 0.85 ;&st7; "/>
	<path d=" M  460.34,   68.36  C  460.34    67.57   459.71    66.94   458.92    66.94 " style="stroke-width: 0.85 ;&st7; "/>
	<path d=" M  458.92,   66.94  C  458.14    66.94   457.51    67.57   457.51    68.36 " style="stroke-width: 0.85 ;&st7; "/>
	<path d=" M  457.51,   68.36  C  457.51    69.14   458.14    69.77   458.92    69.77 " style="stroke-width: 0.85 ;&st7; "/>
	<path d=" M  458.92,   69.77  C  459.71    69.77   460.34    69.14   460.34    68.36 " style="stroke-width: 0.85 ;&st7; "/>
	<path d=" M  456.80,   95.27  C  454.45    95.27   452.55    97.17   452.55    99.52 " style="stroke-width: 1.42 ;&st7; "/>
	<path d=" M  452.55,   99.52  C  452.55   101.87   454.45   103.77   456.80   103.77 " style="stroke-width: 1.42 ;&st7; "/>
	<path d=" M  461.05,  103.77  C  463.39   103.77   465.30   101.87   465.30    99.52 " style="stroke-width: 1.42 ;&st7; "/>
	<path d=" M  465.30,   99.52  C  465.30    97.17   463.39    95.27   461.05    95.27 " style="stroke-width: 1.42 ;&st7; "/>
	<path d=" M  295.33,  146.26  C  292.98   146.26   291.08   148.16   291.08   150.51 " style="stroke-width: 1.42 ;&st7; "/>
	<path d=" M  291.08,  150.51  C  291.08   152.86   292.98   154.76   295.33   154.76 " style="stroke-width: 1.42 ;&st7; "/>
	<path d=" M  299.57,  154.76  C  301.92   154.76   303.82   152.86   303.82   150.51 " style="stroke-width: 1.42 ;&st7; "/>
	<path d=" M  303.82,  150.51  C  303.82   148.16   301.92   146.26   299.57   146.26 " style="stroke-width: 1.42 ;&st7; "/>
	<path d=" M  295.33,  188.75  C  292.98   188.75   291.08   190.66   291.08   193.00 " style="stroke-width: 1.42 ;&st7; "/>
	<path d=" M  291.08,  193.00  C  291.08   195.35   292.98   197.25   295.33   197.25 " style="stroke-width: 1.42 ;&st7; "/>
	<path d=" M  299.57,  197.25  C  301.92   197.25   303.82   195.35   303.82   193.00 " style="stroke-width: 1.42 ;&st7; "/>
	<path d=" M  303.82,  193.00  C  303.82   190.66   301.92   188.75   299.57   188.75 " style="stroke-width: 1.42 ;&st7; "/>
	<path d=" M  379.96,  369.75  C  381.35   368.38   381.38   366.14   380.01   364.75 " style="stroke-width: 0.85 ;&st7; "/>
	<path d=" M  380.01,  364.75  C  378.64   363.35   376.40   363.33   375.00   364.69 " style="stroke-width: 0.85 ;&st7; "/>
	<path d=" M  375.00,  364.69  C  374.29   365.39   373.94   366.23   373.94   367.22 " style="stroke-width: 0.85 ;&st7; "/>
	<path d=" M  384.91,  369.75  C  386.31   368.38   386.33   366.14   384.97   364.75 " style="stroke-width: 0.85 ;&st7; "/>
	<path d=" M  384.97,  364.75  C  383.60   363.35   381.35   363.33   379.96   364.69 " style="stroke-width: 0.85 ;&st7; "/>
	<path d=" M  379.96,  364.69  C  378.56   366.06   378.54   368.31   379.91   369.70 " style="stroke-width: 0.85 ;&st7; "/>
	<path d=" M  379.91,  369.70  C  379.92   369.72   379.94   369.74   379.96   369.75 " style="stroke-width: 0.85 ;&st7; "/>
	<path d=" M  390.93,  367.22  C  390.93   365.27   389.35   363.68   387.39   363.68 " style="stroke-width: 0.85 ;&st7; "/>
	<path d=" M  387.39,  363.68  C  385.44   363.68   383.85   365.27   383.85   367.22 " style="stroke-width: 0.85 ;&st7; "/>
	<path d=" M  383.85,  367.22  C  383.85   368.21   384.21   369.06   384.92   369.75 " style="stroke-width: 0.85 ;&st7; "/>
	<path d=" M  310.20,  367.22  C  310.20   366.44   309.56   365.81   308.78   365.81 " style="stroke-width: 0.85 ;&st7; "/>
	<path d=" M  308.78,  365.81  C  308.00   365.81   307.37   366.44   307.37   367.22 " style="stroke-width: 0.85 ;&st7; "/>
	<path d=" M  307.37,  367.22  C  307.37   368.01   308.00   368.64   308.78   368.64 " style="stroke-width: 0.85 ;&st7; "/>
	<path d=" M  308.78,  368.64  C  309.56   368.64   310.20   368.01   310.20   367.22 " style="stroke-width: 0.85 ;&st7; "/>
	<path d=" M  287.54,  367.22  C  287.54   366.44   286.90   365.81   286.12   365.81 " style="stroke-width: 0.85 ;&st7; "/>
	<path d=" M  286.12,  365.81  C  285.34   365.81   284.70   366.44   284.70   367.22 " style="stroke-width: 0.85 ;&st7; "/>
	<path d=" M  284.70,  367.22  C  284.70   368.01   285.34   368.64   286.12   368.64 " style="stroke-width: 0.85 ;&st7; "/>
	<path d=" M  286.12,  368.64  C  286.90   368.64   287.54   368.01   287.54   367.22 " style="stroke-width: 0.85 ;&st7; "/>
	<path d=" M  456.80,  511.70  C  454.45   511.70   452.55   513.60   452.55   515.95 " style="stroke-width: 1.42 ;&st7; "/>
	<path d=" M  452.55,  515.95  C  452.55   518.30   454.45   520.20   456.80   520.20 " style="stroke-width: 1.42 ;&st7; "/>
	<path d=" M  461.05,  520.20  C  463.39   520.20   465.30   518.30   465.30   515.95 " style="stroke-width: 1.42 ;&st7; "/>
	<path d=" M  465.30,  515.95  C  465.30   513.60   463.39   511.70   461.05   511.70 " style="stroke-width: 1.42 ;&st7; "/>
	<path d=" M  456.80,  554.19  C  454.45   554.19   452.55   556.10   452.55   558.44 " style="stroke-width: 1.42 ;&st7; "/>
	<path d=" M  452.55,  558.44  C  452.55   560.79   454.45   562.69   456.80   562.69 " style="stroke-width: 1.42 ;&st7; "/>
	<path d=" M  461.05,  562.69  C  463.39   562.69   465.30   560.79   465.30   558.44 " style="stroke-width: 1.42 ;&st7; "/>
	<path d=" M  465.30,  558.44  C  465.30   556.10   463.39   554.19   461.05   554.19 " style="stroke-width: 1.42 ;&st7; "/>
	<path d=" M  116.45,  424.24  C  117.82   425.63   120.06   425.66   121.46   424.29 " style="stroke-width: 0.85 ;&st7; "/>
	<path d=" M  121.46,  424.29  C  122.86   422.92   122.88   420.67   121.51   419.28 " style="stroke-width: 0.85 ;&st7; "/>
	<path d=" M  121.51,  419.28  C  120.82   418.57   119.97   418.21   118.98   418.21 " style="stroke-width: 0.85 ;&st7; "/>
	<path d=" M  116.45,  429.19  C  117.82   430.59   120.06   430.61   121.46   429.24 " style="stroke-width: 0.85 ;&st7; "/>
	<path d=" M  121.46,  429.24  C  122.86   427.87   122.88   425.63   121.51   424.24 " style="stroke-width: 0.85 ;&st7; "/>
	<path d=" M  121.51,  424.24  C  120.14   422.84   117.90   422.82   116.50   424.18 " style="stroke-width: 0.85 ;&st7; "/>
	<path d=" M  116.50,  424.18  C  116.48   424.20   116.47   424.22   116.45   424.24 " style="stroke-width: 0.85 ;&st7; "/>
	<path d=" M  118.98,  435.21  C  120.94   435.21   122.52   433.63   122.52   431.67 " style="stroke-width: 0.85 ;&st7; "/>
	<path d=" M  122.52,  431.67  C  122.52   429.72   120.94   428.13   118.98   428.13 " style="stroke-width: 0.85 ;&st7; "/>
	<path d=" M  118.98,  428.13  C  117.99   428.13   117.14   428.49   116.45   429.19 " style="stroke-width: 0.85 ;&st7; "/>
	<path d=" M  116.86,  554.19  C  114.51   554.19   112.61   556.10   112.61   558.44 " style="stroke-width: 1.42 ;&st7; "/>
	<path d=" M  112.61,  558.44  C  112.61   560.79   114.51   562.69   116.86   562.69 " style="stroke-width: 1.42 ;&st7; "/>
	<path d=" M  121.10,  562.69  C  123.45   562.69   125.35   560.79   125.35   558.44 " style="stroke-width: 1.42 ;&st7; "/>
	<path d=" M  125.35,  558.44  C  125.35   556.10   123.45   554.19   121.10   554.19 " style="stroke-width: 1.42 ;&st7; "/>
	<path d=" M  116.86,  596.69  C  114.51   596.69   112.61   598.59   112.61   600.93 " style="stroke-width: 1.42 ;&st7; "/>
	<path d=" M  112.61,  600.93  C  112.61   603.28   114.51   605.18   116.86   605.18 " style="stroke-width: 1.42 ;&st7; "/>
	<path d=" M  121.10,  605.18  C  123.45   605.18   125.35   603.28   125.35   600.93 " style="stroke-width: 1.42 ;&st7; "/>
	<path d=" M  125.35,  600.93  C  125.35   598.59   123.45   596.69   121.10   596.69 " style="stroke-width: 1.42 ;&st7; "/>
	<path d=" M   48.87,  554.19  C   46.52   554.19    44.62   556.10    44.62   558.44 " style="stroke-width: 1.42 ;&st7; "/>
	<path d=" M   44.62,  558.44  C   44.62   560.79    46.52   562.69    48.87   562.69 " style="stroke-width: 1.42 ;&st7; "/>
	<path d=" M   53.12,  562.69  C   55.46   562.69    57.37   560.79    57.37   558.44 " style="stroke-width: 1.42 ;&st7; "/>
	<path d=" M   57.37,  558.44  C   57.37   556.10    55.46   554.19    53.12   554.19 " style="stroke-width: 1.42 ;&st7; "/>
	<path d=" M   48.87,  596.69  C   46.52   596.69    44.62   598.59    44.62   600.93 " style="stroke-width: 1.42 ;&st7; "/>
	<path d=" M   44.62,  600.93  C   44.62   603.28    46.52   605.18    48.87   605.18 " style="stroke-width: 1.42 ;&st7; "/>
	<path d=" M   53.12,  605.18  C   55.46   605.18    57.37   603.28    57.37   600.93 " style="stroke-width: 1.42 ;&st7; "/>
	<path d=" M   57.37,  600.93  C   57.37   598.59    55.46   596.69    53.12   596.69 " style="stroke-width: 1.42 ;&st7; "/>
	<path d=" M   33.99,   47.11  C   31.26    48.72    30.34    52.25    31.96    54.99 " style="stroke-width: 1.42 ;&st7; "/>
	<path d=" M   31.96,   54.99  C   32.48    55.87    33.11    56.51    33.99    57.03 " style="stroke-width: 1.42 ;&st7; "/>
	<path d=" M   33.99,   66.94  C   36.73    65.33    37.64    61.80    36.03    59.06 " style="stroke-width: 1.42 ;&st7; "/>
	<path d=" M   36.03,   59.06  C   35.51    58.18    34.88    57.55    33.99    57.03 " style="stroke-width: 1.42 ;&st7; "/>
	<path d=" M   35.41,   45.69  C   35.41    44.91    34.78    44.28    33.99    44.28 " style="stroke-width: 0.85 ;&st7; "/>
	<path d=" M   33.99,   44.28  C   33.21    44.28    32.58    44.91    32.58    45.69 " style="stroke-width: 0.85 ;&st7; "/>
	<path d=" M   32.58,   45.69  C   32.58    46.48    33.21    47.11    33.99    47.11 " style="stroke-width: 0.85 ;&st7; "/>
	<path d=" M   33.99,   47.11  C   34.78    47.11    35.41    46.48    35.41    45.69 " style="stroke-width: 0.85 ;&st7; "/>
	<path d=" M   35.41,   68.36  C   35.41    67.57    34.78    66.94    33.99    66.94 " style="stroke-width: 0.85 ;&st7; "/>
	<path d=" M   33.99,   66.94  C   33.21    66.94    32.58    67.57    32.58    68.36 " style="stroke-width: 0.85 ;&st7; "/>
	<path d=" M   32.58,   68.36  C   32.58    69.14    33.21    69.77    33.99    69.77 " style="stroke-width: 0.85 ;&st7; "/>
	<path d=" M   33.99,   69.77  C   34.78    69.77    35.41    69.14    35.41    68.36 " style="stroke-width: 0.85 ;&st7; "/>
	<path d=" M   31.87,   95.27  C   29.52    95.27    27.62    97.17    27.62    99.52 " style="stroke-width: 1.42 ;&st7; "/>
	<path d=" M   27.62,   99.52  C   27.62   101.87    29.52   103.77    31.87   103.77 " style="stroke-width: 1.42 ;&st7; "/>
	<path d=" M   36.12,  103.77  C   38.47   103.77    40.37   101.87    40.37    99.52 " style="stroke-width: 1.42 ;&st7; "/>
	<path d=" M   40.37,   99.52  C   40.37    97.17    38.47    95.27    36.12    95.27 " style="stroke-width: 1.42 ;&st7; "/>
	<path d=" M  184.84,  188.75  C  182.50   188.75   180.59   190.66   180.59   193.00 " style="stroke-width: 1.42 ;&st7; "/>
	<path d=" M  180.59,  193.00  C  180.59   195.35   182.50   197.25   184.84   197.25 " style="stroke-width: 1.42 ;&st7; "/>
	<path d=" M  189.09,  197.25  C  191.44   197.25   193.34   195.35   193.34   193.00 " style="stroke-width: 1.42 ;&st7; "/>
	<path d=" M  193.34,  193.00  C  193.34   190.66   191.44   188.75   189.09   188.75 " style="stroke-width: 1.42 ;&st7; "/>
	<path d=" M  184.84,  146.26  C  182.50   146.26   180.59   148.16   180.59   150.51 " style="stroke-width: 1.42 ;&st7; "/>
	<path d=" M  180.59,  150.51  C  180.59   152.86   182.50   154.76   184.84   154.76 " style="stroke-width: 1.42 ;&st7; "/>
	<path d=" M  189.09,  154.76  C  191.44   154.76   193.34   152.86   193.34   150.51 " style="stroke-width: 1.42 ;&st7; "/>
	<path d=" M  193.34,  150.51  C  193.34   148.16   191.44   146.26   189.09   146.26 " style="stroke-width: 1.42 ;&st7; "/>
	<path d=" M  227.34,  146.26  C  224.99   146.26   223.09   148.16   223.09   150.51 " style="stroke-width: 1.42 ;&st7; "/>
	<path d=" M  223.09,  150.51  C  223.09   152.86   224.99   154.76   227.34   154.76 " style="stroke-width: 1.42 ;&st7; "/>
	<path d=" M  231.59,  154.76  C  233.93   154.76   235.84   152.86   235.84   150.51 " style="stroke-width: 1.42 ;&st7; "/>
	<path d=" M  235.84,  150.51  C  235.84   148.16   233.93   146.26   231.59   146.26 " style="stroke-width: 1.42 ;&st7; "/>
	<path d=" M  227.34,  188.75  C  224.99   188.75   223.09   190.66   223.09   193.00 " style="stroke-width: 1.42 ;&st7; "/>
	<path d=" M  223.09,  193.00  C  223.09   195.35   224.99   197.25   227.34   197.25 " style="stroke-width: 1.42 ;&st7; "/>
	<path d=" M  231.59,  197.25  C  233.93   197.25   235.84   195.35   235.84   193.00 " style="stroke-width: 1.42 ;&st7; "/>
	<path d=" M  235.84,  193.00  C  235.84   190.66   233.93   188.75   231.59   188.75 " style="stroke-width: 1.42 ;&st7; "/>
	<path d=" M   99.86,   99.52  C   99.86    97.17    97.96    95.27    95.61    95.27 " style="stroke-width: 1.42 ;&st7; "/>
	<path d=" M  261.33,  188.75  C  258.98   188.75   257.08   190.66   257.08   193.00 " style="stroke-width: 1.42 ;&st7; "/>
	<path d=" M  257.08,  193.00  C  257.08   195.35   258.98   197.25   261.33   197.25 " style="stroke-width: 1.42 ;&st7; "/>
	<path d=" M  265.58,  197.25  C  267.93   197.25   269.83   195.35   269.83   193.00 " style="stroke-width: 1.42 ;&st7; "/>
	<path d=" M  269.83,  193.00  C  269.83   190.66   267.93   188.75   265.58   188.75 " style="stroke-width: 1.42 ;&st7; "/>
	<path d=" M  261.33,  146.26  C  258.98   146.26   257.08   148.16   257.08   150.51 " style="stroke-width: 1.42 ;&st7; "/>
	<path d=" M  257.08,  150.51  C  257.08   152.86   258.98   154.76   261.33   154.76 " style="stroke-width: 1.42 ;&st7; "/>
	<path d=" M  265.58,  154.76  C  267.93   154.76   269.83   152.86   269.83   150.51 " style="stroke-width: 1.42 ;&st7; "/>
	<path d=" M  269.83,  150.51  C  269.83   148.16   267.93   146.26   265.58   146.26 " style="stroke-width: 1.42 ;&st7; "/>
	<path d=" M   93.48,   47.11  C   90.75    48.72    89.83    52.25    91.45    54.99 " style="stroke-width: 1.42 ;&st7; "/>
	<path d=" M   91.45,   54.99  C   91.97    55.87    92.60    56.51    93.48    57.03 " style="stroke-width: 1.42 ;&st7; "/>
	<path d=" M   93.48,   66.94  C   96.22    65.33    97.13    61.80    95.52    59.06 " style="stroke-width: 1.42 ;&st7; "/>
	<path d=" M   95.52,   59.06  C   95.00    58.18    94.37    57.55    93.48    57.03 " style="stroke-width: 1.42 ;&st7; "/>
	<path d=" M   94.90,   45.69  C   94.90    44.91    94.27    44.28    93.48    44.28 " style="stroke-width: 0.85 ;&st7; "/>
	<path d=" M   93.48,   44.28  C   92.70    44.28    92.07    44.91    92.07    45.69 " style="stroke-width: 0.85 ;&st7; "/>
	<path d=" M   92.07,   45.69  C   92.07    46.48    92.70    47.11    93.48    47.11 " style="stroke-width: 0.85 ;&st7; "/>
	<path d=" M   93.48,   47.11  C   94.27    47.11    94.90    46.48    94.90    45.69 " style="stroke-width: 0.85 ;&st7; "/>
	<path d=" M   94.90,   68.36  C   94.90    67.57    94.27    66.94    93.48    66.94 " style="stroke-width: 0.85 ;&st7; "/>
	<path d=" M   93.48,   66.94  C   92.70    66.94    92.07    67.57    92.07    68.36 " style="stroke-width: 0.85 ;&st7; "/>
	<path d=" M   92.07,   68.36  C   92.07    69.14    92.70    69.77    93.48    69.77 " style="stroke-width: 0.85 ;&st7; "/>
	<path d=" M   93.48,   69.77  C   94.27    69.77    94.90    69.14    94.90    68.36 " style="stroke-width: 0.85 ;&st7; "/>
	<path d=" M   95.61,  103.77  C   97.96   103.77    99.86   101.87    99.86    99.52 " style="stroke-width: 1.42 ;&st7; "/>
	<path d=" M   87.11,   99.52  C   87.11   101.87    89.01   103.77    91.36   103.77 " style="stroke-width: 1.42 ;&st7; "/>
	<path d=" M   91.36,   95.27  C   89.01    95.27    87.11    97.17    87.11    99.52 " style="stroke-width: 1.42 ;&st7; "/>
	<path d=" M  146.60,  193.00  C  146.60   195.35   148.50   197.25   150.85   197.25 " style="stroke-width: 1.42 ;&st7; "/>
	<path d=" M  150.85,  188.75  C  148.50   188.75   146.60   190.66   146.60   193.00 " style="stroke-width: 1.42 ;&st7; "/>
	<path d=" M  155.10,  197.25  C  157.45   197.25   159.35   195.35   159.35   193.00 " style="stroke-width: 1.42 ;&st7; "/>
	<path d=" M  159.35,  193.00  C  159.35   190.66   157.45   188.75   155.10   188.75 " style="stroke-width: 1.42 ;&st7; "/>
	<path d=" M  150.85,  146.26  C  148.50   146.26   146.60   148.16   146.60   150.51 " style="stroke-width: 1.42 ;&st7; "/>
	<path d=" M  146.60,  150.51  C  146.60   152.86   148.50   154.76   150.85   154.76 " style="stroke-width: 1.42 ;&st7; "/>
	<path d=" M  155.10,  154.76  C  157.45   154.76   159.35   152.86   159.35   150.51 " style="stroke-width: 1.42 ;&st7; "/>
	<path d=" M  159.35,  150.51  C  159.35   148.16   157.45   146.26   155.10   146.26 " style="stroke-width: 1.42 ;&st7; "/>
	<path d=" M  227.34,  401.22  C  224.99   401.22   223.09   403.12   223.09   405.47 " style="stroke-width: 1.42 ;&st7; "/>
	<text style="&st18;" transform="matrix(&st17;  149.28  132.02 )">G</text>
	<text style="&st18;" transform="matrix(&st16;  259.71  306.87 )">IG</text>
	<text style="&st18;" transform="matrix(&st16;  256.66  295.54 )">8</text>
	<text style="&st18;" transform="matrix(&st17;  259.76  225.5 )">G</text>
	<text ewd:textID="2" style="&st18;" transform="matrix(&st16;  130.62  666.64 )">Junction <tspan dy="6" x="0">Connector</tspan></text>
	<text style="&st18;" transform="matrix(&st16;  130.62  659.54 )">F64</text>
	<text style="&st18;" transform="matrix(&st16;  141.95  318.18 )">F75</text>
	<text ewd:textID="4" style="&st18;" transform="matrix(&st16;  141.95  325.28 )">Shift Lock Control ECU Sub-Assembly</text>
	<text style="&st18;" transform="matrix(&st16;  220.81  338.03 )">KLS+</text>
	<text style="&st18;" transform="matrix(&st16;  104.17  509.42 )">2</text>
	<text style="&st18;" transform="matrix(&st17;  115.29  484.8 )">G-B</text>
	<text style="&st18;" transform="matrix(&st17;  115.28  378.48 )">G</text>
	<text style="&st18;" transform="matrix(&st16;  225.01  407.44 )">5C</text>
	<text style="&st18;" transform="matrix(&st16;  212.82  407.44 )">49</text>
	<text style="&st18;" transform="matrix(&st16;  225.15  449.93 )">5B</text>
	<text style="&st18;" transform="matrix(&st16;  213.59  449.93 )">61</text>
	<text style="&st18;" transform="matrix(&st17;  237.1  585.48 )">(*1)</text>
	<text style="&st18;" transform="matrix(&st17;  225.77  582.02 )">B</text>
	<text style="&st18;" transform="matrix(&st17;  237.1  483.5 )">(*1)</text>
	<text style="&st18;" transform="matrix(&st17;  225.77  480.04 )">B</text>
	<text style="&st18;" transform="matrix(&st16;  225.01  509.42 )">4C</text>
	<text style="&st18;" transform="matrix(&st16;  212.82  509.42 )">55</text>
	<text style="&st18;" transform="matrix(&st16;  225.01  551.91 )">4C</text>
	<text style="&st18;" transform="matrix(&st16;  213.59  551.91 )">31</text>
	<text style="&st18;" transform="matrix(&st17;  237.1  381.51 )">(*1)</text>
	<text style="&st18;" transform="matrix(&st17;  225.77  378.05 )">B</text>
	<text style="&st18;" transform="matrix(&st16;  215.42  602.9 )">1</text>
	<text style="&st18;" transform="matrix(&st17;  41.63  135.06 )">(*1)</text>
	<text style="&st18;" transform="matrix(&st17;  194.6  135.06 )">(*1)</text>
	<text style="&st18;" transform="matrix(&st17;  237.1  135.06 )">(*1)</text>
	<text style="&st18;" transform="matrix(&st17;  126.62  381.51 )">(*1)</text>
	<text style="&st18;" transform="matrix(&st17;  126.62  483.5 )">(*1)</text>
	<text style="&st18;" transform="matrix(&st17;  126.62  538.74 )">(*1)</text>
	<text style="&st18;" transform="matrix(&st17;  126.62  636.47 )">(*1)</text>
	<text style="&st18;" transform="matrix(&st16;  476.23  56.17 )">10A <tspan dy="6" x="0">STOP</tspan></text>
	<text style="&st18;" transform="matrix(&st16;  452.13  86.47 )">2</text>
	<text style="&st18;" transform="matrix(&st16;  401.14  222.44 )">3</text>
	<text style="&st18;" transform="matrix(&st16;  449.81  32.08 )">(BAT)</text>
	<text style="&st18;" transform="matrix(&st17;  455.23  135.99 )">R</text>
	<text style="&st18;" transform="matrix(&st17;  344.75  229.85 )">V-G</text>
	<text style="&st18;" transform="matrix(&st16;  457.33  101.49 )">1</text>
	<text style="&st18;" transform="matrix(&st16;  338.46  134.07 )">15</text>
	<text style="&st18;" transform="matrix(&st16;  338.47  162.95 )">12</text>
	<text style="&st18;" transform="matrix(&st16;  293.14  152.48 )">5A</text>
	<text style="&st18;" transform="matrix(&st16;  281.58  152.48 )">16</text>
	<text style="&st18;" transform="matrix(&st16;  293.0  194.97 )">5C</text>
	<text style="&st18;" transform="matrix(&st16;  281.58  194.97 )">51</text>
	<text style="&st18;" transform="matrix(&st16;  278.68  109.99 )">40</text>
	<text style="&st18;" transform="matrix(&st17;  293.75  131.59 )">V</text>
	<text style="&st18;" transform="matrix(&st17;  344.75  102.37 )">V-G</text>
	<text ewd:textID="2" style="&st18;" transform="matrix(&st17;  371.66  157.28 )">Junction <tspan dy="6" x="0">Connector</tspan></text>
	<text style="&st18;" transform="matrix(&st17;  364.55  157.28 )">A36</text>
	<text ewd:textID="1" style="&st18;" transform="matrix(&st16;  269.43  462.68 )">* 1 :w/o Smart Key System</text>
	<text style="&st18;" transform="matrix(&st16;  339.79  338.03 )">SLS+</text>
	<text ewd:textID="5" style="&st18;" transform="matrix(&st16;  366.72  383.36 )">Shift Lock <tspan dy="6" x="0">Solenoid</tspan></text>
	<text style="&st18;" transform="matrix(&st16;  407.78  338.03 )">SLS-</text>
	<text style="&st18;" transform="matrix(&st16;  269.62  338.03 )">P</text>
	<text style="&st18;" transform="matrix(&st16;  318.64  338.03 )">E2</text>
	<text style="&st18;" transform="matrix(&st17;  483.81  216.77 )">A47</text>
	<text ewd:textID="6" style="&st18;" transform="matrix(&st17;  490.64  216.77 )">Stop Light <tspan dy="6" x="0">Switch Assembly</tspan></text>
	<text style="&st18;" transform="matrix(&st16;  456.59  179.39 )">B</text>
	<text style="&st18;" transform="matrix(&st16;  405.95  210.55 )">L</text>
	<text style="&st18;" transform="matrix(&st16;  451.22  210.55 )">GND</text>
	<text style="&st18;" transform="matrix(&st16;  452.13  168.07 )">7</text>
	<text style="&st18;" transform="matrix(&st16;  452.13  222.44 )">2</text>
	<text style="&st18;" transform="matrix(&st16;  440.93  407.44 )">31</text>
	<text style="&st18;" transform="matrix(&st16;  454.61  517.92 )">4B</text>
	<text style="&st18;" transform="matrix(&st16;  442.28  517.92 )">58</text>
	<text style="&st18;" transform="matrix(&st16;  454.61  560.41 )">4B</text>
	<text style="&st18;" transform="matrix(&st16;  442.28  560.41 )">35</text>
	<text ewd:textID="2" style="&st18;" transform="matrix(&st16;  470.56  666.64 )">Junction <tspan dy="6" x="0">Connector</tspan></text>
	<text style="&st18;" transform="matrix(&st16;  470.56  659.54 )">F64</text>
	<text style="&st18;" transform="matrix(&st16;  452.13  652.49 )">8</text>
	<text style="&st18;" transform="matrix(&st17;  455.23  374.92 )">W-B</text>
	<text style="&st18;" transform="matrix(&st17;  455.23  468.41 )">W-B</text>
	<text style="&st18;" transform="matrix(&st17;  455.23  612.88 )">W-B</text>
	<text style="&st18;" transform="matrix(&st16;  112.19  652.49 )">8</text>
	<text style="&st18;" transform="matrix(&st17;  237.1  228.54 )">(*1)</text>
	<text style="&st18;" transform="matrix(&st17;  225.77  225.08 )">P</text>
	<text style="&st18;" transform="matrix(&st16;  112.19  460.4 )">2</text>
	<text style="&st18;" transform="matrix(&st16;  112.97  397.53 )">1</text>
	<text style="&st18;" transform="matrix(&st16;  114.53  560.41 )">4C</text>
	<text style="&st18;" transform="matrix(&st16;  102.33  560.41 )">34</text>
	<text style="&st18;" transform="matrix(&st16;  114.67  602.9 )">4B</text>
	<text style="&st18;" transform="matrix(&st16;  102.33  602.9 )">35</text>
	<text style="&st18;" transform="matrix(&st16;  48.66  338.03 )">E</text>
	<text style="&st18;" transform="matrix(&st16;  46.54  560.41 )">5C</text>
	<text style="&st18;" transform="matrix(&st16;  34.35  560.41 )">60</text>
	<text style="&st18;" transform="matrix(&st16;  46.68  602.9 )">5A</text>
	<text style="&st18;" transform="matrix(&st16;  34.35  602.9 )">66</text>
	<text style="&st18;" transform="matrix(&st16;  41.02  652.49 )">10</text>
	<text style="&st18;" transform="matrix(&st16;  222.67  349.92 )">5</text>
	<text style="&st18;" transform="matrix(&st16;  44.98  349.92 )">1</text>
	<text style="&st18;" transform="matrix(&st17;  47.3  434.41 )">W-B</text>
	<text style="&st18;" transform="matrix(&st17;  115.29  540.65 )">W-B</text>
	<text style="&st18;" transform="matrix(&st17;  115.29  638.38 )">W-B</text>
	<text style="&st18;" transform="matrix(&st17;  47.3  638.38 )">W-B</text>
	<text ewd:textID="3" style="&st18;" transform="matrix(&st17;  150.69  454.73 )">Key Inter Lock Solenoid</text>
	<text style="&st18;" transform="matrix(&st17;  143.59  454.73 )">z3</text>
	<text style="&st18;" transform="matrix(&st16;  51.3  56.17 )">7.5A <tspan dy="6" x="0">ACC</tspan></text>
	<text style="&st18;" transform="matrix(&st16;  24.39  32.08 )">(ACC)</text>
	<text style="&st18;" transform="matrix(&st16;  29.69  101.49 )">2B</text>
	<text style="&st18;" transform="matrix(&st16;  18.13  101.49 )">17</text>
	<text style="&st18;" transform="matrix(&st16;  182.66  194.97 )">4A</text>
	<text style="&st18;" transform="matrix(&st16;  170.32  194.97 )">50</text>
	<text style="&st18;" transform="matrix(&st16;  182.52  152.48 )">4C</text>
	<text style="&st18;" transform="matrix(&st16;  170.32  152.48 )">53</text>
	<text style="&st18;" transform="matrix(&st16;  225.15  152.48 )">5B</text>
	<text style="&st18;" transform="matrix(&st16;  212.82  152.48 )">67</text>
	<text style="&st18;" transform="matrix(&st16;  225.01  194.97 )">5C</text>
	<text style="&st18;" transform="matrix(&st16;  212.82  194.97 )">55</text>
	<text style="&st18;" transform="matrix(&st16;  222.19  306.87 )">ACC</text>
	<text style="&st18;" transform="matrix(&st16;  290.67  306.87 )">STP</text>
	<text style="&st18;" transform="matrix(&st16;  259.01  194.97 )">5C</text>
	<text style="&st18;" transform="matrix(&st16;  246.81  194.97 )">58</text>
	<text style="&st18;" transform="matrix(&st16;  259.15  152.48 )">5B</text>
	<text style="&st18;" transform="matrix(&st16;  246.81  152.48 )">35</text>
	<text style="&st18;" transform="matrix(&st16;  87.41  32.08 )">(IG)</text>
	<text style="&st18;" transform="matrix(&st16;  110.79  53.34 )">10A <tspan dy="6" x="0">ECU-IG </tspan><tspan dy="6" x="0">NO.1</tspan></text>
	<text style="&st18;" transform="matrix(&st16;  77.62  101.49 )">31</text>
	<text style="&st18;" transform="matrix(&st16;  89.03  101.49 )">2C</text>
	<text style="&st18;" transform="matrix(&st16;  290.66  295.54 )">4</text>
	<text style="&st18;" transform="matrix(&st16;  222.67  295.54 )">6</text>
	<text style="&st18;" transform="matrix(&st17;  30.3  131.59 )">P</text>
	<text style="&st18;" transform="matrix(&st17;  183.27  131.59 )">P</text>
	<text style="&st18;" transform="matrix(&st17;  225.77  131.59 )">P</text>
	<text style="&st18;" transform="matrix(&st17;  293.75  225.08 )">V</text>
	<text style="&st18;" transform="matrix(&st17;  89.79  132.02 )">G</text>
	<text style="&st18;" transform="matrix(&st16;  148.67  194.97 )">4A</text>
	<text style="&st18;" transform="matrix(&st16;  136.33  194.97 )">64</text>
	<text style="&st18;" transform="matrix(&st16;  148.52  152.48 )">4C</text>
	<text style="&st18;" transform="matrix(&st16;  136.33  152.48 )">20</text>
	<text style="&st18;" transform="matrix(&st17;  259.76  132.02 )">G</text>
	<a ewd:code="Fz2" ewd:figID="19" ewd:figtype="w2w" ewd:pinNo="2" style="cursor:pointer;">
		<path d=" M  127.48,  503.20  L  110.48,  503.20  L  110.48,  511.70  L  127.48,  511.70  L  127.48,  503.20 " style="&st2;"/>
		<text style="&st8;" transform="matrix(&st16;  112.81  509.94 )"><tspan style="&st18;" x="0" y="0">Fz2</tspan></text>
	</a>
	<a ewd:code="Fz2" ewd:figID="20" ewd:figtype="w2w" ewd:pinNo="1" style="cursor:pointer;">
		<path d=" M  237.96,  596.69  L  220.96,  596.69  L  220.96,  605.18  L  237.96,  605.18  L  237.96,  596.69 " style="&st2;"/>
		<text style="&st8;" transform="matrix(&st16;  223.29  603.43 )"><tspan style="&st18;" x="0" y="0">Fz2</tspan></text>
	</a>
	<a ewd:code="FA2" ewd:figID="21" ewd:figtype="w2w" ewd:pinNo="40" style="cursor:pointer;">
		<path d=" M  305.95,  103.77  L  288.95,  103.77  L  288.95,  112.27  L  305.95,  112.27  L  305.95,  103.77 " style="&st2;"/>
		<text style="&st8;" transform="matrix(&st16;  290.68  110.51 )"><tspan style="&st18;" x="0" y="0">FA2</tspan></text>
	</a>
	<a ewd:code="FA2" ewd:figID="22" ewd:figtype="w2w" ewd:pinNo="31" style="cursor:pointer;">
		<path d=" M  467.42,  401.22  L  450.42,  401.22  L  450.42,  409.72  L  467.42,  409.72  L  467.42,  401.22 " style="&st2;"/>
		<text style="&st8;" transform="matrix(&st16;  452.16  407.96 )"><tspan style="&st18;" x="0" y="0">FA2</tspan></text>
	</a>
	<a ewd:code="F2" ewd:figID="23" ewd:figtype="gp" style="cursor:pointer;">
		<path d=" M   40.37,  681.67  L   61.61,  681.67  L   50.99,  697.25  L   40.37,  681.67 " style="&st2;"/>
		<text style="&st8;" transform="matrix(&st16;  46.68  689.83 )"><tspan style="&st18;" x="0" y="0">F2</tspan></text>
	</a>
	<a ewd:code="F2" ewd:figID="24" ewd:figtype="gp" style="cursor:pointer;">
		<path d=" M  448.30,  681.67  L  469.55,  681.67  L  458.92,  697.25  L  448.30,  681.67 " style="&st2;"/>
		<text style="&st8;" transform="matrix(&st16;  454.61  689.83 )"><tspan style="&st18;" x="0" y="0">F2</tspan></text>
	</a>
</g>
</svg>