﻿<?xml version="1.0" encoding="utf-8"?>
<!DOCTYPE svg PUBLIC "-//W3C//DTD SVG 1.0//EN" "http://www.w3.org/TR/2001/REC-SVG-20010904/DTD/svg10.dtd"[
	<!ENTITY ns_flows "http://ns.adobe.com/Flows/1.0/">
	<!ENTITY ns_svg "http://www.w3.org/2000/svg">
	<!ENTITY ns_xlink "http://www.w3.org/1999/xlink">
	<!ENTITY st0 "font-size:7px;font-family:'MS-PGothic';adobe-font-script:japanese;">
	<!ENTITY st1 "font-size:6px;font-family:'ArialMT';">
	<!-- White fill  -->
	<!ENTITY st2 "fill:#FFFFFF;stroke:#000000; stroke-width:1.41;stroke-linecap:round;stroke-linejoin:round;">
	<!-- Yellow fill  -->
	<!ENTITY st3 "fill:#FFFFCC;stroke:#FFFFCC; stroke-width:0.1;stroke-linecap:round;stroke-linejoin:round;">
	<!-- Gray fill  -->
	<!ENTITY st4 "fill:#CCCCCC;stroke:#CCCCCC; stroke-width:0.1;stroke-linecap:round;stroke-linejoin:round;">
	<!-- Light-blue fill -->
	<!ENTITY st5 "fill:#CCECF4;stroke:#000000; stroke-width:1.133;stroke-linecap:round;stroke-linejoin:round;">
	<!ENTITY st6 "fill:none;stroke-linecap:butt; stroke-linejoin:round;">
	<!ENTITY st7 "fill:none;stroke:#000000;stroke-linecap:round;stroke-linejoin:round;">
	<!ENTITY st8 "enable-background:new    ;">
	<!-- Black fill -->
	<!ENTITY st9 "fill:#000000;stroke:#000000; stroke-linecap:round;stroke-linejoin:round;">
	<!-- SRS note   -->
	<!ENTITY st10 "font-size:9px;font-family:'ArialMT';">
	<!ENTITY st11 "font-size:9px;font-family:'Svg Symbol';">
	<!ENTITY st12 "font-size:6px;font-family:'Svg Symbol';">
	<!ENTITY st13 "fill:none;stroke:#ff0000;stroke-linecap:round;stroke-linejoin:round;">
	<!-- Yellow fill  -->
	<!ENTITY st14 "fill:#FFFF00;stroke:#FFFF00; stroke-width:0.1;stroke-linecap:round;stroke-linejoin:round;">
	<!ENTITY st15 "font-size:6px;font-family:'MS-PGothic';adobe-font-script:japanese;">
	<!ENTITY st16 "1.00 0.00 0.00 1.00">
	<!ENTITY st17 "0.00 -1.00 1.00 0.00">
	<!ENTITY st18 "font-size:6px;font-family:'Arial';">
	<!ENTITY st19 "font-size:9px;font-family:'Arial';">
	<!ENTITY st20 "font-size:6px;font-family:'MS-PGothic','MS PGothic';adobe-font-script:japanese;">
	<!ENTITY st21 "font-size:7px;font-family:'MS-PGothic','MS PGothic';adobe-font-script:japanese;">
	<!ATTLIST svg
		xmlns:ewd CDATA #FIXED "http://shcl.co.jp/ewd"
		xmlns:a CDATA #FIXED "http://ns.adobe.com/AdobeSVGViewerExtensions/3.0/"
		ewd:ver CDATA #IMPLIED
	>
	<!ATTLIST a
		ewd:lineID CDATA #IMPLIED
		ewd:groupID CDATA #IMPLIED
		ewd:figtype CDATA #IMPLIED
		ewd:code CDATA #IMPLIED
		ewd:figID CDATA #IMPLIED
		ewd:pinNo CDATA #IMPLIED
		ewd:comment CDATA #IMPLIED >
	<!ATTLIST g
		ewd:lineID CDATA #IMPLIED
		ewd:groupID CDATA #IMPLIED
		ewd:figtype CDATA #IMPLIED
		ewd:code CDATA #IMPLIED
		ewd:figID CDATA #IMPLIED
		ewd:pinNo CDATA #IMPLIED
		ewd:comment CDATA #IMPLIED >
	<!ATTLIST text
		ewd:textID CDATA #IMPLIED >
	<!ATTLIST title
		ewd:textID CDATA #IMPLIED >
]>
<!-- Generator: Shintec Hozumi YS   -->
<svg onload="call_execInitLoadProc_svg('system')" style="overflow:visible;  enable-background:new 0 0 505.744 710.000" viewBox="0 0 505.744 710.000" height="710.000" width="505.744" xml:space="preserve" ewd:ver="L2.1.2.7" xmlns="&ns_svg;" xmlns:a="http://ns.adobe.com/AdobeSVGViewerExtensions/3.0/" xmlns:ewd="http://shcl.co.jp/ewd" xmlns:xlink="&ns_xlink;"><script type="text/javascript" xlink:href="../../../../../system/js/ewd/fig/svgfig.js" xmlns:xlink="http://www.w3.org/1999/xlink" /><defs><font horiz-adv-x="1229"><font-face font-family="Svg Symbol" units-per-em="2048" panose-1="5 5 1 2 1 7 6 2 5 7" ascent="2059" descent="450" alphabetic="0" /><missing-glyph d="M 103,0 l 0,1280 1024,0 0,-1280 -1024,0 z m 32,32 l 960,0 0,1216 -960,0 0,-1216 z" /><glyph unicode="" horiz-adv-x="1573" d="M 1517,0 l -567,0 24,279 q 141,59 207.5,168 66.5,109 66.5,306    0,272 -132.5,417.5 -132.5,145.5 -333.5,145.5 -194,0 -328,-147.5 -134,-147.5 -134,-401.5 0,-200 68.5,-319 68.5,-119     206.5,-169 l 25,-279 -564,0 0,279 35,0 q 3,-61 32,-83 45,-35 137,-35 l 270,0 0,70 q -210,61 -324.5,209 -114.5,148     -114.5,349 0,252 186.5,425 186.5,173 504.5,173 195,0 358.5,-73.5 163.5,-73.5 252,-214.5 88.5,-141 88.5,-310 0,-207     -121.5,-360.5 -121.5,-153.5 -317.5,-197.5 l -8,-70 275,0 q 92,0 128,28 36,28 42,90 l 38,0 0,-279 z" /></font></defs>
<g id="ewd_top"><a ewd:code="FUSE18" ewd:figID="1" ewd:figtype="rb" style="cursor:pointer;"><path d=" M  471.67,   78.27  L  471.67,   35.78  L  446.18,   35.78  L  446.18,   78.27  L  471.67,   78.27 " style="&st5;" /></a><a ewd:code="F64" ewd:figID="2" ewd:figtype="conn" style="cursor:pointer;"><path d=" M   42.49,  656.18  L  127.48,  656.18  L  127.48,  673.17  L   42.49,  673.17  L   42.49,  656.18 " style="&st5;" /><title ewd:textID="2">Junction Connector</title></a><a ewd:code="F75" ewd:figID="3" ewd:figtype="conn" style="cursor:pointer;"><path d=" M   33.99,  299.24  L   33.99,  341.73  L  254.96,  341.73  L  254.96,  401.22  L  433.43,  401.22  L  433.43,  299.24  L   33.99,  299.24 " style="&st5;" /><title ewd:textID="4">Shift Lock Control ECU Sub-Assembly</title></a><a ewd:code="z3" ewd:figID="4" ewd:figtype="conn" style="cursor:pointer;"><path d=" M  101.98,  401.22  L  101.98,  452.21  L  135.98,  452.21  L  135.98,  401.22  L  101.98,  401.22 " style="&st5;" /><title ewd:textID="3">Key Inter Lock Solenoid</title></a><a ewd:code="A36" ewd:figID="5" ewd:figtype="conn" style="cursor:pointer;"><path d=" M  339.94,  137.76  L  339.94,  154.76  L  356.94,  154.76  L  356.94,  137.76  L  339.94,  137.76 " style="&st5;" /><title ewd:textID="2">Junction Connector</title></a><a ewd:code="F64" ewd:figID="6" ewd:figtype="conn" style="cursor:pointer;"><path d=" M  450.42,  656.18  L  450.42,  673.17  L  467.42,  673.17  L  467.42,  656.18  L  450.42,  656.18 " style="&st5;" /><title ewd:textID="2">Junction Connector</title></a><a ewd:code="A47" ewd:figID="7" ewd:figtype="conn" style="cursor:pointer;"><path d=" M  390.93,  214.25  L  475.92,  214.25  L  475.92,  171.76  L  390.93,  171.76  L  390.93,  214.25 " style="&st5;" /><title ewd:textID="6">Stop Light Switch Assembly</title></a><a ewd:code="4" ewd:figID="8" ewd:figtype="jb" style="cursor:pointer;"><path d=" M  135.98,  146.26  L  135.98,  197.25  L  195.47,  197.25  L  195.47,  146.26  L  135.98,  146.26 " style="&st4;" /></a><a ewd:code="5" ewd:figID="9" ewd:figtype="jb" style="cursor:pointer;"><path d=" M  212.46,  146.26  L  212.46,  197.25  L  305.95,  197.25  L  305.95,  146.26  L  212.46,  146.26 " style="&st4;" /></a><a ewd:code="2" ewd:figID="10" ewd:figtype="jb" style="cursor:pointer;"><path d=" M   17.00,   35.78  L   17.00,  103.77  L  135.98,  103.77  L  135.98,   35.78  L   17.00,   35.78 " style="&st4;" /></a><a ewd:code="4" ewd:figID="11" ewd:figtype="jb" style="cursor:pointer;"><path d=" M  101.98,  554.19  L  101.98,  605.18  L  127.48,  605.18  L  127.48,  554.19  L  101.98,  554.19 " style="&st4;" /></a><a ewd:code="4" ewd:figID="12" ewd:figtype="jb" style="cursor:pointer;"><path d=" M  441.93,  562.69  L  467.42,  562.69  L  467.42,  511.70  L  441.93,  511.70  L  441.93,  562.69 " style="&st4;" /></a><a ewd:code="5" ewd:figID="13" ewd:figtype="jb" style="cursor:pointer;"><path d=" M   33.99,  554.19  L   33.99,  605.18  L   59.49,  605.18  L   59.49,  554.19  L   33.99,  554.19 " style="&st4;" /></a><a ewd:code="4" ewd:figID="14" ewd:figtype="jb" style="cursor:pointer;"><path d=" M  212.46,  503.20  L  212.46,  554.19  L  237.96,  554.19  L  237.96,  503.20  L  212.46,  503.20 " style="&st4;" /></a><a ewd:code="5" ewd:figID="15" ewd:figtype="jb" style="cursor:pointer;"><path d=" M  212.46,  401.22  L  212.46,  452.21  L  237.96,  452.21  L  237.96,  401.22  L  212.46,  401.22 " style="&st4;" /></a><a ewd:code="FUSE44" ewd:figID="16" ewd:figtype="fuse" style="cursor:pointer;"><path d=" M   46.74,   78.27  L   46.74,   35.78  L   21.25,   35.78  L   21.25,   78.27  L   46.74,   78.27 " style="&st7;" /></a><a ewd:code="FUSE52" ewd:figID="17" ewd:figtype="fuse" style="cursor:pointer;"><path d=" M  106.23,   78.27  L  106.23,   35.78  L   80.74,   35.78  L   80.74,   78.27  L  106.23,   78.27 " style="&st7;" /></a><a ewd:code="FUSE18" ewd:figID="18" ewd:figtype="fuse" style="cursor:pointer;"><path d=" M  471.67,   78.27  L  471.67,   35.78  L  446.18,   35.78  L  446.18,   78.27  L  471.67,   78.27 " style="&st7;" /></a><a ewd:lineID="1" style="cursor:pointer;"><path d=" M   33.99,  103.77  L   33.99,  265.24  L  186.97,  265.24  L  186.97,  197.25 " style="stroke:#F668B2;stroke-width: 5.10 ;&st6;" /></a><a ewd:lineID="2" style="cursor:pointer;"><path d=" M   50.99,  656.18  L   50.99,  605.18 " style="stroke:#000000;stroke-width: 5.10 ;&st6;" /><path d=" M   50.99,  656.18  L   50.99,  605.18 " style="stroke:#FFFFFF;stroke-width: 4.53 ;&st6;" /><path d=" M   50.99,  656.18  L   50.99,  605.18 " style="stroke:#000000;stroke-width: 1.13 ;&st6;" /></a><a ewd:lineID="3" style="cursor:pointer;"><path d=" M   50.99,  554.19  L   50.99,  341.73 " style="stroke:#000000;stroke-width: 5.10 ;&st6;" /><path d=" M   50.99,  554.19  L   50.99,  341.73 " style="stroke:#FFFFFF;stroke-width: 4.53 ;&st6;" /><path d=" M   50.99,  554.19  L   50.99,  341.73 " style="stroke:#000000;stroke-width: 1.13 ;&st6;" /></a><a ewd:lineID="4" style="cursor:pointer;"><path d=" M   93.48,  103.77  L   93.48,  231.25  L  152.97,  231.25  L  152.97,  197.25 " style="stroke:#008837;stroke-width: 5.10 ;&st6;" /></a><a ewd:lineID="5" style="cursor:pointer;"><path d=" M  118.98,  605.18  L  118.98,  656.18 " style="stroke:#000000;stroke-width: 5.10 ;&st6;" /><path d=" M  118.98,  605.18  L  118.98,  656.18 " style="stroke:#FFFFFF;stroke-width: 4.53 ;&st6;" /><path d=" M  118.98,  605.18  L  118.98,  656.18 " style="stroke:#000000;stroke-width: 1.13 ;&st6;" /></a><a ewd:lineID="6" style="cursor:pointer;"><path d=" M  118.98,  511.70  L  118.98,  554.19 " style="stroke:#000000;stroke-width: 5.10 ;&st6;" /><path d=" M  118.98,  511.70  L  118.98,  554.19 " style="stroke:#FFFFFF;stroke-width: 4.53 ;&st6;" /><path d=" M  118.98,  511.70  L  118.98,  554.19 " style="stroke:#000000;stroke-width: 1.13 ;&st6;" /></a><a ewd:lineID="7" style="cursor:pointer;"><path d=" M  118.98,  452.21  L  118.98,  496.69 " style="stroke:#008837;stroke-width: 5.10 ;&st6;" /><path d=" M  118.98,  452.21  L  118.98,  496.69 " style="stroke:#FFFFFF;stroke-width: 2.27 ;&st6;" /><path d=" M  118.98,  452.21  L  118.98,  496.69 " style="stroke:#000000;stroke-width: 1.13 ;&st6;" /></a><a ewd:lineID="8" style="cursor:pointer;"><path d=" M  229.46,  611.42  L  229.46,  630.68  L  178.47,  630.68  L  178.47,  358.73  L  118.98,  358.73  L  118.98,  401.22 " style="stroke:#008837;stroke-width: 5.10 ;&st6;" /></a><a ewd:lineID="9" style="cursor:pointer;"><path d=" M  263.46,  146.26  L  263.46,   61.28  L  152.97,   61.28  L  152.97,  146.26 " style="stroke:#008837;stroke-width: 5.10 ;&st6;" /></a><a ewd:lineID="10" style="cursor:pointer;"><path d=" M  186.97,  146.26  L  186.97,   78.27  L  229.46,   78.27  L  229.46,  146.26 " style="stroke:#F668B2;stroke-width: 5.10 ;&st6;" /></a><a ewd:lineID="11" style="cursor:pointer;"><path d=" M  229.46,  554.19  L  229.46,  596.69 " style="stroke:#000000;stroke-width: 5.10 ;&st6;" /></a><a ewd:lineID="12" style="cursor:pointer;"><path d=" M  229.46,  452.21  L  229.46,  503.20 " style="stroke:#000000;stroke-width: 5.10 ;&st6;" /></a><a ewd:lineID="13" style="cursor:pointer;"><path d=" M  229.46,  401.22  L  229.46,  341.73 " style="stroke:#000000;stroke-width: 5.10 ;&st6;" /></a><a ewd:lineID="14" style="cursor:pointer;"><path d=" M  229.46,  197.25  L  229.46,  299.24 " style="stroke:#F668B2;stroke-width: 5.10 ;&st6;" /></a><a ewd:lineID="15" style="cursor:pointer;"><path d=" M  263.46,  299.24  L  263.46,  197.25 " style="stroke:#008837;stroke-width: 5.10 ;&st6;" /></a><a ewd:lineID="16" style="cursor:pointer;"><path d=" M  297.45,  197.25  L  297.45,  299.24 " style="stroke:#56077D;stroke-width: 5.10 ;&st6;" /></a><a ewd:lineID="17" style="cursor:pointer;"><path d=" M  297.45,  146.26  L  297.45,  112.27 " style="stroke:#56077D;stroke-width: 5.10 ;&st6;" /></a><a ewd:lineID="18" style="cursor:pointer;"><path d=" M  297.45,   97.25  L  297.45,   61.28  L  348.44,   61.28  L  348.44,  137.76 " style="stroke:#56077D;stroke-width: 5.10 ;&st6;" /><path d=" M  297.45,   97.25  L  297.45,   61.28  L  348.44,   61.28  L  348.44,  137.76 " style="stroke:#FFFFFF;stroke-width: 2.27 ;&st6;" /><path d=" M  297.45,   97.25  L  297.45,   61.28  L  348.44,   61.28  L  348.44,  137.76 " style="stroke:#008837;stroke-width: 1.13 ;&st6;" /></a><a ewd:lineID="19" style="cursor:pointer;"><path d=" M  407.93,  214.25  L  407.93,  265.24  L  348.44,  265.24  L  348.44,  154.76 " style="stroke:#56077D;stroke-width: 5.10 ;&st6;" /><path d=" M  407.93,  214.25  L  407.93,  265.24  L  348.44,  265.24  L  348.44,  154.76 " style="stroke:#FFFFFF;stroke-width: 2.27 ;&st6;" /><path d=" M  407.93,  214.25  L  407.93,  265.24  L  348.44,  265.24  L  348.44,  154.76 " style="stroke:#008837;stroke-width: 1.13 ;&st6;" /></a><a ewd:lineID="20" style="cursor:pointer;"><path d=" M  458.92,  656.18  L  458.92,  562.69 " style="stroke:#000000;stroke-width: 5.10 ;&st6;" /><path d=" M  458.92,  656.18  L  458.92,  562.69 " style="stroke:#FFFFFF;stroke-width: 4.53 ;&st6;" /><path d=" M  458.92,  656.18  L  458.92,  562.69 " style="stroke:#000000;stroke-width: 1.13 ;&st6;" /></a><a ewd:lineID="21" style="cursor:pointer;"><path d=" M  458.92,  511.70  L  458.92,  409.72 " style="stroke:#000000;stroke-width: 5.10 ;&st6;" /><path d=" M  458.92,  511.70  L  458.92,  409.72 " style="stroke:#FFFFFF;stroke-width: 4.53 ;&st6;" /><path d=" M  458.92,  511.70  L  458.92,  409.72 " style="stroke:#000000;stroke-width: 1.13 ;&st6;" /></a><a ewd:lineID="22" style="cursor:pointer;"><path d=" M  458.92,  394.99  L  458.92,  214.25 " style="stroke:#000000;stroke-width: 5.10 ;&st6;" /><path d=" M  458.92,  394.99  L  458.92,  214.25 " style="stroke:#FFFFFF;stroke-width: 4.53 ;&st6;" /><path d=" M  458.92,  394.99  L  458.92,  214.25 " style="stroke:#000000;stroke-width: 1.13 ;&st6;" /></a><a ewd:lineID="23" style="cursor:pointer;"><path d=" M  458.92,  103.77  L  458.92,  171.76 " style="stroke:#FF0000;stroke-width: 5.10 ;&st6;" /></a><a ewd:code="Fz2" ewd:figID="19" ewd:figtype="w2w" ewd:pinNo="2" style="cursor:pointer;"><path d=" M  127.48,  503.20  L  110.48,  503.20  L  110.48,  511.70  L  127.48,  511.70  L  127.48,  503.20 " style="&st2;" /><text style="&st8;" transform="matrix(&st16;  112.81  509.94 )"><tspan style="&st18;" x="0" y="0">Fz2</tspan></text></a><a ewd:code="Fz2" ewd:figID="20" ewd:figtype="w2w" ewd:pinNo="1" style="cursor:pointer;"><path d=" M  237.96,  596.69  L  220.96,  596.69  L  220.96,  605.18  L  237.96,  605.18  L  237.96,  596.69 " style="&st2;" /><text style="&st8;" transform="matrix(&st16;  223.29  603.43 )"><tspan style="&st18;" x="0" y="0">Fz2</tspan></text></a><a ewd:code="FA2" ewd:figID="21" ewd:figtype="w2w" ewd:pinNo="40" style="cursor:pointer;"><path d=" M  305.95,  103.77  L  288.95,  103.77  L  288.95,  112.27  L  305.95,  112.27  L  305.95,  103.77 " style="&st2;" /><text style="&st8;" transform="matrix(&st16;  290.68  110.51 )"><tspan style="&st18;" x="0" y="0">FA2</tspan></text></a><a ewd:code="FA2" ewd:figID="22" ewd:figtype="w2w" ewd:pinNo="31" style="cursor:pointer;"><path d=" M  467.42,  401.22  L  450.42,  401.22  L  450.42,  409.72  L  467.42,  409.72  L  467.42,  401.22 " style="&st2;" /><text style="&st8;" transform="matrix(&st16;  452.16  407.96 )"><tspan style="&st18;" x="0" y="0">FA2</tspan></text></a><a ewd:code="F2" ewd:figID="23" ewd:figtype="gp" style="cursor:pointer;"><path d=" M   40.37,  681.67  L   61.61,  681.67  L   50.99,  697.25  L   40.37,  681.67 " style="&st2;" /><text style="&st8;" transform="matrix(&st16;  46.68  689.83 )"><tspan style="&st18;" x="0" y="0">F2</tspan></text></a><a ewd:code="F2" ewd:figID="24" ewd:figtype="gp" style="cursor:pointer;"><path d=" M  448.30,  681.67  L  469.55,  681.67  L  458.92,  697.25  L  448.30,  681.67 " style="&st2;" /><text style="&st8;" transform="matrix(&st16;  454.61  689.83 )"><tspan style="&st18;" x="0" y="0">F2</tspan></text></a></g></svg>