﻿<?xml version="1.0" encoding="utf-8"?>
<!DOCTYPE svg PUBLIC "-//W3C//DTD SVG 1.0//EN" "http://www.w3.org/TR/2001/REC-SVG-20010904/DTD/svg10.dtd"[
	<!ENTITY ns_flows "http://ns.adobe.com/Flows/1.0/">
	<!ENTITY ns_svg "http://www.w3.org/2000/svg">
	<!ENTITY ns_xlink "http://www.w3.org/1999/xlink">
	<!ENTITY st0 "font-size:7px;font-family:'MS-PGothic';adobe-font-script:japanese;">
	<!ENTITY st1 "font-size:6px;font-family:'ArialMT';">
	<!-- White fill  -->
	<!ENTITY st2 "fill:#FFFFFF;stroke:#000000; stroke-width:1.41;stroke-linecap:round;stroke-linejoin:round;">
	<!-- Yellow fill  -->
	<!ENTITY st3 "fill:#FFFFCC;stroke:#FFFFCC; stroke-width:0.1;stroke-linecap:round;stroke-linejoin:round;">
	<!-- Gray fill  -->
	<!ENTITY st4 "fill:#CCCCCC;stroke:#CCCCCC; stroke-width:0.1;stroke-linecap:round;stroke-linejoin:round;">
	<!-- Light-blue fill -->
	<!ENTITY st5 "fill:#CCECF4;stroke:#000000; stroke-width:1.133;stroke-linecap:round;stroke-linejoin:round;">
	<!ENTITY st6 "fill:none;stroke-linecap:butt; stroke-linejoin:round;">
	<!ENTITY st7 "fill:none;stroke:#000000;stroke-linecap:round;stroke-linejoin:round;">
	<!ENTITY st8 "enable-background:new    ;">
	<!-- Black fill -->
	<!ENTITY st9 "fill:#000000;stroke:#000000; stroke-linecap:round;stroke-linejoin:round;">
	<!-- SRS note   -->
	<!ENTITY st10 "font-size:9px;font-family:'ArialMT';">
	<!ENTITY st11 "font-size:9px;font-family:'Svg Symbol';">
	<!ENTITY st12 "font-size:6px;font-family:'Svg Symbol';">
	<!ENTITY st13 "fill:none;stroke:#ff0000;stroke-linecap:round;stroke-linejoin:round;">
	<!-- Yellow fill  -->
	<!ENTITY st14 "fill:#FFFF00;stroke:#FFFF00; stroke-width:0.1;stroke-linecap:round;stroke-linejoin:round;">
	<!ENTITY st15 "font-size:6px;font-family:'MS-PGothic';adobe-font-script:japanese;">
	<!ENTITY st16 "1.00 0.00 0.00 1.00">
	<!ENTITY st17 "0.00 -1.00 1.00 0.00">
	<!ENTITY st18 "font-size:6px;font-family:'Arial';">
	<!ENTITY st19 "font-size:9px;font-family:'Arial';">
	<!ENTITY st20 "font-size:6px;font-family:'MS-PGothic','MS PGothic';adobe-font-script:japanese;">
	<!ENTITY st21 "font-size:7px;font-family:'MS-PGothic','MS PGothic';adobe-font-script:japanese;">
	<!ATTLIST svg
		xmlns:ewd CDATA #FIXED "http://shcl.co.jp/ewd"
		xmlns:a CDATA #FIXED "http://ns.adobe.com/AdobeSVGViewerExtensions/3.0/"
		ewd:ver CDATA #IMPLIED
	>
	<!ATTLIST a
		ewd:lineID CDATA #IMPLIED
		ewd:groupID CDATA #IMPLIED
		ewd:figtype CDATA #IMPLIED
		ewd:code CDATA #IMPLIED
		ewd:figID CDATA #IMPLIED
		ewd:pinNo CDATA #IMPLIED
		ewd:comment CDATA #IMPLIED >
	<!ATTLIST g
		ewd:lineID CDATA #IMPLIED
		ewd:groupID CDATA #IMPLIED
		ewd:figtype CDATA #IMPLIED
		ewd:code CDATA #IMPLIED
		ewd:figID CDATA #IMPLIED
		ewd:pinNo CDATA #IMPLIED
		ewd:comment CDATA #IMPLIED >
	<!ATTLIST text
		ewd:textID CDATA #IMPLIED >
	<!ATTLIST title
		ewd:textID CDATA #IMPLIED >
]>
<!-- Generator: Shintec Hozumi YS   -->
<svg onload="call_execInitLoadProc_svg('system')" style="overflow:visible;  enable-background:new 0 0 4643.058 710.000" viewBox="0 0 4643.058 710.000" height="710.000" width="4643.058" xml:space="preserve" ewd:ver="L2.1.2.7" xmlns="&ns_svg;" xmlns:a="http://ns.adobe.com/AdobeSVGViewerExtensions/3.0/" xmlns:ewd="http://shcl.co.jp/ewd" xmlns:xlink="&ns_xlink;">
<path d=" M 4563.74,  435.21  L 4555.24,  435.21 " style="stroke-width: 1.42 ;&st7; " /><path d=" M 4640.22,  435.21  L 4631.73,  435.21 " style="stroke-width: 1.42 ;&st7; " /><path d=" M 4559.49,  440.88  L 4555.24,  436.63  L 4550.99,  440.88 " style="stroke-width: 1.42 ;&st7; " /><path d=" M 4559.49,  444.28  L 4555.24,  440.03  L 4550.99,  444.28 " style="stroke-width: 1.42 ;&st7; " /><path d=" M 4635.97,  444.28  L 4631.72,  440.03  L 4627.47,  444.28 " style="stroke-width: 1.42 ;&st7; " /><path d=" M 4635.97,  440.88  L 4631.72,  436.63  L 4627.47,  440.88 " style="stroke-width: 1.42 ;&st7; " /><path d=" M 4500.28,  549.66  C 4500.28   547.16  4498.25   545.13  4495.75   545.13 " style="stroke-width: 1.42 ;&st7; " /><path d=" M 4559.77,  549.66  C 4559.77   547.16  4557.74   545.13  4555.24   545.13 " style="stroke-width: 1.42 ;&st7; " /><path d=" M 4555.24,  545.13  C 4552.74   545.13  4550.71   547.16  4550.71   549.66 " style="stroke-width: 1.42 ;&st7; " /><path d=" M 4550.71,  549.66  C 4550.71   552.16  4552.74   554.19  4555.24   554.19 " style="stroke-width: 1.42 ;&st7; " /><path d=" M 4555.24,  554.19  C 4557.74   554.19  4559.77   552.16  4559.77   549.66 " style="stroke-width: 1.42 ;&st7; " /><path d=" M 4500.28,  261.27  C 4500.28   258.77  4498.25   256.74  4495.75   256.74 " style="stroke-width: 1.42 ;&st7; " /><text style="&st18;" transform="matrix(&st17;  4511.86  352.75 )">F60</text><text ewd:textID="42" style="&st18;" transform="matrix(&st17;  4518.97  352.75 )">Junction <tspan dy="6" x="0">Connector</tspan></text><text style="&st18;" transform="matrix(&st16;  4552.91  551.63 )">A</text><text style="&st18;" transform="matrix(&st16;  4541.18  551.63 )">17</text><text ewd:textID="42" style="&st18;" transform="matrix(&st16;  4566.88  563.24 )">Junction <tspan dy="6" x="0">Connector</tspan></text><text style="&st18;" transform="matrix(&st16;  4566.88  556.14 )">G13(A)</text><text style="&st18;" transform="matrix(&st16;  4536.47  432.93 )">55</text><text style="&st18;" transform="matrix(&st17;  4551.54  506.56 )">W</text><text style="&st18;" transform="matrix(&st16;  4612.96  432.93 )">54</text><text style="&st18;" transform="matrix(&st16;  4584.57  525.0 )">SB</text><text style="&st18;" transform="matrix(&st17;  4551.54  396.07 )">W</text><text style="&st18;" transform="matrix(&st17;  4628.03  397.38 )">SB</text></svg>