﻿<?xml version="1.0" encoding="utf-8"?>
<!DOCTYPE svg PUBLIC "-//W3C//DTD SVG 1.0//EN" "http://www.w3.org/TR/2001/REC-SVG-20010904/DTD/svg10.dtd"[
	<!ENTITY ns_flows "http://ns.adobe.com/Flows/1.0/">
	<!ENTITY ns_svg "http://www.w3.org/2000/svg">
	<!ENTITY ns_xlink "http://www.w3.org/1999/xlink">
	<!ENTITY st0 "font-size:7px;font-family:'MS-PGothic';adobe-font-script:japanese;">
	<!ENTITY st1 "font-size:6px;font-family:'ArialMT';">
	<!-- White fill  -->
	<!ENTITY st2 "fill:#FFFFFF;stroke:#000000; stroke-width:1.41;stroke-linecap:round;stroke-linejoin:round;">
	<!-- Yellow fill  -->
	<!ENTITY st3 "fill:#FFFFCC;stroke:#FFFFCC; stroke-width:0.1;stroke-linecap:round;stroke-linejoin:round;">
	<!-- Gray fill  -->
	<!ENTITY st4 "fill:#CCCCCC;stroke:#CCCCCC; stroke-width:0.1;stroke-linecap:round;stroke-linejoin:round;">
	<!-- Light-blue fill -->
	<!ENTITY st5 "fill:#CCECF4;stroke:#000000; stroke-width:1.133;stroke-linecap:round;stroke-linejoin:round;">
	<!ENTITY st6 "fill:none;stroke-linecap:butt; stroke-linejoin:round;">
	<!ENTITY st7 "fill:none;stroke:#000000;stroke-linecap:round;stroke-linejoin:round;">
	<!ENTITY st8 "enable-background:new    ;">
	<!-- Black fill -->
	<!ENTITY st9 "fill:#000000;stroke:#000000; stroke-linecap:round;stroke-linejoin:round;">
	<!-- SRS note   -->
	<!ENTITY st10 "font-size:9px;font-family:'ArialMT';">
	<!ENTITY st11 "font-size:9px;font-family:'Svg Symbol';">
	<!ENTITY st12 "font-size:6px;font-family:'Svg Symbol';">
	<!ENTITY st13 "fill:none;stroke:#ff0000;stroke-linecap:round;stroke-linejoin:round;">
	<!-- Yellow fill  -->
	<!ENTITY st14 "fill:#FFFF00;stroke:#FFFF00; stroke-width:0.1;stroke-linecap:round;stroke-linejoin:round;">
	<!ENTITY st15 "font-size:6px;font-family:'MS-PGothic';adobe-font-script:japanese;">
	<!ENTITY st16 "1.00 0.00 0.00 1.00">
	<!ENTITY st17 "0.00 -1.00 1.00 0.00">
	<!ENTITY st18 "font-size:6px;font-family:'Arial';">
	<!ENTITY st19 "font-size:9px;font-family:'Arial';">
	<!ENTITY st20 "font-size:6px;font-family:'MS-PGothic','MS PGothic';adobe-font-script:japanese;">
	<!ENTITY st21 "font-size:7px;font-family:'MS-PGothic','MS PGothic';adobe-font-script:japanese;">
	<!ATTLIST svg
		xmlns:ewd CDATA #FIXED "http://shcl.co.jp/ewd"
		xmlns:a CDATA #FIXED "http://ns.adobe.com/AdobeSVGViewerExtensions/3.0/"
		ewd:ver CDATA #IMPLIED
	>
	<!ATTLIST a
		ewd:lineID CDATA #IMPLIED
		ewd:groupID CDATA #IMPLIED
		ewd:figtype CDATA #IMPLIED
		ewd:code CDATA #IMPLIED
		ewd:figID CDATA #IMPLIED
		ewd:pinNo CDATA #IMPLIED
		ewd:comment CDATA #IMPLIED >
	<!ATTLIST g
		ewd:lineID CDATA #IMPLIED
		ewd:groupID CDATA #IMPLIED
		ewd:figtype CDATA #IMPLIED
		ewd:code CDATA #IMPLIED
		ewd:figID CDATA #IMPLIED
		ewd:pinNo CDATA #IMPLIED
		ewd:comment CDATA #IMPLIED >
	<!ATTLIST text
		ewd:textID CDATA #IMPLIED >
	<!ATTLIST title
		ewd:textID CDATA #IMPLIED >
]>
<!-- Generator: Shintec Hozumi YS   -->
<svg onload="call_execInitLoadProc_svg('system')" style="overflow:visible;  enable-background:new 0 0 801.699 710.000" viewBox="0 0 801.699 710.000" height="710.000" width="801.699" xml:space="preserve" ewd:ver="L2.1.2.7" xmlns="&ns_svg;" xmlns:a="http://ns.adobe.com/AdobeSVGViewerExtensions/3.0/" xmlns:ewd="http://shcl.co.jp/ewd" xmlns:xlink="&ns_xlink;">
<path d=" M  792.49,  180.26  L  788.24,  180.26 " style="stroke-width: 1.42 ;&st7; " /><path d=" M  792.49,  171.76  L  788.24,  171.76 " style="stroke-width: 1.42 ;&st7; " /><path d=" M  792.49,  137.76  L  788.24,  137.76 " style="stroke-width: 1.42 ;&st7; " /><path d=" M  792.49,  129.26  L  788.24,  129.26 " style="stroke-width: 1.42 ;&st7; " /><path d=" M  679.89,  197.25  L  688.38,  197.25 " style="stroke-width: 1.42 ;&st7; " /><path d=" M  792.49,  299.24  L  788.24,  299.24 " style="stroke-width: 1.42 ;&st7; " /><path d=" M  792.49,  290.74  L  788.24,  290.74 " style="stroke-width: 1.42 ;&st7; " /><path d=" M  792.49,  256.74  L  788.24,  256.74 " style="stroke-width: 1.42 ;&st7; " /><path d=" M  792.49,  248.24  L  788.24,  248.24 " style="stroke-width: 1.42 ;&st7; " /><path d=" M  781.87,  401.22  L  790.37,  401.22 " style="stroke-width: 1.42 ;&st7; " /><path d=" M  603.40,  125.01  L  599.15,  125.01 " style="stroke-width: 1.42 ;&st7; " /><path d=" M  599.15,  116.52  L  603.40,  116.52 " style="stroke-width: 1.42 ;&st7; " /><path d=" M  631.02,  146.26  L  626.77,  146.26 " style="stroke-width: 1.42 ;&st7; " /><path d=" M  631.02,  137.76  L  626.77,  137.76 " style="stroke-width: 1.42 ;&st7; " /><path d=" M  690.51,  146.26  L  686.26,  146.26 " style="stroke-width: 1.42 ;&st7; " /><path d=" M  690.51,  137.76  L  686.26,  137.76 " style="stroke-width: 1.42 ;&st7; " /><path d=" M  692.63,  191.59  L  688.38,  195.84  L  684.14,  191.59 " style="stroke-width: 1.42 ;&st7; " /><path d=" M  662.89,  401.22  L  713.88,  401.22  L  713.88,  418.22  L  662.89,  418.22  L  662.89,  401.22 " style="stroke-width: 1.42 ;&st7; " /><path d=" M  671.39,  401.22  L  671.39,  418.22 " style="stroke-width: 0.85 ;&st7; " /><path d=" M  790.37,  171.76  L  790.37,  137.76 " style="stroke-width: 0.85 ;&st7; " /><path d=" M  790.37,  166.86  L  787.53,  164.03  L  787.53,  168.28  L  790.37,  171.11  L  793.20,  168.28  L  793.20,  164.03  L  790.37,  166.86 " style="stroke-width: 0.28 ;&st9;" /><path d=" M  790.37,  142.66  L  793.20,  145.49  L  793.20,  141.24  L  790.37,  138.41  L  787.53,  141.24  L  787.53,  145.49  L  790.37,  142.66 " style="stroke-width: 0.28 ;&st9;" /><path d=" M  790.37,  285.84  L  787.53,  283.01  L  787.53,  287.26  L  790.37,  290.09  L  793.20,  287.26  L  793.20,  283.01  L  790.37,  285.84 " style="stroke-width: 0.28 ;&st9;" /><path d=" M  790.37,  261.64  L  793.20,  264.47  L  793.20,  260.22  L  790.37,  257.39  L  787.53,  260.22  L  787.53,  264.47  L  790.37,  261.64 " style="stroke-width: 0.28 ;&st9;" /><path d=" M  627.70,  119.76  L  627.43,  120.23  L  627.34,  120.77  L  627.43,  121.30  L  627.70,  121.77  L  628.12,  122.11  L  628.62,  122.30  L  629.17,  122.30  L  629.67,  122.11  L  630.09,  121.77  L  630.36,  121.30  L  630.45,  120.77  L  630.36,  120.23  L  630.09,  119.76  L  629.67,  119.42  L  629.17,  119.23  L  628.62,  119.23  L  628.12,  119.42  L  627.70,  119.76  L  628.10,  120.47  L  628.10,  121.06  L  628.47,  121.50  L  629.04,  121.60  L  629.55,  121.31  L  629.74,  120.77  L  629.55,  120.22  L  629.04,  119.93  L  628.47,  120.03  L  628.89,  120.77 " style="stroke-width: 0.85 ;&st7; " /><path d=" M  786.12,  392.15  L  790.37,  396.40  L  794.62,  392.15 " style="stroke-width: 1.42 ;&st7; " /><path d=" M  794.62,  395.55  L  790.37,  399.80  L  786.12,  395.55 " style="stroke-width: 1.42 ;&st7; " /><path d=" M  670.19,  408.71  L  669.92,  409.18  L  669.83,  409.72  L  669.92,  410.25  L  670.19,  410.72  L  670.61,  411.07  L  671.12,  411.25  L  671.66,  411.25  L  672.17,  411.07  L  672.58,  410.72  L  672.85,  410.25  L  672.95,  409.72  L  672.85,  409.18  L  672.58,  408.71  L  672.17,  408.37  L  671.66,  408.18  L  671.12,  408.18  L  670.61,  408.37  L  670.19,  408.71  L  670.59,  409.43  L  670.59,  410.01  L  670.96,  410.45  L  671.53,  410.55  L  672.04,  410.26  L  672.24,  409.72  L  672.04,  409.17  L  671.53,  408.88  L  670.96,  408.98  L  671.39,  409.72 " style="stroke-width: 0.85 ;&st7; " /><path d=" M  684.14,  188.19  L  688.38,  192.44  L  692.63,  188.19 " style="stroke-width: 1.42 ;&st7; " /><path d=" M  645.89,  248.24  L  696.88,  248.24  L  696.88,  299.24  L  645.89,  299.24  L  645.89,  248.24 " style="stroke-width: 1.42 ;&st7; " /><path d=" M  645.89,  282.24  L  696.88,  282.24 " style="stroke-width: 0.85 ;&st7; " /><path d=" M  662.89,  248.24  L  662.89,  299.24 " style="stroke-width: 0.85 ;&st7; " /><path d=" M  679.89,  248.24  L  679.89,  299.24 " style="stroke-width: 0.85 ;&st7; " /><path d=" M  686.97,  273.74  L  672.80,  273.74 " style="stroke-width: 0.85 ;&st7; " /><path d=" M  672.80,  290.74  L  686.97,  290.74 " style="stroke-width: 0.85 ;&st7; " /><path d=" M  696.88,  265.24  L  645.89,  265.24 " style="stroke-width: 0.85 ;&st7; " /><path d=" M  671.39,  409.72  L  705.38,  409.72  L  705.38,  418.22 " style="stroke-width: 0.85 ;&st7; " /><path d=" M  790.37,  290.74  L  790.37,  256.74 " style="stroke-width: 0.85 ;&st7; " /><path d=" M  628.89,  137.76  L  628.89,  120.77 " style="stroke-width: 0.85 ;&st7; " /><path d=" M  607.65,  120.77  L  688.38,  120.77  L  688.38,  137.76 " style="stroke-width: 0.85 ;&st7; " /><path d=" M  612.54,  120.77  L  615.38,  117.93  L  611.13,  117.93  L  608.29,  120.77  L  611.13,  123.60  L  615.38,  123.60  L  612.54,  120.77 " style="stroke-width: 0.28 ;&st9;" /><path d=" M  628.89,  132.87  L  626.06,  130.03  L  626.06,  134.28  L  628.89,  137.12  L  631.73,  134.28  L  631.73,  130.03  L  628.89,  132.87 " style="stroke-width: 0.28 ;&st9;" /><path d=" M  688.38,  132.87  L  685.55,  130.03  L  685.55,  134.28  L  688.38,  137.12  L  691.22,  134.28  L  691.22,  130.03  L  688.38,  132.87 " style="stroke-width: 0.28 ;&st9;" /><path d=" M  611.90,  554.19  L  611.90,  588.19  L  688.38,  588.19  L  688.38,  554.19  L  611.90,  554.19 " style="stroke-width: 1.42 ;&st7; " /><path d=" M  796.74,  176.01  C  796.74   173.66   794.84   171.76   792.49   171.76 " style="stroke-width: 1.42 ;&st7; " /><path d=" M  792.49,  180.26  C  794.84   180.26   796.74   178.35   796.74   176.01 " style="stroke-width: 1.42 ;&st7; " /><path d=" M  783.99,  176.01  C  783.99   178.35   785.90   180.26   788.24   180.26 " style="stroke-width: 1.42 ;&st7; " /><path d=" M  788.24,  171.76  C  785.90   171.76   783.99   173.66   783.99   176.01 " style="stroke-width: 1.42 ;&st7; " /><path d=" M  796.74,  133.51  C  796.74   131.17   794.84   129.26   792.49   129.26 " style="stroke-width: 1.42 ;&st7; " /><path d=" M  792.49,  137.76  C  794.84   137.76   796.74   135.86   796.74   133.51 " style="stroke-width: 1.42 ;&st7; " /><path d=" M  783.99,  133.51  C  783.99   135.86   785.90   137.76   788.24   137.76 " style="stroke-width: 1.42 ;&st7; " /><path d=" M  788.24,  129.26  C  785.90   129.26   783.99   131.17   783.99   133.51 " style="stroke-width: 1.42 ;&st7; " /><path d=" M  796.74,  294.99  C  796.74   292.64   794.84   290.74   792.49   290.74 " style="stroke-width: 1.42 ;&st7; " /><path d=" M  792.49,  299.24  C  794.84   299.24   796.74   297.33   796.74   294.99 " style="stroke-width: 1.42 ;&st7; " /><path d=" M  783.99,  294.99  C  783.99   297.33   785.90   299.24   788.24   299.24 " style="stroke-width: 1.42 ;&st7; " /><path d=" M  788.24,  290.74  C  785.90   290.74   783.99   292.64   783.99   294.99 " style="stroke-width: 1.42 ;&st7; " /><path d=" M  796.74,  252.49  C  796.74   250.15   794.84   248.24   792.49   248.24 " style="stroke-width: 1.42 ;&st7; " /><path d=" M  792.49,  256.74  C  794.84   256.74   796.74   254.84   796.74   252.49 " style="stroke-width: 1.42 ;&st7; " /><path d=" M  783.99,  252.49  C  783.99   254.84   785.90   256.74   788.24   256.74 " style="stroke-width: 1.42 ;&st7; " /><path d=" M  788.24,  248.24  C  785.90   248.24   783.99   250.15   783.99   252.49 " style="stroke-width: 1.42 ;&st7; " /><path d=" M  689.80,  273.74  C  689.80   272.96   689.17   272.32   688.38   272.32 " style="stroke-width: 0.85 ;&st7; " /><path d=" M  688.38,  272.32  C  687.60   272.32   686.97   272.96   686.97   273.74 " style="stroke-width: 0.85 ;&st7; " /><path d=" M  686.97,  273.74  C  686.97   274.52   687.60   275.16   688.38   275.16 " style="stroke-width: 0.85 ;&st7; " /><path d=" M  688.38,  275.16  C  689.17   275.16   689.80   274.52   689.80   273.74 " style="stroke-width: 0.85 ;&st7; " /><path d=" M  689.80,  290.74  C  689.80   289.95   689.17   289.32   688.38   289.32 " style="stroke-width: 0.85 ;&st7; " /><path d=" M  688.38,  289.32  C  687.60   289.32   686.97   289.95   686.97   290.74 " style="stroke-width: 0.85 ;&st7; " /><path d=" M  686.97,  290.74  C  686.97   291.52   687.60   292.15   688.38   292.15 " style="stroke-width: 0.85 ;&st7; " /><path d=" M  688.38,  292.15  C  689.17   292.15   689.80   291.52   689.80   290.74 " style="stroke-width: 0.85 ;&st7; " /><path d=" M  672.80,  290.74  C  672.80   289.95   672.17   289.32   671.39   289.32 " style="stroke-width: 0.85 ;&st7; " /><path d=" M  671.39,  289.32  C  670.61   289.32   669.97   289.95   669.97   290.74 " style="stroke-width: 0.85 ;&st7; " /><path d=" M  669.97,  290.74  C  669.97   291.52   670.61   292.15   671.39   292.15 " style="stroke-width: 0.85 ;&st7; " /><path d=" M  671.39,  292.15  C  672.17   292.15   672.80   291.52   672.80   290.74 " style="stroke-width: 0.85 ;&st7; " /><path d=" M  672.80,  273.74  C  672.80   272.96   672.17   272.32   671.39   272.32 " style="stroke-width: 0.85 ;&st7; " /><path d=" M  671.39,  272.32  C  670.61   272.32   669.97   272.96   669.97   273.74 " style="stroke-width: 0.85 ;&st7; " /><path d=" M  669.97,  273.74  C  669.97   274.52   670.61   275.16   671.39   275.16 " style="stroke-width: 0.85 ;&st7; " /><path d=" M  671.39,  275.16  C  672.17   275.16   672.80   274.52   672.80   273.74 " style="stroke-width: 0.85 ;&st7; " /><path d=" M  607.65,  120.77  C  607.65   118.42   605.75   116.52   603.40   116.52 " style="stroke-width: 1.42 ;&st7; " /><path d=" M  603.40,  125.01  C  605.75   125.01   607.65   123.11   607.65   120.77 " style="stroke-width: 1.42 ;&st7; " /><path d=" M  594.90,  120.77  C  594.90   123.11   596.80   125.01   599.15   125.01 " style="stroke-width: 1.42 ;&st7; " /><path d=" M  599.15,  116.52  C  596.80   116.52   594.90   118.42   594.90   120.77 " style="stroke-width: 1.42 ;&st7; " /><path d=" M  635.27,  142.01  C  635.27   139.66   633.37   137.76   631.02   137.76 " style="stroke-width: 1.42 ;&st7; " /><path d=" M  631.02,  146.26  C  633.37   146.26   635.27   144.36   635.27   142.01 " style="stroke-width: 1.42 ;&st7; " /><path d=" M  622.52,  142.01  C  622.52   144.36   624.42   146.26   626.77   146.26 " style="stroke-width: 1.42 ;&st7; " /><path d=" M  626.77,  137.76  C  624.42   137.76   622.52   139.66   622.52   142.01 " style="stroke-width: 1.42 ;&st7; " /><path d=" M  694.76,  142.01  C  694.76   139.66   692.86   137.76   690.51   137.76 " style="stroke-width: 1.42 ;&st7; " /><path d=" M  690.51,  146.26  C  692.86   146.26   694.76   144.36   694.76   142.01 " style="stroke-width: 1.42 ;&st7; " /><path d=" M  682.01,  142.01  C  682.01   144.36   683.91   146.26   686.26   146.26 " style="stroke-width: 1.42 ;&st7; " /><path d=" M  686.26,  137.76  C  683.91   137.76   682.01   139.66   682.01   142.01 " style="stroke-width: 1.42 ;&st7; " /><path d=" M  633.43,  549.66  C  633.43   547.16   631.40   545.13   628.89   545.13 " style="stroke-width: 1.42 ;&st7; " /><path d=" M  628.89,  545.13  C  626.39   545.13   624.36   547.16   624.36   549.66 " style="stroke-width: 1.42 ;&st7; " /><path d=" M  624.36,  549.66  C  624.36   552.16   626.39   554.19   628.89   554.19 " style="stroke-width: 1.42 ;&st7; " /><path d=" M  628.89,  554.19  C  631.40   554.19   633.43   552.16   633.43   549.66 " style="stroke-width: 1.42 ;&st7; " /><path d=" M  675.92,  549.66  C  675.92   547.16   673.89   545.13   671.39   545.13 " style="stroke-width: 1.42 ;&st7; " /><path d=" M  671.39,  545.13  C  668.88   545.13   666.86   547.16   666.86   549.66 " style="stroke-width: 1.42 ;&st7; " /><path d=" M  666.86,  549.66  C  666.86   552.16   668.88   554.19   671.39   554.19 " style="stroke-width: 1.42 ;&st7; " /><path d=" M  671.39,  554.19  C  673.89   554.19   675.92   552.16   675.92   549.66 " style="stroke-width: 1.42 ;&st7; " /><text style="&st18;" transform="matrix(&st16;  661.42  397.53 )">10</text><text style="&st18;" transform="matrix(&st17;  684.69  166.61 )">W</text><text style="&st18;" transform="matrix(&st17;  625.2  166.61 )">W</text><text ewd:textID="4" style="&st18;" transform="matrix(&st17;  711.6  301.76 )">Park/Neutral <tspan dy="6" x="0">Position Switch</tspan></text><text style="&st18;" transform="matrix(&st17;  704.49  301.76 )">B42</text><text style="&st18;" transform="matrix(&st16;  773.72  177.98 )">59</text><text style="&st18;" transform="matrix(&st16;  785.92  177.98 )">4C</text><text style="&st18;" transform="matrix(&st16;  773.72  135.48 )">35</text><text style="&st18;" transform="matrix(&st16;  785.92  135.48 )">4C</text><text style="&st18;" transform="matrix(&st16;  786.06  296.96 )">5B</text><text style="&st18;" transform="matrix(&st16;  773.72  254.46 )">65</text><text style="&st18;" transform="matrix(&st17;  786.67  106.1 )">B</text><text style="&st18;" transform="matrix(&st16;  772.37  407.44 )">10</text><text style="&st18;" transform="matrix(&st17;  786.67  225.08 )">B</text><text style="&st18;" transform="matrix(&st17;  786.67  352.56 )">B</text><text style="&st18;" transform="matrix(&st16;  652.06  275.71 )">P</text><text style="&st18;" transform="matrix(&st16;  651.91  292.71 )">N</text><text style="&st18;" transform="matrix(&st16;  681.6  244.55 )">5</text><text style="&st18;" transform="matrix(&st16;  664.6  307.43 )">4</text><text style="&st18;" transform="matrix(&st16;  669.05  258.71 )">B</text><text style="&st18;" transform="matrix(&st16;  686.4  258.71 )">L</text><text style="&st18;" transform="matrix(&st16;  698.59  426.41 )">9</text><text ewd:textID="3" style="&st18;" transform="matrix(&st17;  728.6  420.74 )">Junction <tspan dy="6" x="0">Connector</tspan></text><text style="&st18;" transform="matrix(&st17;  721.49  420.74 )">B49</text><text style="&st18;" transform="matrix(&st17;  684.69  226.1 )">W</text><text style="&st18;" transform="matrix(&st16;  669.61  203.47 )">20</text><text style="&st18;" transform="matrix(&st16;  597.32  113.53 )">23</text><text style="&st18;" transform="matrix(&st16;  596.97  122.73 )">5A</text><text style="&st18;" transform="matrix(&st16;  616.21  143.98 )">9</text><text style="&st18;" transform="matrix(&st16;  624.59  143.98 )">5B</text><text style="&st18;" transform="matrix(&st16;  671.74  143.98 )">58</text><text style="&st18;" transform="matrix(&st16;  684.08  143.98 )">5B</text><text style="&st18;" transform="matrix(&st16;  786.06  254.46 )">5B</text><text style="&st18;" transform="matrix(&st16;  614.84  551.63 )">10</text><text style="&st18;" transform="matrix(&st16;  626.56  551.63 )">E</text><text style="&st18;" transform="matrix(&st16;  660.51  551.63 )">2</text><text style="&st18;" transform="matrix(&st16;  669.06  551.63 )">B</text><text style="&st18;" transform="matrix(&st16;  609.37  602.9 )">ECM</text><text style="&st18;" transform="matrix(&st16;  609.37  595.8 )">B37(B),F50(E)</text><text style="&st18;" transform="matrix(&st17;  625.2  464.06 )">W</text><text style="&st18;" transform="matrix(&st16;  663.23  561.83 )">NSW</text><text style="&st18;" transform="matrix(&st16;  622.11  561.83 )">STA</text><text style="&st18;" transform="matrix(&st17;  667.69  352.56 )">B</text><text style="&st18;" transform="matrix(&st16;  541.58  83.07 )">B</text><text style="&st18;" transform="matrix(&st16;  540.55  117.07 )">W</text><text style="&st18;" transform="matrix(&st17;  701.69  463.04 )">B</text><text style="&st18;" transform="matrix(&st17;  667.69  463.04 )">B</text><text style="&st18;" transform="matrix(&st16;  773.72  296.96 )">53</text><text style="&st18;" transform="matrix(&st16;  662.2  426.41 )">11</text></svg>