﻿<?xml version="1.0" encoding="utf-8"?>
<!DOCTYPE svg PUBLIC "-//W3C//DTD SVG 1.0//EN" "http://www.w3.org/TR/2001/REC-SVG-20010904/DTD/svg10.dtd"[
	<!ENTITY ns_flows "http://ns.adobe.com/Flows/1.0/">
	<!ENTITY ns_svg "http://www.w3.org/2000/svg">
	<!ENTITY ns_xlink "http://www.w3.org/1999/xlink">
	<!ENTITY st0 "font-size:7px;font-family:'MS-PGothic';adobe-font-script:japanese;">
	<!ENTITY st1 "font-size:6px;font-family:'ArialMT';">
	<!-- White fill  -->
	<!ENTITY st2 "fill:#FFFFFF;stroke:#000000; stroke-width:1.41;stroke-linecap:round;stroke-linejoin:round;">
	<!-- Yellow fill  -->
	<!ENTITY st3 "fill:#FFFFCC;stroke:#FFFFCC; stroke-width:0.1;stroke-linecap:round;stroke-linejoin:round;">
	<!-- Gray fill  -->
	<!ENTITY st4 "fill:#CCCCCC;stroke:#CCCCCC; stroke-width:0.1;stroke-linecap:round;stroke-linejoin:round;">
	<!-- Light-blue fill -->
	<!ENTITY st5 "fill:#CCECF4;stroke:#000000; stroke-width:1.133;stroke-linecap:round;stroke-linejoin:round;">
	<!ENTITY st6 "fill:none;stroke-linecap:butt; stroke-linejoin:round;">
	<!ENTITY st7 "fill:none;stroke:#000000;stroke-linecap:round;stroke-linejoin:round;">
	<!ENTITY st8 "enable-background:new    ;">
	<!-- Black fill -->
	<!ENTITY st9 "fill:#000000;stroke:#000000; stroke-linecap:round;stroke-linejoin:round;">
	<!-- SRS note   -->
	<!ENTITY st10 "font-size:9px;font-family:'ArialMT';">
	<!ENTITY st11 "font-size:9px;font-family:'Svg Symbol';">
	<!ENTITY st12 "font-size:6px;font-family:'Svg Symbol';">
	<!ENTITY st13 "fill:none;stroke:#ff0000;stroke-linecap:round;stroke-linejoin:round;">
	<!-- Yellow fill  -->
	<!ENTITY st14 "fill:#FFFF00;stroke:#FFFF00; stroke-width:0.1;stroke-linecap:round;stroke-linejoin:round;">
	<!ENTITY st15 "font-size:6px;font-family:'MS-PGothic';adobe-font-script:japanese;">
	<!ENTITY st16 "1.00 0.00 0.00 1.00">
	<!ENTITY st17 "0.00 -1.00 1.00 0.00">
	<!ENTITY st18 "font-size:6px;font-family:'Arial';">
	<!ENTITY st19 "font-size:9px;font-family:'Arial';">
	<!ENTITY st20 "font-size:6px;font-family:'MS-PGothic','MS PGothic';adobe-font-script:japanese;">
	<!ENTITY st21 "font-size:7px;font-family:'MS-PGothic','MS PGothic';adobe-font-script:japanese;">
	<!ATTLIST svg
		xmlns:ewd CDATA #FIXED "http://shcl.co.jp/ewd"
		xmlns:a CDATA #FIXED "http://ns.adobe.com/AdobeSVGViewerExtensions/3.0/"
		ewd:ver CDATA #IMPLIED
	>
	<!ATTLIST a
		ewd:lineID CDATA #IMPLIED
		ewd:groupID CDATA #IMPLIED
		ewd:figtype CDATA #IMPLIED
		ewd:code CDATA #IMPLIED
		ewd:figID CDATA #IMPLIED
		ewd:pinNo CDATA #IMPLIED
		ewd:comment CDATA #IMPLIED >
	<!ATTLIST g
		ewd:lineID CDATA #IMPLIED
		ewd:groupID CDATA #IMPLIED
		ewd:figtype CDATA #IMPLIED
		ewd:code CDATA #IMPLIED
		ewd:figID CDATA #IMPLIED
		ewd:pinNo CDATA #IMPLIED
		ewd:comment CDATA #IMPLIED >
	<!ATTLIST text
		ewd:textID CDATA #IMPLIED >
	<!ATTLIST title
		ewd:textID CDATA #IMPLIED >
]>
<!-- Generator: Shintec Hozumi YS   -->
<svg onload="call_execInitLoadProc_svg('system')" style="overflow:visible;  enable-background:new 0 0 5694.049 710.000" viewBox="0 0 5694.049 710.000" height="710.000" width="5694.049" xml:space="preserve" ewd:ver="L2.1.2.7" xmlns="&ns_svg;" xmlns:a="http://ns.adobe.com/AdobeSVGViewerExtensions/3.0/" xmlns:ewd="http://shcl.co.jp/ewd" xmlns:xlink="&ns_xlink;">
<path d=" M 2005.66,  402.63  L 2011.33,  379.97 " style="stroke-width: 1.42 ;&st7; " /><path d=" M 2005.66,  379.97  L 2005.66,  358.73 " style="stroke-width: 0.85 ;&st7; " /><path d=" M 2169.26,  112.27  L 2165.01,  112.27 " style="stroke-width: 1.42 ;&st7; " /><path d=" M 2169.26,  120.77  L 2165.01,  120.77 " style="stroke-width: 1.42 ;&st7; " /><path d=" M 2169.26,  545.69  L 2165.01,  545.69 " style="stroke-width: 1.42 ;&st7; " /><path d=" M 2169.26,  537.20  L 2165.01,  537.20 " style="stroke-width: 1.42 ;&st7; " /><path d=" M 2169.26,  503.20  L 2165.01,  503.20 " style="stroke-width: 1.42 ;&st7; " /><path d=" M 2169.26,  494.70  L 2165.01,  494.70 " style="stroke-width: 1.42 ;&st7; " /><path d=" M 2014.16,  239.75  L 2005.66,  239.75 " style="stroke-width: 1.42 ;&st7; " /><path d=" M 2498.58,  217.78  L 2503.55,  222.75 " style="stroke-width: 1.42 ;&st7; " /><path d=" M 2503.55,  205.75  L 2498.58,  210.72 " style="stroke-width: 1.42 ;&st7; " /><path d=" M 2337.11,  261.71  L 2332.14,  256.74 " style="stroke-width: 1.42 ;&st7; " /><path d=" M 2320.11,  268.77  L 2325.08,  273.74 " style="stroke-width: 1.42 ;&st7; " /><path d=" M 2332.14,  273.74  L 2337.11,  268.77 " style="stroke-width: 1.42 ;&st7; " /><path d=" M 2325.08,  256.74  L 2320.11,  261.71 " style="stroke-width: 1.42 ;&st7; " /><path d=" M 2260.62,  261.71  L 2255.65,  256.74 " style="stroke-width: 1.42 ;&st7; " /><path d=" M 2243.63,  268.77  L 2248.59,  273.74 " style="stroke-width: 1.42 ;&st7; " /><path d=" M 2255.65,  273.74  L 2260.62,  268.77 " style="stroke-width: 1.42 ;&st7; " /><path d=" M 2248.60,  256.74  L 2243.63,  261.71 " style="stroke-width: 1.42 ;&st7; " /><path d=" M 2252.12,  385.64  L 2257.79,  362.97 " style="stroke-width: 1.42 ;&st7; " /><path d=" M 2252.12,  392.72  L 2252.12,  388.47 " style="stroke-width: 0.85 ;&st7; " /><path d=" M 2252.12,  362.97  L 2252.12,  358.73 " style="stroke-width: 0.85 ;&st7; " /><path d=" M 2328.61,  385.64  L 2334.28,  362.97 " style="stroke-width: 1.42 ;&st7; " /><path d=" M 2328.61,  392.72  L 2328.61,  388.47 " style="stroke-width: 0.85 ;&st7; " /><path d=" M 2328.61,  362.97  L 2328.61,  358.73 " style="stroke-width: 0.85 ;&st7; " /><path d=" M 2254.25,  112.27  L 2250.00,  112.27 " style="stroke-width: 1.42 ;&st7; " /><path d=" M 2254.25,  120.77  L 2250.00,  120.77 " style="stroke-width: 1.42 ;&st7; " /><path d=" M 2330.74,  112.27  L 2326.49,  112.27 " style="stroke-width: 1.42 ;&st7; " /><path d=" M 2330.74,  120.77  L 2326.49,  120.77 " style="stroke-width: 1.42 ;&st7; " /><path d=" M 2337.11,  163.26  L 2328.61,  163.26 " style="stroke-width: 1.42 ;&st7; " /><path d=" M 2396.60,  362.97  L 2396.60,  358.73 " style="stroke-width: 0.85 ;&st7; " /><path d=" M 2396.60,  392.72  L 2396.60,  388.47 " style="stroke-width: 0.85 ;&st7; " /><path d=" M 2396.60,  385.64  L 2402.27,  362.97 " style="stroke-width: 1.42 ;&st7; " /><path d=" M 2464.59,  385.64  L 2470.25,  362.97 " style="stroke-width: 1.42 ;&st7; " /><path d=" M 2464.59,  392.72  L 2464.59,  388.47 " style="stroke-width: 0.85 ;&st7; " /><path d=" M 2464.59,  362.97  L 2464.59,  358.73 " style="stroke-width: 0.85 ;&st7; " /><path d=" M 2473.09,  163.26  L 2464.59,  163.26 " style="stroke-width: 1.42 ;&st7; " /><path d=" M 2405.10,  163.26  L 2396.60,  163.26 " style="stroke-width: 1.42 ;&st7; " /><path d=" M 2014.16,  537.20  L 2005.66,  537.20 " style="stroke-width: 1.42 ;&st7; " /><path d=" M 2260.62,  392.72  L 2260.62,  358.73  L 2243.62,  358.73  L 2243.62,  392.72  L 2260.62,  392.72 " style="stroke-width: 1.42 ;&st7; " /><path d=" M 2337.11,  392.72  L 2337.11,  358.73  L 2320.11,  358.73  L 2320.11,  392.72  L 2337.11,  392.72 " style="stroke-width: 1.42 ;&st7; " /><path d=" M 2252.12,  392.72  L 2252.12,  401.22 " style="stroke-width: 0.85 ;&st7; " /><path d=" M 2243.62,  401.22  L 2260.62,  401.22 " style="stroke-width: 0.85 ;&st7; " /><path d=" M 2247.87,  404.05  L 2256.37,  404.05 " style="stroke-width: 0.85 ;&st7; " /><path d=" M 2249.29,  406.88  L 2254.96,  406.88 " style="stroke-width: 0.85 ;&st7; " /><path d=" M 2250.71,  409.72  L 2253.54,  409.72 " style="stroke-width: 0.85 ;&st7; " /><path d=" M 2328.61,  392.72  L 2328.61,  401.22 " style="stroke-width: 0.85 ;&st7; " /><path d=" M 2320.11,  401.22  L 2337.11,  401.22 " style="stroke-width: 0.85 ;&st7; " /><path d=" M 2324.36,  404.05  L 2332.86,  404.05 " style="stroke-width: 0.85 ;&st7; " /><path d=" M 2325.78,  406.88  L 2331.44,  406.88 " style="stroke-width: 0.85 ;&st7; " /><path d=" M 2327.19,  409.72  L 2330.03,  409.72 " style="stroke-width: 0.85 ;&st7; " /><path d=" M 2252.12,  107.37  L 2249.29,  104.54  L 2249.29,  108.79  L 2252.12,  111.62  L 2254.96,  108.79  L 2254.96,  104.54  L 2252.12,  107.37 " style="stroke-width: 0.28 ;&st9;" /><path d=" M 2252.12,   78.27  L 2252.12,  112.27 " style="stroke-width: 0.85 ;&st7; " /><path d=" M 2328.61,  107.37  L 2325.78,  104.54  L 2325.78,  108.79  L 2328.61,  111.62  L 2331.44,  108.79  L 2331.44,  104.54  L 2328.61,  107.37 " style="stroke-width: 0.28 ;&st9;" /><path d=" M 2328.61,   78.27  L 2328.61,  112.27 " style="stroke-width: 0.85 ;&st7; " /><path d=" M 2332.86,  168.92  L 2328.61,  164.67  L 2324.36,  168.92 " style="stroke-width: 1.42 ;&st7; " /><path d=" M 2332.86,  172.32  L 2328.61,  168.07  L 2324.36,  172.32 " style="stroke-width: 1.42 ;&st7; " /><path d=" M 2405.10,  392.72  L 2405.10,  358.73  L 2388.10,  358.73  L 2388.10,  392.72  L 2405.10,  392.72 " style="stroke-width: 1.42 ;&st7; " /><path d=" M 2473.09,  392.72  L 2473.09,  358.73  L 2456.09,  358.73  L 2456.09,  392.72  L 2473.09,  392.72 " style="stroke-width: 1.42 ;&st7; " /><path d=" M 2396.60,  392.72  L 2396.60,  401.22 " style="stroke-width: 0.85 ;&st7; " /><path d=" M 2388.10,  401.22  L 2405.10,  401.22 " style="stroke-width: 0.85 ;&st7; " /><path d=" M 2392.35,  404.05  L 2400.85,  404.05 " style="stroke-width: 0.85 ;&st7; " /><path d=" M 2393.77,  406.88  L 2399.43,  406.88 " style="stroke-width: 0.85 ;&st7; " /><path d=" M 2395.18,  409.72  L 2398.01,  409.72 " style="stroke-width: 0.85 ;&st7; " /><path d=" M 2464.59,  392.72  L 2464.59,  401.22 " style="stroke-width: 0.85 ;&st7; " /><path d=" M 2456.09,  401.22  L 2473.09,  401.22 " style="stroke-width: 0.85 ;&st7; " /><path d=" M 2460.34,  404.05  L 2468.84,  404.05 " style="stroke-width: 0.85 ;&st7; " /><path d=" M 2461.75,  406.88  L 2467.42,  406.88 " style="stroke-width: 0.85 ;&st7; " /><path d=" M 2463.17,  409.72  L 2466.00,  409.72 " style="stroke-width: 0.85 ;&st7; " /><path d=" M 2456.09,  256.74  L 2473.09,  256.74  L 2473.09,  273.74  L 2456.09,  273.74  L 2456.09,  256.74 " style="stroke-width: 1.42 ;&st7; " /><path d=" M 2464.59,  256.74  L 2464.59,  273.74 " style="stroke-width: 0.85 ;&st7; " /><path d=" M 2396.60,  256.74  L 2396.60,  273.74 " style="stroke-width: 0.85 ;&st7; " /><path d=" M 2388.10,  256.74  L 2405.10,  256.74  L 2405.10,  273.74  L 2388.10,  273.74  L 2388.10,  256.74 " style="stroke-width: 1.42 ;&st7; " /><path d=" M 2468.84,  168.92  L 2464.59,  164.67  L 2460.34,  168.92 " style="stroke-width: 1.42 ;&st7; " /><path d=" M 2468.84,  172.32  L 2464.59,  168.07  L 2460.34,  172.32 " style="stroke-width: 1.42 ;&st7; " /><path d=" M 2400.85,  168.92  L 2396.60,  164.67  L 2392.35,  168.92 " style="stroke-width: 1.42 ;&st7; " /><path d=" M 2400.85,  172.32  L 2396.60,  168.07  L 2392.35,  172.32 " style="stroke-width: 1.42 ;&st7; " /><path d=" M 2005.66,  697.25  L 2005.66,  701.50 " style="stroke-width: 0.85 ;&st7; " /><path d=" M 2009.91,  546.26  L 2005.66,  542.01  L 2001.41,  546.26 " style="stroke-width: 1.42 ;&st7; " /><path d=" M 2001.41,  704.33  L 2009.91,  704.33 " style="stroke-width: 0.85 ;&st7; " /><path d=" M 2002.83,  707.17  L 2008.50,  707.17 " style="stroke-width: 0.85 ;&st7; " /><path d=" M 2009.91,  542.86  L 2005.66,  538.61  L 2001.41,  542.86 " style="stroke-width: 1.42 ;&st7; " /><path d=" M 2004.25,  710.00  L 2007.08,  710.00 " style="stroke-width: 0.85 ;&st7; " /><path d=" M 2009.91,  285.07  L 2005.66,  289.32  L 2001.41,  285.07 " style="stroke-width: 1.42 ;&st7; " /><path d=" M 2001.41,  281.67  L 2005.66,  285.92  L 2009.91,  281.67 " style="stroke-width: 1.42 ;&st7; " /><path d=" M 2005.66,  405.47  L 2005.66,  435.21 " style="stroke-width: 0.85 ;&st7; " /><path d=" M 2167.14,  107.37  L 2164.30,  104.54  L 2164.30,  108.79  L 2167.14,  111.62  L 2169.97,  108.79  L 2169.97,  104.54  L 2167.14,  107.37 " style="stroke-width: 0.28 ;&st9;" /><path d=" M 2167.14,   78.27  L 2167.14,  112.27 " style="stroke-width: 0.85 ;&st7; " /><path d=" M 2162.89,  704.33  L 2171.39,  704.33 " style="stroke-width: 0.85 ;&st7; " /><path d=" M 2167.14,  697.25  L 2167.14,  701.50 " style="stroke-width: 0.85 ;&st7; " /><path d=" M 2158.64,  701.50  L 2175.64,  701.50 " style="stroke-width: 0.85 ;&st7; " /><path d=" M 2158.64,  656.18  L 2158.64,  673.17  L 2175.64,  673.17  L 2175.64,  656.18  L 2158.64,  656.18 " style="stroke-width: 1.42 ;&st7; " /><path d=" M 2167.14,  656.18  L 2167.14,  681.67 " style="stroke-width: 0.85 ;&st7; " /><path d=" M 2165.72,  710.00  L 2168.55,  710.00 " style="stroke-width: 0.85 ;&st7; " /><path d=" M 2164.30,  707.17  L 2169.97,  707.17 " style="stroke-width: 0.85 ;&st7; " /><path d=" M 2167.14,  537.20  L 2167.14,  503.20 " style="stroke-width: 0.85 ;&st7; " /><path d=" M 2167.14,  532.30  L 2164.30,  529.47  L 2164.30,  533.72  L 2167.14,  536.55  L 2169.97,  533.72  L 2169.97,  529.47  L 2167.14,  532.30 " style="stroke-width: 0.28 ;&st9;" /><path d=" M 2167.14,  508.10  L 2169.97,  510.93  L 2169.97,  506.68  L 2167.14,  503.85  L 2164.30,  506.68  L 2164.30,  510.93  L 2167.14,  508.10 " style="stroke-width: 0.28 ;&st9;" /><path d=" M 2150.14,  324.73  L 2150.14,  358.73  L 2184.13,  358.73  L 2184.13,  324.73  L 2150.14,  324.73 " style="stroke-width: 1.42 ;&st7; " /><path d=" M 2009.91,  248.81  L 2005.66,  244.56  L 2001.41,  248.81 " style="stroke-width: 1.42 ;&st7; " /><path d=" M 2009.91,  245.41  L 2005.66,  241.16  L 2001.41,  245.41 " style="stroke-width: 1.42 ;&st7; " /><path d=" M 2007.08,  404.05  C 2007.08   403.27  2006.45   402.63  2005.66   402.63 " style="stroke-width: 0.85 ;&st7; " /><path d=" M 2005.66,  402.63  C 2004.88   402.63  2004.25   403.27  2004.25   404.05 " style="stroke-width: 0.85 ;&st7; " /><path d=" M 2004.25,  404.05  C 2004.25   404.83  2004.88   405.47  2005.66   405.47 " style="stroke-width: 0.85 ;&st7; " /><path d=" M 2005.66,  405.47  C 2006.45   405.47  2007.08   404.83  2007.08   404.05 " style="stroke-width: 0.85 ;&st7; " /><path d=" M 2007.08,  381.39  C 2007.08   380.61  2006.45   379.97  2005.66   379.97 " style="stroke-width: 0.85 ;&st7; " /><path d=" M 2005.66,  379.97  C 2004.88   379.97  2004.25   380.61  2004.25   381.39 " style="stroke-width: 0.85 ;&st7; " /><path d=" M 2004.25,  381.39  C 2004.25   382.17  2004.88   382.80  2005.66   382.80 " style="stroke-width: 0.85 ;&st7; " /><path d=" M 2005.66,  382.80  C 2006.45   382.80  2007.08   382.17  2007.08   381.39 " style="stroke-width: 0.85 ;&st7; " /><path d=" M 2010.20,   82.80  C 2010.20    80.30  2008.17    78.27  2005.66    78.27 " style="stroke-width: 1.42 ;&st7; " /><path d=" M 2005.66,   78.27  C 2003.16    78.27  2001.13    80.30  2001.13    82.80 " style="stroke-width: 1.42 ;&st7; " /><path d=" M 2001.13,   82.80  C 2001.13    85.31  2003.16    87.34  2005.66    87.34 " style="stroke-width: 1.42 ;&st7; " /><path d=" M 2005.66,   87.34  C 2008.17    87.34  2010.20    85.31  2010.20    82.80 " style="stroke-width: 1.42 ;&st7; " /><path d=" M 2165.01,  112.27  C 2162.67   112.27  2160.76   114.17  2160.76   116.52 " style="stroke-width: 1.42 ;&st7; " /><path d=" M 2160.76,  116.52  C 2160.76   118.86  2162.67   120.77  2165.01   120.77 " style="stroke-width: 1.42 ;&st7; " /><path d=" M 2169.26,  120.77  C 2171.61   120.77  2173.51   118.86  2173.51   116.52 " style="stroke-width: 1.42 ;&st7; " /><path d=" M 2173.51,  116.52  C 2173.51   114.17  2171.61   112.27  2169.26   112.27 " style="stroke-width: 1.42 ;&st7; " /><path d=" M 2173.51,  541.44  C 2173.51   539.10  2171.61   537.20  2169.26   537.20 " style="stroke-width: 1.42 ;&st7; " /><path d=" M 2169.26,  545.69  C 2171.61   545.69  2173.51   543.79  2173.51   541.44 " style="stroke-width: 1.42 ;&st7; " /><path d=" M 2160.76,  541.44  C 2160.76   543.79  2162.67   545.69  2165.01   545.69 " style="stroke-width: 1.42 ;&st7; " /><path d=" M 2165.01,  537.20  C 2162.67   537.20  2160.76   539.10  2160.76   541.44 " style="stroke-width: 1.42 ;&st7; " /><path d=" M 2173.51,  498.95  C 2173.51   496.61  2171.61   494.70  2169.26   494.70 " style="stroke-width: 1.42 ;&st7; " /><path d=" M 2169.26,  503.20  C 2171.61   503.20  2173.51   501.30  2173.51   498.95 " style="stroke-width: 1.42 ;&st7; " /><path d=" M 2160.76,  498.95  C 2160.76   501.30  2162.67   503.20  2165.01   503.20 " style="stroke-width: 1.42 ;&st7; " /><path d=" M 2165.01,  494.70  C 2162.67   494.70  2160.76   496.61  2160.76   498.95 " style="stroke-width: 1.42 ;&st7; " /><path d=" M 2253.54,  387.05  C 2253.54   386.27  2252.91   385.64  2252.12   385.64 " style="stroke-width: 0.85 ;&st7; " /><path d=" M 2252.12,  385.64  C 2251.34   385.64  2250.71   386.27  2250.71   387.05 " style="stroke-width: 0.85 ;&st7; " /><path d=" M 2250.71,  387.05  C 2250.71   387.84  2251.34   388.47  2252.12   388.47 " style="stroke-width: 0.85 ;&st7; " /><path d=" M 2252.12,  388.47  C 2252.91   388.47  2253.54   387.84  2253.54   387.05 " style="stroke-width: 0.85 ;&st7; " /><path d=" M 2253.54,  364.39  C 2253.54   363.61  2252.91   362.97  2252.12   362.97 " style="stroke-width: 0.85 ;&st7; " /><path d=" M 2252.12,  362.97  C 2251.34   362.97  2250.71   363.61  2250.71   364.39 " style="stroke-width: 0.85 ;&st7; " /><path d=" M 2250.71,  364.39  C 2250.71   365.17  2251.34   365.81  2252.12   365.81 " style="stroke-width: 0.85 ;&st7; " /><path d=" M 2252.12,  365.81  C 2252.91   365.81  2253.54   365.17  2253.54   364.39 " style="stroke-width: 0.85 ;&st7; " /><path d=" M 2330.03,  387.05  C 2330.03   386.27  2329.39   385.64  2328.61   385.64 " style="stroke-width: 0.85 ;&st7; " /><path d=" M 2328.61,  385.64  C 2327.83   385.64  2327.19   386.27  2327.19   387.05 " style="stroke-width: 0.85 ;&st7; " /><path d=" M 2327.19,  387.05  C 2327.19   387.84  2327.83   388.47  2328.61   388.47 " style="stroke-width: 0.85 ;&st7; " /><path d=" M 2328.61,  388.47  C 2329.39   388.47  2330.03   387.84  2330.03   387.05 " style="stroke-width: 0.85 ;&st7; " /><path d=" M 2330.03,  364.39  C 2330.03   363.61  2329.39   362.97  2328.61   362.97 " style="stroke-width: 0.85 ;&st7; " /><path d=" M 2328.61,  362.97  C 2327.83   362.97  2327.19   363.61  2327.19   364.39 " style="stroke-width: 0.85 ;&st7; " /><path d=" M 2327.19,  364.39  C 2327.19   365.17  2327.83   365.81  2328.61   365.81 " style="stroke-width: 0.85 ;&st7; " /><path d=" M 2328.61,  365.81  C 2329.39   365.81  2330.03   365.17  2330.03   364.39 " style="stroke-width: 0.85 ;&st7; " /><path d=" M 2250.00,  112.27  C 2247.65   112.27  2245.75   114.17  2245.75   116.52 " style="stroke-width: 1.42 ;&st7; " /><path d=" M 2245.75,  116.52  C 2245.75   118.86  2247.65   120.77  2250.00   120.77 " style="stroke-width: 1.42 ;&st7; " /><path d=" M 2254.25,  120.77  C 2256.60   120.77  2258.50   118.86  2258.50   116.52 " style="stroke-width: 1.42 ;&st7; " /><path d=" M 2258.50,  116.52  C 2258.50   114.17  2256.60   112.27  2254.25   112.27 " style="stroke-width: 1.42 ;&st7; " /><path d=" M 2326.49,  112.27  C 2324.14   112.27  2322.24   114.17  2322.24   116.52 " style="stroke-width: 1.42 ;&st7; " /><path d=" M 2322.24,  116.52  C 2322.24   118.86  2324.14   120.77  2326.49   120.77 " style="stroke-width: 1.42 ;&st7; " /><path d=" M 2330.74,  120.77  C 2333.08   120.77  2334.98   118.86  2334.98   116.52 " style="stroke-width: 1.42 ;&st7; " /><path d=" M 2334.98,  116.52  C 2334.98   114.17  2333.08   112.27  2330.74   112.27 " style="stroke-width: 1.42 ;&st7; " /><path d=" M 2401.13,   82.80  C 2401.13    80.30  2399.10    78.27  2396.60    78.27 " style="stroke-width: 1.42 ;&st7; " /><path d=" M 2396.60,   78.27  C 2394.10    78.27  2392.07    80.30  2392.07    82.80 " style="stroke-width: 1.42 ;&st7; " /><path d=" M 2392.07,   82.80  C 2392.07    85.31  2394.10    87.34  2396.60    87.34 " style="stroke-width: 1.42 ;&st7; " /><path d=" M 2396.60,   87.34  C 2399.10    87.34  2401.13    85.31  2401.13    82.80 " style="stroke-width: 1.42 ;&st7; " /><path d=" M 2469.12,   82.80  C 2469.12    80.30  2467.09    78.27  2464.59    78.27 " style="stroke-width: 1.42 ;&st7; " /><path d=" M 2464.59,   78.27  C 2462.08    78.27  2460.06    80.30  2460.06    82.80 " style="stroke-width: 1.42 ;&st7; " /><path d=" M 2460.06,   82.80  C 2460.06    85.31  2462.08    87.34  2464.59    87.34 " style="stroke-width: 1.42 ;&st7; " /><path d=" M 2464.59,   87.34  C 2467.09    87.34  2469.12    85.31  2469.12    82.80 " style="stroke-width: 1.42 ;&st7; " /><path d=" M 2398.02,  364.39  C 2398.02   363.61  2397.38   362.97  2396.60   362.97 " style="stroke-width: 0.85 ;&st7; " /><path d=" M 2396.60,  362.97  C 2395.82   362.97  2395.18   363.61  2395.18   364.39 " style="stroke-width: 0.85 ;&st7; " /><path d=" M 2395.18,  364.39  C 2395.18   365.17  2395.82   365.81  2396.60   365.81 " style="stroke-width: 0.85 ;&st7; " /><path d=" M 2396.60,  365.81  C 2397.38   365.81  2398.02   365.17  2398.02   364.39 " style="stroke-width: 0.85 ;&st7; " /><path d=" M 2398.02,  387.05  C 2398.02   386.27  2397.38   385.64  2396.60   385.64 " style="stroke-width: 0.85 ;&st7; " /><path d=" M 2396.60,  385.64  C 2395.82   385.64  2395.18   386.27  2395.18   387.05 " style="stroke-width: 0.85 ;&st7; " /><path d=" M 2395.18,  387.05  C 2395.18   387.84  2395.82   388.47  2396.60   388.47 " style="stroke-width: 0.85 ;&st7; " /><path d=" M 2396.60,  388.47  C 2397.38   388.47  2398.02   387.84  2398.02   387.05 " style="stroke-width: 0.85 ;&st7; " /><path d=" M 2466.00,  387.05  C 2466.00   386.27  2465.37   385.64  2464.59   385.64 " style="stroke-width: 0.85 ;&st7; " /><path d=" M 2464.59,  385.64  C 2463.81   385.64  2463.17   386.27  2463.17   387.05 " style="stroke-width: 0.85 ;&st7; " /><path d=" M 2463.17,  387.05  C 2463.17   387.84  2463.81   388.47  2464.59   388.47 " style="stroke-width: 0.85 ;&st7; " /><path d=" M 2464.59,  388.47  C 2465.37   388.47  2466.00   387.84  2466.00   387.05 " style="stroke-width: 0.85 ;&st7; " /><path d=" M 2466.00,  364.39  C 2466.00   363.61  2465.37   362.97  2464.59   362.97 " style="stroke-width: 0.85 ;&st7; " /><path d=" M 2464.59,  362.97  C 2463.81   362.97  2463.17   363.61  2463.17   364.39 " style="stroke-width: 0.85 ;&st7; " /><path d=" M 2463.17,  364.39  C 2463.17   365.17  2463.81   365.81  2464.59   365.81 " style="stroke-width: 0.85 ;&st7; " /><path d=" M 2464.59,  365.81  C 2465.37   365.81  2466.00   365.17  2466.00   364.39 " style="stroke-width: 0.85 ;&st7; " /><text style="&st18;" transform="matrix(&st17;  2392.9  131.59 )">V</text><text style="&st18;" transform="matrix(&st16;  2455.19  74.58 )">RCTY</text><text style="&st18;" transform="matrix(&st16;  2462.12  84.77 )">C</text><text style="&st18;" transform="matrix(&st16;  2449.76  84.77 )">27</text><text style="&st18;" transform="matrix(&st17;  2460.89  131.74 )">R</text><text style="&st18;" transform="matrix(&st16;  2390.59  355.04 )">1</text><text style="&st18;" transform="matrix(&st16;  2458.58  355.04 )">1</text><text ewd:textID="40" style="&st18;" transform="matrix(&st17;  2419.82  395.24 )">Rear Door Courtesy Light <tspan dy="6" x="0">Switch Assembly LH</tspan></text><text style="&st18;" transform="matrix(&st17;  2412.71  395.24 )">O6</text><text ewd:textID="41" style="&st18;" transform="matrix(&st17;  2487.8  395.24 )">Rear Door Courtesy Light <tspan dy="6" x="0">Switch Assembly RH</tspan></text><text style="&st18;" transform="matrix(&st17;  2480.7  395.24 )">N7</text><text style="&st18;" transform="matrix(&st17;  2392.9  208.08 )">V</text><text style="&st18;" transform="matrix(&st17;  2460.89  208.22 )">R</text><text style="&st18;" transform="matrix(&st16;  2454.62  281.93 )">10</text><text style="&st18;" transform="matrix(&st16;  2455.4  253.05 )">11</text><text ewd:textID="25" style="&st18;" transform="matrix(&st16;  2476.23  265.79 )">Junction <tspan dy="6" x="0">Connector</tspan></text><text style="&st18;" transform="matrix(&st16;  2476.23  258.69 )">N22</text><text style="&st18;" transform="matrix(&st17;  2460.89  327.2 )">R</text><text style="&st18;" transform="matrix(&st17;  2392.9  327.06 )">V</text><text style="&st18;" transform="matrix(&st16;  2408.24  258.69 )">O18</text><text ewd:textID="25" style="&st18;" transform="matrix(&st16;  2408.24  265.79 )">Junction <tspan dy="6" x="0">Connector</tspan></text><text style="&st18;" transform="matrix(&st16;  2389.81  253.05 )">9</text><text style="&st18;" transform="matrix(&st16;  2389.81  281.93 )">7</text><text style="&st18;" transform="matrix(&st16;  2446.59  160.98 )">18</text><text style="&st18;" transform="matrix(&st16;  2377.83  160.98 )">39</text><text style="&st18;" transform="matrix(&st16;  2243.22  74.58 )">FLCY</text><text style="&st18;" transform="matrix(&st16;  2319.22  74.58 )">FRCY</text><text style="&st18;" transform="matrix(&st17;  2324.91  140.09 )">B</text><text style="&st18;" transform="matrix(&st16;  2321.82  86.47 )">4</text><text style="&st18;" transform="matrix(&st16;  2246.11  355.04 )">1</text><text style="&st18;" transform="matrix(&st16;  2322.6  355.04 )">1</text><text ewd:textID="17" style="&st18;" transform="matrix(&st17;  2275.34  395.24 )">Front Door Courtesy Light <tspan dy="6" x="0">Switch Assembly LH</tspan></text><text style="&st18;" transform="matrix(&st17;  2268.23  395.24 )">O5</text><text ewd:textID="18" style="&st18;" transform="matrix(&st17;  2351.83  395.24 )">Front Door Courtesy Light <tspan dy="6" x="0">Switch Assembly RH</tspan></text><text style="&st18;" transform="matrix(&st17;  2344.72  395.24 )">N5</text><text style="&st18;" transform="matrix(&st17;  2248.43  208.22 )">R</text><text style="&st18;" transform="matrix(&st17;  2324.91  208.08 )">B</text><text style="&st18;" transform="matrix(&st16;  2245.33  86.47 )">2</text><text style="&st18;" transform="matrix(&st16;  2248.03  118.49 )">2F</text><text style="&st18;" transform="matrix(&st16;  2235.48  118.49 )">27</text><text style="&st18;" transform="matrix(&st16;  2324.3  118.49 )">2B</text><text style="&st18;" transform="matrix(&st16;  2312.74  118.49 )">15</text><text style="&st18;" transform="matrix(&st16;  2313.8  160.98 )">4</text><text style="&st18;" transform="matrix(&st16;  2387.7  74.58 )">LCTY</text><text style="&st18;" transform="matrix(&st16;  2394.27  84.77 )">A</text><text style="&st18;" transform="matrix(&st16;  2385.72  84.77 )">3</text><text style="&st18;" transform="matrix(&st17;  2038.77  437.74 )">J3</text><text ewd:textID="2" style="&st18;" transform="matrix(&st16;  2360.08  488.17 )">* 2 :w/o Smart Key System</text><text ewd:textID="31" style="&st18;" transform="matrix(&st16;  2292.09  40.58 )">Main Body ECU</text><text style="&st18;" transform="matrix(&st16;  2292.09  33.47 )">F8(A),F9(B),F10(C)</text><text style="&st18;" transform="matrix(&st17;  2001.97  140.09 )">V</text><text style="&st18;" transform="matrix(&st17;  2001.97  327.06 )">V</text><text style="&st18;" transform="matrix(&st16;  2008.5  366.92 )">LSSR</text><text style="&st18;" transform="matrix(&st16;  2008.5  431.52 )">E</text><text style="&st18;" transform="matrix(&st17;  2001.97  493.9 )">W-B</text><text style="&st18;" transform="matrix(&st16;  2003.19  84.77 )">C</text><text style="&st18;" transform="matrix(&st17;  2001.97  263.32 )">V</text><text style="&st18;" transform="matrix(&st16;  2161.2  74.58 )">IND</text><text style="&st18;" transform="matrix(&st16;  2156.39  86.47 )">23</text><text style="&st18;" transform="matrix(&st16;  2162.83  118.49 )">2B</text><text style="&st18;" transform="matrix(&st16;  2150.49  118.49 )">34</text><text style="&st18;" transform="matrix(&st17;  2163.44  148.24 )">L</text><text ewd:textID="25" style="&st18;" transform="matrix(&st16;  2178.78  666.64 )">Junction <tspan dy="6" x="0">Connector</tspan></text><text style="&st18;" transform="matrix(&st16;  2178.78  659.54 )">F64</text><text style="&st18;" transform="matrix(&st16;  2160.34  652.49 )">8</text><text style="&st18;" transform="matrix(&st16;  2150.49  543.41 )">35</text><text style="&st18;" transform="matrix(&st16;  2162.83  543.41 )">4B</text><text style="&st18;" transform="matrix(&st16;  2150.49  500.92 )">59</text><text style="&st18;" transform="matrix(&st16;  2162.83  500.92 )">4B</text><text style="&st18;" transform="matrix(&st16;  2161.13  366.92 )">1</text><text style="&st18;" transform="matrix(&st16;  2160.35  321.04 )">6</text><text style="&st18;" transform="matrix(&st17;  2191.75  361.25 )">F32</text><text style="&st18;" transform="matrix(&st17;  2163.44  425.92 )">W-B</text><text style="&st18;" transform="matrix(&st17;  2163.44  578.89 )">W-B</text><text ewd:textID="43" style="&st18;" transform="matrix(&st17;  2045.88  437.74 )">Rear Door with Motor Lock <tspan dy="6" x="0">Assembly RH</tspan></text><text ewd:textID="46" style="&st18;" transform="matrix(&st17;  2198.85  361.25 )">Security Indicator Light <tspan dy="6" x="0">Assembly</tspan></text><text style="&st18;" transform="matrix(&st16;  2162.83  332.37 )">LP</text><text style="&st18;" transform="matrix(&st16;  2159.44  355.03 )">GND</text><text style="&st18;" transform="matrix(&st17;  2001.97  604.39 )">W-B</text><text style="&st18;" transform="matrix(&st17;  2248.43  327.2 )">R</text><text style="&st18;" transform="matrix(&st17;  2324.91  327.06 )">B</text><text style="&st18;" transform="matrix(&st17;  2299.42  267.57 )">B</text><text style="&st18;" transform="matrix(&st17;  2310.75  271.42 )">(*7)</text><text style="&st18;" transform="matrix(&st17;  2336.25  211.93 )">(*6)</text><text style="&st18;" transform="matrix(&st17;  2336.25  330.91 )">(*6)</text><text style="&st18;" transform="matrix(&st16;  2487.61  176.56 )">R</text><text style="&st18;" transform="matrix(&st16;  2483.9  187.89 )">(*6)</text><text style="&st18;" transform="matrix(&st16;  2487.61  236.05 )">R</text><text style="&st18;" transform="matrix(&st16;  2483.9  247.38 )">(*6)</text><text style="&st18;" transform="matrix(&st17;  2472.22  211.93 )">(*7)</text><text ewd:textID="3" style="&st18;" transform="matrix(&st16;  2360.08  496.67 )">* 6 :w/ Automatic Running Board</text><text ewd:textID="4" style="&st18;" transform="matrix(&st16;  2360.08  505.17 )">* 7 :w/o Automatic Running Board</text></svg>