﻿<?xml version="1.0" encoding="utf-8"?>
<!DOCTYPE svg PUBLIC "-//W3C//DTD SVG 1.0//EN" "http://www.w3.org/TR/2001/REC-SVG-20010904/DTD/svg10.dtd"[
	<!ENTITY ns_flows "http://ns.adobe.com/Flows/1.0/">
	<!ENTITY ns_svg "http://www.w3.org/2000/svg">
	<!ENTITY ns_xlink "http://www.w3.org/1999/xlink">
	<!ENTITY st0 "font-size:7px;font-family:'MS-PGothic';adobe-font-script:japanese;">
	<!ENTITY st1 "font-size:6px;font-family:'ArialMT';">
	<!-- White fill  -->
	<!ENTITY st2 "fill:#FFFFFF;stroke:#000000; stroke-width:1.41;stroke-linecap:round;stroke-linejoin:round;">
	<!-- Yellow fill  -->
	<!ENTITY st3 "fill:#FFFFCC;stroke:#FFFFCC; stroke-width:0.1;stroke-linecap:round;stroke-linejoin:round;">
	<!-- Gray fill  -->
	<!ENTITY st4 "fill:#CCCCCC;stroke:#CCCCCC; stroke-width:0.1;stroke-linecap:round;stroke-linejoin:round;">
	<!-- Light-blue fill -->
	<!ENTITY st5 "fill:#CCECF4;stroke:#000000; stroke-width:1.133;stroke-linecap:round;stroke-linejoin:round;">
	<!ENTITY st6 "fill:none;stroke-linecap:butt; stroke-linejoin:round;">
	<!ENTITY st7 "fill:none;stroke:#000000;stroke-linecap:round;stroke-linejoin:round;">
	<!ENTITY st8 "enable-background:new    ;">
	<!-- Black fill -->
	<!ENTITY st9 "fill:#000000;stroke:#000000; stroke-linecap:round;stroke-linejoin:round;">
	<!-- SRS note   -->
	<!ENTITY st10 "font-size:9px;font-family:'ArialMT';">
	<!ENTITY st11 "font-size:9px;font-family:'Svg Symbol';">
	<!ENTITY st12 "font-size:6px;font-family:'Svg Symbol';">
	<!ENTITY st13 "fill:none;stroke:#ff0000;stroke-linecap:round;stroke-linejoin:round;">
	<!-- Yellow fill  -->
	<!ENTITY st14 "fill:#FFFF00;stroke:#FFFF00; stroke-width:0.1;stroke-linecap:round;stroke-linejoin:round;">
	<!ENTITY st15 "font-size:6px;font-family:'MS-PGothic';adobe-font-script:japanese;">
	<!ENTITY st16 "1.00 0.00 0.00 1.00">
	<!ENTITY st17 "0.00 -1.00 1.00 0.00">
	<!ENTITY st18 "font-size:6px;font-family:'Arial';">
	<!ENTITY st19 "font-size:9px;font-family:'Arial';">
	<!ENTITY st20 "font-size:6px;font-family:'MS-PGothic','MS PGothic';adobe-font-script:japanese;">
	<!ENTITY st21 "font-size:7px;font-family:'MS-PGothic','MS PGothic';adobe-font-script:japanese;">
	<!ATTLIST svg
		xmlns:ewd CDATA #FIXED "http://shcl.co.jp/ewd"
		xmlns:a CDATA #FIXED "http://ns.adobe.com/AdobeSVGViewerExtensions/3.0/"
		ewd:ver CDATA #IMPLIED
	>
	<!ATTLIST a
		ewd:lineID CDATA #IMPLIED
		ewd:groupID CDATA #IMPLIED
		ewd:figtype CDATA #IMPLIED
		ewd:code CDATA #IMPLIED
		ewd:figID CDATA #IMPLIED
		ewd:pinNo CDATA #IMPLIED
		ewd:comment CDATA #IMPLIED >
	<!ATTLIST g
		ewd:lineID CDATA #IMPLIED
		ewd:groupID CDATA #IMPLIED
		ewd:figtype CDATA #IMPLIED
		ewd:code CDATA #IMPLIED
		ewd:figID CDATA #IMPLIED
		ewd:pinNo CDATA #IMPLIED
		ewd:comment CDATA #IMPLIED >
	<!ATTLIST text
		ewd:textID CDATA #IMPLIED >
	<!ATTLIST title
		ewd:textID CDATA #IMPLIED >
]>
<!-- Generator: Shintec Hozumi YS   -->
<svg onload="call_execInitLoadProc_svg('system')" style="overflow:visible;  enable-background:new 0 0 5669.078 710.000" viewBox="0 0 5669.078 710.000" height="710.000" width="5669.078" xml:space="preserve" ewd:ver="L2.1.2.7" xmlns="&ns_svg;" xmlns:a="http://ns.adobe.com/AdobeSVGViewerExtensions/3.0/" xmlns:ewd="http://shcl.co.jp/ewd" xmlns:xlink="&ns_xlink;">
<path d=" M 1098.44,  222.75  L 1094.19,  222.75 " style="stroke-width: 1.42 ;&st7; " /><path d=" M 1098.44,  214.25  L 1094.19,  214.25 " style="stroke-width: 1.42 ;&st7; " /><path d=" M 1149.43,  214.25  L 1145.18,  214.25 " style="stroke-width: 1.42 ;&st7; " /><path d=" M 1096.32,  163.26  L 1096.32,  171.76 " style="stroke-width: 0.85 ;&st7; " /><path d=" M 1495.75,  579.69  L 1504.25,  579.69 " style="stroke-width: 1.42 ;&st7; " /><path d=" M 1149.43,  222.75  L 1145.18,  222.75 " style="stroke-width: 1.42 ;&st7; " /><path d=" M 1495.75,  384.22  L 1504.25,  384.22 " style="stroke-width: 1.42 ;&st7; " /><path d=" M 1283.29,  618.65  L 1278.31,  613.68 " style="stroke-width: 1.42 ;&st7; " /><path d=" M 1266.29,  625.71  L 1271.26,  630.68 " style="stroke-width: 1.42 ;&st7; " /><path d=" M 1278.31,  630.68  L 1283.29,  625.71 " style="stroke-width: 1.42 ;&st7; " /><path d=" M 1271.26,  613.68  L 1266.29,  618.65 " style="stroke-width: 1.42 ;&st7; " /><path d=" M 1478.75,  507.45  L 1478.75,  511.70 " style="stroke-width: 0.85 ;&st7; " /><path d=" M 1478.75,  494.70  L 1478.75,  498.95 " style="stroke-width: 0.85 ;&st7; " /><path d=" M 1172.80,  515.95  L 1172.80,  537.20 " style="stroke-width: 0.85 ;&st7; " /><path d=" M 1172.80,  486.20  L 1172.80,  507.45 " style="stroke-width: 0.85 ;&st7; " /><path d=" M 1096.32,  486.20  L 1096.32,  507.45 " style="stroke-width: 0.85 ;&st7; " /><path d=" M 1096.32,  515.95  L 1096.32,  537.20 " style="stroke-width: 0.85 ;&st7; " /><path d=" M 1381.02,  401.22  L 1372.52,  401.22 " style="stroke-width: 0.85 ;&st7; " /><path d=" M 1279.04,  401.22  L 1270.54,  401.22 " style="stroke-width: 0.85 ;&st7; " /><path d=" M 1410.76,  146.26  L 1410.76,  154.76 " style="stroke-width: 0.85 ;&st7; " /><path d=" M 1412.89,  180.26  L 1408.64,  180.26 " style="stroke-width: 1.42 ;&st7; " /><path d=" M 1412.89,  188.75  L 1408.64,  188.75 " style="stroke-width: 1.42 ;&st7; " /><path d=" M 1308.78,  136.35  L 1303.12,  159.01 " style="stroke-width: 1.42 ;&st7; " /><path d=" M 1308.78,  163.26  L 1308.78,  159.01 " style="stroke-width: 0.85 ;&st7; " /><path d=" M 1308.78,  133.51  L 1308.78,  129.26 " style="stroke-width: 0.85 ;&st7; " /><path d=" M 1334.28,  129.26  L 1334.28,  137.76 " style="stroke-width: 0.85 ;&st7; " /><path d=" M 1334.28,  154.76  L 1334.28,  163.26 " style="stroke-width: 0.85 ;&st7; " /><path d=" M 1336.40,  214.25  L 1332.15,  214.25 " style="stroke-width: 1.42 ;&st7; " /><path d=" M 1336.40,  222.75  L 1332.15,  222.75 " style="stroke-width: 1.42 ;&st7; " /><path d=" M 1257.79,  163.26  L 1257.79,  171.76 " style="stroke-width: 0.85 ;&st7; " /><path d=" M 1259.91,  214.25  L 1255.67,  214.25 " style="stroke-width: 1.42 ;&st7; " /><path d=" M 1259.91,  222.75  L 1255.67,  222.75 " style="stroke-width: 1.42 ;&st7; " /><path d=" M 1333.08,  170.75  L 1332.81,  171.22  L 1332.72,  171.76  L 1332.81,  172.29  L 1333.08,  172.76  L 1333.50,  173.11  L 1334.00,  173.29  L 1334.55,  173.29  L 1335.06,  173.11  L 1335.47,  172.76  L 1335.74,  172.29  L 1335.83,  171.76  L 1335.74,  171.22  L 1335.47,  170.75  L 1335.06,  170.41  L 1334.55,  170.22  L 1334.00,  170.22  L 1333.50,  170.41  L 1333.08,  170.75  L 1333.48,  171.47  L 1333.48,  172.05  L 1333.85,  172.49  L 1334.42,  172.59  L 1334.93,  172.30  L 1335.13,  171.76  L 1334.93,  171.21  L 1334.42,  170.92  L 1333.85,  171.02  L 1334.28,  171.76 " style="stroke-width: 0.85 ;&st7; " /><path d=" M 1333.08,  119.76  L 1332.81,  120.23  L 1332.72,  120.77  L 1332.81,  121.30  L 1333.08,  121.77  L 1333.50,  122.11  L 1334.00,  122.30  L 1334.55,  122.30  L 1335.06,  122.11  L 1335.47,  121.77  L 1335.74,  121.30  L 1335.83,  120.77  L 1335.74,  120.23  L 1335.47,  119.76  L 1335.06,  119.42  L 1334.55,  119.23  L 1334.00,  119.23  L 1333.50,  119.42  L 1333.08,  119.76  L 1333.48,  120.47  L 1333.48,  121.06  L 1333.85,  121.50  L 1334.42,  121.60  L 1334.93,  121.31  L 1335.13,  120.77  L 1334.93,  120.22  L 1334.42,  119.93  L 1333.85,  120.03  L 1334.28,  120.77 " style="stroke-width: 0.85 ;&st7; " /><path d=" M 1368.27,  163.26  L 1368.27,  171.76  L 1334.28,  171.76 " style="stroke-width: 0.85 ;&st7; " /><path d=" M 1368.27,  129.26  L 1368.27,  120.77  L 1334.28,  120.77 " style="stroke-width: 0.85 ;&st7; " /><path d=" M 1368.27,  163.26  L 1368.27,  154.76  L 1365.44,  153.34  L 1371.10,  150.51  L 1365.44,  147.68  L 1371.10,  144.84  L 1365.44,  142.01  L 1371.10,  139.18  L 1368.27,  137.76  L 1368.27,  129.26 " style="stroke-width: 0.85 ;&st7; " /><path d=" M 1333.08,  187.75  L 1332.81,  188.22  L 1332.72,  188.75  L 1332.81,  189.29  L 1333.08,  189.76  L 1333.50,  190.10  L 1334.00,  190.29  L 1334.55,  190.29  L 1335.06,  190.10  L 1335.47,  189.76  L 1335.74,  189.29  L 1335.83,  188.75  L 1335.74,  188.22  L 1335.47,  187.75  L 1335.06,  187.41  L 1334.55,  187.22  L 1334.00,  187.22  L 1333.50,  187.41  L 1333.08,  187.75  L 1333.48,  188.46  L 1333.48,  189.05  L 1333.85,  189.49  L 1334.42,  189.59  L 1334.93,  189.30  L 1335.13,  188.75  L 1334.93,  188.21  L 1334.42,  187.92  L 1333.85,  188.02  L 1334.28,  188.75 " style="stroke-width: 0.85 ;&st7; " /><path d=" M 1308.78,  129.26  L 1308.78,  112.27  L 1257.79,  112.27  L 1257.79,  129.26 " style="stroke-width: 0.85 ;&st7; " /><path d=" M 1334.28,  188.75  L 1308.78,  188.75  L 1308.78,  163.26 " style="stroke-width: 0.85 ;&st7; " /><path d=" M 1334.28,   78.27  L 1334.28,  129.26 " style="stroke-width: 0.85 ;&st7; " /><path d=" M 1334.28,  214.25  L 1334.28,  163.26 " style="stroke-width: 0.85 ;&st7; " /><path d=" M 1334.28,  209.35  L 1331.44,  206.52  L 1331.44,  210.77  L 1334.28,  213.60  L 1337.11,  210.77  L 1337.11,  206.52  L 1334.28,  209.35 " style="stroke-width: 0.28 ;&st9;" /><path d=" M 1342.78,  129.26  L 1300.28,  129.26  L 1300.28,  163.26  L 1342.78,  163.26  L 1342.78,  129.26 " style="stroke-width: 1.42 ;&st7; " /><path d=" M 1410.76,  154.76  L 1410.76,  180.26 " style="stroke-width: 0.85 ;&st7; " /><path d=" M 1410.76,  175.36  L 1407.93,  172.53  L 1407.93,  176.78  L 1410.76,  179.61  L 1413.60,  176.78  L 1413.60,  172.53  L 1410.76,  175.36 " style="stroke-width: 0.28 ;&st9;" /><path d=" M 1398.02,  112.27  L 1398.02,  154.76  L 1423.51,  154.76  L 1423.51,  112.27  L 1398.02,  112.27 " style="stroke-width: 1.42 ;&st7; " /><path d=" M 1257.79,  129.26  L 1257.79,  137.76 " style="stroke-width: 0.85 ;&st7; " /><path d=" M 1245.04,  129.26  L 1245.04,  171.76  L 1270.54,  171.76  L 1270.54,  129.26  L 1245.04,  129.26 " style="stroke-width: 1.42 ;&st7; " /><path d=" M 1257.79,  209.35  L 1254.96,  206.52  L 1254.96,  210.77  L 1257.79,  213.60  L 1260.62,  210.77  L 1260.62,  206.52  L 1257.79,  209.35 " style="stroke-width: 0.28 ;&st9;" /><path d=" M 1257.79,  171.76  L 1257.79,  214.25 " style="stroke-width: 0.85 ;&st7; " /><path d=" M 1147.31,  209.35  L 1144.47,  206.52  L 1144.47,  210.77  L 1147.31,  213.60  L 1150.14,  210.77  L 1150.14,  206.52  L 1147.31,  209.35 " style="stroke-width: 0.28 ;&st9;" /><path d=" M 1495.75,  701.50  L 1512.75,  701.50 " style="stroke-width: 0.85 ;&st7; " /><path d=" M 1461.76,  477.71  L 1461.76,  528.70  L 1521.25,  528.70  L 1521.25,  477.71  L 1461.76,  477.71 " style="stroke-width: 1.42 ;&st7; " /><path d=" M 1273.59,  306.73  L 1273.32,  307.20  L 1273.23,  307.73  L 1273.32,  308.27  L 1273.59,  308.74  L 1274.01,  309.08  L 1274.51,  309.27  L 1275.06,  309.27  L 1275.57,  309.08  L 1275.98,  308.74  L 1276.25,  308.27  L 1276.34,  307.73  L 1276.25,  307.20  L 1275.98,  306.73  L 1275.57,  306.39  L 1275.06,  306.20  L 1274.51,  306.20  L 1274.01,  306.39  L 1273.59,  306.73  L 1273.99,  307.44  L 1273.99,  308.03  L 1274.36,  308.47  L 1274.93,  308.57  L 1275.44,  308.28  L 1275.64,  307.73  L 1275.44,  307.19  L 1274.93,  306.90  L 1274.36,  307.00  L 1274.79,  307.73 " style="stroke-width: 0.85 ;&st7; " /><path d=" M 1274.79,  307.73  L 1274.79,  316.23 " style="stroke-width: 0.85 ;&st7; " /><path d=" M 1274.79,  358.73  L 1274.79,  418.22 " style="stroke-width: 0.85 ;&st7; " /><path d=" M 1273.37,  710.00  L 1276.20,  710.00 " style="stroke-width: 0.85 ;&st7; " /><path d=" M 1271.95,  707.17  L 1277.62,  707.17 " style="stroke-width: 0.85 ;&st7; " /><path d=" M 1270.54,  704.33  L 1279.04,  704.33 " style="stroke-width: 0.85 ;&st7; " /><path d=" M 1266.29,  701.50  L 1283.29,  701.50 " style="stroke-width: 0.85 ;&st7; " /><path d=" M 1274.79,  697.25  L 1274.79,  701.50 " style="stroke-width: 0.85 ;&st7; " /><path d=" M 1342.78,  477.71  L 1342.78,  571.19  L 1410.76,  571.19  L 1410.76,  477.71  L 1342.78,  477.71 " style="stroke-width: 1.42 ;&st7; " /><path d=" M 1240.79,  477.71  L 1240.79,  571.19  L 1308.78,  571.19  L 1308.78,  477.71  L 1240.79,  477.71 " style="stroke-width: 1.42 ;&st7; " /><path d=" M 1096.32,  197.25  L 1147.31,  197.25 " style="stroke-width: 0.85 ;&st7; " /><path d=" M 1147.31,  197.25  L 1147.31,  214.25 " style="stroke-width: 0.85 ;&st7; " /><path d=" M 1266.29,  299.24  L 1512.75,  299.24  L 1512.75,  316.23  L 1266.29,  316.23  L 1266.29,  299.24 " style="stroke-width: 1.42 ;&st7; " /><path d=" M 1095.12,  196.25  L 1094.85,  196.72  L 1094.76,  197.25  L 1094.85,  197.79  L 1095.12,  198.26  L 1095.54,  198.60  L 1096.04,  198.79  L 1096.59,  198.79  L 1097.10,  198.60  L 1097.51,  198.26  L 1097.78,  197.79  L 1097.87,  197.25  L 1097.78,  196.72  L 1097.51,  196.25  L 1097.10,  195.90  L 1096.59,  195.72  L 1096.04,  195.72  L 1095.54,  195.90  L 1095.12,  196.25  L 1095.52,  196.96  L 1095.52,  197.54  L 1095.89,  197.99  L 1096.46,  198.09  L 1096.97,  197.80  L 1097.17,  197.25  L 1096.97,  196.71  L 1096.46,  196.42  L 1095.89,  196.52  L 1096.32,  197.25 " style="stroke-width: 0.85 ;&st7; " /><path d=" M 1096.32,  197.25  L 1096.32,  214.25 " style="stroke-width: 0.85 ;&st7; " /><path d=" M 1257.79,  112.27  L 1096.32,  112.27  L 1096.32,  137.76 " style="stroke-width: 0.85 ;&st7; " /><path d=" M 1096.32,  209.35  L 1093.48,  206.52  L 1093.48,  210.77  L 1096.32,  213.60  L 1099.15,  210.77  L 1099.15,  206.52  L 1096.32,  209.35 " style="stroke-width: 0.28 ;&st9;" /><path d=" M 1096.32,  197.25  L 1096.32,  171.76 " style="stroke-width: 0.85 ;&st7; " /><path d=" M 1070.82,  486.20  L 1070.82,  537.20  L 1113.31,  537.20  L 1113.31,  486.20  L 1070.82,  486.20 " style="stroke-width: 1.42 ;&st7; " /><path d=" M 1147.31,  486.20  L 1147.31,  537.20  L 1189.80,  537.20  L 1189.80,  486.20  L 1147.31,  486.20 " style="stroke-width: 1.42 ;&st7; " /><path d=" M 1095.12,  400.22  L 1094.85,  400.69  L 1094.76,  401.22  L 1094.85,  401.75  L 1095.12,  402.22  L 1095.54,  402.57  L 1096.04,  402.75  L 1096.59,  402.75  L 1097.10,  402.57  L 1097.51,  402.22  L 1097.78,  401.75  L 1097.87,  401.22  L 1097.78,  400.69  L 1097.51,  400.22  L 1097.10,  399.87  L 1096.59,  399.68  L 1096.04,  399.68  L 1095.54,  399.87  L 1095.12,  400.22  L 1095.52,  400.93  L 1095.52,  401.51  L 1095.89,  401.95  L 1096.46,  402.05  L 1096.97,  401.77  L 1097.17,  401.22  L 1096.97,  400.67  L 1096.46,  400.38  L 1095.89,  400.48  L 1096.32,  401.22 " style="stroke-width: 0.85 ;&st7; " /><path d=" M 1172.80,  409.72  L 1172.80,  401.22  L 1096.32,  401.22 " style="stroke-width: 0.85 ;&st7; " /><path d=" M 1096.32,  392.72  L 1096.32,  409.72 " style="stroke-width: 0.85 ;&st7; " /><path d=" M 1083.57,  129.26  L 1083.57,  171.76  L 1109.06,  171.76  L 1109.06,  129.26  L 1083.57,  129.26 " style="stroke-width: 1.42 ;&st7; " /><path d=" M 1256.60,  111.26  L 1256.32,  111.73  L 1256.23,  112.27  L 1256.32,  112.80  L 1256.60,  113.27  L 1257.01,  113.62  L 1257.52,  113.80  L 1258.06,  113.80  L 1258.57,  113.62  L 1258.98,  113.27  L 1259.25,  112.80  L 1259.35,  112.27  L 1259.25,  111.73  L 1258.98,  111.26  L 1258.57,  110.92  L 1258.06,  110.73  L 1257.52,  110.73  L 1257.01,  110.92  L 1256.60,  111.26  L 1256.99,  111.98  L 1256.99,  112.56  L 1257.36,  113.00  L 1257.94,  113.10  L 1258.44,  112.81  L 1258.64,  112.27  L 1258.44,  111.72  L 1257.94,  111.43  L 1257.36,  111.53  L 1257.79,  112.27 " style="stroke-width: 0.85 ;&st7; " /><path d=" M 1478.75,  511.70  L 1478.75,  520.20  L 1504.25,  520.20 " style="stroke-width: 0.85 ;&st7; " /><path d=" M 1504.25,  486.20  L 1478.75,  486.20  L 1478.75,  494.70 " style="stroke-width: 0.85 ;&st7; " /><path d=" M 1274.79,  401.22  L 1269.12,  392.72  L 1280.45,  392.72  L 1274.79,  401.22 " style="stroke-width: 0.28 ;&st9;" /><path d=" M 1376.77,  401.22  L 1371.10,  392.72  L 1382.44,  392.72  L 1376.77,  401.22 " style="stroke-width: 0.28 ;&st9;" /><path d=" M 1504.25,  316.23  L 1504.25,  307.73  L 1274.79,  307.73  L 1274.79,  299.24 " style="stroke-width: 0.85 ;&st7; " /><path d=" M 1376.77,  418.22  L 1376.77,  375.72  L 1274.79,  375.72 " style="stroke-width: 0.85 ;&st7; " /><path d=" M 1273.59,  374.72  L 1273.32,  375.19  L 1273.23,  375.72  L 1273.32,  376.26  L 1273.59,  376.73  L 1274.01,  377.07  L 1274.51,  377.26  L 1275.06,  377.26  L 1275.57,  377.07  L 1275.98,  376.73  L 1276.25,  376.26  L 1276.34,  375.72  L 1276.25,  375.19  L 1275.98,  374.72  L 1275.57,  374.37  L 1275.06,  374.19  L 1274.51,  374.19  L 1274.01,  374.37  L 1273.59,  374.72  L 1273.99,  375.43  L 1273.99,  376.01  L 1274.36,  376.46  L 1274.93,  376.56  L 1275.44,  376.27  L 1275.64,  375.72  L 1275.44,  375.18  L 1274.93,  374.89  L 1274.36,  374.99  L 1274.79,  375.72 " style="stroke-width: 0.85 ;&st7; " /><path d=" M 1257.79,  418.22  L 1393.77,  418.22  L 1393.77,  358.73  L 1257.79,  358.73  L 1257.79,  418.22 " style="stroke-width: 1.42 ;&st7; " /><path d=" M 1259.21,  161.84  C 1259.21   161.06  1258.57   160.43  1257.79   160.43 " style="stroke-width: 0.85 ;&st7; " /><path d=" M 1257.79,  160.43  C 1257.01   160.43  1256.37   161.06  1256.37   161.84 " style="stroke-width: 0.85 ;&st7; " /><path d=" M 1256.37,  161.84  C 1256.37   162.62  1257.01   163.26  1257.79   163.26 " style="stroke-width: 0.85 ;&st7; " /><path d=" M 1257.79,  163.26  C 1258.57   163.26  1259.21   162.62  1259.21   161.84 " style="stroke-width: 0.85 ;&st7; " /><path d=" M 1259.21,  139.18  C 1259.21   138.40  1258.57   137.76  1257.79   137.76 " style="stroke-width: 0.85 ;&st7; " /><path d=" M 1257.79,  137.76  C 1257.01   137.76  1256.37   138.40  1256.37   139.18 " style="stroke-width: 0.85 ;&st7; " /><path d=" M 1256.37,  139.18  C 1256.37   139.96  1257.01   140.60  1257.79   140.60 " style="stroke-width: 0.85 ;&st7; " /><path d=" M 1257.79,  140.60  C 1258.57   140.60  1259.21   139.96  1259.21   139.18 " style="stroke-width: 0.85 ;&st7; " /><path d=" M 1257.79,  160.43  C 1260.53   158.81  1261.44   155.28  1259.83   152.55 " style="stroke-width: 1.42 ;&st7; " /><path d=" M 1259.83,  152.55  C 1259.31   151.67  1258.67   151.03  1257.79   150.51 " style="stroke-width: 1.42 ;&st7; " /><path d=" M 1257.79,  140.60  C 1255.05   142.21  1254.14   145.74  1255.75   148.47 " style="stroke-width: 1.42 ;&st7; " /><path d=" M 1255.75,  148.47  C 1256.27   149.36  1256.91   149.99  1257.79   150.51 " style="stroke-width: 1.42 ;&st7; " /><path d=" M 1255.67,  214.25  C 1253.32   214.25  1251.42   216.15  1251.42   218.50 " style="stroke-width: 1.42 ;&st7; " /><path d=" M 1251.42,  218.50  C 1251.42   220.85  1253.32   222.75  1255.67   222.75 " style="stroke-width: 1.42 ;&st7; " /><path d=" M 1259.91,  222.75  C 1262.26   222.75  1264.16   220.85  1264.16   218.50 " style="stroke-width: 1.42 ;&st7; " /><path d=" M 1264.16,  218.50  C 1264.16   216.15  1262.26   214.25  1259.91   214.25 " style="stroke-width: 1.42 ;&st7; " /><path d=" M 1096.32,  160.43  C 1099.05   158.81  1099.97   155.28  1098.35   152.55 " style="stroke-width: 1.42 ;&st7; " /><path d=" M 1098.35,  152.55  C 1097.83   151.67  1097.20   151.03  1096.32   150.51 " style="stroke-width: 1.42 ;&st7; " /><path d=" M 1097.73,  139.18  C 1097.73   138.40  1097.10   137.76  1096.32   137.76 " style="stroke-width: 0.85 ;&st7; " /><path d=" M 1096.32,  137.76  C 1095.53   137.76  1094.90   138.40  1094.90   139.18 " style="stroke-width: 0.85 ;&st7; " /><path d=" M 1094.90,  139.18  C 1094.90   139.96  1095.53   140.60  1096.32   140.60 " style="stroke-width: 0.85 ;&st7; " /><path d=" M 1096.32,  140.60  C 1097.10   140.60  1097.73   139.96  1097.73   139.18 " style="stroke-width: 0.85 ;&st7; " /><path d=" M 1097.73,  161.84  C 1097.73   161.06  1097.10   160.43  1096.32   160.43 " style="stroke-width: 0.85 ;&st7; " /><path d=" M 1096.32,  160.43  C 1095.53   160.43  1094.90   161.06  1094.90   161.84 " style="stroke-width: 0.85 ;&st7; " /><path d=" M 1094.90,  161.84  C 1094.90   162.62  1095.53   163.26  1096.32   163.26 " style="stroke-width: 0.85 ;&st7; " /><path d=" M 1096.32,  163.26  C 1097.10   163.26  1097.73   162.62  1097.73   161.84 " style="stroke-width: 0.85 ;&st7; " /><path d=" M 1495.75,  503.20  C 1495.75   507.89  1499.56   511.70  1504.25   511.70 " style="stroke-width: 1.42 ;&st7; " /><path d=" M 1487.25,  503.20  C 1487.25   498.51  1483.45   494.70  1478.75   494.70 " style="stroke-width: 1.42 ;&st7; " /><path d=" M 1478.75,  494.70  C 1474.06   494.70  1470.25   498.51  1470.25   503.20 " style="stroke-width: 1.42 ;&st7; " /><path d=" M 1470.25,  503.20  C 1470.25   507.89  1474.06   511.70  1478.75   511.70 " style="stroke-width: 1.42 ;&st7; " /><path d=" M 1478.75,  511.70  C 1483.45   511.70  1487.25   507.89  1487.25   503.20 " style="stroke-width: 1.42 ;&st7; " /><path d=" M 1476.34,  503.20  C 1477.14   504.54  1478.86   504.98  1480.20   504.19 " style="stroke-width: 0.85 ;&st7; " /><path d=" M 1480.20,  504.19  C 1481.54   503.40  1481.99   501.67  1481.19   500.33 " style="stroke-width: 0.85 ;&st7; " /><path d=" M 1481.19,  500.33  C 1480.67   499.45  1479.79   498.94  1478.75   498.95 " style="stroke-width: 0.85 ;&st7; " /><path d=" M 1478.75,  507.45  C 1480.31   507.46  1481.58   506.21  1481.59   504.65 " style="stroke-width: 0.85 ;&st7; " /><path d=" M 1481.59,  504.65  C 1481.60   503.10  1480.34   501.83  1478.79   501.82 " style="stroke-width: 0.85 ;&st7; " /><path d=" M 1478.79,  501.82  C 1477.75   501.81  1476.87   502.31  1476.35   503.20 " style="stroke-width: 0.85 ;&st7; " /><path d=" M 1181.30,  511.70  C 1181.30   507.01  1177.50   503.20  1172.80   503.20 " style="stroke-width: 1.42 ;&st7; " /><path d=" M 1172.80,  503.20  C 1168.11   503.20  1164.31   507.01  1164.31   511.70 " style="stroke-width: 1.42 ;&st7; " /><path d=" M 1164.31,  511.70  C 1164.31   516.39  1168.11   520.20  1172.80   520.20 " style="stroke-width: 1.42 ;&st7; " /><path d=" M 1172.80,  520.20  C 1177.50   520.20  1181.30   516.39  1181.30   511.70 " style="stroke-width: 1.42 ;&st7; " /><path d=" M 1170.40,  511.70  C 1171.19   513.04  1172.92   513.48  1174.25   512.69 " style="stroke-width: 0.85 ;&st7; " /><path d=" M 1174.25,  512.69  C 1175.59   511.90  1176.04   510.17  1175.25   508.83 " style="stroke-width: 0.85 ;&st7; " /><path d=" M 1175.25,  508.83  C 1174.72   507.94  1173.84   507.44  1172.80   507.45 " style="stroke-width: 0.85 ;&st7; " /><path d=" M 1172.80,  515.95  C 1174.36   515.96  1175.63   514.71  1175.64   513.15 " style="stroke-width: 0.85 ;&st7; " /><path d=" M 1175.64,  513.15  C 1175.65   511.60  1174.39   510.33  1172.84   510.32 " style="stroke-width: 0.85 ;&st7; " /><path d=" M 1172.84,  510.32  C 1171.81   510.31  1170.92   510.81  1170.40   511.70 " style="stroke-width: 0.85 ;&st7; " /><path d=" M 1096.32,  515.95  C 1097.87   515.96  1099.14   514.71  1099.15   513.15 " style="stroke-width: 0.85 ;&st7; " /><path d=" M 1099.15,  513.15  C 1099.16   511.60  1097.91   510.33  1096.35   510.32 " style="stroke-width: 0.85 ;&st7; " /><path d=" M 1096.35,  510.32  C 1095.32   510.31  1094.44   510.81  1093.91   511.70 " style="stroke-width: 0.85 ;&st7; " /><path d=" M 1093.91,  511.70  C 1094.70   513.04  1096.43   513.48  1097.77   512.69 " style="stroke-width: 0.85 ;&st7; " /><path d=" M 1097.77,  512.69  C 1099.11   511.90  1099.55   510.17  1098.76   508.83 " style="stroke-width: 0.85 ;&st7; " /><path d=" M 1098.76,  508.83  C 1098.23   507.94  1097.35   507.44  1096.32   507.45 " style="stroke-width: 0.85 ;&st7; " /><path d=" M 1104.82,  511.70  C 1104.82   507.01  1101.01   503.20  1096.32   503.20 " style="stroke-width: 1.42 ;&st7; " /><path d=" M 1096.32,  503.20  C 1091.62   503.20  1087.82   507.01  1087.82   511.70 " style="stroke-width: 1.42 ;&st7; " /><path d=" M 1087.82,  511.70  C 1087.82   516.39  1091.62   520.20  1096.32   520.20 " style="stroke-width: 1.42 ;&st7; " /><path d=" M 1096.32,  520.20  C 1101.01   520.20  1104.82   516.39  1104.82   511.70 " style="stroke-width: 1.42 ;&st7; " /><path d=" M 1153.68,  218.50  C 1153.68   216.15  1151.78   214.25  1149.43   214.25 " style="stroke-width: 1.42 ;&st7; " /><path d=" M 1149.43,  222.75  C 1151.78   222.75  1153.68   220.85  1153.68   218.50 " style="stroke-width: 1.42 ;&st7; " /><path d=" M 1140.93,  218.50  C 1140.93   220.85  1142.84   222.75  1145.18   222.75 " style="stroke-width: 1.42 ;&st7; " /><path d=" M 1145.18,  214.25  C 1142.84   214.25  1140.93   216.15  1140.93   218.50 " style="stroke-width: 1.42 ;&st7; " /><path d=" M 1102.69,  218.50  C 1102.69   216.15  1100.79   214.25  1098.44   214.25 " style="stroke-width: 1.42 ;&st7; " /><path d=" M 1089.94,  218.50  C 1089.94   220.85  1091.85   222.75  1094.19   222.75 " style="stroke-width: 1.42 ;&st7; " /><path d=" M 1098.44,  222.75  C 1100.79   222.75  1102.69   220.85  1102.69   218.50 " style="stroke-width: 1.42 ;&st7; " /><path d=" M 1094.19,  214.25  C 1091.85   214.25  1089.94   216.15  1089.94   218.50 " style="stroke-width: 1.42 ;&st7; " /><path d=" M 1096.32,  140.60  C 1093.58   142.21  1092.67   145.74  1094.28   148.47 " style="stroke-width: 1.42 ;&st7; " /><path d=" M 1094.28,  148.47  C 1094.80   149.36  1095.43   149.99  1096.32   150.51 " style="stroke-width: 1.42 ;&st7; " /><path d=" M 1412.18,  122.18  C 1412.18   121.40  1411.55   120.77  1410.76   120.77 " style="stroke-width: 0.85 ;&st7; " /><path d=" M 1410.76,  120.77  C 1409.98   120.77  1409.35   121.40  1409.35   122.18 " style="stroke-width: 0.85 ;&st7; " /><path d=" M 1409.35,  122.18  C 1409.35   122.96  1409.98   123.60  1410.76   123.60 " style="stroke-width: 0.85 ;&st7; " /><path d=" M 1410.76,  123.60  C 1411.55   123.60  1412.18   122.96  1412.18   122.18 " style="stroke-width: 0.85 ;&st7; " /><path d=" M 1412.18,  144.84  C 1412.18   144.06  1411.55   143.43  1410.76   143.43 " style="stroke-width: 0.85 ;&st7; " /><path d=" M 1410.76,  143.43  C 1409.98   143.43  1409.35   144.06  1409.35   144.84 " style="stroke-width: 0.85 ;&st7; " /><path d=" M 1409.35,  144.84  C 1409.35   145.63  1409.98   146.26  1410.76   146.26 " style="stroke-width: 0.85 ;&st7; " /><path d=" M 1410.76,  146.26  C 1411.55   146.26  1412.18   145.63  1412.18   144.84 " style="stroke-width: 0.85 ;&st7; " /><path d=" M 1410.76,  123.60  C 1409.91   126.52  1410.57   129.41  1412.61   131.67 " style="stroke-width: 1.42 ;&st7; " /><path d=" M 1410.76,  123.60  C 1408.59   126.62  1408.59   130.49  1410.76   133.51 " style="stroke-width: 1.42 ;&st7; " /><path d=" M 1410.76,  123.60  C 1407.05   126.37  1406.23   131.58  1408.92   135.35 " style="stroke-width: 1.42 ;&st7; " /><path d=" M 1410.76,  143.43  C 1414.48   140.66  1415.30   135.44  1412.60   131.67 " style="stroke-width: 1.42 ;&st7; " /><path d=" M 1410.76,  143.43  C 1412.94   140.40  1412.94   136.54  1410.76   133.51 " style="stroke-width: 1.42 ;&st7; " /><path d=" M 1410.76,  143.43  C 1411.62   140.51  1410.96   137.61  1408.92   135.36 " style="stroke-width: 1.42 ;&st7; " /><path d=" M 1408.64,  180.26  C 1406.29   180.26  1404.39   182.16  1404.39   184.50 " style="stroke-width: 1.42 ;&st7; " /><path d=" M 1404.39,  184.50  C 1404.39   186.85  1406.29   188.75  1408.64   188.75 " style="stroke-width: 1.42 ;&st7; " /><path d=" M 1412.89,  188.75  C 1415.24   188.75  1417.14   186.85  1417.14   184.50 " style="stroke-width: 1.42 ;&st7; " /><path d=" M 1417.14,  184.50  C 1417.14   182.16  1415.24   180.26  1412.89   180.26 " style="stroke-width: 1.42 ;&st7; " /><path d=" M 1310.20,  157.59  C 1310.20   156.81  1309.56   156.18  1308.78   156.18 " style="stroke-width: 0.85 ;&st7; " /><path d=" M 1308.78,  156.18  C 1308.00   156.18  1307.36   156.81  1307.36   157.59 " style="stroke-width: 0.85 ;&st7; " /><path d=" M 1307.36,  157.59  C 1307.36   158.37  1308.00   159.01  1308.78   159.01 " style="stroke-width: 0.85 ;&st7; " /><path d=" M 1308.78,  159.01  C 1309.56   159.01  1310.20   158.37  1310.20   157.59 " style="stroke-width: 0.85 ;&st7; " /><path d=" M 1310.20,  134.93  C 1310.20   134.15  1309.56   133.51  1308.78   133.51 " style="stroke-width: 0.85 ;&st7; " /><path d=" M 1308.78,  133.51  C 1308.00   133.51  1307.36   134.15  1307.36   134.93 " style="stroke-width: 0.85 ;&st7; " /><path d=" M 1307.36,  134.93  C 1307.36   135.71  1308.00   136.35  1308.78   136.35 " style="stroke-width: 0.85 ;&st7; " /><path d=" M 1308.78,  136.35  C 1309.56   136.35  1310.20   135.71  1310.20   134.93 " style="stroke-width: 0.85 ;&st7; " /><path d=" M 1331.75,  143.78  C 1333.12   145.18  1335.36   145.20  1336.76   143.83 " style="stroke-width: 0.85 ;&st7; " /><path d=" M 1336.76,  143.83  C 1338.15   142.46  1338.18   140.22  1336.81   138.82 " style="stroke-width: 0.85 ;&st7; " /><path d=" M 1336.81,  138.82  C 1336.11   138.12  1335.27   137.76  1334.28   137.76 " style="stroke-width: 0.85 ;&st7; " /><path d=" M 1331.75,  148.74  C 1333.12   150.14  1335.36   150.16  1336.76   148.79 " style="stroke-width: 0.85 ;&st7; " /><path d=" M 1336.76,  148.79  C 1338.15   147.42  1338.18   145.18  1336.81   143.78 " style="stroke-width: 0.85 ;&st7; " /><path d=" M 1336.81,  143.78  C 1335.44   142.38  1333.20   142.36  1331.80   143.73 " style="stroke-width: 0.85 ;&st7; " /><path d=" M 1331.80,  143.73  C 1331.78   143.75  1331.77   143.76  1331.75   143.78 " style="stroke-width: 0.85 ;&st7; " /><path d=" M 1334.28,  154.76  C 1336.23   154.76  1337.82   153.17  1337.82   151.22 " style="stroke-width: 0.85 ;&st7; " /><path d=" M 1337.82,  151.22  C 1337.82   149.26  1336.23   147.68  1334.28   147.68 " style="stroke-width: 0.85 ;&st7; " /><path d=" M 1334.28,  147.68  C 1333.29   147.68  1332.44   148.03  1331.75   148.74 " style="stroke-width: 0.85 ;&st7; " /><path d=" M 1332.15,  214.25  C 1329.81   214.25  1327.90   216.15  1327.90   218.50 " style="stroke-width: 1.42 ;&st7; " /><path d=" M 1327.90,  218.50  C 1327.90   220.85  1329.81   222.75  1332.15   222.75 " style="stroke-width: 1.42 ;&st7; " /><path d=" M 1336.40,  222.75  C 1338.75   222.75  1340.65   220.85  1340.65   218.50 " style="stroke-width: 1.42 ;&st7; " /><path d=" M 1340.65,  218.50  C 1340.65   216.15  1338.75   214.25  1336.40   214.25 " style="stroke-width: 1.42 ;&st7; " /><text style="&st18;" transform="matrix(&st16;  1428.07  132.66 )">140A <tspan dy="6" x="0">ALT</tspan></text><text style="&st18;" transform="matrix(&st16;  1401.65  108.57 )">(BAT)</text><text style="&st18;" transform="matrix(&st16;  1406.84  186.47 )">1B</text><text style="&st18;" transform="matrix(&st16;  1398.85  186.47 )">1</text><text style="&st18;" transform="matrix(&st16;  1329.97  220.47 )">2E</text><text style="&st18;" transform="matrix(&st16;  1322.36  220.47 )">1</text><text style="&st18;" transform="matrix(&st16;  1324.31  86.47 )">14</text><text style="&st18;" transform="matrix(&st16;  1325.38  74.58 )">TRLY</text><text style="&st18;" transform="matrix(&st17;  1407.07  216.58 )">B</text><text ewd:textID="60" style="&st18;" transform="matrix(&st17;  1350.41  155.16 )">TAIL <tspan dy="6" x="0">Relay</tspan></text><text style="&st18;" transform="matrix(&st16;  1403.98  162.95 )">2</text><text style="&st18;" transform="matrix(&st17;  1254.09  242.5 )">G</text><text style="&st18;" transform="matrix(&st16;  1275.09  149.65 )">7.5A <tspan dy="6" x="0">PANEL</tspan></text><text style="&st18;" transform="matrix(&st16;  1253.48  220.47 )">2B</text><text style="&st18;" transform="matrix(&st16;  1241.14  220.47 )">40</text><text ewd:textID="40" style="&st18;" transform="matrix(&st16;  1255.26  40.58 )">Main Body ECU</text><text style="&st18;" transform="matrix(&st16;  1255.26  33.47 )">F9(B),F10(C)</text><text style="&st18;" transform="matrix(&st17;  1143.61  242.5 )">G</text><text style="&st18;" transform="matrix(&st16;  1268.78  295.55 )">1</text><text style="&st18;" transform="matrix(&st17;  1001.94  539.72 )">A51</text><text style="&st18;" transform="matrix(&st16;  1166.02  417.91 )">9</text><text style="&st18;" transform="matrix(&st16;  1087.13  389.03 )">11</text><text style="&st18;" transform="matrix(&st16;  1166.79  545.39 )">1</text><text style="&st18;" transform="matrix(&st16;  1166.02  482.51 )">2</text><text style="&st18;" transform="matrix(&st16;  1089.53  482.51 )">2</text><text style="&st18;" transform="matrix(&st16;  1090.3  545.39 )">1</text><text style="&st18;" transform="matrix(&st16;  1089.53  417.91 )">7</text><text style="&st18;" transform="matrix(&st17;  1092.62  242.5 )">G</text><text style="&st18;" transform="matrix(&st17;  1169.11  454.96 )">G</text><text style="&st18;" transform="matrix(&st17;  1092.62  454.96 )">G</text><text style="&st18;" transform="matrix(&st17;  1169.11  570.39 )">W-B</text><text style="&st18;" transform="matrix(&st17;  1092.62  570.39 )">W-B</text><text style="&st18;" transform="matrix(&st16;  1486.26  585.91 )">12</text><text style="&st18;" transform="matrix(&st16;  1369.07  652.48 )">W-B</text><text style="&st18;" transform="matrix(&st16;  1143.21  220.47 )">2F</text><text style="&st18;" transform="matrix(&st16;  1131.44  220.47 )">16</text><text style="&st18;" transform="matrix(&st16;  1497.46  474.02 )">4</text><text style="&st18;" transform="matrix(&st16;  1497.46  536.89 )">3</text><text style="&st18;" transform="matrix(&st16;  1489.43  390.44 )">5</text><text style="&st18;" transform="matrix(&st17;  1271.09  655.38 )">W-B</text><text style="&st18;" transform="matrix(&st17;  1271.09  604.39 )">W-B</text><text style="&st18;" transform="matrix(&st17;  1373.08  604.39 )">W-B</text><text style="&st18;" transform="matrix(&st17;  1373.07  454.96 )">G</text><text style="&st18;" transform="matrix(&st17;  1271.09  454.96 )">G</text><text style="&st18;" transform="matrix(&st16;  1357.25  288.43 )">O19</text><text ewd:textID="36" style="&st18;" transform="matrix(&st16;  1357.25  295.54 )">Junction Connector</text><text style="&st18;" transform="matrix(&st17;  1418.38  573.71 )">O12</text><text ewd:textID="46" style="&st18;" transform="matrix(&st17;  1425.48  573.71 )">Rear Combination Light <tspan dy="6" x="0">Assembly LH</tspan></text><text style="&st18;" transform="matrix(&st16;  1489.43  619.9 )">8</text><text style="&st18;" transform="matrix(&st17;  1316.39  573.71 )">O13</text><text ewd:textID="47" style="&st18;" transform="matrix(&st17;  1323.5  573.71 )">Rear Combination Light <tspan dy="6" x="0">Assembly RH</tspan></text><text style="&st18;" transform="matrix(&st16;  1268.0  474.02 )">3</text><text style="&st18;" transform="matrix(&st16;  1369.98  474.02 )">3</text><text style="&st18;" transform="matrix(&st16;  1268.0  579.38 )">6</text><text style="&st18;" transform="matrix(&st16;  1369.98  579.38 )">6</text><text style="&st18;" transform="matrix(&st16;  1497.46  324.43 )">6</text><text style="&st18;" transform="matrix(&st16;  1268.0  324.43 )">7</text><text style="&st18;" transform="matrix(&st16;  1490.21  432.93 )">1</text><text style="&st18;" transform="matrix(&st16;  1091.87  220.47 )">2D</text><text style="&st18;" transform="matrix(&st16;  1083.63  220.47 )">7</text><text style="&st18;" transform="matrix(&st16;  1113.62  149.65 )">10A <tspan dy="6" x="0">TAIL</tspan></text><text ewd:textID="32" style="&st18;" transform="matrix(&st17;  1009.05  539.72 )">Headlight Assembly RH</text><text ewd:textID="23" style="&st18;" transform="matrix(&st17;  1408.48  420.74 )">Diode (Taillight)</text><text style="&st18;" transform="matrix(&st16;  1270.69  485.34 )">TL</text><text style="&st18;" transform="matrix(&st16;  1272.46  567.49 )">E</text><text style="&st18;" transform="matrix(&st16;  1374.44  567.49 )">E</text><text style="&st18;" transform="matrix(&st16;  1372.67  485.34 )">TL</text><text ewd:textID="63" style="&st18;" transform="matrix(&st16;  1260.94  523.44 )">Tail/Stop</text><text ewd:textID="54" style="&st18;" transform="matrix(&st16;  1255.57  529.39 )">Side Marker</text><text ewd:textID="63" style="&st18;" transform="matrix(&st16;  1362.92  523.44 )">Tail/Stop</text><text ewd:textID="54" style="&st18;" transform="matrix(&st16;  1357.55  529.39 )">Side Marker</text><text ewd:textID="32" style="&st18;" transform="matrix(&st17;  1204.52  539.72 )">Headlight Assembly RH</text><text style="&st18;" transform="matrix(&st17;  1197.41  539.72 )">A26</text><text ewd:textID="31" style="&st18;" transform="matrix(&st17;  1128.03  539.72 )">Headlight Assembly LH</text><text style="&st18;" transform="matrix(&st17;  1120.93  539.72 )">A16</text><text ewd:textID="54" style="&st18;" transform="matrix(&st17;  1084.41  530.91 )">Side Marker</text><text ewd:textID="54" style="&st18;" transform="matrix(&st17;  1160.9  530.91 )">Side Marker</text><text style="&st18;" transform="matrix(&st16;  1175.64  494.4 )">B</text><text style="&st18;" transform="matrix(&st16;  1099.15  494.4 )">B</text><text style="&st18;" transform="matrix(&st16;  1175.64  533.51 )">E</text><text style="&st18;" transform="matrix(&st16;  1099.15  533.51 )">E</text><text style="&st18;" transform="matrix(&st16;  1119.29  381.92 )">A43</text><text ewd:textID="36" style="&st18;" transform="matrix(&st16;  1119.29  389.02 )">Junction Connector</text><text style="&st18;" transform="matrix(&st16;  1054.62  643.98 )">W-B</text><text style="&st18;" transform="matrix(&st16;  1003.63  643.98 )">W-B</text><text style="&st18;" transform="matrix(&st16;  1054.62  618.48 )">W-B</text><text style="&st18;" transform="matrix(&st16;  1003.63  618.48 )">W-B</text><text style="&st18;" transform="matrix(&st16;  1268.0  426.41 )">3</text><text style="&st18;" transform="matrix(&st16;  1370.76  426.41 )">1</text><text style="&st18;" transform="matrix(&st16;  1268.0  355.04 )">2</text><text style="&st18;" transform="matrix(&st17;  1271.09  344.48 )">G</text><text style="&st18;" transform="matrix(&st17;  1401.66  420.74 )">O28</text></svg>