﻿<?xml version="1.0" encoding="utf-8"?>
<!DOCTYPE svg PUBLIC "-//W3C//DTD SVG 1.0//EN" "http://www.w3.org/TR/2001/REC-SVG-20010904/DTD/svg10.dtd"[
	<!ENTITY ns_flows "http://ns.adobe.com/Flows/1.0/">
	<!ENTITY ns_svg "http://www.w3.org/2000/svg">
	<!ENTITY ns_xlink "http://www.w3.org/1999/xlink">
	<!ENTITY st0 "font-size:7px;font-family:'MS-PGothic';adobe-font-script:japanese;">
	<!ENTITY st1 "font-size:6px;font-family:'ArialMT';">
	<!-- White fill  -->
	<!ENTITY st2 "fill:#FFFFFF;stroke:#000000; stroke-width:1.41;stroke-linecap:round;stroke-linejoin:round;">
	<!-- Yellow fill  -->
	<!ENTITY st3 "fill:#FFFFCC;stroke:#FFFFCC; stroke-width:0.1;stroke-linecap:round;stroke-linejoin:round;">
	<!-- Gray fill  -->
	<!ENTITY st4 "fill:#CCCCCC;stroke:#CCCCCC; stroke-width:0.1;stroke-linecap:round;stroke-linejoin:round;">
	<!-- Light-blue fill -->
	<!ENTITY st5 "fill:#CCECF4;stroke:#000000; stroke-width:1.133;stroke-linecap:round;stroke-linejoin:round;">
	<!ENTITY st6 "fill:none;stroke-linecap:butt; stroke-linejoin:round;">
	<!ENTITY st7 "fill:none;stroke:#000000;stroke-linecap:round;stroke-linejoin:round;">
	<!ENTITY st8 "enable-background:new    ;">
	<!-- Black fill -->
	<!ENTITY st9 "fill:#000000;stroke:#000000; stroke-linecap:round;stroke-linejoin:round;">
	<!-- SRS note   -->
	<!ENTITY st10 "font-size:9px;font-family:'ArialMT';">
	<!ENTITY st11 "font-size:9px;font-family:'Svg Symbol';">
	<!ENTITY st12 "font-size:6px;font-family:'Svg Symbol';">
	<!ENTITY st13 "fill:none;stroke:#ff0000;stroke-linecap:round;stroke-linejoin:round;">
	<!-- Yellow fill  -->
	<!ENTITY st14 "fill:#FFFF00;stroke:#FFFF00; stroke-width:0.1;stroke-linecap:round;stroke-linejoin:round;">
	<!ENTITY st15 "font-size:6px;font-family:'MS-PGothic';adobe-font-script:japanese;">
	<!ENTITY st16 "1.00 0.00 0.00 1.00">
	<!ENTITY st17 "0.00 -1.00 1.00 0.00">
	<!ENTITY st18 "font-size:6px;font-family:'Arial';">
	<!ENTITY st19 "font-size:9px;font-family:'Arial';">
	<!ENTITY st20 "font-size:6px;font-family:'MS-PGothic','MS PGothic';adobe-font-script:japanese;">
	<!ENTITY st21 "font-size:7px;font-family:'MS-PGothic','MS PGothic';adobe-font-script:japanese;">
	<!ATTLIST svg
		xmlns:ewd CDATA #FIXED "http://shcl.co.jp/ewd"
		xmlns:a CDATA #FIXED "http://ns.adobe.com/AdobeSVGViewerExtensions/3.0/"
		ewd:ver CDATA #IMPLIED
	>
	<!ATTLIST a
		ewd:lineID CDATA #IMPLIED
		ewd:groupID CDATA #IMPLIED
		ewd:figtype CDATA #IMPLIED
		ewd:code CDATA #IMPLIED
		ewd:figID CDATA #IMPLIED
		ewd:pinNo CDATA #IMPLIED
		ewd:comment CDATA #IMPLIED >
	<!ATTLIST g
		ewd:lineID CDATA #IMPLIED
		ewd:groupID CDATA #IMPLIED
		ewd:figtype CDATA #IMPLIED
		ewd:code CDATA #IMPLIED
		ewd:figID CDATA #IMPLIED
		ewd:pinNo CDATA #IMPLIED
		ewd:comment CDATA #IMPLIED >
	<!ATTLIST text
		ewd:textID CDATA #IMPLIED >
	<!ATTLIST title
		ewd:textID CDATA #IMPLIED >
]>
<!-- Generator: Shintec Hozumi YS   -->
<svg onload="call_execInitLoadProc_svg('system')" style="overflow:visible;  enable-background:new 0 0 5669.078 710.000" viewBox="0 0 5669.078 710.000" height="710.000" width="5669.078" xml:space="preserve" ewd:ver="L2.1.2.7" xmlns="&ns_svg;" xmlns:a="http://ns.adobe.com/AdobeSVGViewerExtensions/3.0/" xmlns:ewd="http://shcl.co.jp/ewd" xmlns:xlink="&ns_xlink;">
<path d=" M 5441.22,  511.70  L 5436.97,  511.70 " style="stroke-width: 1.42 ;&st7; " /><path d=" M 5441.22,  520.20  L 5436.97,  520.20 " style="stroke-width: 1.42 ;&st7; " /><path d=" M 5441.22,  554.19  L 5436.97,  554.19 " style="stroke-width: 1.42 ;&st7; " /><path d=" M 5441.22,  562.69  L 5436.97,  562.69 " style="stroke-width: 1.42 ;&st7; " /><path d=" M 5400.85,  282.24  L 5392.35,  282.24 " style="stroke-width: 0.85 ;&st7; " /><path d=" M 5443.34,  282.24  L 5434.84,  282.24 " style="stroke-width: 0.85 ;&st7; " /><path d=" M 5322.24,  197.25  L 5317.99,  197.25 " style="stroke-width: 1.42 ;&st7; " /><path d=" M 5264.87,  299.24  L 5256.37,  299.24 " style="stroke-width: 0.85 ;&st7; " /><path d=" M 5268.00,  297.29  L 5275.36,  293.04 " style="stroke-width: 0.85 ;&st7; " /><path d=" M 5322.24,  154.76  L 5317.99,  154.76 " style="stroke-width: 1.42 ;&st7; " /><path d=" M 5322.24,  146.26  L 5317.99,  146.26 " style="stroke-width: 1.42 ;&st7; " /><path d=" M 5439.09,   69.77  L 5439.09,   95.27 " style="stroke-width: 0.85 ;&st7; " /><path d=" M 5441.22,   95.27  L 5436.97,   95.27 " style="stroke-width: 1.42 ;&st7; " /><path d=" M 5441.22,  103.77  L 5436.97,  103.77 " style="stroke-width: 1.42 ;&st7; " /><path d=" M 5320.11,   69.77  L 5320.11,   95.27 " style="stroke-width: 0.85 ;&st7; " /><path d=" M 5322.24,   95.27  L 5317.99,   95.27 " style="stroke-width: 1.42 ;&st7; " /><path d=" M 5322.24,  103.77  L 5317.99,  103.77 " style="stroke-width: 1.42 ;&st7; " /><path d=" M 5398.72,  146.26  L 5394.47,  146.26 " style="stroke-width: 1.42 ;&st7; " /><path d=" M 5398.72,  154.76  L 5394.47,  154.76 " style="stroke-width: 1.42 ;&st7; " /><path d=" M 5398.72,  188.75  L 5394.47,  188.75 " style="stroke-width: 1.42 ;&st7; " /><path d=" M 5273.35,  289.57  L 5265.99,  293.82 " style="stroke-width: 0.85 ;&st7; " /><path d=" M 5398.72,  197.25  L 5394.47,  197.25 " style="stroke-width: 1.42 ;&st7; " /><path d=" M 5322.24,  188.75  L 5317.99,  188.75 " style="stroke-width: 1.42 ;&st7; " /><path d=" M 5260.62,  532.95  L 5260.62,  511.70 " style="stroke-width: 0.85 ;&st7; " /><path d=" M 5260.62,  571.19  L 5260.62,  558.44 " style="stroke-width: 0.85 ;&st7; " /><path d=" M 5260.62,  555.61  L 5266.29,  532.95 " style="stroke-width: 1.42 ;&st7; " /><path d=" M 5430.59,  656.18  L 5430.59,  673.17  L 5447.59,  673.17  L 5447.59,  656.18  L 5430.59,  656.18 " style="stroke-width: 1.42 ;&st7; " /><path d=" M 5566.57,  256.74  L 5481.58,  256.74  L 5481.58,  299.24 " style="stroke-width: 0.85 ;&st7; " /><path d=" M 5354.10,  299.24  L 5354.10,  256.74  L 5260.62,  256.74 " style="stroke-width: 0.85 ;&st7; " /><path d=" M 5260.62,  256.74  L 5260.62,  333.23 " style="stroke-width: 0.85 ;&st7; " /><path d=" M 5451.84,   78.27  L 5451.84,   35.78  L 5426.34,   35.78  L 5426.34,   78.27  L 5451.84,   78.27 " style="stroke-width: 1.42 ;&st7; " /><path d=" M 5439.09,   90.37  L 5436.26,   87.54  L 5436.26,   91.79  L 5439.09,   94.62  L 5441.92,   91.79  L 5441.92,   87.54  L 5439.09,   90.37 " style="stroke-width: 0.28 ;&st9;" /><path d=" M 5439.09,  239.75  L 5439.09,  299.24 " style="stroke-width: 0.85 ;&st7; " /><path d=" M 5073.65,  350.23  L 5073.65,  392.72 " style="stroke-width: 0.85 ;&st7; " /><path d=" M 5031.16,  350.23  L 5031.16,  392.72 " style="stroke-width: 0.85 ;&st7; " /><path d=" M 5396.60,  239.75  L 5396.60,  299.24 " style="stroke-width: 0.85 ;&st7; " /><path d=" M 5332.86,   78.27  L 5332.86,   35.78  L 5307.36,   35.78  L 5307.36,   78.27  L 5332.86,   78.27 " style="stroke-width: 1.42 ;&st7; " /><path d=" M 5320.11,   90.37  L 5317.28,   87.54  L 5317.28,   91.79  L 5320.11,   94.62  L 5322.94,   91.79  L 5322.94,   87.54  L 5320.11,   90.37 " style="stroke-width: 0.28 ;&st9;" /><path d=" M 5439.09,  282.24  L 5433.42,  273.74  L 5444.75,  273.74  L 5439.09,  282.24 " style="stroke-width: 0.28 ;&st9;" /><path d=" M 5490.08,  316.23  L 5490.08,  299.24  L 5345.60,  299.24  L 5345.60,  316.23  L 5490.08,  316.23 " style="stroke-width: 1.42 ;&st7; " /><path d=" M 5396.60,  282.24  L 5390.93,  273.74  L 5402.26,  273.74  L 5396.60,  282.24 " style="stroke-width: 0.28 ;&st9;" /><path d=" M 5362.60,  375.72  L 5362.60,  358.73  L 5328.61,  358.73  L 5328.61,  375.72  L 5362.60,  375.72 " style="stroke-width: 1.42 ;&st7; " /><path d=" M 5345.60,  375.72  L 5345.60,  392.72 " style="stroke-width: 0.85 ;&st7; " /><path d=" M 5260.62,  350.23  L 5260.62,  392.72 " style="stroke-width: 0.85 ;&st7; " /><path d=" M 5303.11,  375.72  L 5303.11,  392.72 " style="stroke-width: 0.85 ;&st7; " /><path d=" M 5294.61,  375.72  L 5311.61,  375.72 " style="stroke-width: 0.85 ;&st7; " /><path d=" M 5243.62,  511.70  L 5405.09,  511.70  L 5405.09,  588.19  L 5243.62,  588.19  L 5243.62,  511.70 " style="stroke-width: 1.42 ;&st7; " /><path d=" M 5439.09,  525.09  L 5441.92,  527.93  L 5441.92,  523.68  L 5439.09,  520.84  L 5436.26,  523.68  L 5436.26,  527.93  L 5439.09,  525.09 " style="stroke-width: 0.28 ;&st9;" /><path d=" M 5439.09,  549.30  L 5436.26,  546.46  L 5436.26,  550.71  L 5439.09,  553.55  L 5441.92,  550.71  L 5441.92,  546.46  L 5439.09,  549.30 " style="stroke-width: 0.28 ;&st9;" /><path d=" M 5320.11,  159.65  L 5322.94,  162.49  L 5322.94,  158.24  L 5320.11,  155.41  L 5317.28,  158.24  L 5317.28,  162.49  L 5320.11,  159.65 " style="stroke-width: 0.28 ;&st9;" /><path d=" M 5320.11,  183.86  L 5317.28,  181.03  L 5317.28,  185.28  L 5320.11,  188.11  L 5322.94,  185.28  L 5322.94,  181.03  L 5320.11,  183.86 " style="stroke-width: 0.28 ;&st9;" /><path d=" M 5320.11,  188.75  L 5320.11,  154.76 " style="stroke-width: 0.85 ;&st7; " /><path d=" M 5439.09,  554.19  L 5439.09,  520.20 " style="stroke-width: 0.85 ;&st7; " /><path d=" M 5275.36,  293.04  L 5273.02,  296.08  L 5271.55,  293.54  L 5275.36,  293.04  L 5274.07,  293.78  L 5273.09,  295.06  L 5272.47,  293.99  L 5274.07,  293.78  L 5273.43,  294.15  L 5273.12,  294.56  L 5272.92,  294.22  L 5273.43,  294.15 " style="stroke-width: 0.85 ;&st7; " /><path d=" M 5273.35,  289.57  L 5271.02,  292.61  L 5269.55,  290.07  L 5273.35,  289.57  L 5272.07,  290.31  L 5271.08,  291.60  L 5270.47,  290.52  L 5272.07,  290.31  L 5271.43,  290.68  L 5271.12,  291.09  L 5270.92,  290.75  L 5271.43,  290.68 " style="stroke-width: 0.85 ;&st7; " /><path d=" M 5260.62,  299.24  L 5254.95,  290.74  L 5266.28,  290.74  L 5260.62,  299.24 " style="stroke-width: 0.28 ;&st9;" /><path d=" M 5439.09,  656.18  L 5439.09,  681.67 " style="stroke-width: 0.85 ;&st7; " /><path d=" M 5396.60,  159.65  L 5399.43,  162.49  L 5399.43,  158.24  L 5396.60,  155.41  L 5393.76,  158.24  L 5393.76,  162.49  L 5396.60,  159.65 " style="stroke-width: 0.28 ;&st9;" /><path d=" M 5396.60,  183.86  L 5393.76,  181.03  L 5393.76,  185.28  L 5396.60,  188.11  L 5399.43,  185.28  L 5399.43,  181.03  L 5396.60,  183.86 " style="stroke-width: 0.28 ;&st9;" /><path d=" M 5396.60,  188.75  L 5396.60,  154.76 " style="stroke-width: 0.85 ;&st7; " /><path d=" M 5311.61,  256.74  L 5311.61,  333.23 " style="stroke-width: 0.85 ;&st7; " /><path d=" M 5310.42,  255.74  L 5310.15,  256.21  L 5310.05,  256.74  L 5310.15,  257.28  L 5310.42,  257.75  L 5310.83,  258.09  L 5311.34,  258.28  L 5311.88,  258.28  L 5312.39,  258.09  L 5312.80,  257.75  L 5313.07,  257.28  L 5313.17,  256.74  L 5313.07,  256.21  L 5312.80,  255.74  L 5312.39,  255.39  L 5311.88,  255.21  L 5311.34,  255.21  L 5310.83,  255.39  L 5310.42,  255.74  L 5310.81,  256.45  L 5310.81,  257.03  L 5311.19,  257.48  L 5311.76,  257.58  L 5312.26,  257.29  L 5312.46,  256.74  L 5312.26,  256.20  L 5311.76,  255.91  L 5311.19,  256.01  L 5311.61,  256.74 " style="stroke-width: 0.85 ;&st7; " /><path d=" M 5430.59,  701.50  L 5447.59,  701.50 " style="stroke-width: 0.85 ;&st7; " /><path d=" M 5434.84,  704.33  L 5443.34,  704.33 " style="stroke-width: 0.85 ;&st7; " /><path d=" M 5436.26,  707.17  L 5441.92,  707.17 " style="stroke-width: 0.85 ;&st7; " /><path d=" M 5439.09,  656.18  L 5439.09,  673.17 " style="stroke-width: 0.85 ;&st7; " /><path d=" M 5439.09,  697.25  L 5439.09,  701.50 " style="stroke-width: 0.85 ;&st7; " /><path d=" M 5437.67,  710.00  L 5440.51,  710.00 " style="stroke-width: 0.85 ;&st7; " /><path d=" M 5388.10,  392.72  L 5388.10,  367.22  L 5439.09,  367.22 " style="stroke-width: 0.85 ;&st7; " /><path d=" M 5439.09,  350.23  L 5439.09,  392.72 " style="stroke-width: 0.85 ;&st7; " /><path d=" M 5437.90,  366.22  L 5437.62,  366.69  L 5437.53,  367.22  L 5437.62,  367.76  L 5437.90,  368.23  L 5438.31,  368.57  L 5438.82,  368.76  L 5439.36,  368.76  L 5439.87,  368.57  L 5440.28,  368.23  L 5440.55,  367.76  L 5440.65,  367.22  L 5440.55,  366.69  L 5440.28,  366.22  L 5439.87,  365.88  L 5439.36,  365.69  L 5438.82,  365.69  L 5438.31,  365.88  L 5437.90,  366.22  L 5438.29,  366.93  L 5438.29,  367.52  L 5438.66,  367.96  L 5439.24,  368.06  L 5439.74,  367.77  L 5439.94,  367.22  L 5439.74,  366.68  L 5439.24,  366.39  L 5438.66,  366.49  L 5439.09,  367.22 " style="stroke-width: 0.85 ;&st7; " /><path d=" M 5345.60,  568.36  L 5347.07,  564.82  L 5344.14,  564.82  L 5345.60,  568.36  L 5345.60,  566.88  L 5346.22,  565.38  L 5344.98,  565.38  L 5345.60,  566.88  L 5345.60,  566.14  L 5345.80,  565.67  L 5345.41,  565.67  L 5345.60,  566.14 " style="stroke-width: 0.85 ;&st7; " /><path d=" M 5330.02,  571.19  L 5338.52,  571.19  L 5339.94,  568.36  L 5342.77,  574.02  L 5345.60,  568.36  L 5348.44,  574.02  L 5351.27,  568.36  L 5354.10,  574.02  L 5355.52,  571.19  L 5364.02,  571.19 " style="stroke-width: 0.85 ;&st7; " /><path d=" M 5303.11,  511.70  L 5303.11,  571.19  L 5330.02,  571.19 " style="stroke-width: 0.85 ;&st7; " /><path d=" M 5301.92,  570.19  L 5301.65,  570.66  L 5301.55,  571.19  L 5301.65,  571.72  L 5301.92,  572.19  L 5302.33,  572.54  L 5302.84,  572.73  L 5303.38,  572.73  L 5303.89,  572.54  L 5304.30,  572.19  L 5304.58,  571.72  L 5304.67,  571.19  L 5304.58,  570.66  L 5304.30,  570.19  L 5303.89,  569.84  L 5303.38,  569.65  L 5302.84,  569.65  L 5302.33,  569.84  L 5301.92,  570.19  L 5302.31,  570.90  L 5302.31,  571.48  L 5302.69,  571.93  L 5303.26,  572.03  L 5303.76,  571.74  L 5303.96,  571.19  L 5303.76,  570.64  L 5303.26,  570.35  L 5302.69,  570.45  L 5303.11,  571.19 " style="stroke-width: 0.85 ;&st7; " /><path d=" M 5345.60,  511.70  L 5345.60,  568.36 " style="stroke-width: 0.85 ;&st7; " /><path d=" M 5364.02,  571.19  L 5388.10,  571.19  L 5388.10,  511.70 " style="stroke-width: 0.85 ;&st7; " /><path d=" M 5260.62,  571.19  L 5303.11,  571.19 " style="stroke-width: 0.85 ;&st7; " /><path d=" M 5262.04,  557.03  C 5262.04   556.24  5261.40   555.61  5260.62   555.61 " style="stroke-width: 0.85 ;&st7; " /><path d=" M 5260.62,  555.61  C 5259.84   555.61  5259.20   556.24  5259.20   557.03 " style="stroke-width: 0.85 ;&st7; " /><path d=" M 5259.20,  557.03  C 5259.20   557.81  5259.84   558.44  5260.62   558.44 " style="stroke-width: 0.85 ;&st7; " /><path d=" M 5260.62,  558.44  C 5261.40   558.44  5262.04   557.81  5262.04   557.03 " style="stroke-width: 0.85 ;&st7; " /><path d=" M 5262.04,  534.36  C 5262.04   533.58  5261.40   532.95  5260.62   532.95 " style="stroke-width: 0.85 ;&st7; " /><path d=" M 5260.62,  532.95  C 5259.84   532.95  5259.20   533.58  5259.20   534.36 " style="stroke-width: 0.85 ;&st7; " /><path d=" M 5259.20,  534.36  C 5259.20   535.14  5259.84   535.78  5260.62   535.78 " style="stroke-width: 0.85 ;&st7; " /><path d=" M 5260.62,  535.78  C 5261.40   535.78  5262.04   535.14  5262.04   534.36 " style="stroke-width: 0.85 ;&st7; " /><path d=" M 5441.22,  562.69  C 5443.56   562.69  5445.47   560.79  5445.47   558.44 " style="stroke-width: 1.42 ;&st7; " /><path d=" M 5445.47,  558.44  C 5445.47   556.10  5443.56   554.19  5441.22   554.19 " style="stroke-width: 1.42 ;&st7; " /><path d=" M 5436.97,  511.70  C 5434.62   511.70  5432.72   513.60  5432.72   515.95 " style="stroke-width: 1.42 ;&st7; " /><path d=" M 5439.09,   47.11  C 5436.35    48.72  5435.44    52.25  5437.05    54.99 " style="stroke-width: 1.42 ;&st7; " /><path d=" M 5437.05,   54.99  C 5437.57    55.87  5438.21    56.51  5439.09    57.03 " style="stroke-width: 1.42 ;&st7; " /><path d=" M 5439.09,   66.94  C 5441.83    65.33  5442.74    61.80  5441.13    59.06 " style="stroke-width: 1.42 ;&st7; " /><path d=" M 5441.13,   59.06  C 5440.61    58.18  5439.97    57.55  5439.09    57.03 " style="stroke-width: 1.42 ;&st7; " /><path d=" M 5440.51,   45.69  C 5440.51    44.91  5439.87    44.28  5439.09    44.28 " style="stroke-width: 0.85 ;&st7; " /><path d=" M 5439.09,   44.28  C 5438.31    44.28  5437.67    44.91  5437.67    45.69 " style="stroke-width: 0.85 ;&st7; " /><path d=" M 5437.67,   45.69  C 5437.67    46.48  5438.31    47.11  5439.09    47.11 " style="stroke-width: 0.85 ;&st7; " /><path d=" M 5439.09,   47.11  C 5439.87    47.11  5440.51    46.48  5440.51    45.69 " style="stroke-width: 0.85 ;&st7; " /><path d=" M 5440.51,   68.36  C 5440.51    67.57  5439.87    66.94  5439.09    66.94 " style="stroke-width: 0.85 ;&st7; " /><path d=" M 5439.09,   66.94  C 5438.31    66.94  5437.67    67.57  5437.67    68.36 " style="stroke-width: 0.85 ;&st7; " /><path d=" M 5437.67,   68.36  C 5437.67    69.14  5438.31    69.77  5439.09    69.77 " style="stroke-width: 0.85 ;&st7; " /><path d=" M 5439.09,   69.77  C 5439.87    69.77  5440.51    69.14  5440.51    68.36 " style="stroke-width: 0.85 ;&st7; " /><path d=" M 5436.97,   95.27  C 5434.62    95.27  5432.72    97.17  5432.72    99.52 " style="stroke-width: 1.42 ;&st7; " /><path d=" M 5432.72,   99.52  C 5432.72   101.87  5434.62   103.77  5436.97   103.77 " style="stroke-width: 1.42 ;&st7; " /><path d=" M 5441.22,  103.77  C 5443.56   103.77  5445.47   101.87  5445.47    99.52 " style="stroke-width: 1.42 ;&st7; " /><path d=" M 5445.47,   99.52  C 5445.47    97.17  5443.56    95.27  5441.22    95.27 " style="stroke-width: 1.42 ;&st7; " /><path d=" M 5320.11,   47.11  C 5317.37    48.72  5316.46    52.25  5318.07    54.99 " style="stroke-width: 1.42 ;&st7; " /><path d=" M 5318.07,   54.99  C 5318.59    55.87  5319.23    56.51  5320.11    57.03 " style="stroke-width: 1.42 ;&st7; " /><path d=" M 5320.11,   66.94  C 5322.85    65.33  5323.76    61.80  5322.15    59.06 " style="stroke-width: 1.42 ;&st7; " /><path d=" M 5322.15,   59.06  C 5321.63    58.18  5320.99    57.55  5320.11    57.03 " style="stroke-width: 1.42 ;&st7; " /><path d=" M 5321.53,   45.69  C 5321.53    44.91  5320.89    44.28  5320.11    44.28 " style="stroke-width: 0.85 ;&st7; " /><path d=" M 5320.11,   44.28  C 5319.33    44.28  5318.69    44.91  5318.69    45.69 " style="stroke-width: 0.85 ;&st7; " /><path d=" M 5318.69,   45.69  C 5318.69    46.48  5319.33    47.11  5320.11    47.11 " style="stroke-width: 0.85 ;&st7; " /><path d=" M 5320.11,   47.11  C 5320.89    47.11  5321.53    46.48  5321.53    45.69 " style="stroke-width: 0.85 ;&st7; " /><path d=" M 5321.53,   68.36  C 5321.53    67.57  5320.89    66.94  5320.11    66.94 " style="stroke-width: 0.85 ;&st7; " /><path d=" M 5320.11,   66.94  C 5319.33    66.94  5318.69    67.57  5318.69    68.36 " style="stroke-width: 0.85 ;&st7; " /><path d=" M 5318.69,   68.36  C 5318.69    69.14  5319.33    69.77  5320.11    69.77 " style="stroke-width: 0.85 ;&st7; " /><path d=" M 5320.11,   69.77  C 5320.89    69.77  5321.53    69.14  5321.53    68.36 " style="stroke-width: 0.85 ;&st7; " /><path d=" M 5317.99,   95.27  C 5315.64    95.27  5313.74    97.17  5313.74    99.52 " style="stroke-width: 1.42 ;&st7; " /><path d=" M 5313.74,   99.52  C 5313.74   101.87  5315.64   103.77  5317.99   103.77 " style="stroke-width: 1.42 ;&st7; " /><path d=" M 5322.24,  103.77  C 5324.58   103.77  5326.49   101.87  5326.49    99.52 " style="stroke-width: 1.42 ;&st7; " /><path d=" M 5326.49,   99.52  C 5326.49    97.17  5324.58    95.27  5322.24    95.27 " style="stroke-width: 1.42 ;&st7; " /><path d=" M 5432.72,  515.95  C 5432.72   518.30  5434.62   520.20  5436.97   520.20 " style="stroke-width: 1.42 ;&st7; " /><path d=" M 5432.72,  558.44  C 5432.72   560.79  5434.62   562.69  5436.97   562.69 " style="stroke-width: 1.42 ;&st7; " /><path d=" M 5436.97,  554.19  C 5434.62   554.19  5432.72   556.10  5432.72   558.44 " style="stroke-width: 1.42 ;&st7; " /><path d=" M 5313.74,  193.00  C 5313.74   195.35  5315.64   197.25  5317.99   197.25 " style="stroke-width: 1.42 ;&st7; " /><path d=" M 5326.49,  193.00  C 5326.49   190.66  5324.58   188.75  5322.24   188.75 " style="stroke-width: 1.42 ;&st7; " /><path d=" M 5322.24,  197.25  C 5324.58   197.25  5326.49   195.35  5326.49   193.00 " style="stroke-width: 1.42 ;&st7; " /><path d=" M 5313.74,  150.51  C 5313.74   152.86  5315.64   154.76  5317.99   154.76 " style="stroke-width: 1.42 ;&st7; " /><path d=" M 5322.24,  154.76  C 5324.58   154.76  5326.49   152.86  5326.49   150.51 " style="stroke-width: 1.42 ;&st7; " /><path d=" M 5326.49,  150.51  C 5326.49   148.16  5324.58   146.26  5322.24   146.26 " style="stroke-width: 1.42 ;&st7; " /><path d=" M 5317.99,  188.75  C 5315.64   188.75  5313.74   190.66  5313.74   193.00 " style="stroke-width: 1.42 ;&st7; " /><path d=" M 5317.99,  146.26  C 5315.64   146.26  5313.74   148.16  5313.74   150.51 " style="stroke-width: 1.42 ;&st7; " /><path d=" M 5445.47,  515.95  C 5445.47   513.60  5443.56   511.70  5441.22   511.70 " style="stroke-width: 1.42 ;&st7; " /><path d=" M 5394.47,  146.26  C 5392.13   146.26  5390.22   148.16  5390.22   150.51 " style="stroke-width: 1.42 ;&st7; " /><path d=" M 5390.22,  150.51  C 5390.22   152.86  5392.13   154.76  5394.47   154.76 " style="stroke-width: 1.42 ;&st7; " /><path d=" M 5398.72,  154.76  C 5401.07   154.76  5402.97   152.86  5402.97   150.51 " style="stroke-width: 1.42 ;&st7; " /><path d=" M 5402.97,  150.51  C 5402.97   148.16  5401.07   146.26  5398.72   146.26 " style="stroke-width: 1.42 ;&st7; " /><path d=" M 5394.47,  188.75  C 5392.13   188.75  5390.22   190.66  5390.22   193.00 " style="stroke-width: 1.42 ;&st7; " /><path d=" M 5390.22,  193.00  C 5390.22   195.35  5392.13   197.25  5394.47   197.25 " style="stroke-width: 1.42 ;&st7; " /><path d=" M 5398.72,  197.25  C 5401.07   197.25  5402.97   195.35  5402.97   193.00 " style="stroke-width: 1.42 ;&st7; " /><path d=" M 5402.97,  193.00  C 5402.97   190.66  5401.07   188.75  5398.72   188.75 " style="stroke-width: 1.42 ;&st7; " /><path d=" M 5441.22,  520.20  C 5443.56   520.20  5445.47   518.30  5445.47   515.95 " style="stroke-width: 1.42 ;&st7; " /><text style="&st18;" transform="matrix(&st16;  5263.45  519.89 )">TC</text><text style="&st18;" transform="matrix(&st16;  5305.95  519.89 )">T</text><text style="&st18;" transform="matrix(&st16;  5348.44  519.89 )">RV</text><text style="&st18;" transform="matrix(&st16;  5390.93  519.89 )">E</text><text ewd:textID="36" style="&st18;" transform="matrix(&st17;  5462.31  675.7 )">Junction <tspan dy="6" x="0">Connector</tspan></text><text style="&st18;" transform="matrix(&st17;  5455.2  675.7 )">F64</text><text style="&st18;" transform="matrix(&st16;  5479.06  228.94 )">F14</text><text style="&st18;" transform="matrix(&st16;  5379.95  194.97 )">22</text><text style="&st18;" transform="matrix(&st16;  5304.24  194.97 )">14</text><text style="&st18;" transform="matrix(&st16;  5429.12  236.06 )">17</text><text style="&st18;" transform="matrix(&st16;  5433.02  32.08 )">(IG)</text><text style="&st18;" transform="matrix(&st16;  5311.0  32.08 )">(BAT)</text><text style="&st18;" transform="matrix(&st16;  5399.43  247.94 )">B</text><text style="&st18;" transform="matrix(&st16;  5315.8  194.97 )">2B</text><text style="&st18;" transform="matrix(&st16;  5064.46  400.91 )">11</text><text style="&st18;" transform="matrix(&st16;  5441.92  247.94 )">IG+</text><text style="&st18;" transform="matrix(&st16;  5076.49  389.03 )">ILL-</text><text style="&st18;" transform="matrix(&st16;  5033.99  389.03 )">IL2-</text><text ewd:textID="62" style="&st18;" transform="matrix(&st17;  5251.55  316.39 )">Tail (Canada)</text><text style="&st18;" transform="matrix(&st16;  5386.63  236.06 )">15</text><text style="&st18;" transform="matrix(&st16;  5434.64  101.49 )">2C</text><text style="&st18;" transform="matrix(&st16;  5422.45  101.49 )">55</text><text style="&st18;" transform="matrix(&st16;  5379.95  152.48 )">68</text><text style="&st18;" transform="matrix(&st16;  5392.29  152.48 )">4A</text><text style="&st18;" transform="matrix(&st17;  5435.4  174.23 )">R</text><text style="&st18;" transform="matrix(&st16;  5392.29  194.97 )">4B</text><text style="&st18;" transform="matrix(&st16;  5313.32  86.47 )">2</text><text style="&st18;" transform="matrix(&st16;  5318.52  101.49 )">1</text><text style="&st18;" transform="matrix(&st17;  5316.41  122.74 )">L</text><text style="&st18;" transform="matrix(&st17;  5392.9  216.23 )">L</text><text style="&st18;" transform="matrix(&st17;  5350.41  173.73 )">L</text><text style="&st18;" transform="matrix(&st16;  5315.66  152.48 )">2D</text><text style="&st18;" transform="matrix(&st16;  5303.47  152.48 )">39</text><text style="&st18;" transform="matrix(&st16;  5021.19  400.91 )">10</text><text style="&st18;" transform="matrix(&st16;  5456.4  56.17 )">7.5A <tspan dy="6" x="0">GAUGE</tspan></text><text style="&st18;" transform="matrix(&st16;  5337.42  56.17 )">10A <tspan dy="6" x="0">ECU-B</tspan></text><text style="&st18;" transform="matrix(&st16;  5339.78  369.19 )">A/D</text><text style="&st18;" transform="matrix(&st16;  5298.8  372.03 )">5V</text><text style="&st18;" transform="matrix(&st16;  5263.45  389.03 )">TC</text><text style="&st18;" transform="matrix(&st16;  5348.44  389.03 )">TR</text><text style="&st18;" transform="matrix(&st16;  5305.95  389.03 )">RHIG</text><text style="&st18;" transform="matrix(&st16;  5390.93  389.03 )">E2</text><text style="&st18;" transform="matrix(&st17;  5384.4  465.44 )">LG</text><text style="&st18;" transform="matrix(&st16;  5382.09  508.01 )">1</text><text style="&st18;" transform="matrix(&st16;  5377.35  400.91 )">39</text><text style="&st18;" transform="matrix(&st17;  5341.91  465.94 )">GR</text><text style="&st18;" transform="matrix(&st16;  5338.82  508.01 )">3</text><text style="&st18;" transform="matrix(&st16;  5292.37  400.91 )">37</text><text style="&st18;" transform="matrix(&st17;  5299.42  463.04 )">B</text><text style="&st18;" transform="matrix(&st16;  5296.32  508.01 )">7</text><text style="&st18;" transform="matrix(&st16;  5334.86  400.91 )">38</text><text style="&st18;" transform="matrix(&st16;  5249.6  595.8 )">F5</text><text ewd:textID="38" style="&st18;" transform="matrix(&st16;  5249.6  602.9 )">Light Control Rheostat</text><text style="&st18;" transform="matrix(&st17;  5256.93  464.06 )">W</text><text style="&st18;" transform="matrix(&st16;  5253.83  508.01 )">5</text><text style="&st18;" transform="matrix(&st16;  5249.88  400.91 )">36</text><text style="&st18;" transform="matrix(&st16;  5434.78  517.92 )">4B</text><text style="&st18;" transform="matrix(&st16;  5423.22  517.92 )">14</text><text style="&st18;" transform="matrix(&st16;  5434.78  560.41 )">4B</text><text style="&st18;" transform="matrix(&st16;  5422.45  560.41 )">63</text><text style="&st18;" transform="matrix(&st16;  5428.35  400.91 )">20</text><text style="&st18;" transform="matrix(&st17;  5435.4  502.4 )">W-B</text><text style="&st18;" transform="matrix(&st16;  5441.92  389.03 )">E1</text><text style="&st18;" transform="matrix(&st17;  5435.4  587.39 )">W-B</text><text style="&st18;" transform="matrix(&st16;  5432.3  652.49 )">9</text><text ewd:textID="19" style="&st18;" transform="matrix(&st16;  5479.06  236.05 )">Combination Meter Assembly</text><text style="&st18;" transform="matrix(&st17;  5027.46  431.94 )">GR</text><text style="&st18;" transform="matrix(&st17;  5069.96  431.94 )">GR</text><text style="&st18;" transform="matrix(&st17;  5268.26  468.87 )">(*20)</text><text style="&st18;" transform="matrix(&st17;  5310.75  468.87 )">(*20)</text><text style="&st18;" transform="matrix(&st17;  5353.24  468.87 )">(*20)</text><text style="&st18;" transform="matrix(&st17;  5395.74  468.87 )">(*20)</text></svg>