﻿<?xml version="1.0"?>
<!-- Generator: Adobe Illustrator 10.0, SVG Export Plug-In . SVG Version: 3.0.0 Build 77)  -->
<!DOCTYPE svg PUBLIC "-//W3C//DTD SVG 1.0//EN" "http://www.w3.org/TR/2001/REC-SVG-20010904/DTD/svg10.dtd"[
	<!ENTITY ns_flows "http://ns.adobe.com/Flows/1.0/">
	<!ENTITY ns_svg "http://www.w3.org/2000/svg">
	<!ENTITY ns_xlink "http://www.w3.org/1999/xlink">
	<!ENTITY st0 "fill:none;stroke:#000000;stroke-linecap:round;stroke-linejoin:round;">
	<!ENTITY st1 "fill:none;stroke:#000000;stroke-width:0.6;stroke-linecap:round;stroke-linejoin:round;">
	<!ENTITY st2 "font-size:6px;">
	<!ENTITY st3 "font-family:'Arial';">
	<!ATTLIST svg
		ewd:ver CDATA #IMPLIED
		xmlns:ewd CDATA #FIXED "http://shcl.co.jp/ewd"
		xmlns:a CDATA #FIXED "http://ns.adobe.com/AdobeSVGViewerExtensions/3.0/">
	<!ATTLIST g
		ewd:pinNo CDATA #IMPLIED>
]>
<svg width="128.479" height="52.558" viewBox="0 0 128.479 52.558" style="overflow:visible;enable-background:new 0 0 128.479 52.558" xml:space="preserve" onload="call_execInitLoadProc_svg('connector')" ewd:ver="L2.1.2.7" xmlns="&ns_svg;" xmlns:ewd="http://shcl.co.jp/ewd" xmlns:a="http://ns.adobe.com/AdobeSVGViewerExtensions/3.0/" xmlns:xlink="&ns_xlink;">
<script type="text/javascript" xlink:href="../../../../../system/js/ewd/fig/svgfig.js"/>
<g id="レイヤー_1">
	<path style="&st0;" d="M39.31,0.5c-1.095,0-1.983,0.888-1.983,1.983"/>
	<path style="&st0;" d="M0.5,43.56c0,1.564,1.269,2.833,2.833,2.833"/>
	<path style="&st1;" d="M41.577,44.41c0,1.095,0.888,1.983,1.983,1.983"/>
	<path style="&st0;" d="M127.979,9.565c0-1.564-1.268-2.833-2.833-2.833"/>
	<path style="&st0;" d="M3.333,6.732C1.769,6.732,0.5,8.001,0.5,9.565"/>
	<path style="&st0;" d="M125.146,46.393c1.565,0,2.833-1.269,2.833-2.833"/>
	<path style="&st0;" d="M91.151,2.483c0-1.095-0.888-1.983-1.983-1.983"/>
	<path style="&st1;" d="M84.919,46.393c1.095,0,1.983-0.888,1.983-1.983"/>
	<path style="&st0;" d="M39.31,0.5h49.858"/>
	<path style="&st1;" d="M44.409,6.732V21.18"/>
	<path style="&st1;" d="M49.367,27.979v2.833"/>
	<path style="&st1;" d="M48.659,4.75h15.581"/>
	<path style="&st1;" d="M44.409,6.732l4.25-1.983"/>
	<path style="&st1;" d="M44.409,30.812h39.66"/>
	<path style="&st1;" d="M44.409,43.56h39.66"/>
	<path style="&st1;" d="M44.409,30.812V43.56"/>
	<path style="&st1;" d="M54.324,30.812V43.56"/>
	<path style="&st1;" d="M64.239,30.812V43.56"/>
	<path style="&st1;" d="M74.154,30.812V43.56"/>
	<path style="&st1;" d="M84.069,30.812V43.56"/>
	<path style="&st1;" d="M44.409,26.563v1.417h39.66v-1.417H44.409"/>
	<path style="&st1;" d="M79.82,4.75H64.239"/>
	<path style="&st1;" d="M55.741,21.18v1.983"/>
	<path style="&st0;" d="M0.5,9.565V43.56"/>
	<path style="&st0;" d="M91.151,2.483v4.25"/>
	<path style="&st0;" d="M3.333,46.393h38.244"/>
	<path style="&st1;" d="M50.642,4.75v1.983h13.598"/>
	<path style="&st1;" d="M59.99,21.18v1.983"/>
	<path style="&st1;" d="M41.577,35.061v9.349"/>
	<path style="&st1;" d="M35.911,35.061v11.332"/>
	<path style="&st1;" d="M35.911,35.061h5.666"/>
	<path style="&st0;" d="M127.979,9.565V43.56"/>
	<path style="&st1;" d="M68.489,21.18v1.983"/>
	<path style="&st1;" d="M72.738,21.18v1.983"/>
	<path style="&st1;" d="M3.333,13.814v16.998"/>
	<path style="&st1;" d="M3.333,30.812h33.995"/>
	<path style="&st1;" d="M20.33,13.814v16.998"/>
	<path style="&st1;" d="M3.333,43.56h29.745"/>
	<path style="&st1;" d="M37.327,13.814v16.998"/>
	<path style="&st1;" d="M3.333,30.812V43.56"/>
	<path style="&st1;" d="M3.333,13.814h33.995"/>
	<path style="&st1;" d="M13.248,30.812V43.56"/>
	<path style="&st1;" d="M84.069,21.18H72.738"/>
	<path style="&st1;" d="M23.163,30.812V43.56"/>
	<path style="&st1;" d="M33.078,30.812V43.56"/>
	<path style="&st1;" d="M59.99,6.732V21.18"/>
	<path style="&st0;" d="M37.327,2.483v4.25"/>
	<path style="&st1;" d="M77.837,4.75v1.983H64.239"/>
	<path style="&st1;" d="M84.069,6.732L79.82,4.75"/>
	<path style="&st1;" d="M44.409,21.18h11.332"/>
	<path style="&st1;" d="M59.99,18.347h8.499"/>
	<path style="&st1;" d="M59.99,21.18h8.499"/>
	<path style="&st1;" d="M79.112,27.979v2.833"/>
	<path style="&st1;" d="M55.741,6.732V21.18"/>
	<path style="&st1;" d="M84.069,6.732V21.18"/>
	<path style="&st1;" d="M68.489,6.732V21.18"/>
	<path style="&st1;" d="M72.738,6.732V21.18"/>
	<path style="&st1;" d="M44.409,23.163v1.417h39.66v-1.417H44.409"/>
	<path style="&st1;" d="M77.837,6.732h1.983v1.983h-7.082"/>
	<path style="&st1;" d="M59.99,14.098h8.499"/>
	<path style="&st0;" d="M125.146,6.732H91.151"/>
	<path style="&st1;" d="M55.741,12.682h-9.349v2.833h9.349"/>
	<path style="&st1;" d="M72.738,12.682h9.349v2.833h-9.349"/>
	<path style="&st1;" d="M50.642,6.732h-1.983v1.983h7.082"/>
	<path style="&st0;" d="M86.902,46.393l-5.666,5.666H47.242l-5.666-5.666"/>
	<path style="&st1;" d="M59.99,10.698h8.499"/>
	<path style="&st1;" d="M91.151,6.732h-7.082"/>
	<path style="&st0;" d="M3.333,6.732h33.995"/>
	<path style="&st1;" d="M37.327,6.732h7.082"/>
	<path style="&st1;" d="M125.146,13.814v16.998"/>
	<path style="&st1;" d="M125.146,30.812H91.151"/>
	<path style="&st1;" d="M108.148,13.814v16.998"/>
	<path style="&st1;" d="M125.146,43.56H95.401"/>
	<path style="&st1;" d="M91.151,13.814v16.998"/>
	<path style="&st1;" d="M125.146,30.812V43.56"/>
	<path style="&st1;" d="M125.146,13.814H91.151"/>
	<path style="&st1;" d="M115.231,30.812V43.56"/>
	<path style="&st1;" d="M105.316,30.812V43.56"/>
	<path style="&st1;" d="M95.401,30.812V43.56"/>
	<path style="&st1;" d="M86.902,35.061v9.349"/>
	<path style="&st1;" d="M92.568,35.061v11.332"/>
	<path style="&st1;" d="M92.568,35.061h-5.666"/>
	<path style="&st0;" d="M86.902,46.393h38.243"/>
	<path style="&st1;" d="M41.577,46.393h45.326"/>
	<g ewd:pinNo="8">
		<text transform="matrix(1 0 0 1 47.7705 39.3799)"><tspan x="0" y="0" style="&st3; &st2;">8</tspan></text>
	</g>
	<g ewd:pinNo="9">
		<text transform="matrix(1 0 0 1 57.6855 39.3799)"><tspan x="0" y="0" style="&st3; &st2;">9</tspan></text>
	</g>
	<g ewd:pinNo="10">
		<text transform="matrix(1 0 0 1 65.5137 39.3799)"><tspan x="0" y="0" style="&st3; &st2;">10</tspan></text>
	</g>
	<g ewd:pinNo="11">
		<text transform="matrix(1 0 0 1 75.6514 39.3799)"><tspan x="0" y="0" style="&st3; &st2;">11</tspan></text>
	</g>
	<g ewd:pinNo="2">
		<text transform="matrix(1 0 0 1 27.2319 24.5073)"><tspan x="0" y="0" style="&st3; &st2;">2</tspan></text>
	</g>
	<g ewd:pinNo="1">
		<text transform="matrix(1 0 0 1 10.2349 24.5073)"><tspan x="0" y="0" style="&st3; &st2;">1</tspan></text>
	</g>
	<g ewd:pinNo="5">
		<text transform="matrix(1 0 0 1 6.6938 39.3799)"><tspan x="0" y="0" style="&st3; &st2;">5</tspan></text>
	</g>
	<g ewd:pinNo="6">
		<text transform="matrix(1 0 0 1 16.6089 39.3799)"><tspan x="0" y="0" style="&st3; &st2;">6</tspan></text>
	</g>
	<g ewd:pinNo="7">
		<text transform="matrix(1 0 0 1 26.5239 39.3799)"><tspan x="0" y="0" style="&st3; &st2;">7</tspan></text>
	</g>
	<g ewd:pinNo="3">
		<text transform="matrix(1 0 0 1 98.0537 24.5073)"><tspan x="0" y="0" style="&st3; &st2;">3</tspan></text>
	</g>
	<g ewd:pinNo="4">
		<text transform="matrix(1 0 0 1 115.0508 24.5073)"><tspan x="0" y="0" style="&st3; &st2;">4</tspan></text>
	</g>
	<g ewd:pinNo="14">
		<text transform="matrix(1 0 0 1 116.5054 39.3799)"><tspan x="0" y="0" style="&st3; &st2;">14</tspan></text>
	</g>
	<g ewd:pinNo="13">
		<text transform="matrix(1 0 0 1 106.5903 39.3799)"><tspan x="0" y="0" style="&st3; &st2;">13</tspan></text>
	</g>
	<g ewd:pinNo="12">
		<text transform="matrix(1 0 0 1 96.6753 39.3799)"><tspan x="0" y="0" style="&st3; &st2;">12</tspan></text>
	</g>
</g>
</svg>