﻿<?xml version="1.0"?>
<!-- Generator: Adobe Illustrator 10.0, SVG Export Plug-In . SVG Version: 3.0.0 Build 77)  -->
<!DOCTYPE svg PUBLIC "-//W3C//DTD SVG 1.0//EN" "http://www.w3.org/TR/2001/REC-SVG-20010904/DTD/svg10.dtd"[
	<!ENTITY ns_flows "http://ns.adobe.com/Flows/1.0/">
	<!ENTITY ns_svg "http://www.w3.org/2000/svg">
	<!ENTITY ns_xlink "http://www.w3.org/1999/xlink">
	<!ENTITY st0 "fill:none;stroke:#000000;stroke-linecap:round;stroke-linejoin:round;">
	<!ENTITY st1 "fill:none;stroke:#000000;stroke-width:0.6;stroke-linecap:round;stroke-linejoin:round;">
	<!ENTITY st2 "font-size:6px;">
	<!ENTITY st3 "font-family:'Arial';">
	<!ATTLIST svg
		ewd:ver CDATA #IMPLIED
		xmlns:ewd CDATA #FIXED "http://shcl.co.jp/ewd"
		xmlns:a CDATA #FIXED "http://ns.adobe.com/AdobeSVGViewerExtensions/3.0/">
	<!ATTLIST g
		ewd:pinNo CDATA #IMPLIED>
]>
<svg width="54.824" height="57.658" viewBox="0 0 54.824 57.658" style="overflow:visible;enable-background:new 0 0 54.824 57.658" xml:space="preserve" onload="call_execInitLoadProc_svg('connector')" ewd:ver="L2.1.2.7" xmlns="&ns_svg;" xmlns:ewd="http://shcl.co.jp/ewd" xmlns:a="http://ns.adobe.com/AdobeSVGViewerExtensions/3.0/" xmlns:xlink="&ns_xlink;">
<script type="text/javascript" xlink:href="../../../../../system/js/ewd/fig/svgfig.js"/>
<g id="レイヤー_1">
	<path style="&st0;" d="M52.058,21.747c1.251,0,2.266-1.015,2.266-2.266"/>
	<path style="&st1;" d="M44.409,35.993c0,1.244,0.757,2.294,1.938,2.688"/>
	<path style="&st1;" d="M46.347,31.724c-1.181,0.393-1.938,1.444-1.938,2.688"/>
	<path style="&st1;" d="M4.749,34.413c0-1.245-0.757-2.295-1.938-2.688"/>
	<path style="&st1;" d="M2.812,38.682c1.181-0.394,1.938-1.444,1.938-2.688"/>
	<path style="&st0;" d="M3.333,0.5C1.769,0.5,0.5,1.769,0.5,3.333"/>
	<path style="&st0;" d="M48.659,3.333c0-1.564-1.269-2.833-2.833-2.833"/>
	<path style="&st0;" d="M54.324,18.347c0-1.251-1.015-2.266-2.266-2.266"/>
	<path style="&st0;" d="M38.055,57.157c2.348,0,4.351-0.83,6.011-2.49"/>
	<path style="&st0;" d="M5.092,54.667c1.66,1.66,3.664,2.491,6.012,2.491"/>
	<path style="&st0;" d="M0.5,30.954v8.499"/>
	<path style="&st0;" d="M48.659,21.747h3.399"/>
	<path style="&st0;" d="M54.324,18.347v1.133"/>
	<path style="&st0;" d="M48.659,30.954v8.499"/>
	<path style="&st0;" d="M48.659,16.081h3.399"/>
	<path style="&st0;" d="M48.659,21.747v9.207"/>
	<path style="&st1;" d="M20.33,49.367h8.499"/>
	<path style="&st1;" d="M34.494,28.829h-19.83"/>
	<path style="&st1;" d="M14.664,28.829v12.748"/>
	<path style="&st1;" d="M24.579,28.829v12.748"/>
	<path style="&st1;" d="M34.494,28.829v12.748"/>
	<path style="&st1;" d="M28.829,47.242v4.25"/>
	<path style="&st0;" d="M0.5,10.416V3.333"/>
	<path style="&st0;" d="M48.659,3.333v7.083"/>
	<path style="&st0;" d="M3.333,0.5h42.493"/>
	<path style="&st1;" d="M20.33,47.242v4.25"/>
	<path style="&st1;" d="M0.5,39.452l2.312-0.771"/>
	<path style="&st1;" d="M0.5,13.248h8.499"/>
	<path style="&st1;" d="M0.5,47.242h48.159"/>
	<path style="&st0;" d="M0.5,10.416v20.538"/>
	<path style="&st1;" d="M40.16,13.248h8.499"/>
	<path style="&st1;" d="M0.5,30.954l2.312,0.771"/>
	<path style="&st1;" d="M4.749,34.413v1.581"/>
	<path style="&st1;" d="M48.659,30.954l-2.312,0.771"/>
	<path style="&st1;" d="M44.409,34.413v1.581"/>
	<path style="&st1;" d="M46.347,38.682l2.312,0.771"/>
	<path style="&st0;" d="M48.659,39.452v7.79"/>
	<path style="&st0;" d="M0.5,39.452v7.79"/>
	<path style="&st1;" d="M33.253,47.242v2.833h6.907v-2.833"/>
	<path style="&st1;" d="M8.999,47.242v2.833h6.906v-2.833"/>
	<path style="&st1;" d="M44.409,47.242v4.25"/>
	<path style="&st1;" d="M48.659,16.081v5.666"/>
	<path style="&st1;" d="M4.749,47.242v4.25"/>
	<path style="&st0;" d="M48.659,10.416v5.666"/>
	<path style="&st1;" d="M14.664,17.498h-2.833V7.583h25.496v9.915h-2.833"/>
	<path style="&st1;" d="M14.664,16.081h19.83"/>
	<path style="&st1;" d="M20.33,14.665v-2.833h8.499v2.833"/>
	<path style="&st1;" d="M28.829,14.665h5.666v8.499h2.833"/>
	<path style="&st1;" d="M1.916,47.242v4.25h45.326v-4.25"/>
	<path style="&st1;" d="M8.999,10.416V4.75H40.16v5.666"/>
	<path style="&st0;" d="M47.242,51.492l-3.176,3.176"/>
	<path style="&st0;" d="M1.916,51.492l3.176,3.176"/>
	<path style="&st0;" d="M11.104,57.157h26.952"/>
	<path style="&st1;" d="M37.327,23.163h2.833V10.416h8.499"/>
	<path style="&st0;" d="M48.659,47.242l-1.417,4.25"/>
	<path style="&st1;" d="M11.832,23.163h2.833v-8.499h5.666"/>
	<path style="&st0;" d="M0.5,47.242l1.416,4.25"/>
	<path style="&st1;" d="M0.5,10.416h8.499v12.748h2.833"/>
	<path style="&st1;" d="M14.664,41.577h19.83"/>
	<g ewd:pinNo="1">
		<text transform="matrix(1 0 0 1 18.0132 37.6138)"><tspan x="0" y="0" style="&st3; &st2;">1</tspan></text>
	</g>
	<g ewd:pinNo="2">
		<text transform="matrix(1 0 0 1 27.9282 37.6138)"><tspan x="0" y="0" style="&st3; &st2;">2</tspan></text>
	</g>
</g>
</svg>