﻿<?xml version="1.0"?>
<!-- Generator: Adobe Illustrator 10.0, SVG Export Plug-In . SVG Version: 3.0.0 Build 77)  -->
<!DOCTYPE svg PUBLIC "-//W3C//DTD SVG 1.0//EN" "http://www.w3.org/TR/2001/REC-SVG-20010904/DTD/svg10.dtd"[
	<!ENTITY ns_flows "http://ns.adobe.com/Flows/1.0/">
	<!ENTITY ns_svg "http://www.w3.org/2000/svg">
	<!ENTITY ns_xlink "http://www.w3.org/1999/xlink">
	<!ENTITY st0 "fill:none;stroke:#000000;stroke-linecap:round;stroke-linejoin:round;">
	<!ENTITY st1 "fill:none;stroke:#000000;stroke-width:0.6;stroke-linecap:round;stroke-linejoin:round;">
	<!ENTITY st2 "font-size:6px;">
	<!ENTITY st3 "font-family:'Arial';">
	<!ATTLIST svg
		ewd:ver CDATA #IMPLIED
		xmlns:ewd CDATA #FIXED "http://shcl.co.jp/ewd"
		xmlns:a CDATA #FIXED "http://ns.adobe.com/AdobeSVGViewerExtensions/3.0/">
	<!ATTLIST g
		ewd:pinNo CDATA #IMPLIED>
]>
<svg width="41.794" height="71.539" viewBox="0 0 41.794 71.539" style="overflow:visible;enable-background:new 0 0 41.794 71.539" xml:space="preserve" onload="call_execInitLoadProc_svg('connector')" ewd:ver="L2.1.2.7" xmlns="&ns_svg;" xmlns:ewd="http://shcl.co.jp/ewd" xmlns:a="http://ns.adobe.com/AdobeSVGViewerExtensions/3.0/" xmlns:xlink="&ns_xlink;">
<script type="text/javascript" xlink:href="../../../../../system/js/ewd/fig/svgfig.js"/>
<g id="レイヤー_1">
	<path style="&st1;" d="M30.812,12.5c-1.807-1.042-3.58-1.518-5.666-1.518"/>
	<path style="&st1;" d="M16.648,10.982c-2.086,0-3.859,0.475-5.666,1.518"/>
	<path style="&st1;" d="M5.316,49.226c0,6.258,5.073,11.331,11.332,11.331"/>
	<path style="&st1;" d="M25.146,60.557c6.258,0,11.331-5.073,11.331-11.331"/>
	<path style="&st1;" d="M38.461,22.313c0-7.354-5.961-13.314-13.314-13.314"/>
	<path style="&st1;" d="M25.146,62.54c7.353,0,13.314-5.961,13.314-13.314"/>
	<path style="&st1;" d="M3.333,49.226c0,7.353,5.961,13.314,13.315,13.314"/>
	<path style="&st1;" d="M16.648,8.999c-7.354,0-13.315,5.961-13.315,13.314"/>
	<path style="&st1;" d="M9.416,20.262c0.986-0.493,1.565-1.43,1.565-2.533"/>
	<path style="&st1;" d="M30.812,17.729c0,1.103,0.58,2.041,1.566,2.534"/>
	<path style="&st1;" d="M25.146,65.373c4.215,0,7.812-1.4,10.917-4.25"/>
	<path style="&st0;" d="M0.5,49.226c0,4.703,1.765,8.718,5.23,11.897"/>
	<path style="&st0;" d="M16.648,6.166c-2.036,0-3.76,0.313-5.666,1.026"/>
	<path style="&st0;" d="M41.293,22.313c0-5.165-2.156-9.574-6.232-12.745"/>
	<path style="&st0;" d="M36.064,61.124c3.465-3.18,5.23-7.195,5.23-11.898"/>
	<path style="&st1;" d="M5.73,61.124c3.106,2.85,6.702,4.25,10.918,4.25"/>
	<path style="&st1;" d="M35.062,9.568c-1.356-1.055-2.641-1.773-4.25-2.376"/>
	<path style="&st0;" d="M30.812,7.191c-1.906-0.714-3.63-1.026-5.666-1.026"/>
	<path style="&st0;" d="M6.733,9.568C2.657,12.739,0.5,17.149,0.5,22.313"/>
	<path style="&st1;" d="M10.982,7.191c-1.609,0.603-2.894,1.321-4.25,2.376"/>
	<path style="&st1;" d="M16.648,8.999h8.499"/>
	<path style="&st1;" d="M5.316,22.313v26.912"/>
	<path style="&st1;" d="M16.648,60.557h8.499"/>
	<path style="&st1;" d="M16.648,10.982h8.499"/>
	<path style="&st1;" d="M10.982,22.313v29.745h19.83V22.313H10.982"/>
	<path style="&st1;" d="M10.982,32.228h19.83"/>
	<path style="&st1;" d="M20.897,52.058V22.313"/>
	<path style="&st1;" d="M10.982,42.143h19.83"/>
	<path style="&st1;" d="M36.478,49.226V22.313"/>
	<path style="&st1;" d="M38.461,49.226V22.313"/>
	<path style="&st1;" d="M16.648,62.54h8.499"/>
	<path style="&st1;" d="M3.333,22.313v26.912"/>
	<path style="&st1;" d="M5.316,22.313l4.099-2.051"/>
	<path style="&st1;" d="M10.982,17.729V12.5"/>
	<path style="&st1;" d="M30.812,17.729V12.5"/>
	<path style="&st1;" d="M36.478,22.313l-4.099-2.051"/>
	<path style="&st0;" d="M41.293,49.226V22.313"/>
	<path style="&st1;" d="M18.064,65.373h5.666"/>
	<path style="&st0;" d="M0.5,22.313v26.912"/>
	<path style="&st1;" d="M16.648,6.166h8.499"/>
	<path style="&st0;" d="M18.064,65.373v5.666"/>
	<path style="&st0;" d="M23.73,65.373v5.666h-5.666"/>
	<path style="&st0;" d="M18.064,65.373H0.5v-4.249H5.73"/>
	<path style="&st0;" d="M23.73,65.373h17.563v-4.249h-5.229"/>
	<path style="&st0;" d="M16.648,6.166V0.5h8.499v5.666"/>
	<path style="&st0;" d="M6.733,9.568V0.5h4.249v6.691"/>
	<path style="&st0;" d="M30.812,7.191V0.5h4.25v9.068"/>
	<g ewd:pinNo="2">
		<text transform="matrix(1 0 0 1 14.3325 29.4614)"><tspan x="0" y="0" style="&st3; &st2;">2</tspan></text>
	</g>
	<g ewd:pinNo="1">
		<text transform="matrix(1 0 0 1 24.2476 29.4614)"><tspan x="0" y="0" style="&st3; &st2;">1</tspan></text>
	</g>
	<g ewd:pinNo="4">
		<text transform="matrix(1 0 0 1 14.3325 39.3765)"><tspan x="0" y="0" style="&st3; &st2;">4</tspan></text>
	</g>
	<g ewd:pinNo="3">
		<text transform="matrix(1 0 0 1 24.2476 39.3765)"><tspan x="0" y="0" style="&st3; &st2;">3</tspan></text>
	</g>
	<g ewd:pinNo="6">
		<text transform="matrix(1 0 0 1 14.3325 49.291)"><tspan x="0" y="0" style="&st3; &st2;">6</tspan></text>
	</g>
	<g ewd:pinNo="5">
		<text transform="matrix(1 0 0 1 24.2476 49.291)"><tspan x="0" y="0" style="&st3; &st2;">5</tspan></text>
	</g>
</g>
</svg>