﻿<?xml version="1.0"?>
<!-- Generator: Adobe Illustrator 10.0, SVG Export Plug-In . SVG Version: 3.0.0 Build 77)  -->
<!DOCTYPE svg PUBLIC "-//W3C//DTD SVG 1.0//EN" "http://www.w3.org/TR/2001/REC-SVG-20010904/DTD/svg10.dtd"[
	<!ENTITY ns_flows "http://ns.adobe.com/Flows/1.0/">
	<!ENTITY ns_svg "http://www.w3.org/2000/svg">
	<!ENTITY ns_xlink "http://www.w3.org/1999/xlink">
	<!ENTITY st0 "fill:none;">
	<!ENTITY st1 "stroke:#000000;">
	<!ENTITY st2 "stroke-linecap:round;">
	<!ENTITY st3 "stroke-linejoin:round;">
	<!ENTITY st4 "stroke-width:0.6;">
	<!ENTITY st5 "font-size:6px;">
	<!ENTITY st6 "font-family:'Arial';">
	<!ENTITY st7 "stroke-width:1.4;">
	<!ATTLIST svg
		ewd:ver CDATA #IMPLIED
		xmlns:ewd CDATA #FIXED "http://shcl.co.jp/ewd"
		xmlns:a CDATA #FIXED "http://ns.adobe.com/AdobeSVGViewerExtensions/3.0/">
	<!ATTLIST g
		ewd:pinNo CDATA #IMPLIED>
]>
<svg width="197.478" height="94.493" viewBox="0 0 197.478 94.493" style="overflow:visible;enable-background:new 0 0 83.153 70.406" xml:space="preserve" onload="call_execInitLoadProc_svg('connector')" ewd:ver="L2.1.2.7" xmlns="&ns_svg;" xmlns:ewd="http://shcl.co.jp/ewd" xmlns:a="http://ns.adobe.com/AdobeSVGViewerExtensions/3.0/" xmlns:xlink="&ns_xlink;">
<script type="text/javascript" xlink:href="../../../../../system/js/ewd/fig/svgfig.js"/>
<g id="レイヤー_1" transform="translate(0,17.008)">
	<path style="&st0;&st1;&st4;&st2;&st3;" d="M78.404,48.741c0,1.244,0.757,2.294,1.938,2.688"/>
	<path style="&st0;&st1;&st4;&st2;&st3;" d="M80.341,31.724c-1.181,0.393-1.938,1.444-1.938,2.688"/>
	<path style="&st0;&st1;&st4;&st2;&st3;" d="M4.749,34.413c0-1.245-0.757-2.295-1.938-2.688"/>
	<path style="&st0;&st1;&st4;&st2;&st3;" d="M2.812,51.43c1.181-0.394,1.938-1.444,1.938-2.688"/>
	<path style="&st0;&st1;&st2;&st3;" d="M82.653,7.583c0-3.912-3.171-7.083-7.082-7.083"/>
	<path style="&st0;&st1;&st2;&st3;" d="M72.049,69.905c2.348,0,4.352-0.83,6.011-2.491"/>
	<path style="&st0;&st1;&st2;&st3;" d="M5.092,67.415c1.66,1.661,3.664,2.491,6.012,2.491"/>
	<path style="&st0;&st1;&st2;&st3;" d="M7.582,0.5C3.67,0.5,0.5,3.671,0.5,7.583"/>
	<path style="&st0;&st1;&st4;&st2;&st3;" d="M61.406,10.416c0-0.783-0.634-1.417-1.416-1.417"/>
	<path style="&st0;&st1;&st4;&st2;&st3;" d="M58.574,8.999c-0.782,0-1.417,0.634-1.417,1.417"/>
	<path style="&st0;&st1;&st4;&st2;&st3;" d="M30.245,23.163c0.782,0,1.417-0.634,1.417-1.417"/>
	<path style="&st0;&st1;&st4;&st2;&st3;" d="M23.163,8.999c-0.782,0-1.416,0.634-1.416,1.417"/>
	<path style="&st0;&st1;&st4;&st2;&st3;" d="M25.996,10.416c0-0.783-0.634-1.417-1.417-1.417"/>
	<path style="&st0;&st1;&st4;&st2;&st3;" d="M55.741,23.163c0.782,0,1.417-0.634,1.417-1.417"/>
	<path style="&st0;&st1;&st4;&st2;&st3;" d="M25.996,21.747c0,0.782,0.634,1.417,1.417,1.417"/>
	<path style="&st0;&st1;&st4;&st2;&st3;" d="M51.491,21.747c0,0.782,0.634,1.417,1.417,1.417"/>
	<path style="&st0;&st1;&st4;&st2;&st3;" d="M61.406,21.747c0,0.782,0.634,1.417,1.417,1.417"/>
	<path style="&st0;&st1;&st4;&st2;&st3;" d="M20.33,23.163c0.782,0,1.416-0.634,1.416-1.417"/>
	<path style="&st0;&st1;&st4;&st2;&st3;" d="M6.166,21.747c0,0.782,0.634,1.417,1.417,1.417"/>
	<path style="&st0;&st1;&st4;&st2;&st3;" d="M75.571,23.163c0.782,0,1.417-0.634,1.417-1.417"/>
	<path style="&st0;&st1;&st4;&st2;&st3;" d="M82.653,14.665c0-0.782-0.634-1.417-1.417-1.417"/>
	<path style="&st0;&st1;&st4;&st2;&st3;" d="M1.916,13.248c-0.782,0-1.416,0.634-1.416,1.417"/>
	<path style="&st0;&st1;&st4;&st2;&st3;" d="M6.166,14.665c0-0.782-0.634-1.417-1.417-1.417"/>
	<path style="&st0;&st1;&st4;&st2;&st3;" d="M78.404,13.248c-0.783,0-1.417,0.634-1.417,1.417"/>
	<path style="&st0;&st1;&st2;&st3;" d="M0.5,30.954V52.2"/>
	<path style="&st0;&st1;&st2;&st3;" d="M82.653,30.954V52.2"/>
	<path style="&st0;&st1;&st2;&st3;" d="M82.653,21.747v9.207"/>
	<path style="&st0;&st1;&st4;&st2;&st3;" d="M21.747,41.577v12.748h39.66V41.577H21.747"/>
	<path style="&st0;&st1;&st4;&st2;&st3;" d="M31.662,28.829v25.496"/>
	<path style="&st0;&st1;&st4;&st2;&st3;" d="M41.577,28.829v25.496"/>
	<path style="&st0;&st1;&st4;&st2;&st3;" d="M51.491,28.829v25.496"/>
	<path style="&st0;&st1;&st2;&st3;" d="M0.5,10.416V7.583"/>
	<path style="&st0;&st1;&st2;&st3;" d="M82.653,7.583v2.833"/>
	<path style="&st0;&st1;&st2;&st3;" d="M7.582,0.5h67.989"/>
	<path style="&st0;&st1;&st4;&st2;&st3;" d="M0.5,52.2l2.312-0.77"/>
	<path style="&st0;&st1;&st4;&st2;&st3;" d="M0.5,16.081h5.666"/>
	<path style="&st0;&st1;&st4;&st2;&st3;" d="M0.5,59.99h82.153"/>
	<path style="&st0;&st1;&st2;&st3;" d="M0.5,10.416v20.538"/>
	<path style="&st0;&st1;&st4;&st2;&st3;" d="M76.987,16.081h5.666"/>
	<path style="&st0;&st1;&st4;&st2;&st3;" d="M0.5,30.954l2.312,0.771"/>
	<path style="&st0;&st1;&st4;&st2;&st3;" d="M4.749,34.413v14.329"/>
	<path style="&st0;&st1;&st4;&st2;&st3;" d="M82.653,30.954l-2.312,0.771"/>
	<path style="&st0;&st1;&st4;&st2;&st3;" d="M78.404,34.413v14.329"/>
	<path style="&st0;&st1;&st4;&st2;&st3;" d="M80.341,51.43l2.312,0.77"/>
	<path style="&st0;&st1;&st2;&st3;" d="M82.653,52.2v7.791"/>
	<path style="&st0;&st1;&st2;&st3;" d="M0.5,52.2v7.791"/>
	<path style="&st0;&st1;&st4;&st2;&st3;" d="M46.542,59.99v2.833h13.986V59.99"/>
	<path style="&st0;&st1;&st4;&st2;&st3;" d="M22.625,59.99v2.833H36.61V59.99"/>
	<path style="&st0;&st1;&st4;&st2;&st3;" d="M78.404,59.99v4.249"/>
	<path style="&st0;&st1;&st2;&st3;" d="M82.653,16.081v5.666"/>
	<path style="&st0;&st1;&st4;&st2;&st3;" d="M4.749,59.99v4.249"/>
	<path style="&st0;&st1;&st2;&st3;" d="M82.653,10.416v5.666"/>
	<path style="&st0;&st1;&st4;&st2;&st3;" d="M31.662,17.498h-2.833V7.583h25.496v9.915h-2.833"/>
	<path style="&st0;&st1;&st4;&st2;&st3;" d="M31.662,16.081h19.83"/>
	<path style="&st0;&st1;&st4;&st2;&st3;" d="M37.327,14.665v-2.833h8.499v2.833"/>
	<path style="&st0;&st1;&st4;&st2;&st3;" d="M1.916,59.99v4.249h79.32V59.99"/>
	<path style="&st0;&st1;&st4;&st2;&st3;" d="M25.996,10.416V4.75h31.162v5.666"/>
	<path style="&st0;&st1;&st2;&st3;" d="M81.236,64.239l-3.175,3.176"/>
	<path style="&st0;&st1;&st2;&st3;" d="M1.916,64.239l3.176,3.176"/>
	<path style="&st0;&st1;&st2;&st3;" d="M11.104,69.905h60.946"/>
	<path style="&st0;&st1;&st4;&st2;&st3;" d="M62.823,23.163h12.748"/>
	<path style="&st0;&st1;&st2;&st3;" d="M82.653,59.99l-1.417,4.249"/>
	<path style="&st0;&st1;&st4;&st2;&st3;" d="M27.412,23.163h2.833"/>
	<path style="&st0;&st1;&st2;&st3;" d="M0.5,59.99l1.416,4.249"/>
	<path style="&st0;&st1;&st4;&st2;&st3;" d="M1.916,13.248h2.833"/>
	<path style="&st0;&st1;&st4;&st2;&st3;" d="M21.747,41.577V28.829h39.66v12.748"/>
	<path style="&st0;&st1;&st4;&st2;&st3;" d="M61.406,28.829h9.915"/>
	<path style="&st0;&st1;&st4;&st2;&st3;" d="M61.406,54.325h9.915"/>
	<path style="&st0;&st1;&st4;&st2;&st3;" d="M71.321,28.829v25.496"/>
	<path style="&st0;&st1;&st4;&st2;&st3;" d="M11.832,28.829v25.496"/>
	<path style="&st0;&st1;&st4;&st2;&st3;" d="M61.406,41.577h9.915"/>
	<path style="&st0;&st1;&st4;&st2;&st3;" d="M11.832,41.577h9.915"/>
	<path style="&st0;&st1;&st4;&st2;&st3;" d="M21.747,28.829h-9.915"/>
	<path style="&st0;&st1;&st4;&st2;&st3;" d="M21.747,54.325h-9.915"/>
	<path style="&st0;&st1;&st4;&st2;&st3;" d="M8.999,62.115h9.915"/>
	<path style="&st0;&st1;&st4;&st2;&st3;" d="M64.239,62.115h9.915"/>
	<path style="&st0;&st1;&st4;&st2;&st3;" d="M18.914,59.99v4.249"/>
	<path style="&st0;&st1;&st4;&st2;&st3;" d="M21.747,11.832h4.249"/>
	<path style="&st0;&st1;&st4;&st2;&st3;" d="M57.157,11.832h4.249"/>
	<path style="&st0;&st1;&st4;&st2;&st3;" d="M58.574,8.999h1.417"/>
	<path style="&st0;&st1;&st4;&st2;&st3;" d="M61.406,10.416v11.331"/>
	<path style="&st0;&st1;&st4;&st2;&st3;" d="M57.157,10.416v11.331"/>
	<path style="&st0;&st1;&st4;&st2;&st3;" d="M25.996,10.416v11.331"/>
	<path style="&st0;&st1;&st4;&st2;&st3;" d="M24.579,8.999h-1.417"/>
	<path style="&st0;&st1;&st4;&st2;&st3;" d="M21.747,10.416v11.331"/>
	<path style="&st0;&st1;&st4;&st2;&st3;" d="M52.908,23.163h2.833"/>
	<path style="&st0;&st1;&st4;&st2;&st3;" d="M31.662,21.747v-7.082h5.666"/>
	<path style="&st0;&st1;&st4;&st2;&st3;" d="M8.999,59.99v4.249"/>
	<path style="&st0;&st1;&st4;&st2;&st3;" d="M74.154,59.99v4.249"/>
	<path style="&st0;&st1;&st4;&st2;&st3;" d="M64.239,59.99v4.249"/>
	<path style="&st0;&st1;&st4;&st2;&st3;" d="M45.826,14.665h5.666v7.082"/>
	<path style="&st0;&st1;&st4;&st2;&st3;" d="M7.582,23.163H20.33"/>
	<path style="&st0;&st1;&st4;&st2;&st3;" d="M78.404,13.248h2.833"/>
	<path style="&st0;&st1;&st4;&st2;&st3;" d="M6.166,14.665v7.082"/>
	<path style="&st0;&st1;&st4;&st2;&st3;" d="M76.987,21.747v-7.082"/>
	<g ewd:pinNo="1">
		<text transform="matrix(1 0 0 1 15.1436 37.2686)"><tspan x="0" y="0" style="&st6; &st5;">1</tspan></text>
	</g>
	<g ewd:pinNo="2">
		<text transform="matrix(1 0 0 1 25.0586 37.2686)"><tspan x="0" y="0" style="&st6; &st5;">2</tspan></text>
	</g>
	<g ewd:pinNo="3">
		<text transform="matrix(1 0 0 1 34.9736 37.2686)"><tspan x="0" y="0" style="&st6; &st5;">3</tspan></text>
	</g>
	<g ewd:pinNo="4">
		<text transform="matrix(1 0 0 1 44.8887 37.2686)"><tspan x="0" y="0" style="&st6; &st5;">4</tspan></text>
	</g>
	<g ewd:pinNo="5">
		<text transform="matrix(1 0 0 1 54.8037 37.2686)"><tspan x="0" y="0" style="&st6; &st5;">5</tspan></text>
	</g>
	<g ewd:pinNo="6">
		<text transform="matrix(1 0 0 1 64.7188 37.2686)"><tspan x="0" y="0" style="&st6; &st5;">6</tspan></text>
	</g>
	<g ewd:pinNo="7">
		<text transform="matrix(1 0 0 1 15.1436 50.0166)"><tspan x="0" y="0" style="&st6; &st5;">7</tspan></text>
	</g>
	<g ewd:pinNo="8">
		<text transform="matrix(1 0 0 1 25.0586 50.0166)"><tspan x="0" y="0" style="&st6; &st5;">8</tspan></text>
	</g>
	<g ewd:pinNo="9">
		<text transform="matrix(1 0 0 1 34.9736 50.0166)"><tspan x="0" y="0" style="&st6; &st5;">9</tspan></text>
	</g>
	<g ewd:pinNo="10">
		<text transform="matrix(1 0 0 1 42.9458 50.0166)"><tspan x="0" y="0" style="&st6; &st5;">10</tspan></text>
	</g>
	<g ewd:pinNo="11">
		<text transform="matrix(1 0 0 1 53.083 50.0166)"><tspan x="0" y="0" style="&st6; &st5;">11</tspan></text>
	</g>
	<g ewd:pinNo="12">
		<text transform="matrix(1 0 0 1 62.7759 50.0166)"><tspan x="0" y="0" style="&st6; &st5;">12</tspan></text>
	</g>
</g>
<g id="レイヤー_1" transform="translate(102.994,17.008)">
	<path style="&st0;&st1;&st4;&st2;&st3;" d="M40.868,64.239c-0.782,0-1.417,0.634-1.417,1.417"/>
	<path style="&st0;&st1;&st2;&st3;" d="M83.361,64.239c-0.783,0-1.417,0.634-1.417,1.417"/>
	<path style="&st0;&st1;&st4;&st2;&st3;" d="M13.956,42.143c0-1.095-0.888-1.983-1.983-1.983"/>
	<path style="&st0;&st1;&st4;&st2;&st3;" d="M55.033,65.656c0-0.783-0.634-1.417-1.417-1.417"/>
	<path style="&st0;&st1;&st4;&st2;&st3;" d="M11.69,40.16c-1.095,0-1.983,0.888-1.983,1.983"/>
	<path style="&st0;&st1;&st4;&st2;&st3;" d="M9.707,50.925c0,1.095,0.888,1.983,1.983,1.983"/>
	<path style="&st0;&st1;&st4;&st2;&st3;" d="M11.973,52.908c1.095,0,1.983-0.888,1.983-1.983"/>
	<path style="&st0;&st1;&st4;&st2;&st3;" d="M82.511,40.16c-1.095,0-1.983,0.888-1.983,1.983"/>
	<path style="&st0;&st1;&st4;&st2;&st3;" d="M84.777,42.143c0-1.095-0.888-1.983-1.983-1.983"/>
	<path style="&st0;&st1;&st4;&st2;&st3;" d="M80.528,50.925c0,1.095,0.888,1.983,1.983,1.983"/>
	<path style="&st0;&st1;&st4;&st2;&st3;" d="M82.794,52.908c1.095,0,1.983-0.888,1.983-1.983"/>
	<path style="&st0;&st1;&st2;&st3;" d="M93.984,8.999c0-2.347-1.902-4.25-4.25-4.25"/>
	<path style="&st0;&st1;&st4;&st2;&st3;" d="M38.035,69.197c0.782,0,1.417-0.634,1.417-1.417"/>
	<path style="&st0;&st1;&st2;&st3;" d="M89.735,64.239c2.347,0,4.25-1.902,4.25-4.249"/>
	<path style="&st0;&st1;&st4;&st2;&st3;" d="M6.166,57.157c0,0.782,0.634,1.417,1.417,1.417"/>
	<path style="&st0;&st1;&st2;&st3;" d="M4.749,4.75C2.402,4.75,0.5,6.652,0.5,8.999"/>
	<path style="&st0;&st1;&st4;&st2;&st3;" d="M55.033,67.781c0,0.782,0.634,1.417,1.416,1.417"/>
	<path style="&st0;&st1;&st2;&st3;" d="M77.695,76.987c2.347,0,4.25-1.902,4.25-4.249"/>
	<path style="&st0;&st1;&st4;&st2;&st3;" d="M67.072,71.463c0-1.251-1.015-2.266-2.267-2.266"/>
	<path style="&st0;&st1;&st2;&st3;" d="M12.54,65.656c0-0.783-0.634-1.417-1.417-1.417"/>
	<path style="&st0;&st1;&st2;&st3;" d="M0.5,59.99c0,2.347,1.902,4.249,4.249,4.249"/>
	<path style="&st0;&st1;&st2;&st3;" d="M12.54,72.738c0,2.347,1.902,4.249,4.25,4.249"/>
	<path style="&st0;&st1;&st4;&st2;&st3;" d="M81.236,13.248c-0.782,0-1.417,0.634-1.417,1.417"/>
	<path style="&st0;&st1;&st4;&st2;&st3;" d="M29.678,69.197c-1.251,0-2.266,1.015-2.266,2.266"/>
	<path style="&st0;&st1;&st4;&st2;&st3;" d="M65.656,4.75c-0.782,0-1.417,0.634-1.417,1.417"/>
	<path style="&st0;&st1;&st4;&st2;&st3;" d="M88.319,14.665c0-0.782-0.634-1.417-1.417-1.417"/>
	<path style="&st0;&st1;&st4;&st2;&st3;" d="M86.902,58.574c0.782,0,1.417-0.634,1.417-1.417"/>
	<path style="&st0;&st1;&st4;&st2;&st3;" d="M30.245,6.166c0-0.782-0.634-1.417-1.417-1.417"/>
	<path style="&st0;&st1;&st4;&st2;&st3;" d="M14.664,14.665c0-0.782-0.634-1.417-1.416-1.417"/>
	<path style="&st0;&st1;&st4;&st2;&st3;" d="M7.582,13.248c-0.782,0-1.417,0.634-1.417,1.417"/>
	<path style="&st0;&st1;&st2;&st3;" d="M93.984,8.999V59.99"/>
	<path style="&st0;&st1;&st4;&st2;&st3;" d="M11.123,64.239h72.238"/>
	<path style="&st0;&st1;&st2;&st3;" d="M0.5,8.999V59.99"/>
	<path style="&st0;&st1;&st4;&st2;&st3;" d="M34.494,13.248H59.99"/>
	<path style="&st0;&st1;&st4;&st2;&st3;" d="M34.494,10.416H59.99"/>
	<path style="&st0;&st1;&st4;&st2;&st3;" d="M73.446,11.832v5.666h4.25v-5.666H73.446"/>
	<path style="&st0;&st1;&st4;&st2;&st3;" d="M16.789,11.832v5.666h4.249v-5.666H16.789"/>
	<path style="&st0;&st1;&st4;&st2;&st3;" d="M17.497,27.413v25.496h59.49V27.413H17.497"/>
	<path style="&st0;&st1;&st4;&st2;&st3;" d="M17.497,40.16h59.49"/>
	<path style="&st0;&st1;&st4;&st2;&st3;" d="M67.072,27.413v25.496"/>
	<path style="&st0;&st1;&st4;&st2;&st3;" d="M57.157,27.413v25.496"/>
	<path style="&st0;&st1;&st4;&st2;&st3;" d="M47.242,27.413v25.496"/>
	<path style="&st0;&st1;&st4;&st2;&st3;" d="M37.327,27.413v25.496"/>
	<path style="&st0;&st1;&st4;&st2;&st3;" d="M27.412,27.413v25.496"/>
	<path style="&st0;&st1;&st4;&st2;&st3;" d="M30.245,20.33h4.249"/>
	<path style="&st0;&st1;&st4;&st2;&st3;" d="M59.99,20.33h4.249"/>
	<path style="&st0;&st1;&st4;&st2;&st3;" d="M71.321,20.33h8.499"/>
	<path style="&st0;&st1;&st4;&st2;&st3;" d="M14.664,20.33h8.499"/>
	<path style="&st0;&st1;&st4;&st2;&st3;" d="M30.245,6.166V20.33"/>
	<path style="&st0;&st1;&st4;&st2;&st3;" d="M71.321,4.75V20.33"/>
	<path style="&st0;&st1;&st4;&st2;&st3;" d="M23.163,4.75h5.666"/>
	<path style="&st0;&st1;&st4;&st2;&st3;" d="M23.163,20.33V4.75"/>
	<path style="&st0;&st1;&st4;&st2;&st3;" d="M65.656,4.75h5.666"/>
	<path style="&st0;&st1;&st4;&st2;&st3;" d="M64.239,20.33V6.166"/>
	<path style="&st0;&st1;&st4;&st2;&st3;" d="M6.166,14.665v42.493"/>
	<path style="&st0;&st1;&st4;&st2;&st3;" d="M7.582,58.574h79.32"/>
	<path style="&st0;&st1;&st4;&st2;&st3;" d="M88.319,14.665v42.493"/>
	<path style="&st0;&st1;&st4;&st2;&st3;" d="M9.707,42.143v8.782"/>
	<path style="&st0;&st1;&st4;&st2;&st3;" d="M11.69,52.908h0.283"/>
	<path style="&st0;&st1;&st4;&st2;&st3;" d="M13.956,50.925v-8.782"/>
	<path style="&st0;&st1;&st4;&st2;&st3;" d="M11.69,40.16h0.283"/>
	<path style="&st0;&st1;&st4;&st2;&st3;" d="M80.528,42.143v8.782"/>
	<path style="&st0;&st1;&st4;&st2;&st3;" d="M82.511,52.908h0.283"/>
	<path style="&st0;&st1;&st4;&st2;&st3;" d="M84.777,50.925v-8.782"/>
	<path style="&st0;&st1;&st4;&st2;&st3;" d="M82.794,40.16h-0.283"/>
	<path style="&st0;&st1;&st4;&st2;&st3;" d="M34.494,20.33V7.583H59.99V20.33"/>
	<path style="&st0;&st1;&st4;&st2;&st3;" d="M81.236,13.248h5.666"/>
	<path style="&st0;&st1;&st4;&st2;&st3;" d="M79.82,20.33v-5.666"/>
	<path style="&st0;&st1;&st4;&st2;&st3;" d="M14.664,14.665v5.666"/>
	<path style="&st0;&st1;&st4;&st2;&st3;" d="M7.582,13.248h5.666"/>
	<path style="&st0;&st1;&st4;&st2;&st3;" d="M9.707,24.58v9.915h4.25V24.58H9.707"/>
	<path style="&st0;&st1;&st4;&st2;&st3;" d="M80.528,24.58v9.915h4.249V24.58H80.528"/>
	<path style="&st0;&st1;&st4;&st2;&st3;" d="M40.868,64.239h12.748"/>
	<path style="&st0;&st1;&st2;&st3;" d="M12.54,65.656v7.082"/>
	<path style="&st0;&st1;&st2;&st3;" d="M16.789,76.987h10.623"/>
	<path style="&st0;&st1;&st2;&st3;" d="M83.361,64.239h6.374"/>
	<path style="&st0;&st1;&st2;&st3;" d="M81.945,65.656v7.082"/>
	<path style="&st0;&st1;&st2;&st3;" d="M77.695,76.987H67.072"/>
	<path style="&st0;&st1;&st2;&st3;" d="M17.497,0.5h59.49"/>
	<path style="&st0;&st1;&st2;&st3;" d="M4.749,64.239h6.374"/>
	<path style="&st0;&st1;&st2;&st3;" d="M82.653,4.75L76.987,0.5"/>
	<path style="&st0;&st1;&st2;&st3;" d="M27.412,76.987h39.66"/>
	<path style="&st0;&st1;&st4;&st2;&st3;" d="M64.806,69.197h-8.357"/>
	<path style="&st0;&st1;&st4;&st2;&st3;" d="M67.072,76.987v-5.524"/>
	<path style="&st0;&st1;&st2;&st3;" d="M4.749,4.75h7.083"/>
	<path style="&st0;&st1;&st4;&st2;&st3;" d="M27.412,76.987v-5.524"/>
	<path style="&st0;&st1;&st2;&st3;" d="M82.653,4.75h7.082"/>
	<path style="&st0;&st1;&st4;&st2;&st3;" d="M55.033,67.781v-2.125"/>
	<path style="&st0;&st1;&st4;&st2;&st3;" d="M29.678,69.197h8.357"/>
	<path style="&st0;&st1;&st4;&st2;&st3;" d="M39.452,67.781v-2.125"/>
	<path style="&st0;&st1;&st2;&st3;" d="M11.832,4.75l5.666-4.25"/>
	<path style="&st0;&st1;&st4;&st2;&st3;" d="M39.452,65.656h15.581"/>
	<path style="&st0;&st1;&st4;&st2;&st3;" d="M27.412,70.613h39.66"/>
	<path style="&st0;&st1;&st4;&st2;&st3;" d="M44.409,70.613v2.833h5.666v-2.833"/>
	<path style="&st0;&st1;&st4;&st2;&st3;" d="M44.409,73.446v1.417h5.666v-1.417"/>
	<g ewd:pinNo="11">
		<text transform="matrix(1 0 0 1 29.0532 48.7466)"><tspan x="0" y="0" style="&st6; &st5;">11</tspan></text>
	</g>
	<g ewd:pinNo="1">
		<text transform="matrix(1 0 0 1 70.1924 35.9985)"><tspan x="0" y="0" style="&st6; &st5;">1</tspan></text>
	</g>
	<g ewd:pinNo="2">
		<text transform="matrix(1 0 0 1 60.2773 35.9985)"><tspan x="0" y="0" style="&st6; &st5;">2</tspan></text>
	</g>
	<g ewd:pinNo="3">
		<text transform="matrix(1 0 0 1 50.3623 35.9985)"><tspan x="0" y="0" style="&st6; &st5;">3</tspan></text>
	</g>
	<g ewd:pinNo="4">
		<text transform="matrix(1 0 0 1 40.4478 35.9985)"><tspan x="0" y="0" style="&st6; &st5;">4</tspan></text>
	</g>
	<g ewd:pinNo="5">
		<text transform="matrix(1 0 0 1 30.5327 35.9985)"><tspan x="0" y="0" style="&st6; &st5;">5</tspan></text>
	</g>
	<g ewd:pinNo="6">
		<text transform="matrix(1 0 0 1 20.6177 35.9985)"><tspan x="0" y="0" style="&st6; &st5;">6</tspan></text>
	</g>
	<g ewd:pinNo="7">
		<text transform="matrix(1 0 0 1 70.1924 48.7466)"><tspan x="0" y="0" style="&st6; &st5;">7</tspan></text>
	</g>
	<g ewd:pinNo="8">
		<text transform="matrix(1 0 0 1 60.2773 48.7466)"><tspan x="0" y="0" style="&st6; &st5;">8</tspan></text>
	</g>
	<g ewd:pinNo="9">
		<text transform="matrix(1 0 0 1 50.3623 48.7466)"><tspan x="0" y="0" style="&st6; &st5;">9</tspan></text>
	</g>
	<g ewd:pinNo="10">
		<text transform="matrix(1 0 0 1 38.7456 48.7466)"><tspan x="0" y="0" style="&st6; &st5;">10</tspan></text>
	</g>
	<g ewd:pinNo="12">
		<text transform="matrix(1 0 0 1 18.9155 48.7466)"><tspan x="0" y="0" style="&st6; &st5;">12</tspan></text>
	</g>
</g>
<path d="M41.5765,9.069v-8.504h108.6595v8.504" style="&st0;&st1;&st7;&st2;&st3;"/>
</svg>