﻿<?xml version="1.0"?>
<!-- Generator: Adobe Illustrator 10.0, SVG Export Plug-In . SVG Version: 3.0.0 Build 77)  -->
<!DOCTYPE svg PUBLIC "-//W3C//DTD SVG 1.0//EN" "http://www.w3.org/TR/2001/REC-SVG-20010904/DTD/svg10.dtd"[
	<!ENTITY ns_flows "http://ns.adobe.com/Flows/1.0/">
	<!ENTITY ns_svg "http://www.w3.org/2000/svg">
	<!ENTITY ns_xlink "http://www.w3.org/1999/xlink">
	<!ENTITY st0 "fill:none;">
	<!ENTITY st1 "stroke:#000000;">
	<!ENTITY st2 "stroke-linecap:round;">
	<!ENTITY st3 "stroke-linejoin:round;">
	<!ENTITY st4 "stroke-width:0.6;">
	<!ENTITY st5 "font-size:6px;">
	<!ENTITY st6 "font-family:'Arial';">
	<!ENTITY st7 "stroke-width:1.4;">
	<!ATTLIST svg
		ewd:ver CDATA #IMPLIED
		xmlns:ewd CDATA #FIXED "http://shcl.co.jp/ewd"
		xmlns:a CDATA #FIXED "http://ns.adobe.com/AdobeSVGViewerExtensions/3.0/">
	<!ATTLIST g
		ewd:pinNo CDATA #IMPLIED>
]>
<svg width="101.445" height="63.415" viewBox="0 0 101.445 63.415" style="overflow:visible;enable-background:new 0 0 43.21 46.383" xml:space="preserve" onload="call_execInitLoadProc_svg('connector')" ewd:ver="L2.1.2.7" xmlns="&ns_svg;" xmlns:ewd="http://shcl.co.jp/ewd" xmlns:a="http://ns.adobe.com/AdobeSVGViewerExtensions/3.0/" xmlns:xlink="&ns_xlink;">
<script type="text/javascript" xlink:href="../../../../../system/js/ewd/fig/svgfig.js"/>
<g id="レイヤー_1" transform="translate(0,17.008)">
	<path style="&st0;&st1;&st4;&st2;&st3;" d="M36.477,28.077H8.148"/>
	<path style="&st0;&st1;&st4;&st2;&st3;" d="M22.313,14.479v24.363"/>
	<path style="&st0;&st1;&st4;&st2;&st3;" d="M4.183,25.953v4.25"/>
	<path style="&st0;&st1;&st4;&st2;&st3;" d="M40.443,25.953v4.25"/>
	<path style="&st0;&st1;&st4;&st2;&st3;" d="M39.735,25.245h-1.051"/>
	<path style="&st0;&st1;&st4;&st2;&st3;" d="M39.735,30.91h-1.051"/>
	<path style="&st0;&st1;&st4;&st2;&st3;" d="M5.942,25.245H4.891"/>
	<path style="&st0;&st1;&st4;&st2;&st3;" d="M5.942,30.91H4.891"/>
	<path style="&st0;&st1;&st4;&st2;&st3;" d="M33.645,6.564v4.96"/>
	<path style="&st0;&st1;&st4;&st2;&st3;" d="M10.981,6.564v4.96"/>
	<path style="&st0;&st1;&st4;&st2;&st3;" d="M35.579,38.842H9.047"/>
	<path style="&st0;&st1;&st4;&st2;&st3;" d="M3.616,17.879h2.448"/>
	<path style="&st0;&st1;&st4;&st2;&st3;" d="M2.767,20.429v-1.7"/>
	<path style="&st0;&st1;&st4;&st2;&st3;" d="M5.443,21.278H3.616"/>
	<path style="&st0;&st1;&st2;&st3;" d="M35.911,6.564v4.396"/>
	<path style="&st0;&st1;&st2;&st3;" d="M42.709,25.953v4.25"/>
	<path style="&st0;&st1;&st2;&st3;" d="M8.715,6.564v4.396"/>
	<path style="&st0;&st1;&st2;&st3;" d="M2.767,15.613h2"/>
	<path style="&st0;&st1;&st2;&st3;" d="M0.5,21.278v-3.399"/>
	<path style="&st0;&st1;&st2;&st3;" d="M1.916,23.38v6.822"/>
	<path style="&st0;&st1;&st4;&st2;&st3;" d="M30.104,6.264v6.119"/>
	<path style="&st0;&st1;&st4;&st2;&st3;" d="M14.522,6.264v6.119"/>
	<path style="&st0;&st1;&st4;&st2;&st3;" d="M13.248,6.264h18.13"/>
	<path style="&st0;&st1;&st4;&st2;&st3;" d="M26.563,8.531v3.733"/>
	<path style="&st0;&st1;&st4;&st2;&st3;" d="M18.064,8.531v3.733"/>
	<path style="&st0;&st1;&st4;&st2;&st3;" d="M14.522,8.531h15.581"/>
	<path style="&st0;&st1;&st4;&st2;&st3;" d="M35.568,38.998c1.277-7.608,1.277-14.233,0-21.841"/>
	<path style="&st0;&st1;&st4;&st2;&st3;" d="M9.058,17.157c-1.277,7.608-1.277,14.233,0,21.841"/>
	<path style="&st0;&st1;&st4;&st2;&st3;" d="M11.681,41.355c7.467,0.448,13.796,0.448,21.263,0"/>
	<path style="&st0;&st1;&st4;&st2;&st3;" d="M32.944,14.8c-7.467-0.449-13.796-0.449-21.263,0"/>
	<path style="&st0;&st1;&st4;&st2;&st3;" d="M11.528,43.618c7.562,0.455,13.971,0.456,21.533,0.002"/>
	<path style="&st0;&st1;&st4;&st2;&st3;" d="M37.8,39.377c1.321-7.868,1.322-14.718,0.002-22.586"/>
	<path style="&st0;&st1;&st4;&st2;&st3;" d="M32.848,5.292c-6.895-3.355-14.176-3.355-21.071,0"/>
	<path style="&st0;&st1;&st4;&st2;&st3;" d="M4.891,25.245c-0.391,0-0.708,0.317-0.708,0.708"/>
	<path style="&st0;&st1;&st4;&st2;&st3;" d="M4.183,30.202c0,0.391,0.317,0.708,0.708,0.708"/>
	<path style="&st0;&st1;&st4;&st2;&st3;" d="M40.443,25.953c0-0.391-0.317-0.708-0.708-0.708"/>
	<path style="&st0;&st1;&st4;&st2;&st3;" d="M39.735,30.91c0.392,0,0.708-0.317,0.708-0.708"/>
	<path style="&st0;&st1;&st4;&st2;&st3;" d="M6.148,22.049c-0.54,6.096-0.336,11.311,0.678,17.346"/>
	<path style="&st0;&st1;&st4;&st2;&st3;" d="M3.616,17.879c-0.469,0-0.85,0.38-0.85,0.85"/>
	<path style="&st0;&st1;&st4;&st2;&st3;" d="M2.767,20.429c0,0.469,0.38,0.85,0.85,0.85"/>
	<path style="&st0;&st1;&st2;&st3;" d="M33.84,3.253c-7.543-3.67-15.51-3.67-23.054,0"/>
	<path style="&st0;&st1;&st2;&st3;" d="M40.032,39.771c0.334-1.983,0.547-3.668,0.719-5.672"/>
	<path style="&st0;&st1;&st2;&st3;" d="M42.709,25.953c0-0.937-0.384-1.737-1.116-2.323"/>
	<path style="&st0;&st1;&st2;&st3;" d="M41.593,32.525c0.732-0.585,1.117-1.386,1.117-2.323"/>
	<path style="&st0;&st1;&st2;&st3;" d="M11.378,45.879c7.658,0.461,14.149,0.462,21.808,0.004"/>
	<path style="&st0;&st1;&st2;&st3;" d="M1.916,30.202c0,0.937,0.385,1.737,1.117,2.322"/>
	<path style="&st0;&st1;&st2;&st3;" d="M3.874,34.1c0.17,1.982,0.381,3.65,0.709,5.612"/>
	<path style="&st0;&st1;&st2;&st3;" d="M2.767,15.613c-1.252,0-2.267,1.015-2.267,2.266"/>
	<path style="&st0;&st1;&st2;&st3;" d="M0.5,21.278c0,0.945,0.54,1.747,1.417,2.101"/>
	<path style="&st0;&st1;&st2;&st3;" d="M3.874,34.1c-0.055-0.643-0.336-1.172-0.84-1.576"/>
	<path style="&st0;&st1;&st2;&st3;" d="M40.752,22.055c-0.17-1.985-0.381-3.655-0.71-5.621"/>
	<path style="&st0;&st1;&st2;&st3;" d="M41.593,32.525c-0.503,0.403-0.786,0.932-0.84,1.575"/>
	<path style="&st0;&st1;&st2;&st3;" d="M40.752,22.055c0.055,0.643,0.337,1.172,0.841,1.576"/>
	<path style="&st0;&st1;&st4;&st2;&st3;" d="M33.061,12.536c-7.562-0.453-13.971-0.453-21.532,0.002"/>
	<path style="&st0;&st1;&st4;&st2;&st3;" d="M29.522,5.46c-4.891-1.642-9.528-1.642-14.419,0"/>
	<path style="&st0;&st1;&st4;&st2;&st3;" d="M32.942,41.355c1.337-0.079,2.403-1.037,2.626-2.357"/>
	<path style="&st0;&st1;&st4;&st2;&st3;" d="M11.681,14.8c-1.335,0.08-2.4,1.037-2.623,2.357"/>
	<path style="&st0;&st1;&st4;&st2;&st3;" d="M35.568,17.157c-0.222-1.321-1.289-2.278-2.626-2.357"/>
	<path style="&st0;&st1;&st4;&st2;&st3;" d="M9.058,38.998c0.222,1.32,1.287,2.277,2.623,2.357"/>
	<path style="&st0;&st1;&st4;&st2;&st3;" d="M6.829,39.395c0.407,2.36,2.31,4.068,4.7,4.22"/>
	<path style="&st0;&st1;&st2;&st3;" d="M4.582,39.712c0.56,3.438,3.32,5.942,6.796,6.166"/>
	<path style="&st0;&st1;&st4;&st2;&st3;" d="M33.061,43.618c2.412-0.135,4.339-1.859,4.741-4.24"/>
	<path style="&st0;&st1;&st2;&st3;" d="M33.186,45.882c3.479-0.194,6.261-2.676,6.849-6.11"/>
	<path style="&st0;&st1;&st4;&st2;&st3;" d="M37.803,16.791c-0.396-2.387-2.326-4.118-4.742-4.253"/>
	<path style="&st0;&st1;&st2;&st3;" d="M40.041,16.434c-0.406-2.474-1.863-4.403-4.131-5.47"/>
	<path style="&st0;&st1;&st4;&st2;&st3;" d="M11.528,12.536c-2.558,0.162-4.562,2.136-4.762,4.691"/>
	<path style="&st0;&st1;&st2;&st3;" d="M8.715,10.961c-2.001,0.942-3.345,2.524-3.95,4.651"/>
	<path style="&st0;&st1;&st4;&st2;&st3;" d="M10.064,12.851c0.564-0.212,0.917-0.723,0.917-1.326"/>
	<path style="&st0;&st1;&st4;&st2;&st3;" d="M33.645,11.525c0,0.603,0.353,1.113,0.918,1.326"/>
	<path style="&st0;&st1;&st4;&st2;&st3;" d="M15.104,5.46c-0.353,0.118-0.579,0.432-0.579,0.804"/>
	<path style="&st0;&st1;&st4;&st2;&st3;" d="M30.104,6.264c0-0.373-0.227-0.688-0.581-0.806"/>
	<path style="&st0;&st1;&st4;&st2;&st3;" d="M32.228,7.114c0-0.47-0.38-0.85-0.85-0.85"/>
	<path style="&st0;&st1;&st4;&st2;&st3;" d="M13.248,6.264c-0.469,0-0.85,0.38-0.85,0.85"/>
	<path style="&st0;&st1;&st4;&st2;&st3;" d="M33.645,6.564c0-0.556-0.296-1.029-0.796-1.273"/>
	<path style="&st0;&st1;&st4;&st2;&st3;" d="M11.777,5.292c-0.5,0.244-0.795,0.716-0.795,1.272"/>
	<path style="&st0;&st1;&st2;&st3;" d="M35.911,6.564c0-1.447-0.77-2.678-2.071-3.311"/>
	<path style="&st0;&st1;&st2;&st3;" d="M10.786,3.253C9.485,3.886,8.715,5.117,8.715,6.564"/>
	<path style="&st0;&st1;&st4;&st2;&st3;" d="M6.148,22.049c0.035-0.39-0.253-0.733-0.643-0.768"/>
	<path style="&st0;&st1;&st4;&st2;&st3;" d="M5.506,21.281c-0.022-0.002-0.041-0.003-0.063-0.003"/>
	<path style="&st0;&st1;&st4;&st2;&st3;" d="M6.064,17.879c0.371,0,0.676-0.281,0.706-0.651"/>
	<path style="&st0;&st1;&st4;&st2;&st3;" d="M12.398,7.114v0.566h-1.417"/>
	<path style="&st0;&st1;&st4;&st2;&st3;" d="M33.645,7.681h-1.417V7.114"/>
	<g ewd:pinNo="2">
		<text transform="matrix(1 0 0 1 27.2417 23.6167)"><tspan x="0" y="0" style="&st6; &st5;">2</tspan></text>
	</g>
	<g ewd:pinNo="1">
		<text transform="matrix(1 0 0 1 14.1792 23.6167)"><tspan x="0" y="0" style="&st6; &st5;">1</tspan></text>
	</g>
	<g ewd:pinNo="3">
		<text transform="matrix(1 0 0 1 14.1792 35.5654)"><tspan x="0" y="0" style="&st6; &st5;">3</tspan></text>
	</g>
	<g ewd:pinNo="4">
		<text transform="matrix(1 0 0 1 27.2417 35.5654)"><tspan x="0" y="0" style="&st6; &st5;">4</tspan></text>
	</g>
</g>
<g id="レイヤー_1" transform="translate(63.051,17.008)">
	<path style="&st0;&st1;&st4;&st2;&st3;" d="M4.466,25.795h28.329"/>
	<path style="&st0;&st1;&st4;&st2;&st3;" d="M18.63,12.198v24.362"/>
	<path style="&st0;&st1;&st2;&st3;" d="M36.761,23.671v4.25"/>
	<path style="&st0;&st1;&st2;&st3;" d="M0.5,23.671v4.25"/>
	<path style="&st0;&st1;&st2;&st3;" d="M7.299,45.909h22.663"/>
	<path style="&st0;&st1;&st4;&st2;&st3;" d="M10.415,9.932h16.431"/>
	<path style="&st0;&st1;&st2;&st3;" d="M32.794,39.521v3.555"/>
	<path style="&st0;&st1;&st2;&st3;" d="M4.466,39.521v3.555"/>
	<path style="&st0;&st1;&st2;&st3;" d="M1.208,22.963h0.374"/>
	<path style="&st0;&st1;&st2;&st3;" d="M1.208,28.628h0.374"/>
	<path style="&st0;&st1;&st2;&st3;" d="M35.678,22.963h0.374"/>
	<path style="&st0;&st1;&st2;&st3;" d="M35.678,28.628h0.374"/>
	<path style="&st0;&st1;&st2;&st3;" d="M7.299,4.821v4.932"/>
	<path style="&st0;&st1;&st2;&st3;" d="M29.961,4.821v4.932"/>
	<path style="&st0;&st1;&st4;&st2;&st3;" d="M9.565,5.116v3.966"/>
	<path style="&st0;&st1;&st4;&st2;&st3;" d="M27.695,5.116v3.966"/>
	<path style="&st0;&st1;&st4;&st2;&st3;" d="M8.18,4.266h0.536"/>
	<path style="&st0;&st1;&st4;&st2;&st3;" d="M28.545,4.266h0.535"/>
	<path style="&st0;&st1;&st4;&st2;&st3;" d="M5.364,36.561h26.532"/>
	<path style="&st0;&st1;&st4;&st2;&st3;" d="M21.463,41.637v2.147"/>
	<path style="&st0;&st1;&st4;&st2;&st3;" d="M15.797,41.637v2.147"/>
	<path style="&st0;&st1;&st4;&st2;&st3;" d="M5.299,15.345c-1.169,7.287-1.169,13.614,0,20.901"/>
	<path style="&st0;&st1;&st4;&st2;&st3;" d="M31.961,36.246c1.169-7.287,1.169-13.614,0-20.901"/>
	<path style="&st0;&st1;&st4;&st2;&st3;" d="M8.46,39.102c7.143,0.41,13.196,0.41,20.34,0"/>
	<path style="&st0;&st1;&st4;&st2;&st3;" d="M28.8,12.49c-7.144-0.411-13.197-0.411-20.34,0"/>
	<path style="&st0;&st1;&st4;&st2;&st3;" d="M31.961,15.345c-0.256-1.598-1.545-2.763-3.161-2.856"/>
	<path style="&st0;&st1;&st4;&st2;&st3;" d="M8.46,12.49c-1.616,0.093-2.905,1.257-3.161,2.855"/>
	<path style="&st0;&st1;&st4;&st2;&st3;" d="M5.299,36.246c0.256,1.599,1.545,2.763,3.162,2.856"/>
	<path style="&st0;&st1;&st4;&st2;&st3;" d="M28.8,39.102c1.616-0.093,2.905-1.257,3.161-2.855"/>
	<path style="&st0;&st1;&st2;&st3;" d="M34.2,36.606c0.409-2.552,0.639-4.725,0.771-7.306"/>
	<path style="&st0;&st1;&st4;&st2;&st3;" d="M28.931,41.365c1.541-0.089,2.826-0.702,3.865-1.843"/>
	<path style="&st0;&st1;&st4;&st2;&st3;" d="M8.33,41.365c7.235,0.416,13.366,0.416,20.601,0"/>
	<path style="&st0;&st1;&st2;&st3;" d="M3.061,36.606c0.183,1.139,0.627,2.063,1.404,2.916"/>
	<path style="&st0;&st1;&st2;&st3;" d="M3.061,14.985c-0.409,2.552-0.639,4.725-0.771,7.306"/>
	<path style="&st0;&st1;&st2;&st3;" d="M6.738,10.552c-1.999,0.719-3.34,2.336-3.676,4.434"/>
	<path style="&st0;&st1;&st2;&st3;" d="M34.236,15.252c-0.247-2.206-1.625-3.95-3.713-4.701"/>
	<path style="&st0;&st1;&st2;&st3;" d="M4.466,43.076c0,1.564,1.268,2.833,2.833,2.833"/>
	<path style="&st0;&st1;&st2;&st3;" d="M29.961,45.909c1.565,0,2.833-1.269,2.833-2.833"/>
	<path style="&st0;&st1;&st2;&st3;" d="M28.636,2.762c-6.6-3.015-13.412-3.015-20.011,0"/>
	<path style="&st0;&st1;&st2;&st3;" d="M8.625,2.762c-0.827,0.378-1.324,1.15-1.324,2.06"/>
	<path style="&st0;&st1;&st2;&st3;" d="M29.961,4.821c0-0.91-0.497-1.684-1.325-2.062"/>
	<path style="&st0;&st1;&st2;&st3;" d="M6.738,10.552c0.344-0.124,0.561-0.433,0.561-0.798"/>
	<path style="&st0;&st1;&st2;&st3;" d="M29.961,9.753c0,0.366,0.217,0.675,0.561,0.799"/>
	<path style="&st0;&st1;&st4;&st2;&st3;" d="M9.565,9.082c0,0.469,0.381,0.85,0.85,0.85"/>
	<path style="&st0;&st1;&st4;&st2;&st3;" d="M26.846,9.932c0.469,0,0.85-0.38,0.85-0.85"/>
	<path style="&st0;&st1;&st4;&st2;&st3;" d="M10.981,4.266c-0.782,0-1.417,0.635-1.417,1.417"/>
	<path style="&st0;&st1;&st4;&st2;&st3;" d="M27.695,5.683c0-0.782-0.634-1.417-1.417-1.417"/>
	<path style="&st0;&st1;&st4;&st2;&st3;" d="M28.545,4.266c-0.47,0-0.85,0.381-0.85,0.85"/>
	<path style="&st0;&st1;&st4;&st2;&st3;" d="M9.565,5.116c0-0.469-0.38-0.85-0.85-0.85"/>
	<path style="&st0;&st1;&st4;&st2;&st3;" d="M8.18,4.266c-0.469,0-0.85,0.381-0.85,0.85"/>
	<path style="&st0;&st1;&st4;&st2;&st3;" d="M7.33,5.116c0,0.063,0.006,0.115,0.019,0.175"/>
	<path style="&st0;&st1;&st4;&st2;&st3;" d="M29.914,5.292c0.097-0.46-0.197-0.912-0.657-1.009"/>
	<path style="&st0;&st1;&st4;&st2;&st3;" d="M29.256,4.283c-0.061-0.013-0.113-0.018-0.176-0.018"/>
	<path style="&st0;&st1;&st4;&st2;&st3;" d="M34.228,15.164c-0.01-0.063-0.019-0.116-0.028-0.179"/>
	<path style="&st0;&st1;&st2;&st3;" d="M34.236,15.252c0.041,0.36,0.34,0.627,0.703,0.627"/>
	<path style="&st0;&st1;&st2;&st3;" d="M35.475,18.713c-0.391,0-0.708,0.317-0.708,0.708"/>
	<path style="&st0;&st1;&st2;&st3;" d="M34.766,19.422c0,0.023,0.001,0.042,0.003,0.065"/>
	<path style="&st0;&st1;&st2;&st3;" d="M36.761,23.671c0-0.391-0.317-0.708-0.708-0.708"/>
	<path style="&st0;&st1;&st2;&st3;" d="M36.052,28.628c0.391,0,0.708-0.317,0.708-0.708"/>
	<path style="&st0;&st1;&st2;&st3;" d="M1.208,22.963c-0.391,0-0.708,0.317-0.708,0.708"/>
	<path style="&st0;&st1;&st2;&st3;" d="M0.5,27.92c0,0.391,0.317,0.708,0.708,0.708"/>
	<path style="&st0;&st1;&st2;&st3;" d="M1.582,22.963c0.378,0,0.688-0.294,0.708-0.671"/>
	<path style="&st0;&st1;&st2;&st3;" d="M2.291,29.3c-0.02-0.378-0.33-0.672-0.708-0.672"/>
	<path style="&st0;&st1;&st2;&st3;" d="M35.678,28.628c-0.378,0-0.688,0.294-0.707,0.671"/>
	<path style="&st0;&st1;&st2;&st3;" d="M34.97,22.292c0.02,0.378,0.33,0.672,0.708,0.672"/>
	<path style="&st0;&st1;&st4;&st2;&st3;" d="M2.291,22.292c-0.126,2.462-0.126,4.546,0,7.008"/>
	<path style="&st0;&st1;&st2;&st3;" d="M2.291,29.3c0.133,2.581,0.362,4.754,0.771,7.306"/>
	<path style="&st0;&st1;&st2;&st3;" d="M34.97,22.292c-0.051-0.987-0.111-1.82-0.202-2.805"/>
	<path style="&st0;&st1;&st4;&st2;&st3;" d="M34.97,29.3c0.126-2.462,0.126-4.546,0-7.008"/>
	<path style="&st0;&st1;&st4;&st2;&st3;" d="M4.466,39.521c1.039,1.142,2.323,1.754,3.864,1.843"/>
	<path style="&st0;&st1;&st2;&st3;" d="M32.794,39.521c0.776-0.854,1.221-1.776,1.404-2.916"/>
	<path style="&st0;&st1;&st4;&st2;&st3;" d="M10.132,45.909v-2.125h16.997v2.125"/>
	<path style="&st0;&st1;&st4;&st2;&st3;" d="M26.279,4.266h-3.966v1.559l-0.708,0.708h-5.949l-0.708-0.708V4.266h-3.966"/>
	<path style="&st0;&st1;&st2;&st3;" d="M35.475,18.713h2.419v-2.833h-2.955"/>
	<g ewd:pinNo="2">
		<text transform="matrix(1 0 0 1 10.2471 21.4561)"><tspan x="0" y="0" style="&st6; &st5;">2</tspan></text>
	</g>
	<g ewd:pinNo="1">
		<text transform="matrix(1 0 0 1 23.6436 21.4561)"><tspan x="0" y="0" style="&st6; &st5;">1</tspan></text>
	</g>
	<g ewd:pinNo="3">
		<text transform="matrix(1 0 0 1 23.8613 33.4053)"><tspan x="0" y="0" style="&st6; &st5;">3</tspan></text>
	</g>
	<g ewd:pinNo="4">
		<text transform="matrix(1 0 0 1 10.0288 33.4053)"><tspan x="0" y="0" style="&st6; &st5;">4</tspan></text>
	</g>
</g>
<path d="M21.605,9.069v-8.504h60.643v8.504" style="&st0;&st1;&st7;&st2;&st3;"/>
</svg>