﻿<?xml version="1.0"?>
<!-- Generator: Adobe Illustrator 10.0, SVG Export Plug-In . SVG Version: 3.0.0 Build 77)  -->
<!DOCTYPE svg PUBLIC "-//W3C//DTD SVG 1.0//EN" "http://www.w3.org/TR/2001/REC-SVG-20010904/DTD/svg10.dtd"[
	<!ENTITY ns_flows "http://ns.adobe.com/Flows/1.0/">
	<!ENTITY ns_svg "http://www.w3.org/2000/svg">
	<!ENTITY ns_xlink "http://www.w3.org/1999/xlink">
	<!ENTITY st0 "fill:none;stroke:#000000;stroke-linecap:round;stroke-linejoin:round;">
	<!ENTITY st1 "fill:none;stroke:#000000;stroke-width:0.6;stroke-linecap:round;stroke-linejoin:round;">
	<!ENTITY st2 "font-size:6px;">
	<!ENTITY st3 "font-family:'Arial';">
	<!ATTLIST svg
		ewd:ver CDATA #IMPLIED
		xmlns:ewd CDATA #FIXED "http://shcl.co.jp/ewd"
		xmlns:a CDATA #FIXED "http://ns.adobe.com/AdobeSVGViewerExtensions/3.0/">
	<!ATTLIST g
		ewd:pinNo CDATA #IMPLIED>
]>
<svg width="77.944" height="49.952" viewBox="0 0 77.944 49.952" style="overflow:visible;enable-background:new 0 0 77.944 49.952" xml:space="preserve" onload="call_execInitLoadProc_svg('connector')" ewd:ver="L2.1.2.7" xmlns="&ns_svg;" xmlns:ewd="http://shcl.co.jp/ewd" xmlns:a="http://ns.adobe.com/AdobeSVGViewerExtensions/3.0/" xmlns:xlink="&ns_xlink;">
<script type="text/javascript" xlink:href="../../../../../system/js/ewd/fig/svgfig.js"/>
<g id="レイヤー_1">
	<path style="&st1;" d="M64.767,29.293c0.499-0.498,0.749-1.1,0.749-1.805"/>
	<path style="&st1;" d="M18.348,8.149c-6.336,0-11.473,5.137-11.473,11.473"/>
	<path style="&st0;" d="M76.101,37.557c0.884-0.754,1.342-1.747,1.342-2.909"/>
	<path style="&st1;" d="M59.65,40.019c4.224,0,7.649-3.424,7.649-7.648"/>
	<path style="&st1;" d="M71.124,19.622c0-6.336-5.137-11.473-11.473-11.473"/>
	<path style="&st1;" d="M6.875,32.37c0,6.336,5.137,11.473,11.473,11.473"/>
	<path style="&st1;" d="M10.699,32.37c0,4.224,3.424,7.648,7.649,7.648"/>
	<path style="&st1;" d="M13.249,32.37c0,2.816,2.283,5.099,5.099,5.099"/>
	<path style="&st1;" d="M59.141,37.469c2.816,0,5.099-2.283,5.099-5.099"/>
	<path style="&st1;" d="M18.348,14.523c-2.816,0-5.099,2.283-5.099,5.099"/>
	<path style="&st1;" d="M67.299,19.622c0-4.224-3.425-7.648-7.649-7.648"/>
	<path style="&st1;" d="M65.515,20.679c0-0.705-0.25-1.306-0.748-1.804"/>
	<path style="&st1;" d="M59.65,43.843c6.336,0,11.473-5.137,11.473-11.473"/>
	<path style="&st1;" d="M64.24,19.622c0-2.816-2.283-5.099-5.099-5.099"/>
	<path style="&st1;" d="M18.348,11.974c-4.225,0-7.649,3.424-7.649,7.648"/>
	<path style="&st1;" d="M49.58,2.285c0-0.986-0.799-1.785-1.785-1.785"/>
	<path style="&st0;" d="M18.348,4.325c-8.449,0-15.298,6.849-15.298,15.297"/>
	<path style="&st1;" d="M29.693,4.325c-0.985,0-1.785,0.799-1.785,1.785"/>
	<path style="&st0;" d="M3.104,33.639c0.664,7.973,7.243,14.027,15.244,14.027"/>
	<path style="&st1;" d="M47.03,6.109c0-0.986-0.799-1.785-1.785-1.785"/>
	<path style="&st0;" d="M1.249,23.974C0.75,24.471,0.5,25.073,0.5,25.778"/>
	<path style="&st0;" d="M0.5,30.039c0,0.705,0.25,1.306,0.748,1.804"/>
	<path style="&st0;" d="M77.444,15.764c0-0.812-0.337-1.504-0.975-2.005"/>
	<path style="&st1;" d="M27.144,0.5c-0.986,0-1.785,0.799-1.785,1.785"/>
	<path style="&st0;" d="M58.605,47.667c3.796,0,7.034-1.193,9.923-3.655"/>
	<path style="&st0;" d="M68.614,7.591c-2.816-2.211-5.867-3.266-9.448-3.266"/>
	<path style="&st0;" d="M56.591,1.775c0-0.704-0.57-1.275-1.274-1.275"/>
	<path style="&st0;" d="M19.622,0.5c-0.704,0-1.274,0.571-1.274,1.275"/>
	<path style="&st1;" d="M64.24,29.82l0.527-0.527"/>
	<path style="&st1;" d="M18.348,11.974H59.65"/>
	<path style="&st1;" d="M65.515,20.679v6.81"/>
	<path style="&st1;" d="M18.348,40.019H59.65"/>
	<path style="&st1;" d="M6.875,19.622V32.37"/>
	<path style="&st1;" d="M13.249,19.622V32.37"/>
	<path style="&st0;" d="M1.249,23.974l1.801-1.802v-2.55"/>
	<path style="&st1;" d="M25.359,4.325v-2.04"/>
	<path style="&st1;" d="M18.348,22.172v7.648h38.243v-7.648H18.348"/>
	<path style="&st1;" d="M25.996,29.82v-7.648"/>
	<path style="&st1;" d="M33.645,29.82v-7.648"/>
	<path style="&st1;" d="M41.293,29.82v-7.648"/>
	<path style="&st1;" d="M48.942,29.82v-7.648"/>
	<path style="&st1;" d="M18.348,14.523h40.793"/>
	<path style="&st1;" d="M71.124,19.622V32.37"/>
	<path style="&st1;" d="M18.348,43.843h18.867"/>
	<path style="&st1;" d="M64.013,18.121l0.753,0.753"/>
	<path style="&st1;" d="M18.348,37.469h40.793"/>
	<path style="&st1;" d="M37.214,43.843v3.06h3.569v-3.06"/>
	<path style="&st1;" d="M13.249,22.172h2.549v-6.966"/>
	<path style="&st1;" d="M67.299,19.622V32.37"/>
	<path style="&st1;" d="M64.24,28.545v3.825"/>
	<path style="&st1;" d="M42.568,11.974V4.325"/>
	<path style="&st1;" d="M64.24,19.622h-5.099v8.923h5.099"/>
	<path style="&st0;" d="M1.249,31.843l1.801,1.802"/>
	<path style="&st1;" d="M6.875,25.996H3.05v3.825h3.825"/>
	<path style="&st1;" d="M49.58,4.325h7.011"/>
	<path style="&st1;" d="M10.699,19.622V32.37"/>
	<path style="&st1;" d="M40.784,43.843H59.65"/>
	<path style="&st1;" d="M32.37,8.914h10.198"/>
	<path style="&st0;" d="M68.614,7.591l7.855,6.167"/>
	<path style="&st1;" d="M29.693,0.5v1.275h15.553V0.5"/>
	<path style="&st1;" d="M71.124,25.996h3.825v3.825h-3.825"/>
	<path style="&st0;" d="M0.5,30.039v-4.261"/>
	<path style="&st1;" d="M18.348,8.149h9.561"/>
	<path style="&st0;" d="M18.348,1.775v2.55"/>
	<path style="&st0;" d="M45.118,47.667h13.487"/>
	<path style="&st0;" d="M18.348,47.667H32.88"/>
	<path style="&st0;" d="M32.88,47.667l1.785,1.785h8.668l1.785-1.785"/>
	<path style="&st0;" d="M77.444,34.647V15.764"/>
	<path style="&st1;" d="M32.37,11.974V4.325"/>
	<path style="&st1;" d="M18.348,4.325h7.011"/>
	<path style="&st0;" d="M68.529,44.013l7.572-6.456"/>
	<path style="&st1;" d="M29.693,4.325h15.553"/>
	<path style="&st1;" d="M49.58,4.325v-2.04"/>
	<path style="&st0;" d="M56.591,4.325h2.575"/>
	<path style="&st0;" d="M19.622,0.5h35.694"/>
	<path style="&st1;" d="M27.908,8.149v-2.04"/>
	<path style="&st1;" d="M47.03,8.149h12.62"/>
	<path style="&st1;" d="M32.37,6.237h10.198"/>
	<path style="&st1;" d="M47.03,8.149v-2.04"/>
	<path style="&st0;" d="M56.591,1.775v2.55"/>
	<g ewd:pinNo="1">
		<text transform="matrix(1 0 0 1 20.522 28.127)"><tspan x="0" y="0" style="&st3; &st2;">1</tspan></text>
	</g>
	<g ewd:pinNo="2">
		<text transform="matrix(1 0 0 1 28.1978 28.127)"><tspan x="0" y="0" style="&st3; &st2;">2</tspan></text>
	</g>
	<g ewd:pinNo="3">
		<text transform="matrix(1 0 0 1 35.8735 28.127)"><tspan x="0" y="0" style="&st3; &st2;">3</tspan></text>
	</g>
	<g ewd:pinNo="4">
		<text transform="matrix(1 0 0 1 43.5498 28.127)"><tspan x="0" y="0" style="&st3; &st2;">4</tspan></text>
	</g>
	<g ewd:pinNo="5">
		<text transform="matrix(1 0 0 1 51.2256 28.127)"><tspan x="0" y="0" style="&st3; &st2;">5</tspan></text>
	</g>
</g>
</svg>