﻿<?xml version="1.0"?>
<!-- Generator: Adobe Illustrator 10.0, SVG Export Plug-In . SVG Version: 3.0.0 Build 77)  -->
<!DOCTYPE svg PUBLIC "-//W3C//DTD SVG 1.0//EN" "http://www.w3.org/TR/2001/REC-SVG-20010904/DTD/svg10.dtd"[
	<!ENTITY ns_flows "http://ns.adobe.com/Flows/1.0/">
	<!ENTITY ns_svg "http://www.w3.org/2000/svg">
	<!ENTITY ns_xlink "http://www.w3.org/1999/xlink">
	<!ENTITY st0 "fill:none;stroke:#000000;stroke-linecap:round;stroke-linejoin:round;">
	<!ENTITY st1 "fill:none;stroke:#000000;stroke-width:0.6;stroke-linecap:round;stroke-linejoin:round;">
	<!ENTITY st2 "font-size:6px;">
	<!ENTITY st3 "font-family:'Arial';">
	<!ATTLIST svg
		ewd:ver CDATA #IMPLIED
		xmlns:ewd CDATA #FIXED "http://shcl.co.jp/ewd"
		xmlns:a CDATA #FIXED "http://ns.adobe.com/AdobeSVGViewerExtensions/3.0/">
	<!ATTLIST g
		ewd:pinNo CDATA #IMPLIED>
]>
<svg width="85.592" height="57.601" viewBox="0 0 85.592 57.601" style="overflow:visible;enable-background:new 0 0 85.592 57.601" xml:space="preserve" onload="call_execInitLoadProc_svg('connector')" ewd:ver="L2.1.2.7" xmlns="&ns_svg;" xmlns:ewd="http://shcl.co.jp/ewd" xmlns:a="http://ns.adobe.com/AdobeSVGViewerExtensions/3.0/" xmlns:xlink="&ns_xlink;">
<script type="text/javascript" xlink:href="../../../../../system/js/ewd/fig/svgfig.js"/>
<g id="レイヤー_1">
	<path style="&st1;" d="M72.416,35.03c0.499-0.498,0.748-1.1,0.748-1.804"/>
	<path style="&st1;" d="M18.348,8.149c-6.336,0-11.473,5.137-11.473,11.473"/>
	<path style="&st0;" d="M83.75,45.206c0.884-0.754,1.342-1.747,1.342-2.909"/>
	<path style="&st1;" d="M67.299,47.667c4.224,0,7.649-3.425,7.649-7.649"/>
	<path style="&st1;" d="M78.772,19.622c0-6.336-5.137-11.473-11.473-11.473"/>
	<path style="&st1;" d="M6.875,40.019c0,6.336,5.137,11.473,11.473,11.473"/>
	<path style="&st1;" d="M10.699,40.019c0,4.224,3.424,7.649,7.649,7.649"/>
	<path style="&st1;" d="M13.249,40.019c0,2.816,2.283,5.099,5.099,5.099"/>
	<path style="&st1;" d="M66.79,45.118c2.816,0,5.099-2.283,5.099-5.099"/>
	<path style="&st1;" d="M18.348,14.523c-2.816,0-5.099,2.283-5.099,5.099"/>
	<path style="&st1;" d="M74.948,19.622c0-4.224-3.425-7.648-7.649-7.648"/>
	<path style="&st1;" d="M73.163,26.415c0-0.705-0.25-1.306-0.748-1.804"/>
	<path style="&st1;" d="M67.299,51.492c6.237,0,11.315-4.955,11.47-11.19"/>
	<path style="&st1;" d="M71.889,19.622c0-2.816-2.283-5.099-5.099-5.099"/>
	<path style="&st1;" d="M18.348,11.974c-4.225,0-7.649,3.424-7.649,7.648"/>
	<path style="&st1;" d="M57.229,2.285c0-0.986-0.799-1.785-1.785-1.785"/>
	<path style="&st0;" d="M18.348,4.325c-8.449,0-15.298,6.849-15.298,15.297"/>
	<path style="&st1;" d="M29.693,4.325c-0.985,0-1.785,0.799-1.785,1.785"/>
	<path style="&st0;" d="M3.104,41.288c0.664,7.974,7.243,14.027,15.244,14.027"/>
	<path style="&st1;" d="M54.679,6.109c0-0.986-0.799-1.785-1.785-1.785"/>
	<path style="&st0;" d="M1.249,23.124C0.75,23.621,0.5,24.223,0.5,24.928"/>
	<path style="&st0;" d="M0.5,29.188c0,0.705,0.25,1.307,0.748,1.804"/>
	<path style="&st0;" d="M85.092,15.764c0-0.812-0.336-1.504-0.975-2.005"/>
	<path style="&st1;" d="M27.144,0.5c-0.986,0-1.785,0.799-1.785,1.785"/>
	<path style="&st0;" d="M66.254,55.316c3.796,0,7.034-1.192,9.923-3.655"/>
	<path style="&st0;" d="M76.262,7.591c-2.816-2.211-5.867-3.266-9.447-3.266"/>
	<path style="&st0;" d="M64.24,1.775c0-0.704-0.571-1.275-1.275-1.275"/>
	<path style="&st0;" d="M19.622,0.5c-0.704,0-1.274,0.571-1.274,1.275"/>
	<path style="&st1;" d="M35.543,56.271c0.553,0.553,1.221,0.83,2.003,0.83"/>
	<path style="&st0;" d="M52.529,57.101c0.782,0,1.45-0.276,2.003-0.83"/>
	<path style="&st1;" d="M45.042,57.101c0.782,0,1.45-0.276,2.003-0.83"/>
	<path style="&st0;" d="M28.056,56.271c0.553,0.553,1.221,0.83,2.003,0.83"/>
	<path style="&st1;" d="M71.889,35.557l0.527-0.527"/>
	<path style="&st1;" d="M18.348,11.974h48.952"/>
	<path style="&st1;" d="M73.163,26.415v6.811"/>
	<path style="&st1;" d="M18.348,47.667h48.952"/>
	<path style="&st1;" d="M13.249,19.622v20.396"/>
	<path style="&st0;" d="M1.249,23.124l1.801-1.802v-1.7"/>
	<path style="&st1;" d="M25.359,4.325v-2.04"/>
	<path style="&st1;" d="M18.348,22.172v15.297H64.24V22.172H18.348"/>
	<path style="&st1;" d="M25.996,37.469V22.172"/>
	<path style="&st1;" d="M33.645,37.469V22.172"/>
	<path style="&st1;" d="M41.293,37.469V22.172"/>
	<path style="&st1;" d="M48.942,37.469V22.172"/>
	<path style="&st1;" d="M18.348,14.523H66.79"/>
	<path style="&st1;" d="M78.772,19.622v5.524"/>
	<path style="&st1;" d="M18.348,51.492h21.161"/>
	<path style="&st1;" d="M71.889,24.084l0.527,0.527"/>
	<path style="&st1;" d="M18.348,45.118H66.79"/>
	<path style="&st1;" d="M39.509,51.492v3.06h3.569v-3.06"/>
	<path style="&st1;" d="M13.249,34.07h2.549V15.206"/>
	<path style="&st1;" d="M74.948,19.622v20.396"/>
	<path style="&st1;" d="M71.889,34.282v5.736"/>
	<path style="&st1;" d="M50.217,11.974V4.325"/>
	<path style="&st1;" d="M71.889,25.358H66.79v8.924h5.099"/>
	<path style="&st0;" d="M1.249,30.993l1.801,1.802"/>
	<path style="&st1;" d="M6.875,25.146H3.05v3.824h3.825"/>
	<path style="&st1;" d="M57.229,4.325h7.011"/>
	<path style="&st1;" d="M10.699,19.622v20.396"/>
	<path style="&st1;" d="M43.078,51.492h24.221"/>
	<path style="&st1;" d="M32.37,8.914h17.847"/>
	<path style="&st0;" d="M76.262,7.591l7.855,6.167"/>
	<path style="&st1;" d="M29.693,0.5v1.275h23.201V0.5"/>
	<path style="&st1;" d="M78.772,25.146h3.824v3.824H78.77"/>
	<path style="&st0;" d="M0.5,29.188v-4.26"/>
	<path style="&st1;" d="M18.348,8.149h9.561"/>
	<path style="&st0;" d="M18.348,1.775v2.55"/>
	<path style="&st0;" d="M85.092,42.296V15.764"/>
	<path style="&st1;" d="M32.37,11.974V4.325"/>
	<path style="&st1;" d="M18.348,4.325h7.011"/>
	<path style="&st0;" d="M76.177,51.662l7.572-6.456"/>
	<path style="&st1;" d="M29.693,4.325h23.201"/>
	<path style="&st1;" d="M57.229,4.325v-2.04"/>
	<path style="&st0;" d="M64.24,4.325h2.575"/>
	<path style="&st0;" d="M19.622,0.5h43.343"/>
	<path style="&st1;" d="M27.908,8.149v-2.04"/>
	<path style="&st1;" d="M54.679,8.149h12.621"/>
	<path style="&st1;" d="M32.37,6.237h17.847"/>
	<path style="&st1;" d="M54.679,8.149v-2.04"/>
	<path style="&st0;" d="M64.24,1.775v2.55"/>
	<path style="&st1;" d="M27.908,8.149h4.462"/>
	<path style="&st1;" d="M30.138,8.149v3.825"/>
	<path style="&st1;" d="M52.449,8.149v3.825"/>
	<path style="&st1;" d="M54.679,8.149h-4.461"/>
	<path style="&st1;" d="M23.056,8.149v3.825"/>
	<path style="&st1;" d="M59.532,8.149v3.825"/>
	<path style="&st0;" d="M52.529,57.101h-22.47"/>
	<path style="&st1;" d="M34.588,55.316l0.955,0.955"/>
	<path style="&st0;" d="M54.532,56.271l0.955-0.955"/>
	<path style="&st1;" d="M47.999,55.316h7.487"/>
	<path style="&st0;" d="M55.486,55.316h10.768"/>
	<path style="&st1;" d="M47.999,55.316l-0.955,0.955"/>
	<path style="&st1;" d="M18.348,29.82H64.24"/>
	<path style="&st1;" d="M6.875,19.622v5.524"/>
	<path style="&st1;" d="M6.875,28.97v11.048"/>
	<path style="&st1;" d="M78.77,40.302V28.97"/>
	<path style="&st1;" d="M71.889,25.358v-5.736"/>
	<path style="&st1;" d="M56.591,37.469V22.172"/>
	<path style="&st0;" d="M28.056,56.271l-0.955-0.955"/>
	<path style="&st0;" d="M18.348,55.316h8.753"/>
	<path style="&st1;" d="M27.101,55.316h7.487"/>
	<path style="&st0;" d="M3.104,41.288L3.05,32.795"/>
	<g ewd:pinNo="1">
		<text transform="matrix(1 0 0 1 20.5557 28.186)"><tspan x="0" y="0" style="&st3; &st2;">1</tspan></text>
	</g>
	<g ewd:pinNo="2">
		<text transform="matrix(1 0 0 1 28.2041 28.186)"><tspan x="0" y="0" style="&st3; &st2;">2</tspan></text>
	</g>
	<g ewd:pinNo="3">
		<text transform="matrix(1 0 0 1 35.853 28.186)"><tspan x="0" y="0" style="&st3; &st2;">3</tspan></text>
	</g>
	<g ewd:pinNo="4">
		<text transform="matrix(1 0 0 1 43.5015 28.186)"><tspan x="0" y="0" style="&st3; &st2;">4</tspan></text>
	</g>
	<g ewd:pinNo="5">
		<text transform="matrix(1 0 0 1 51.1504 28.186)"><tspan x="0" y="0" style="&st3; &st2;">5</tspan></text>
	</g>
	<g ewd:pinNo="7">
		<text transform="matrix(1 0 0 1 20.5557 35.8345)"><tspan x="0" y="0" style="&st3; &st2;">7</tspan></text>
	</g>
	<g ewd:pinNo="8">
		<text transform="matrix(1 0 0 1 28.2041 35.8345)"><tspan x="0" y="0" style="&st3; &st2;">8</tspan></text>
	</g>
	<g ewd:pinNo="9">
		<text transform="matrix(1 0 0 1 35.853 35.8345)"><tspan x="0" y="0" style="&st3; &st2;">9</tspan></text>
	</g>
	<g ewd:pinNo="10">
		<text transform="matrix(1 0 0 1 41.6284 35.8345)"><tspan x="0" y="0" style="&st3; &st2;">10</tspan></text>
	</g>
	<g ewd:pinNo="11">
		<text transform="matrix(1 0 0 1 49.7671 35.8345)"><tspan x="0" y="0" style="&st3; &st2;">11</tspan></text>
	</g>
	<g ewd:pinNo="12">
		<text transform="matrix(1 0 0 1 56.9258 35.8345)"><tspan x="0" y="0" style="&st3; &st2;">12</tspan></text>
	</g>
	<g ewd:pinNo="6">
		<text transform="matrix(1 0 0 1 58.7988 28.186)"><tspan x="0" y="0" style="&st3; &st2;">6</tspan></text>
	</g>
</g>
</svg>